Time,CovertPackets,AllPackets,BitsSent,PacketInterval;GTSInterval
72.996992,1,2,2,5.056000,0
73.002048,2,3,4,0,7855.488000
80.857536,2,4,4,5.696000,0
80.863232,3,5,6,0,7858.624000
88.721856,3,6,6,5.696000,0
88.727552,4,7,8,5.056000,0
88.732608,5,8,10,0,7853.568000
96.586176,5,9,10,5.056000,0
96.591232,6,10,12,5.696000,0
96.596928,7,11,14,0,7853.568000
104.450496,7,12,14,6.336000,0
104.456832,8,13,16,0,7857.984000
112.314816,8,14,16,5.696000,0
112.320512,9,15,18,5.056000,0
112.325568,10,16,20,0,7853.568000
120.179136,10,17,20,5.696000,0
120.184832,11,18,22,0,7858.624000
128.043456,11,19,22,5.056000,0
128.048512,12,20,24,5.696000,0
128.054208,13,21,26,0,7853.568000
135.907776,13,22,26,5.056000,0
135.912832,14,23,28,0,7859.264000
143.772096,14,24,28,5.696000,0
143.777792,15,25,30,6.336000,0
143.784128,16,26,32,0,7852.288000
151.636416,16,27,32,6.336000,0
151.642752,17,28,34,0,7857.984000
159.500736,17,29,34,5.056000,0
159.505792,18,30,36,6.336000,0
159.512128,19,31,38,0,7852.928000
167.365056,19,32,38,4.416000,0
167.369472,20,33,40,0,7859.904000
175.229376,20,34,40,5.696000,0
175.235072,21,35,42,5.056000,0
175.240128,22,36,44,0,7853.568000
183.093696,22,37,44,5.696000,0
183.099392,23,38,46,0,7858.624000
190.958016,23,39,46,6.336000,0
190.964352,24,40,48,5.056000,0
190.969408,25,41,50,0,7852.928000
198.822336,25,42,50,5.056000,0
198.827392,26,43,52,0,7859.264000
206.686656,26,44,52,5.696000,0
206.692352,27,45,54,4.416000,0
206.696768,28,46,56,0,7854.208000
214.550976,28,47,56,5.056000,0
214.556032,29,48,58,5.056000,0
214.561088,30,49,60,0,7854.208000
222.415296,30,50,60,5.696000,0
222.420992,31,51,62,0,7858.624000
230.279616,31,52,62,4.416000,0
230.284032,32,53,64,0,7859.904000
238.143936,32,54,64,6.336000,0
238.150272,33,55,66,5.056000,0
238.155328,34,56,68,0,7852.928000
246.008256,34,57,68,5.696000,0
246.013952,35,58,70,4.416000,0
246.018368,36,59,72,0,7854.208000
253.872576,36,60,72,5.056000,0
253.877632,37,61,74,0,7859.264000
261.736896,37,62,74,5.056000,0
261.741952,38,63,76,5.696000,0
261.747648,39,64,78,0,7853.568000
269.601216,39,65,78,6.336000,0
269.607552,40,66,80,0,7857.984000
277.465536,40,67,80,6.336000,0
277.471872,41,68,82,4.416000,0
277.476288,42,69,84,