Time,CovertPackets,AllPackets,BitsSent,PacketInterval;GTSInterval
32.021248,1,150,2,7.424000,0
32.028672,2,225,4,8.064000,0
32.036736,3,300,6,8.064000,0
32.044800,4,375,8,7.424000,0
32.052224,5,450,10,7.424000,0
32.059648,6,525,12,8.064000,0
32.067712,7,600,14,0,1913.472000
33.981184,7,675,14,8.704000,0
33.989888,8,750,16,8.064000,0
33.997952,9,825,18,7.424000,0
34.005376,10,900,20,8.064000,0
34.013440,11,975,22,7.424000,0
34.020864,12,1050,24,8.064000,0
34.028928,13,1125,26,0,1918.336000
35.947264,13,1200,26,7.424000,0
35.954688,14,1275,28,8.064000,0
35.962752,15,1350,30,8.704000,0
35.971456,16,1425,32,8.704000,0
35.980160,17,1500,34,7.424000,0
35.987584,18,1575,36,8.704000,0
35.996288,19,1650,38,0,1917.056000
37.913344,19,1725,38,6.784000,0
37.920128,20,1800,40,8.064000,0
37.928192,21,1875,42,7.424000,0
37.935616,22,1950,44,8.064000,0
37.943680,23,2025,46,8.704000,0
37.952384,24,2100,48,7.424000,0
37.959808,25,2175,50,0,1919.616000
39.879424,25,2250,50,7.424000,0
39.886848,26,2325,52,8.064000,0
39.894912,27,2400,54,6.784000,0
39.901696,28,2475,56,7.424000,0
39.909120,29,2550,58,7.424000,0
39.916544,30,2625,60,8.064000,0
39.924608,31,2700,62,6.784000,0
39.931392,32,2775,64,0,1914.112000
41.845504,32,2850,64,8.704000,0
41.854208,33,2925,66,7.424000,0
41.861632,34,3000,68,8.064000,0
41.869696,35,3075,70,6.784000,0
41.876480,36,3150,72,7.424000,0
41.883904,37,3225,74,7.424000,0
41.891328,38,3300,76,0,1920.256000
43.811584,38,3375,76,8.064000,0
43.819648,39,3450,78,8.704000,0
43.828352,40,3525,80,8.704000,0
43.837056,41,3600,82,6.784000,0
43.843840,42,3675,84,8.064000,0
43.851904,43,3750,86,6.784000,0
43.858688,44,3825,88,0,1918.976000
45.777664,44,3900,88,6.784000,0
45.784448,45,3975,90,7.424000,0
45.791872,46,4050,92,8.064000,0
45.799936,47,4125,94,6.784000,0
45.806720,48,4200,96,8.704000,0
45.815424,49,4275,98,7.424000,0
45.822848,50,4350,100,0,1920.896000
47.743744,50,4425,100,8.064000,0
47.751808,51,4500,102,8.704000,0
47.760512,52,4575,104,8.704000,0
47.769216,53,4650,106,7.424000,0
47.776640,54,4725,108,8.064000,0
47.784704,55,4800,110,8.704000,0
47.793408,56,4875,112,0,1916.416000
49.709824,56,4950,112,8.064000,0
49.717888,57,5025,114,7.424000,0
49.725312,58,5100,116,8.064000,0
49.733376,59,5175,118,7.424000,0
49.740800,60,5250,120,8.064000,0
49.748864,61,5325,122,0,1927.040000
51.675904,61,5400,122,7.424000,0
51.683328,62,5475,124,8.064000,0
51.691392,63,5550,126,8.064000,0
51.699456,64,5625,128,7.424000,0
51.706880,65,5700,130,0,1935.104000
53.641984,65,5775,130,7.424000,0
53.649408,66,5850,132,8.064000,0
53.657472,67,5925,134,7.424000,0
53.664896,68,6000,136,0,1943.168000
55.608064,68,6075,136,6.784000,0
55.614848,69,6150,138,7.424000,0
55.622272,70,6225,140,8.064000,0
55.630336,71,6300,142,0,1943.808000
57.574144,71,6375,142,7.424000,0
57.581568,72,6450,144,7.424000,0
57.588992,73,6525,146,7.424000,0
57.596416,74,6600,148,0,1943.808000
59.540224,74,6675,148,8.064000,0
59.548288,75,6750,150,8.704000,0
59.556992,76,6825,152,8.064000,0
59.565056,77,6900,154,0,1941.248000
61.506304,77,6975,154,7.424000,0
61.513728,78,7050,156,8.064000,0
61.521792,79,7125,158,6.784000,0
61.528576,80,7200,160,0,1943.808000
63.472384,80,7275,160,8.704000,0
63.481088,81,7350,162,7.424000,0
63.488512,82,7425,164,8.064000,0
63.496576,83,7500,166,0,1941.888000
65.438464,83,7575,166,8.064000,0
65.446528,84,7650,168,7.424000,0
65.453952,85,7725,170,7.424000,0
65.461376,86,7800,172,0,1943.168000
67.404544,86,7875,172,8.064000,0
67.412608,87,7950,174,6.784000,0
67.419392,88,8025,176,0,1951.232000
69.370624,88,8100,176,7.424000,0
69.378048,89,8175,178,7.424000,0
69.385472,90,8250,180,8.064000,0
69.393536,91,8325,182,0,1943.168000
71.336704,91,8400,182,8.704000,0
71.345408,92,8475,184,6.784000,0
71.352192,93,8550,186,0,1950.592000
73.302784,93,8625,186,6.784000,0
73.309568,94,8700,188,8.064000,0
73.317632,95,8775,190,6.784000,0
73.324416,96,8850,192,0,1944.448000
75.268864,96,8925,192,6.784000,0
75.275648,97,9000,194,6.784000,0
75.282432,98,9075,196,0,1952.512000
77.234944,98,9150,196,8.064000,0
77.243008,99,9225,198,6.784000,0
77.249792,100,9300,200,6.784000,0
77.256576,101,9375,202,6.784000,0
77.263360,102,9450,204,0,1937.664000
79.201024,102,9525,204,8.064000,0
79.209088,103,9600,206,6.784000,0
79.215872,104,9675,208,6.784000,0
79.222656,105,9750,210,0,1944.448000
81.167104,105,9825,210,7.424000,0
81.174528,106,9900,212,8.064000,0
81.182592,107,9975,214,8.064000,0
81.190656,108,10050,216,0,1942.528000
83.133184,108,10125,216,7.424000,0
83.140608,109,10200,218,7.424000,0
83.148032,110,10275,220,0,1951.232000
85.099264,110,10350,220,8.064000,0
85.107328,111,10425,222,8.704000,0
85.116032,112,10500,224,8.064000,0
85.124096,113,10575,226,7.424000,0
85.131520,114,10650,228,0,1933.824000
87.065344,114,10725,228,8.064000,0
87.073408,115,10800,230,7.424000,0
87.080832,116,10875,232,8.064000,0
87.088896,117,10950,234,0,1942.528000
89.031424,117,11025,234,7.424000,0
89.038848,118,11100,236,8.064000,0
89.046912,119,11175,238,0,1950.592000
90.997504,119,11250,238,8.704000,0
91.006208,120,11325,240,8.704000,0
91.014912,121,11400,242,7.424000,0
91.022336,122,11475,244,0,1941.248000
92.963584,122,11550,244,8.704000,0
92.972288,123,11625,246,6.784000,0
92.979072,124,11700,248,8.064000,0
92.987136,125,11775,250,0,1942.528000
94.929664,125,11850,250,7.424000,0
94.937088,126,11925,252,8.064000,0
94.945152,127,12000,254,8.704000,0
94.953856,128,12075,256,7.424000,0
94.961280,129,12150,258,0,1934.464000
96.895744,129,12225,258,7.424000,0
96.903168,130,12300,260,8.064000,0
96.911232,131,12375,262,0,1950.592000
98.861824,131,12450,262,6.784000,0
98.868608,132,12525,264,7.424000,0
98.876032,133,12600,266,7.424000,0
98.883456,134,12675,268,0,1944.448000
100.827904,134,12750,268,8.064000,0
100.835968,135,12825,270,6.784000,0
100.842752,136,12900,272,8.704000,0
100.851456,137,12975,274,7.424000,0
100.858880,138,13050,276,0,1935.104000
102.793984,138,13125,276,8.064000,0
102.802048,139,13200,278,6.784000,0
102.808832,140,13275,280,0,1951.232000
104.760064,140,13350,280,7.424000,0
104.767488,141,13425,282,7.424000,0
104.774912,142,13500,284,8.064000,0
104.782976,143,13575,286,0,1943.168000
106.726144,143,13650,286,8.704000,0
106.734848,144,13725,288,8.704000,0
106.743552,145,13800,290,0,1948.672000
108.692224,145,13875,290,6.784000,0
108.699008,146,13950,292,8.064000,0
108.707072,147,14025,294,6.784000,0
108.713856,148,14100,296,0,1944.448000
110.658304,148,14175,296,6.784000,0
110.665088,149,14250,298,7.424000,0
110.672512,150,14325,300,8.064000,0
110.680576,151,14400,302,6.784000,0
110.687360,152,14475,304,0,1937.024000
112.624384,152,14550,304,8.704000,0
112.633088,153,14625,306,7.424000,0
112.640512,154,14700,308,0,1949.952000
114.590464,154,14775,308,8.064000,0
114.598528,155,14850,310,8.704000,0
114.607232,156,14925,312,8.704000,0
114.615936,157,15000,314,0,1940.608000
116.556544,157,15075,314,7.424000,0
116.563968,158,15150,316,8.064000,0
116.572032,159,15225,318,8.704000,0
116.580736,160,15300,320,0,1941.888000
118.522624,160,15375,320,8.064000,0
118.530688,161,15450,322,7.424000,0
118.538112,162,15525,324,8.064000,0
118.546176,163,15600,326,0,1942.528000
120.488704,163,15675,326,7.424000,0
120.496128,164,15750,328,8.064000,0
120.504192,165,15825,330,7.424000,0
120.511616,166,15900,332,0,1943.168000
122.454784,166,15975,332,8.064000,0
122.462848,167,16050,334,8.064000,0
122.470912,168,16125,336,7.424000,0
122.478336,169,16200,338,0,1942.528000
124.420864,169,16275,338,7.424000,0
124.428288,170,16350,340,8.064000,0
124.436352,171,16425,342,7.424000,0
124.443776,172,16500,344,0,1943.168000
126.386944,172,16575,344,6.784000,0
126.393728,173,16650,346,7.424000,0
126.401152,174,16725,348,8.064000,0
126.409216,175,16800,350,0,1943.808000
128.353024,175,16875,350,7.424000,0
128.360448,176,16950,352,7.424000,0
128.367872,177,17025,354,7.424000,0
128.375296,178,17100,356,8.064000,0
128.383360,179,17175,358,0,1935.744000
130.319104,179,17250,358,8.704000,0
130.327808,180,17325,360,8.064000,0
130.335872,181,17400,362,7.424000,0
130.343296,182,17475,364,0,1941.888000
132.285184,182,17550,364,8.064000,0
132.293248,183,17625,366,6.784000,0
132.300032,184,17700,368,8.704000,0
132.308736,185,17775,370,0,1942.528000
134.251264,185,17850,370,7.424000,0
134.258688,186,17925,372,8.064000,0
134.266752,187,18000,374,8.064000,0
134.274816,188,18075,376,0,1942.528000
136.217344,188,18150,376,7.424000,0
136.224768,189,18225,378,7.424000,0
136.232192,190,18300,380,0,1951.232000
138.183424,190,18375,380,8.064000,0
138.191488,191,18450,382,6.784000,0
138.198272,192,18525,384,7.424000,0
138.205696,193,18600,386,0,1943.808000
140.149504,193,18675,386,7.424000,0
140.156928,194,18750,388,8.064000,0
140.164992,195,18825,390,8.704000,0
140.173696,196,18900,392,0,1941.888000
142.115584,196,18975,392,6.784000,0
142.122368,197,19050,394,6.784000,0
142.129152,198,19125,396,0,1952.512000
144.081664,198,19200,396,8.064000,0
144.089728,199,19275,398,6.784000,0
144.096512,200,19350,400,6.784000,0
144.103296,201,19425,402,6.784000,0
144.110080,202,19500,404,0,1937.664000
146.047744,202,19575,404,8.064000,0
146.055808,203,19650,406,0,1958.016000
148.013824,203,19725,406,6.784000,0
148.020608,204,19800,408,6.784000,0
148.027392,205,19875,410,6.784000,0
148.034176,206,19950,412,0,1945.728000
149.979904,206,20025,412,8.064000,0
149.987968,207,20100,414,6.784000,0
149.994752,208,20175,416,0,1951.232000
151.945984,208,20250,416,6.784000,0
151.952768,209,20325,418,6.784000,0
151.959552,210,20400,420,7.424000,0
151.966976,211,20475,422,0,1945.088000
153.912064,211,20550,422,8.064000,0
153.920128,212,20625,424,8.064000,0
153.928192,213,20700,426,7.424000,0
153.935616,214,20775,428,0,1942.528000
155.878144,214,20850,428,7.424000,0
155.885568,215,20925,430,8.064000,0
155.893632,216,21000,432,0,1950.592000
157.844224,216,21075,432,8.704000,0
157.852928,217,21150,434,8.064000,0
157.860992,218,21225,436,7.424000,0
157.868416,219,21300,438,0,1941.888000
159.810304,219,21375,438,8.064000,0
159.818368,220,21450,440,7.424000,0
159.825792,221,21525,442,8.064000,0
159.833856,222,21600,444,7.424000,0
159.841280,223,21675,446,0,1935.104000
161.776384,223,21750,446,8.064000,0
161.784448,224,21825,448,8.704000,0
161.793152,225,21900,450,0,1949.312000
163.742464,225,21975,450,8.704000,0
163.751168,226,22050,452,7.424000,0
163.758592,227,22125,454,8.704000,0
163.767296,228,22200,456,0,1941.248000
165.708544,228,22275,456,6.784000,0
165.715328,229,22350,458,8.064000,0
165.723392,230,22425,460,7.424000,0
165.730816,231,22500,462,0,1943.808000
167.674624,231,22575,462,8.064000,0
167.682688,232,22650,464,8.704000,0
167.691392,233,22725,466,0,1949.312000
169.640704,233,22800,466,7.424000,0
169.648128,234,22875,468,7.424000,0
169.655552,235,22950,470,8.064000,0
169.663616,236,23025,472,0,1943.168000
171.606784,236,23100,472,6.784000,0
171.613568,237,23175,474,7.424000,0
171.620992,238,23250,476,0,1951.872000
173.572864,238,23325,476,7.424000,0
173.580288,239,23400,478,8.064000,0
173.588352,240,23475,480,0,1950.592000
175.538944,240,23550,480,6.784000,0
175.545728,241,23625,482,8.704000,0
175.554432,242,23700,484,7.424000,0
175.561856,243,23775,486,0,1943.168000
177.505024,243,23850,486,8.064000,0
177.513088,244,23925,488,6.784000,0
177.519872,245,24000,490,7.424000,0
177.527296,246,24075,492,7.424000,0
177.534720,247,24150,494,0,1936.384000
179.471104,247,24225,494,8.064000,0
179.479168,248,24300,496,8.704000,0
179.487872,249,24375,498,0,1949.312000
181.437184,249,24450,498,8.704000,0
181.445888,250,24525,500,6.784000,0
181.452672,251,24600,502,8.064000,0
181.460736,252,24675,504,0,1942.528000
183.403264,252,24750,504,6.784000,0
183.410048,253,24825,506,6.784000,0
183.416832,254,24900,508,7.424000,0
183.424256,255,24975,510,0,1945.088000
185.369344,255,25050,510,8.064000,0
185.377408,256,25125,512,6.784000,0
185.384192,257,25200,514,0,1951.232000
187.335424,257,25275,514,8.704000,0
187.344128,258,25350,516,7.424000,0
187.351552,259,25425,518,8.064000,0
187.359616,260,25500,520,0,1941.888000
189.301504,260,25575,520,8.704000,0
189.310208,261,25650,522,8.704000,0
189.318912,262,25725,524,7.424000,0
189.326336,263,25800,526,0,1941.248000
191.267584,263,25875,526,8.064000,0
191.275648,264,25950,528,8.704000,0
191.284352,265,26025,530,8.064000,0
191.292416,266,26100,532,0,1941.248000
193.233664,266,26175,532,7.424000,0
193.241088,267,26250,534,8.064000,0
193.249152,268,26325,536,7.424000,0
193.256576,269,26400,538,0,1943.168000
195.199744,269,26475,538,8.064000,0
195.207808,270,26550,540,7.424000,0
195.215232,271,26625,542,0,1950.592000
197.165824,271,26700,542,8.064000,0
197.173888,272,26775,544,8.064000,0
197.181952,273,26850,546,7.424000,0
197.189376,274,26925,548,0,1942.528000
199.131904,274,27000,548,7.424000,0
199.139328,275,27075,550,8.064000,0
199.147392,276,27150,552,0,1950.592000
201.097984,276,27225,552,7.424000,0
201.105408,277,27300,554,6.784000,0
201.112192,278,27375,556,7.424000,0
201.119616,279,27450,558,0,1944.448000
203.064064,279,27525,558,8.064000,0
203.072128,280,27600,560,7.424000,0
203.079552,281,27675,562,7.424000,0
203.086976,282,27750,564,0,1943.168000
205.030144,282,27825,564,7.424000,0
205.037568,283,27900,566,8.064000,0
205.045632,284,27975,568,0,1950.592000
206.996224,284,28050,568,8.704000,0
207.004928,285,28125,570,8.064000,0
207.012992,286,28200,572,7.424000,0
207.020416,287,28275,574,0,1941.888000
208.962304,287,28350,574,8.064000,0
208.970368,288,28425,576,6.784000,0
208.977152,289,28500,578,8.704000,0
208.985856,290,28575,580,7.424000,0
208.993280,291,28650,582,0,1935.104000
210.928384,291,28725,582,8.064000,0
210.936448,292,28800,584,8.064000,0
210.944512,293,28875,586,0,1949.952000
212.894464,293,28950,586,7.424000,0
212.901888,294,29025,588,7.424000,0
212.909312,295,29100,590,8.064000,0
212.917376,296,29175,592,6.784000,0
212.924160,297,29250,594,0,1936.384000
214.860544,297,29325,594,7.424000,0
214.867968,298,29400,596,7.424000,0
214.875392,299,29475,598,0,1951.232000
216.826624,299,29550,598,8.064000,0
216.834688,300,29625,600,8.704000,0
216.843392,301,29700,602,6.784000,0
216.850176,302,29775,604,0,1942.528000
218.792704,302,29850,604,6.784000,0
218.799488,303,29925,606,8.064000,0
218.807552,304,30000,608,6.784000,0
218.814336,305,30075,610,0,1944.448000
220.758784,305,30150,610,6.784000,0
220.765568,306,30225,612,6.784000,0
220.772352,307,30300,614,8.064000,0
220.780416,308,30375,616,0,1944.448000
222.724864,308,30450,616,6.784000,0
222.731648,309,30525,618,6.784000,0
222.738432,310,30600,620,6.784000,0
222.745216,311,30675,622,0,1945.728000
224.690944,311,30750,622,8.064000,0
224.699008,312,30825,624,6.784000,0
224.705792,313,30900,626,6.784000,0
224.712576,314,30975,628,7.424000,0
224.720000,315,31050,630,0,1937.024000
226.657024,315,31125,630,8.064000,0
226.665088,316,31200,632,8.064000,0
226.673152,317,31275,634,7.424000,0
226.680576,318,31350,636,0,1942.528000
228.623104,318,31425,636,7.424000,0
228.630528,319,31500,638,8.064000,0
228.638592,320,31575,640,8.704000,0
228.647296,321,31650,642,0,1941.888000
230.589184,321,31725,642,8.064000,0
230.597248,322,31800,644,7.424000,0
230.604672,323,31875,646,0,1950.592000
232.555264,323,31950,646,8.064000,0
232.563328,324,32025,648,7.424000,0
232.570752,325,32100,650,8.064000,0
232.578816,326,32175,652,0,1942.528000
234.521344,326,32250,652,7.424000,0
234.528768,327,32325,654,8.064000,0
234.536832,328,32400,656,8.704000,0
234.545536,329,32475,658,0,1941.888000
236.487424,329,32550,658,8.704000,0
236.496128,330,32625,660,7.424000,0
236.503552,331,32700,662,8.704000,0
236.512256,332,32775,664,6.784000,0
236.519040,333,32850,666,