Time,CovertPackets,AllPackets,BitsSent,PacketInterval;GTSInterval
65.132048,1,2,0,3.184000,0
65.135232,2,3,0,3.328000,0
65.138560,3,4,0,3.328000,0
65.141888,4,5,1,3.312000,0
65.145200,5,6,1,3.184000,0
65.148384,6,7,1,3.264000,0
65.151648,7,8,1,3.344000,0
65.154992,8,9,2,3.200000,0
65.158192,9,10,2,3.248000,0
65.161440,10,11,2,3.200000,0
65.164640,11,12,2,3.248000,0
65.167888,12,13,3,3.264000,0
65.171152,13,14,3,3.312000,0
65.174464,14,15,3,3.328000,0
65.177792,15,16,3,3.216000,0
65.181008,16,17,4,3.216000,0
65.184224,17,18,4,3.312000,0
65.187536,18,19,4,3.216000,0
65.190752,19,20,4,3.168000,0
65.193920,20,21,5,3.328000,0
65.197248,21,22,5,0,7795.968000
72.993216,21,23,5,3.312000,0
72.996528,22,24,5,3.200000,0
72.999728,23,25,5,3.216000,0
73.002944,24,26,6,3.248000,0
73.006192,25,27,6,3.312000,0
73.009504,26,28,6,3.328000,0
73.012832,27,29,6,3.232000,0
73.016064,28,30,7,3.312000,0
73.019376,29,31,7,3.248000,0
73.022624,30,32,7,3.264000,0
73.025888,31,33,7,3.296000,0
73.029184,32,34,8,3.280000,0
73.032464,33,35,8,3.312000,0
73.035776,34,36,8,3.200000,0
73.038976,35,37,8,3.296000,0
73.042272,36,38,9,3.248000,0
73.045520,37,39,9,3.312000,0
73.048832,38,40,9,3.328000,0
73.052160,39,41,9,3.344000,0
73.055504,40,42,10,3.216000,0
73.058720,41,43,10,3.296000,0
73.062016,42,44,10,3.200000,0
73.065216,43,45,10,0,7792.320000
80.857536,43,46,10,3.168000,0
80.860704,44,47,11,3.168000,0
80.863872,45,48,11,3.184000,0
80.867056,46,49,11,3.264000,0
80.870320,47,50,11,3.296000,0
80.873616,48,51,12,3.216000,0
80.876832,49,52,12,3.248000,0
80.880080,50,53,12,3.264000,0
80.883344,51,54,12,3.216000,0
80.886560,52,55,13,3.216000,0
80.889776,53,56,13,3.248000,0
80.893024,54,57,13,3.328000,0
80.896352,55,58,13,3.280000,0
80.899632,56,59,14,3.328000,0
80.902960,57,60,14,3.312000,0
80.906272,58,61,14,3.328000,0
80.909600,59,62,14,3.248000,0
80.912848,60,63,15,3.264000,0
80.916112,61,64,15,3.312000,0
80.919424,62,65,15,3.200000,0
80.922624,63,66,15,3.328000,0
80.925952,64,67,16,0,7795.904000
88.721856,64,68,16,3.312000,0
88.725168,65,69,16,3.248000,0
88.728416,66,70,16,3.328000,0
88.731744,67,71,16,3.184000,0
88.734928,68,72,17,3.296000,0
88.738224,69,73,17,3.184000,0
88.741408,70,74,17,3.328000,0
88.744736,71,75,17,3.312000,0
88.748048,72,76,18,3.248000,0
88.751296,73,77,18,3.312000,0
88.754608,74,78,18,3.328000,0
88.757936,75,79,18,3.344000,0
88.761280,76,80,19,3.328000,0
88.764608,77,81,19,3.248000,0
88.767856,78,82,19,3.264000,0
88.771120,79,83,19,3.296000,0
88.774416,80,84,20,3.216000,0
88.777632,81,85,20,3.248000,0
88.780880,82,86,20,3.200000,0
88.784080,83,87,20,3.328000,0
88.787408,84,88,21,3.312000,0
88.790720,85,89,21,0,7795.456000
96.586176,85,90,21,3.184000,0
96.589360,86,91,21,3.328000,0
96.592688,87,92,21,3.168000,0
96.595856,88,93,22,3.184000,0
96.599040,89,94,22,3.248000,0
96.602288,90,95,22,3.328000,0
96.605616,91,96,22,3.216000,0
96.608832,92,97,23,3.232000,0
96.612064,93,98,23,3.296000,0
96.615360,94,99,23,3.328000,0
96.618688,95,100,23,3.232000,0
96.621920,96,101,24,3.168000,0
96.625088,97,102,24,3.168000,0
96.628256,98,103,24,3.264000,0
96.631520,99,104,24,3.168000,0
96.634688,100,105,25,3.232000,0
96.637920,101,106,25,3.232000,0
96.641152,102,107,25,3.264000,0
96.644416,103,108,25,3.232000,0
96.647648,104,109,26,3.296000,0
96.650944,105,110,26,3.184000,0
96.654128,106,111,26,3.200000,0
96.657328,107,112,26,3.264000,0
96.660592,108,113,27,0,7789.904000
104.450496,108,114,27,3.184000,0
104.453680,109,115,27,3.184000,0
104.456864,110,116,27,3.328000,0
104.460192,111,117,27,3.344000,0
104.463536,112,118,28,3.200000,0
104.466736,113,119,28,3.248000,0
104.469984,114,120,28,3.328000,0
104.473312,115,121,28,3.312000,0
104.476624,116,122,29,3.328000,0
104.479952,117,123,29,3.184000,0
104.483136,118,124,29,3.328000,0
104.486464,119,125,29,3.280000,0
104.489744,120,126,30,3.344000,0
104.493088,121,127,30,3.248000,0
104.496336,122,128,30,3.344000,0
104.499680,123,129,30,3.168000,0
104.502848,124,130,31,3.328000,0
104.506176,125,131,31,3.184000,0
104.509360,126,132,31,3.200000,0
104.512560,127,133,31,3.344000,0
104.515904,128,134,32,3.248000,0
104.519152,129,135,32,0,7795.664000
112.314816,129,136,32,3.312000,0
112.318128,130,137,32,3.200000,0
112.321328,131,138,32,3.296000,0
112.324624,132,139,33,3.312000,0
112.327936,133,140,33,3.248000,0
112.331184,134,141,33,3.200000,0
112.334384,135,142,33,3.296000,0
112.337680,136,143,34,3.344000,0
112.341024,137,144,34,3.312000,0
112.344336,138,145,34,3.328000,0
112.347664,139,146,34,3.296000,0
112.350960,140,147,35,3.312000,0
112.354272,141,148,35,3.312000,0
112.357584,142,149,35,3.200000,0
112.360784,143,150,35,3.344000,0
112.364128,144,151,36,3.216000,0
112.367344,145,152,36,3.296000,0
112.370640,146,153,36,3.264000,0
112.373904,147,154,36,3.296000,0
112.377200,148,155,37,3.168000,0
112.380368,149,156,37,3.248000,0
112.383616,150,157,37,3.200000,0
112.386816,151,158,37,3.232000,0
112.390048,152,159,38,0,7789.088000
120.179136,152,160,38,3.280000,0
120.182416,153,161,38,3.184000,0
120.185600,154,162,38,3.200000,0
120.188800,155,163,38,3.216000,0
120.192016,156,164,39,3.280000,0
120.195296,157,165,39,3.248000,0
120.198544,158,166,39,3.200000,0
120.201744,159,167,39,3.344000,0
120.205088,160,168,40,3.328000,0
120.208416,161,169,40,3.184000,0
120.211600,162,170,40,3.200000,0
120.214800,163,171,40,3.248000,0
120.218048,164,172,41,3.328000,0
120.221376,165,173,41,3.312000,0
120.224688,166,174,41,3.200000,0
120.227888,167,175,41,3.328000,0
120.231216,168,176,42,3.312000,0
120.234528,169,177,42,3.184000,0
120.237712,170,178,42,3.264000,0
120.240976,171,179,42,3.184000,0
120.244160,172,180,43,3.296000,0
120.247456,173,181,43,0,7796.000000
128.043456,173,182,43,3.312000,0
128.046768,174,183,43,3.264000,0
128.050032,175,184,43,3.312000,0
128.053344,176,185,44,3.312000,0
128.056656,177,186,44,3.248000,0
128.059904,178,187,44,3.200000,0
128.063104,179,188,44,3.216000,0
128.066320,180,189,45,3.200000,0
128.069520,181,190,45,3.248000,0
128.072768,182,191,45,3.264000,0
128.076032,183,192,45,3.168000,0
128.079200,184,193,46,3.216000,0
128.082416,185,194,46,3.312000,0
128.085728,186,195,46,3.328000,0
128.089056,187,196,46,3.328000,0
128.092384,188,197,47,3.248000,0
128.095632,189,198,47,3.248000,0
128.098880,190,199,47,3.264000,0
128.102144,191,200,47,3.168000,0
128.105312,192,201,48,3.312000,0
128.108624,193,202,48,3.184000,0
128.111808,194,203,48,0,7795.968000
135.907776,194,204,48,3.328000,0
135.911104,195,205,48,3.216000,0
135.914320,196,206,49,3.296000,0
135.917616,197,207,49,3.168000,0
135.920784,198,208,49,3.264000,0
135.924048,199,209,49,3.232000,0
135.927280,200,210,50,3.232000,0
135.930512,201,211,50,3.168000,0
135.933680,202,212,50,3.328000,0
135.937008,203,213,50,3.296000,0
135.940304,204,214,51,3.232000,0
135.943536,205,215,51,3.168000,0
135.946704,206,216,51,3.328000,0
135.950032,207,217,51,3.232000,0
135.953264,208,218,52,3.296000,0
135.956560,209,219,52,3.248000,0
135.959808,210,220,52,3.200000,0
135.963008,211,221,52,3.200000,0
135.966208,212,222,53,3.248000,0
135.969456,213,223,53,3.312000,0
135.972768,214,224,53,3.264000,0
135.976032,215,225,53,3.216000,0
135.979248,216,226,54,0,7792.848000
143.772096,216,227,54,3.264000,0
143.775360,217,228,54,3.184000,0
143.778544,218,229,54,3.200000,0
143.781744,219,230,54,3.248000,0
143.784992,220,231,55,3.328000,0
143.788320,221,232,55,3.184000,0
143.791504,222,233,55,3.328000,0
143.794832,223,234,55,3.216000,0
143.798048,224,235,56,3.216000,0
143.801264,225,236,56,3.312000,0
143.804576,226,237,56,3.344000,0
143.807920,227,238,56,3.168000,0
143.811088,228,239,57,3.200000,0
143.814288,229,240,57,3.184000,0
143.817472,230,241,57,3.200000,0
143.820672,231,242,57,3.280000,0
143.823952,232,243,58,3.184000,0
143.827136,233,244,58,3.312000,0
143.830448,234,245,58,3.328000,0
143.833776,235,246,58,3.168000,0
143.836944,236,247,59,3.248000,0
143.840192,237,248,59,0,7796.224000
151.636416,237,249,59,3.248000,0
151.639664,238,250,59,3.264000,0
151.642928,239,251,59,3.232000,0
151.646160,240,252,60,3.280000,0
151.649440,241,253,60,3.184000,0
151.652624,242,254,60,3.328000,0
151.655952,243,255,60,3.296000,0
151.659248,244,256,61,3.312000,0
151.662560,245,257,61,3.248000,0
151.665808,246,258,61,3.328000,0
151.669136,247,259,61,3.344000,0
151.672480,248,260,62,3.280000,0
151.675760,249,261,62,3.296000,0
151.679056,250,262,62,3.264000,0
151.682320,251,263,62,3.168000,0
151.685488,252,264,63,3.232000,0
151.688720,253,265,63,3.248000,0
151.691968,254,266,63,3.328000,0
151.695296,255,267,63,3.232000,0
151.698528,256,268,64,3.344000,0
151.701872,257,269,64,3.312000,0
151.705184,258,270,64,