Time,CovertPackets,AllPackets,BitsSent,PacketInterval;GTSInterval
32.017408,1,30,2,5.504000,0
32.022912,2,45,4,6.144000,0
32.029056,3,60,6,6.144000,0
32.035200,4,75,8,5.504000,0
32.040704,5,90,10,5.504000,0
32.046208,6,105,12,6.144000,0
32.052352,7,120,14,6.784000,0
32.059136,8,135,16,6.144000,0
32.065280,9,150,18,0,1913.984000
33.979264,9,165,18,5.504000,0
33.984768,10,180,20,6.144000,0
33.990912,11,195,22,5.504000,0
33.996416,12,210,24,6.144000,0
34.002560,13,225,26,5.504000,0
34.008064,14,240,28,6.144000,0
34.014208,15,255,30,6.784000,0
34.020992,16,270,32,6.784000,0
34.027776,17,285,34,5.504000,0
34.033280,18,300,36,0,1912.064000
35.945344,18,315,36,6.784000,0
35.952128,19,330,38,4.864000,0
35.956992,20,345,40,6.144000,0
35.963136,21,360,42,5.504000,0
35.968640,22,375,44,6.144000,0
35.974784,23,390,46,6.784000,0
35.981568,24,405,48,5.504000,0
35.987072,25,420,50,5.504000,0
35.992576,26,435,52,6.144000,0
35.998720,27,450,54,0,1912.704000
37.911424,27,465,54,4.864000,0
37.916288,28,480,56,5.504000,0
37.921792,29,495,58,5.504000,0
37.927296,30,510,60,6.144000,0
37.933440,31,525,62,4.864000,0
37.938304,32,540,64,6.784000,0
37.945088,33,555,66,5.504000,0
37.950592,34,570,68,6.144000,0
37.956736,35,585,70,4.864000,0
37.961600,36,600,72,0,1915.904000
39.877504,36,615,72,5.504000,0
39.883008,37,630,74,5.504000,0
39.888512,38,645,76,6.144000,0
39.894656,39,660,78,6.784000,0
39.901440,40,675,80,6.784000,0
39.908224,41,690,82,4.864000,0
39.913088,42,705,84,6.144000,0
39.919232,43,720,86,4.864000,0
39.924096,44,735,88,4.864000,0
39.928960,45,750,90,0,1914.624000
41.843584,45,765,90,5.504000,0
41.849088,46,780,92,6.144000,0
41.855232,47,795,94,4.864000,0
41.860096,48,810,96,6.784000,0
41.866880,49,825,98,5.504000,0
41.872384,50,840,100,6.144000,0
41.878528,51,855,102,6.784000,0
41.885312,52,870,104,6.784000,0
41.892096,53,885,106,5.504000,0
41.897600,54,900,108,0,1912.064000
43.809664,54,915,108,6.144000,0
43.815808,55,930,110,6.784000,0
43.822592,56,945,112,6.144000,0
43.828736,57,960,114,5.504000,0
43.834240,58,975,116,6.144000,0
43.840384,59,990,118,5.504000,0
43.845888,60,1005,120,6.144000,0
43.852032,61,1020,122,5.504000,0
43.857536,62,1035,124,6.144000,0
43.863680,63,1050,126,0,1912.064000
45.775744,63,1065,126,6.144000,0
45.781888,64,1080,128,5.504000,0
45.787392,65,1095,130,5.504000,0
45.792896,66,1110,132,0,1948.928000
47.741824,66,1125,132,6.144000,0
47.747968,67,1140,134,5.504000,0
47.753472,68,1155,136,4.864000,0
47.758336,69,1170,138,0,1949.568000
49.707904,69,1185,138,5.504000,0
49.713408,70,1200,140,6.144000,0
49.719552,71,1215,142,5.504000,0
49.725056,72,1230,144,0,1948.928000
51.673984,72,1245,144,5.504000,0
51.679488,73,1260,146,5.504000,0
51.684992,74,1275,148,6.144000,0
51.691136,75,1290,150,6.784000,0
51.697920,76,1305,152,0,1942.144000
53.640064,76,1320,152,6.144000,0
53.646208,77,1335,154,5.504000,0
53.651712,78,1350,156,6.144000,0
53.657856,79,1365,158,0,1948.288000
55.606144,79,1380,158,4.864000,0
55.611008,80,1395,160,6.784000,0
55.617792,81,1410,162,5.504000,0
55.623296,82,1425,164,0,1948.928000
57.572224,82,1440,164,6.144000,0
57.578368,83,1455,166,6.144000,0
57.584512,84,1470,168,5.504000,0
57.590016,85,1485,170,0,1948.288000
59.538304,85,1500,170,5.504000,0
59.543808,86,1515,172,6.144000,0
59.549952,87,1530,174,4.864000,0
59.554816,88,1545,176,0,1949.568000
61.504384,88,1560,176,5.504000,0
61.509888,89,1575,178,5.504000,0
61.515392,90,1590,180,6.144000,0
61.521536,91,1605,182,0,1948.928000
63.470464,91,1620,182,6.784000,0
63.477248,92,1635,184,4.864000,0
63.482112,93,1650,186,4.864000,0
63.486976,94,1665,188,0,1949.568000
65.436544,94,1680,188,6.144000,0
65.442688,95,1695,190,4.864000,0
65.447552,96,1710,192,4.864000,0
65.452416,97,1725,194,0,1950.208000
67.402624,97,1740,194,4.864000,0
67.407488,98,1755,196,6.144000,0
67.413632,99,1770,198,0,1955.072000
69.368704,99,1785,198,4.864000,0
69.373568,100,1800,200,4.864000,0
69.378432,101,1815,202,4.864000,0
69.383296,102,1830,204,0,1951.488000
71.334784,102,1845,204,6.144000,0
71.340928,103,1860,206,4.864000,0
71.345792,104,1875,208,0,1955.072000
73.300864,104,1890,208,4.864000,0
73.305728,105,1905,210,4.864000,0
73.310592,106,1920,212,5.504000,0
73.316096,107,1935,214,0,1950.848000
75.266944,107,1950,214,6.144000,0
75.273088,108,1965,216,6.144000,0
75.279232,109,1980,218,0,1953.792000
77.233024,109,1995,218,5.504000,0
77.238528,110,2010,220,5.504000,0
77.244032,111,2025,222,6.144000,0
77.250176,112,2040,224,6.784000,0
77.256960,113,2055,226,0,1942.144000
79.199104,113,2070,226,6.144000,0
79.205248,114,2085,228,5.504000,0
79.210752,115,2100,230,6.144000,0
79.216896,116,2115,232,0,1948.288000
81.165184,116,2130,232,5.504000,0
81.170688,117,2145,234,6.144000,0
81.176832,118,2160,236,5.504000,0
81.182336,119,2175,238,0,1948.928000
83.131264,119,2190,238,6.144000,0
83.137408,120,2205,240,6.784000,0
83.144192,121,2220,242,0,1953.152000
85.097344,121,2235,242,6.784000,0
85.104128,122,2250,244,5.504000,0
85.109632,123,2265,246,6.784000,0
85.116416,124,2280,248,4.864000,0
85.121280,125,2295,250,0,1942.144000
87.063424,125,2310,250,6.144000,0
87.069568,126,2325,252,5.504000,0
87.075072,127,2340,254,6.144000,0
87.081216,128,2355,256,0,1948.288000
89.029504,128,2370,256,6.784000,0
89.036288,129,2385,258,5.504000,0
89.041792,130,2400,260,0,1953.792000
90.995584,130,2415,260,5.504000,0
91.001088,131,2430,262,6.144000,0
91.007232,132,2445,264,4.864000,0
91.012096,133,2460,266,0,1949.568000
92.961664,133,2475,266,5.504000,0
92.967168,134,2490,268,5.504000,0
92.972672,135,2505,270,6.144000,0
92.978816,136,2520,272,0,1948.928000
94.927744,136,2535,272,4.864000,0
94.932608,137,2550,274,6.784000,0
94.939392,138,2565,276,5.504000,0
94.944896,139,2580,278,6.144000,0
94.951040,140,2595,280,0,1942.784000
96.893824,140,2610,280,4.864000,0
96.898688,141,2625,282,5.504000,0
96.904192,142,2640,284,0,1955.712000
98.859904,142,2655,284,5.504000,0
98.865408,143,2670,286,6.144000,0
98.871552,144,2685,288,6.784000,0
98.878336,145,2700,290,0,1947.648000
100.825984,145,2715,290,6.784000,0
100.832768,146,2730,292,4.864000,0
100.837632,147,2745,294,6.144000,0
100.843776,148,2760,296,0,1948.288000
102.792064,148,2775,296,4.864000,0
102.796928,149,2790,298,4.864000,0
102.801792,150,2805,300,5.504000,0
102.807296,151,2820,302,0,1950.848000
104.758144,151,2835,302,6.144000,0
104.764288,152,2850,304,4.864000,0
104.769152,153,2865,306,6.784000,0
104.775936,154,2880,308,0,1948.288000
106.724224,154,2895,308,5.504000,0
106.729728,155,2910,310,6.144000,0
106.735872,156,2925,312,0,1954.432000
108.690304,156,2940,312,6.784000,0
108.697088,157,2955,314,6.784000,0
108.703872,158,2970,316,5.504000,0
108.709376,159,2985,318,0,1947.008000
110.656384,159,3000,318,6.144000,0
110.662528,160,3015,320,6.784000,0
110.669312,161,3030,322,6.144000,0
110.675456,162,3045,324,5.504000,0
110.680960,163,3060,326,0,1941.504000
112.622464,163,3075,326,6.144000,0
112.628608,164,3090,328,5.504000,0
112.634112,165,3105,330,0,1954.432000
114.588544,165,3120,330,6.144000,0
114.594688,166,3135,332,5.504000,0
114.600192,167,3150,334,6.144000,0
114.606336,168,3165,336,0,1948.288000
116.554624,168,3180,336,6.144000,0
116.560768,169,3195,338,5.504000,0
116.566272,170,3210,340,5.504000,0
116.571776,171,3225,342,0,1948.928000
118.520704,171,3240,342,6.144000,0
118.526848,172,3255,344,5.504000,0
118.532352,173,3270,346,4.864000,0
118.537216,174,3285,348,0,1949.568000
120.486784,174,3300,348,5.504000,0
120.492288,175,3315,350,6.144000,0
120.498432,176,3330,352,5.504000,0
120.503936,177,3345,354,0,1948.928000
122.452864,177,3360,354,5.504000,0
122.458368,178,3375,356,5.504000,0
122.463872,179,3390,358,6.144000,0
122.470016,180,3405,360,0,1948.928000
124.418944,180,3420,360,6.784000,0
124.425728,181,3435,362,6.144000,0
124.431872,182,3450,364,5.504000,0
124.437376,183,3465,366,0,1947.648000
126.385024,183,3480,366,6.144000,0
126.391168,184,3495,368,4.864000,0
126.396032,185,3510,370,6.784000,0
126.402816,186,3525,372,0,1948.288000
128.351104,186,3540,372,5.504000,0
128.356608,187,3555,374,6.144000,0
128.362752,188,3570,376,6.144000,0
128.368896,189,3585,378,0,1948.288000
130.317184,189,3600,378,5.504000,0
130.322688,190,3615,380,5.504000,0
130.328192,191,3630,382,6.144000,0
130.334336,192,3645,384,4.864000,0
130.339200,193,3660,386,0,1944.064000
132.283264,193,3675,386,5.504000,0
132.288768,194,3690,388,5.504000,0
132.294272,195,3705,390,6.144000,0
132.300416,196,3720,392,0,1948.928000
134.249344,196,3735,392,6.784000,0
134.256128,197,3750,394,4.864000,0
134.260992,198,3765,396,4.864000,0
134.265856,199,3780,398,0,1949.568000
136.215424,199,3795,398,6.144000,0
136.221568,200,3810,400,4.864000,0
136.226432,201,3825,402,0,1955.072000
138.181504,201,3840,402,4.864000,0
138.186368,202,3855,404,4.864000,0
138.191232,203,3870,406,6.144000,0
138.197376,204,3885,408,0,1950.208000
140.147584,204,3900,408,4.864000,0
140.152448,205,3915,410,4.864000,0
140.157312,206,3930,412,4.864000,0
140.162176,207,3945,414,0,1951.488000
142.113664,207,3960,414,6.144000,0
142.119808,208,3975,416,4.864000,0
142.124672,209,3990,418,0,1955.072000
144.079744,209,4005,418,4.864000,0
144.084608,210,4020,420,4.864000,0
144.089472,211,4035,422,5.504000,0
144.094976,212,4050,424,6.144000,0
144.101120,213,4065,426,0,1944.704000
146.045824,213,4080,426,6.144000,0
146.051968,214,4095,428,0,1959.936000
148.011904,214,4110,428,5.504000,0
148.017408,215,4125,430,5.504000,0
148.022912,216,4140,432,6.144000,0
148.029056,217,4155,434,0,1948.928000
149.977984,217,4170,434,6.784000,0
149.984768,218,4185,436,6.144000,0
149.990912,219,4200,438,0,1953.152000
151.944064,219,4215,438,5.504000,0
151.949568,220,4230,440,6.144000,0
151.955712,221,4245,442,5.504000,0
151.961216,222,4260,444,0,1948.928000
153.910144,222,4275,444,6.144000,0
153.916288,223,4290,446,5.504000,0
153.921792,224,4305,448,6.144000,0
153.927936,225,4320,450,0,1948.288000
155.876224,225,4335,450,6.784000,0
155.883008,226,4350,452,6.784000,0
155.889792,227,4365,454,0,1952.512000
157.842304,227,4380,454,5.504000,0
157.847808,228,4395,456,6.784000,0
157.854592,229,4410,458,4.864000,0
157.859456,230,4425,460,0,1948.928000
159.808384,230,4440,460,6.144000,0
159.814528,231,4455,462,5.504000,0
159.820032,232,4470,464,6.144000,0
159.826176,233,4485,466,6.784000,0
159.832960,234,4500,468,0,1941.504000
161.774464,234,4515,468,5.504000,0
161.779968,235,4530,470,5.504000,0
161.785472,236,4545,472,0,1955.072000
163.740544,236,4560,472,6.144000,0
163.746688,237,4575,474,4.864000,0
163.751552,238,4590,476,5.504000,0
163.757056,239,4605,478,0,1949.568000
165.706624,239,4620,478,5.504000,0
165.712128,240,4635,480,6.144000,0
165.718272,241,4650,482,4.864000,0
165.723136,242,4665,484,0,1949.568000
167.672704,242,4680,484,6.784000,0
167.679488,243,4695,486,5.504000,0
167.684992,244,4710,488,0,1953.792000
169.638784,244,4725,488,6.144000,0
169.644928,245,4740,490,4.864000,0
169.649792,246,4755,492,5.504000,0
169.655296,247,4770,494,0,1949.568000
171.604864,247,4785,494,5.504000,0
171.610368,248,4800,496,6.144000,0
171.616512,249,4815,498,0,1954.432000
173.570944,249,4830,498,6.784000,0
173.577728,250,4845,500,6.784000,0
173.584512,251,4860,502,0,1952.512000
175.537024,251,4875,502,4.864000,0
175.541888,252,4890,504,6.144000,0
175.548032,253,4905,506,4.864000,0
175.552896,254,4920,508,0,1950.208000
177.503104,254,4935,508,4.864000,0
177.507968,255,4950,510,5.504000,0
177.513472,256,4965,512,6.144000,0
177.519616,257,4980,514,4.864000,0
177.524480,258,4995,516,0,1944.704000
179.469184,258,5010,516,6.784000,0
179.475968,259,5025,518,5.504000,0
179.481472,260,5040,520,0,1953.792000
181.435264,260,5055,520,6.144000,0
181.441408,261,5070,522,6.784000,0
181.448192,262,5085,524,6.784000,0
181.454976,263,5100,526,0,1946.368000
183.401344,263,5115,526,5.504000,0
183.406848,264,5130,528,6.144000,0
183.412992,265,5145,530,6.784000,0
183.419776,266,5160,532,0,1947.648000
185.367424,266,5175,532,6.144000,0
185.373568,267,5190,534,5.504000,0
185.379072,268,5205,536,0,1954.432000
187.333504,268,5220,536,6.144000,0
187.339648,269,5235,538,5.504000,0
187.345152,270,5250,540,6.144000,0
187.351296,271,5265,542,0,1948.288000
189.299584,271,5280,542,5.504000,0
189.305088,272,5295,544,6.144000,0
189.311232,273,5310,546,6.144000,0
189.317376,274,5325,548,0,1948.288000
191.265664,274,5340,548,5.504000,0
191.271168,275,5355,550,5.504000,0
191.276672,276,5370,552,6.144000,0
191.282816,277,5385,554,0,1948.928000
193.231744,277,5400,554,5.504000,0
193.237248,278,5415,556,4.864000,0
193.242112,279,5430,558,5.504000,0
193.247616,280,5445,560,0,1950.208000
195.197824,280,5460,560,6.144000,0
195.203968,281,5475,562,5.504000,0
195.209472,282,5490,564,0,1954.432000
197.163904,282,5505,564,5.504000,0
197.169408,283,5520,566,5.504000,0
197.174912,284,5535,568,6.144000,0
197.181056,285,5550,570,0,1948.928000
199.129984,285,5565,570,6.784000,0
199.136768,286,5580,572,6.144000,0
199.142912,287,5595,574,0,1953.152000
201.096064,287,5610,574,5.504000,0
201.101568,288,5625,576,6.144000,0
201.107712,289,5640,578,4.864000,0
201.112576,290,5655,580,0,1949.568000
203.062144,290,5670,580,6.784000,0
203.068928,291,5685,582,5.504000,0
203.074432,292,5700,584,6.144000,0
203.080576,293,5715,586,0,1947.648000
205.028224,293,5730,586,6.144000,0
205.034368,294,5745,588,5.504000,0
205.039872,295,5760,590,0,1954.432000
206.994304,295,5775,590,5.504000,0
206.999808,296,5790,592,6.144000,0
207.005952,297,5805,594,4.864000,0
207.010816,298,5820,596,0,1949.568000
208.960384,298,5835,596,5.504000,0
208.965888,299,5850,598,5.504000,0
208.971392,300,5865,600,6.144000,0
208.977536,301,5880,602,6.784000,0
208.984320,302,5895,604,0,1942.144000
210.926464,302,5910,604,4.864000,0
210.931328,303,5925,606,4.864000,0
210.936192,304,5940,608,0,1956.352000
212.892544,304,5955,608,6.144000,0
212.898688,305,5970,610,4.864000,0
212.903552,306,5985,612,4.864000,0
212.908416,307,6000,614,4.864000,0
212.913280,308,6015,616,0,1945.344000
214.858624,308,6030,616,6.144000,0
214.864768,309,6045,618,4.864000,0
214.869632,310,6060,620,0,1955.072000
216.824704,310,6075,620,4.864000,0
216.829568,311,6090,622,4.864000,0
216.834432,312,6105,624,6.144000,0
216.840576,313,6120,626,0,1950.208000
218.790784,313,6135,626,4.864000,0
218.795648,314,6150,628,4.864000,0
218.800512,315,6165,630,5.504000,0
218.806016,316,6180,632,0,1950.848000
220.756864,316,6195,632,6.144000,0
220.763008,317,6210,634,6.144000,0
220.769152,318,6225,636,5.504000,0
220.774656,319,6240,638,0,1948.288000
222.722944,319,6255,638,5.504000,0
222.728448,320,6270,640,6.144000,0
222.734592,321,6285,642,6.784000,0
222.741376,322,6300,644,0,1947.648000
224.689024,322,6315,644,6.144000,0
224.695168,323,6330,646,5.504000,0
224.700672,324,6345,648,6.144000,0
224.706816,325,6360,650,5.504000,0
224.712320,326,6375,652,0,1942.784000
226.655104,326,6390,652,6.144000,0
226.661248,327,6405,654,5.504000,0
226.666752,328,6420,656,6.144000,0
226.672896,329,6435,658,0,1948.288000
228.621184,329,6450,658,6.784000,0
228.627968,330,6465,660,6.784000,0
228.634752,331,6480,662,5.504000,0
228.640256,332,6495,664,0,1947.008000
230.587264,332,6510,664,6.784000,0
230.594048,333,6525,666,4.864000,0
230.598912,334,6540,668,0,1954.432000
232.553344,334,6555,668,6.144000,0
232.559488,335,6570,670,5.504000,0
232.564992,336,6585,672,6.144000,0
232.571136,337,6600,674,0,1948.288000
234.519424,337,6615,674,6.784000,0
234.526208,338,6630,676,5.504000,0
234.531712,339,6645,678,5.504000,0
234.537216,340,6660,680,0,1948.288000
236.485504,340,6675,680,6.144000,0
236.491648,341,6690,682,4.864000,0
236.496512,342,6705,684,5.504000,0
236.502016,343,6720,686,5.504000,0
236.507520,344,6735,688,0,1944.064000
238.451584,344,6750,688,6.144000,0
238.457728,345,6765,690,4.864000,0
238.462592,346,6780,692,6.784000,0
238.469376,347,6795,694,0,1948.288000
240.417664,347,6810,694,5.504000,0
240.423168,348,6825,696,6.144000,0
240.429312,349,6840,698,4.864000,0
240.434176,350,6855,700,