Time,CovertPackets,AllPackets,BitsSent,PacketInterval;GTSInterval
32.016512,1,2,2,5.056000,0
32.021568,2,3,4,5.696000,0
32.027264,3,4,6,5.696000,0
32.032960,4,5,8,5.056000,0
32.038016,5,6,10,5.056000,0
32.043072,6,7,12,5.696000,0
32.048768,7,8,14,6.336000,0
32.055104,8,9,16,5.696000,0
32.060800,9,10,18,5.056000,0
32.065856,10,11,20,0,1912.960000
33.978816,10,12,20,5.696000,0
33.984512,11,13,22,5.056000,0
33.989568,12,14,24,5.696000,0
33.995264,13,15,26,5.056000,0
34.000320,14,16,28,5.696000,0
34.006016,15,17,30,6.336000,0
34.012352,16,18,32,6.336000,0
34.018688,17,19,34,5.056000,0
34.023744,18,20,36,6.336000,0
34.030080,19,21,38,0,1914.816000
35.944896,19,22,38,4.416000,0
35.949312,20,23,40,5.696000,0
35.955008,21,24,42,5.056000,0
35.960064,22,25,44,5.696000,0
35.965760,23,26,46,6.336000,0
35.972096,24,27,48,5.056000,0
35.977152,25,28,50,5.056000,0
35.982208,26,29,52,5.696000,0
35.987904,27,30,54,4.416000,0
35.992320,28,31,56,5.056000,0
35.997376,29,32,58,0,1913.600000
37.910976,29,33,58,5.056000,0
37.916032,30,34,60,5.696000,0
37.921728,31,35,62,4.416000,0
37.926144,32,36,64,6.336000,0
37.932480,33,37,66,5.056000,0
37.937536,34,38,68,5.696000,0
37.943232,35,39,70,4.416000,0
37.947648,36,40,72,5.056000,0
37.952704,37,41,74,5.056000,0
37.957760,38,42,76,5.696000,0
37.963456,39,43,78,0,1913.600000
39.877056,39,44,78,6.336000,0
39.883392,40,45,80,6.336000,0
39.889728,41,46,82,4.416000,0
39.894144,42,47,84,5.696000,0
39.899840,43,48,86,4.416000,0
39.904256,44,49,88,4.416000,0
39.908672,45,50,90,5.056000,0
39.913728,46,51,92,5.696000,0
39.919424,47,52,94,4.416000,0
39.923840,48,53,96,6.336000,0
39.930176,49,54,98,0,1912.960000
41.843136,49,55,98,5.056000,0
41.848192,50,56,100,5.696000,0
41.853888,51,57,102,6.336000,0
41.860224,52,58,104,6.336000,0
41.866560,53,59,106,5.056000,0
41.871616,54,60,108,5.696000,0
41.877312,55,61,110,6.336000,0
41.883648,56,62,112,5.696000,0
41.889344,57,63,114,5.056000,0
41.894400,58,64,116,0,1914.816000
43.809216,58,65,116,5.696000,0
43.814912,59,66,118,5.056000,0
43.819968,60,67,120,0,3921.408000
47.741376,60,68,120,0,1966.080000
49.707456,60,69,120,0,3932.160000
53.639616,60,70,120,0,3932.160000
57.571776,60,71,120,0,1966.080000
59.537856,60,72,120,0,3932.160000
63.470016,60,73,120,0,1966.080000
65.436096,60,74,120,0,3932.160000
69.368256,60,75,120,0,1966.080000
71.334336,60,76,120,0,3932.160000
75.266496,60,77,120,0,3932.160000
79.198656,60,78,120,0,1966.080000
81.164736,60,79,120,0,3932.160000
85.096896,60,80,120,0,1966.080000
87.062976,60,81,120,0,3932.160000
90.995136,60,82,120,0,1966.080000
92.961216,60,83,120,0,3932.160000
96.893376,60,84,120,0,1966.080000
98.859456,60,85,120,0,3932.160000
102.791616,60,86,120,0,3932.160000
106.723776,60,87,120,0,1966.080000
108.689856,60,88,120,0,3932.160000
112.622016,60,89,120,0,1966.080000
114.588096,60,90,120,0,3932.160000
118.520256,60,91,120,0,3932.160000
122.452416,60,92,120,0,1966.080000
124.418496,60,93,120,0,3932.160000
128.350656,60,94,120,0,1966.080000
130.316736,60,95,120,0,3932.160000
134.248896,60,96,120,0,1966.080000
136.214976,60,97,120,0,3932.160000
140.147136,60,98,120,0,3932.160000
144.079296,60,99,120,0,1966.080000
146.045376,60,100,120,0,3932.160000
149.977536,60,101,120,0,1966.080000
151.943616,60,102,120,0,3932.160000
155.875776,60,103,120,0,1966.080000
157.841856,60,104,120,0,3932.160000
161.774016,60,105,120,0,1966.080000
163.740096,60,106,120,0,3932.160000
167.672256,60,107,120,0,3932.160000
171.604416,60,108,120,0,1966.080000
173.570496,60,109,120,0,3932.160000
177.502656,60,110,120,0,1966.080000
179.468736,60,111,120,0,3932.160000
183.400896,60,112,120,0,3932.160000
187.333056,60,113,120,0,1966.080000
189.299136,60,114,120,0,3932.160000
193.231296,60,115,120,0,1966.080000
195.197376,60,116,120,0,3932.160000
199.129536,60,117,120,0,3932.160000
203.061696,60,118,120,0,1966.080000
205.027776,60,119,120,0,3932.160000
208.959936,60,120,120,0,1966.080000
210.926016,60,121,120,0,3932.160000
214.858176,60,122,120,0,1966.080000
216.824256,60,123,120,0,3932.160000
220.756416,60,124,120,0,3932.160000
224.688576,60,125,120,0,1966.080000
226.654656,60,126,120,0,3932.160000
230.586816,60,127,120,0,1966.080000
232.552896,60,128,120,0,3932.160000
236.485056,60,129,120,0,3932.160000
240.417216,60,130,120,0,1966.080000
242.383296,60,131,120,0,3932.160000
246.315456,60,132,120,0,1966.080000
248.281536,60,133,120,0,3932.160000
252.213696,60,134,120,0,3932.160000
256.145856,60,135,120,0,1966.080000
258.111936,60,136,120,0,3932.160000
262.044096,60,137,120,0,1966.080000
264.010176,60,138,120,