Time,CovertPackets,AllPackets,BitsSent,PacketInterval;GTSInterval
32.020288,1,120,2,6.944000,0
32.027232,2,180,4,7.584000,0
32.034816,3,240,6,7.584000,0
32.042400,4,300,8,6.944000,0
32.049344,5,360,10,6.944000,0
32.056288,6,420,12,7.584000,0
32.063872,7,480,14,0,1916.832000
33.980704,7,540,14,8.224000,0
33.988928,8,600,16,7.584000,0
33.996512,9,660,18,6.944000,0
34.003456,10,720,20,7.584000,0
34.011040,11,780,22,6.944000,0
34.017984,12,840,24,7.584000,0
34.025568,13,900,26,6.944000,0
34.032512,14,960,28,0,1914.272000
35.946784,14,1020,28,7.584000,0
35.954368,15,1080,30,8.224000,0
35.962592,16,1140,32,8.224000,0
35.970816,17,1200,34,6.944000,0
35.977760,18,1260,36,8.224000,0
35.985984,19,1320,38,6.304000,0
35.992288,20,1380,40,7.584000,0
35.999872,21,1440,42,0,1912.992000
37.912864,21,1500,42,6.944000,0
37.919808,22,1560,44,7.584000,0
37.927392,23,1620,46,8.224000,0
37.935616,24,1680,48,6.944000,0
37.942560,25,1740,50,6.944000,0
37.949504,26,1800,52,7.584000,0
37.957088,27,1860,54,6.304000,0
37.963392,28,1920,56,0,1915.552000
39.878944,28,1980,56,6.944000,0
39.885888,29,2040,58,6.944000,0
39.892832,30,2100,60,7.584000,0
39.900416,31,2160,62,6.304000,0
39.906720,32,2220,64,8.224000,0
39.914944,33,2280,66,6.944000,0
39.921888,34,2340,68,7.584000,0
39.929472,35,2400,70,0,1915.552000
41.845024,35,2460,70,6.304000,0
41.851328,36,2520,72,6.944000,0
41.858272,37,2580,74,6.944000,0
41.865216,38,2640,76,7.584000,0
41.872800,39,2700,78,8.224000,0
41.881024,40,2760,80,8.224000,0
41.889248,41,2820,82,6.304000,0
41.895552,42,2880,84,0,1915.552000
43.811104,42,2940,84,7.584000,0
43.818688,43,3000,86,6.304000,0
43.824992,44,3060,88,6.304000,0
43.831296,45,3120,90,6.944000,0
43.838240,46,3180,92,7.584000,0
43.845824,47,3240,94,6.304000,0
43.852128,48,3300,96,8.224000,0
43.860352,49,3360,98,0,1916.832000
45.777184,49,3420,98,6.944000,0
45.784128,50,3480,100,7.584000,0
45.791712,51,3540,102,8.224000,0
45.799936,52,3600,104,8.224000,0
45.808160,53,3660,106,6.944000,0
45.815104,54,3720,108,7.584000,0
45.822688,55,3780,110,0,1920.576000
47.743264,55,3840,110,8.224000,0
47.751488,56,3900,112,7.584000,0
47.759072,57,3960,114,6.944000,0
47.766016,58,4020,116,7.584000,0
47.773600,59,4080,118,6.944000,0
47.780544,60,4140,120,7.584000,0
47.788128,61,4200,122,6.944000,0
47.795072,62,4260,124,0,1914.272000
49.709344,62,4320,124,7.584000,0
49.716928,63,4380,126,7.584000,0
49.724512,64,4440,128,6.944000,0
49.731456,65,4500,130,6.944000,0
49.738400,66,4560,132,7.584000,0
49.745984,67,4620,134,6.944000,0
49.752928,68,4680,136,6.304000,0
49.759232,69,4740,138,0,1916.192000
51.675424,69,4800,138,6.944000,0
51.682368,70,4860,140,7.584000,0
51.689952,71,4920,142,6.944000,0
51.696896,72,4980,144,6.944000,0
51.703840,73,5040,146,6.944000,0
51.710784,74,5100,148,7.584000,0
51.718368,75,5160,150,8.224000,0
51.726592,76,5220,152,0,1914.912000
53.641504,76,5280,152,7.584000,0
53.649088,77,5340,154,6.944000,0
53.656032,78,5400,156,7.584000,0
53.663616,79,5460,158,6.304000,0
53.669920,80,5520,160,8.224000,0
53.678144,81,5580,162,6.944000,0
53.685088,82,5640,164,7.584000,0
53.692672,83,5700,166,0,1914.912000
55.607584,83,5760,166,7.584000,0
55.615168,84,5820,168,6.944000,0
55.622112,85,5880,170,6.944000,0
55.629056,86,5940,172,7.584000,0
55.636640,87,6000,174,6.304000,0
55.642944,88,6060,176,6.944000,0
55.649888,89,6120,178,6.944000,0
55.656832,90,6180,180,0,1916.832000
57.573664,90,6240,180,7.584000,0
57.581248,91,6300,182,8.224000,0
57.589472,92,6360,184,6.304000,0
57.595776,93,6420,186,6.304000,0
57.602080,94,6480,188,7.584000,0
57.609664,95,6540,190,6.304000,0
57.615968,96,6600,192,6.304000,0
57.622272,97,6660,194,0,1917.472000
59.539744,97,6720,194,6.304000,0
59.546048,98,6780,196,7.584000,0
59.553632,99,6840,198,6.304000,0
59.559936,100,6900,200,6.304000,0
59.566240,101,6960,202,6.304000,0
59.572544,102,7020,204,7.584000,0
59.580128,103,7080,206,6.304000,0
59.586432,104,7140,208,6.304000,0
59.592736,105,7200,210,0,1913.088000
61.505824,105,7260,210,6.944000,0
61.512768,106,7320,212,7.584000,0
61.520352,107,7380,214,7.584000,0
61.527936,108,7440,216,6.944000,0
61.534880,109,7500,218,6.944000,0
61.541824,110,7560,220,7.584000,0
61.549408,111,7620,222,8.224000,0
61.557632,112,7680,224,0,1914.272000
63.471904,112,7740,224,7.584000,0
63.479488,113,7800,226,6.944000,0
63.486432,114,7860,228,7.584000,0
63.494016,115,7920,230,6.944000,0
63.500960,116,7980,232,7.584000,0
63.508544,117,8040,234,6.944000,0
63.515488,118,8100,236,7.584000,0
63.523072,119,8160,238,0,1914.912000
65.437984,119,8220,238,8.224000,0
65.446208,120,8280,240,8.224000,0
65.454432,121,8340,242,6.944000,0
65.461376,122,8400,244,8.224000,0
65.469600,123,8460,246,6.304000,0
65.475904,124,8520,248,7.584000,0
65.483488,125,8580,250,6.944000,0
65.490432,126,8640,252,0,1913.632000
67.404064,126,8700,252,7.584000,0
67.411648,127,8760,254,8.224000,0
67.419872,128,8820,256,6.944000,0
67.426816,129,8880,258,6.944000,0
67.433760,130,8940,260,7.584000,0
67.441344,131,9000,262,6.304000,0
67.447648,132,9060,264,6.944000,0
67.454592,133,9120,266,0,1915.552000
69.370144,133,9180,266,6.944000,0
69.377088,134,9240,268,7.584000,0
69.384672,135,9300,270,6.304000,0
69.390976,136,9360,272,8.224000,0
69.399200,137,9420,274,6.944000,0
69.406144,138,9480,276,7.584000,0
69.413728,139,9540,278,6.304000,0
69.420032,140,9600,280,0,1916.192000
71.336224,140,9660,280,6.944000,0
71.343168,141,9720,282,6.944000,0
71.350112,142,9780,284,7.584000,0
71.357696,143,9840,286,8.224000,0
71.365920,144,9900,288,8.224000,0
71.374144,145,9960,290,6.304000,0
71.380448,146,10020,292,7.584000,0
71.388032,147,10080,294,0,1914.272000
73.302304,147,10140,294,6.304000,0
73.308608,148,10200,296,6.304000,0
73.314912,149,10260,298,6.944000,0
73.321856,150,10320,300,7.584000,0
73.329440,151,10380,302,6.304000,0
73.335744,152,10440,304,8.224000,0
73.343968,153,10500,306,6.944000,0
73.350912,154,10560,308,0,1917.472000
75.268384,154,10620,308,7.584000,0
75.275968,155,10680,310,8.224000,0
75.284192,156,10740,312,8.224000,0
75.292416,157,10800,314,6.944000,0
75.299360,158,10860,316,7.584000,0
75.306944,159,10920,318,8.224000,0
75.315168,160,10980,320,0,1919.296000
77.234464,160,11040,320,7.584000,0
77.242048,161,11100,322,6.944000,0
77.248992,162,11160,324,7.584000,0
77.256576,163,11220,326,6.944000,0
77.263520,164,11280,328,7.584000,0
77.271104,165,11340,330,6.944000,0
77.278048,166,11400,332,7.584000,0
77.285632,167,11460,334,0,1914.912000
79.200544,167,11520,334,7.584000,0
79.208128,168,11580,336,6.944000,0
79.215072,169,11640,338,6.944000,0
79.222016,170,11700,340,7.584000,0
79.229600,171,11760,342,6.944000,0
79.236544,172,11820,344,6.304000,0
79.242848,173,11880,346,6.944000,0
79.249792,174,11940,348,0,1916.832000
81.166624,174,12000,348,7.584000,0
81.174208,175,12060,350,6.944000,0
81.181152,176,12120,352,6.944000,0
81.188096,177,12180,354,6.944000,0
81.195040,178,12240,356,7.584000,0
81.202624,179,12300,358,8.224000,0
81.210848,180,12360,360,7.584000,0
81.218432,181,12420,362,0,1914.272000
83.132704,181,12480,362,6.944000,0
83.139648,182,12540,364,7.584000,0
83.147232,183,12600,366,6.304000,0
83.153536,184,12660,368,8.224000,0
83.161760,185,12720,370,6.944000,0
83.168704,186,12780,372,7.584000,0
83.176288,187,12840,374,7.584000,0
83.183872,188,12900,376,0,1914.912000
85.098784,188,12960,376,6.944000,0
85.105728,189,13020,378,6.944000,0
85.112672,190,13080,380,7.584000,0
85.120256,191,13140,382,6.304000,0
85.126560,192,13200,384,6.944000,0
85.133504,193,13260,386,6.944000,0
85.140448,194,13320,388,7.584000,0
85.148032,195,13380,390,0,1916.832000
87.064864,195,13440,390,8.224000,0
87.073088,196,13500,392,6.304000,0
87.079392,197,13560,394,6.304000,0
87.085696,198,13620,396,7.584000,0
87.093280,199,13680,398,6.304000,0
87.099584,200,13740,400,6.304000,0
87.105888,201,13800,402,6.304000,0
87.112192,202,13860,404,0,1918.752000
89.030944,202,13920,404,7.584000,0
89.038528,203,13980,406,6.304000,0
89.044832,204,14040,408,6.304000,0
89.051136,205,14100,410,6.304000,0
89.057440,206,14160,412,7.584000,0
89.065024,207,14220,414,6.304000,0
89.071328,208,14280,416,6.304000,0
89.077632,209,14340,418,0,1919.392000
90.997024,209,14400,418,6.944000,0
91.003968,210,14460,420,7.584000,0
91.011552,211,14520,422,7.584000,0
91.019136,212,14580,424,6.944000,0
91.026080,213,14640,426,6.944000,0
91.033024,214,14700,428,7.584000,0
91.040608,215,14760,430,8.224000,0
91.048832,216,14820,432,0,1914.272000
92.963104,216,14880,432,7.584000,0
92.970688,217,14940,434,6.944000,0
92.977632,218,15000,436,7.584000,0
92.985216,219,15060,438,6.944000,0
92.992160,220,15120,440,7.584000,0
92.999744,221,15180,442,6.944000,0
93.006688,222,15240,444,7.584000,0
93.014272,223,15300,446,0,1914.912000
94.929184,223,15360,446,8.224000,0
94.937408,224,15420,448,8.224000,0
94.945632,225,15480,450,6.944000,0
94.952576,226,15540,452,8.224000,0
94.960800,227,15600,454,6.304000,0
94.967104,228,15660,456,7.584000,0
94.974688,229,15720,458,6.944000,0
94.981632,230,15780,460,0,1913.632000
96.895264,230,15840,460,7.584000,0
96.902848,231,15900,462,8.224000,0
96.911072,232,15960,464,6.944000,0
96.918016,233,16020,466,6.944000,0
96.924960,234,16080,468,7.584000,0
96.932544,235,16140,470,6.304000,0
96.938848,236,16200,472,6.944000,0
96.945792,237,16260,474,0,1915.552000
98.861344,237,16320,474,6.944000,0
98.868288,238,16380,476,7.584000,0
98.875872,239,16440,478,6.304000,0
98.882176,240,16500,480,8.224000,0
98.890400,241,16560,482,6.944000,0
98.897344,242,16620,484,7.584000,0
98.904928,243,16680,486,6.304000,0
98.911232,244,16740,488,0,1916.192000
100.827424,244,16800,488,6.944000,0
100.834368,245,16860,490,6.944000,0
100.841312,246,16920,492,7.584000,0
100.848896,247,16980,494,8.224000,0
100.857120,248,17040,496,8.224000,0
100.865344,249,17100,498,6.304000,0
100.871648,250,17160,500,7.584000,0
100.879232,251,17220,502,0,1914.272000
102.793504,251,17280,502,6.304000,0
102.799808,252,17340,504,6.304000,0
102.806112,253,17400,506,6.944000,0
102.813056,254,17460,508,7.584000,0
102.820640,255,17520,510,6.304000,0
102.826944,256,17580,512,8.224000,0
102.835168,257,17640,514,6.944000,0
102.842112,258,17700,516,0,1917.472000
104.759584,258,17760,516,7.584000,0
104.767168,259,17820,518,8.224000,0
104.775392,260,17880,520,8.224000,0
104.783616,261,17940,522,6.944000,0
104.790560,262,18000,524,7.584000,0
104.798144,263,18060,526,8.224000,0
104.806368,264,18120,528,0,1919.296000
106.725664,264,18180,528,7.584000,0
106.733248,265,18240,530,6.944000,0
106.740192,266,18300,532,7.584000,0
106.747776,267,18360,534,6.944000,0
106.754720,268,18420,536,7.584000,0
106.762304,269,18480,538,6.944000,0
106.769248,270,18540,540,7.584000,0
106.776832,271,18600,542,0,1914.912000
108.691744,271,18660,542,7.584000,0
108.699328,272,18720,544,6.944000,0
108.706272,273,18780,546,6.944000,0
108.713216,274,18840,548,7.584000,0
108.720800,275,18900,550,6.944000,0
108.727744,276,18960,552,6.304000,0
108.734048,277,19020,554,6.944000,0
108.740992,278,19080,556,0,1916.832000
110.657824,278,19140,556,7.584000,0
110.665408,279,19200,558,6.944000,0
110.672352,280,19260,560,6.944000,0
110.679296,281,19320,562,6.944000,0
110.686240,282,19380,564,7.584000,0
110.693824,283,19440,566,8.224000,0
110.702048,284,19500,568,7.584000,0
110.709632,285,19560,570,0,1914.272000
112.623904,285,19620,570,6.944000,0
112.630848,286,19680,572,7.584000,0
112.638432,287,19740,574,6.304000,0
112.644736,288,19800,576,8.224000,0
112.652960,289,19860,578,6.944000,0
112.659904,290,19920,580,7.584000,0
112.667488,291,19980,582,7.584000,0
112.675072,292,20040,584,0,1914.912000
114.589984,292,20100,584,6.944000,0
114.596928,293,20160,586,6.944000,0
114.603872,294,20220,588,7.584000,0
114.611456,295,20280,590,6.304000,0
114.617760,296,20340,592,6.944000,0
114.624704,297,20400,594,6.944000,0
114.631648,298,20460,596,7.584000,0
114.639232,299,20520,598,0,1916.832000
116.556064,299,20580,598,8.224000,0
116.564288,300,20640,600,6.304000,0
116.570592,301,20700,602,6.304000,0
116.576896,302,20760,604,7.584000,0
116.584480,303,20820,606,6.304000,0
116.590784,304,20880,608,6.304000,0
116.597088,305,20940,610,6.304000,0
116.603392,306,21000,612,0,1918.752000
118.522144,306,21060,612,7.584000,0
118.529728,307,21120,614,6.304000,0
118.536032,308,21180,616,6.304000,0
118.542336,309,21240,618,6.304000,0
118.548640,310,21300,620,7.584000,0
118.556224,311,21360,622,6.304000,0
118.562528,312,21420,624,6.304000,0
118.568832,313,21480,626,0,1919.392000
120.488224,313,21540,626,6.944000,0
120.495168,314,21600,628,7.584000,0
120.502752,315,21660,630,7.584000,0
120.510336,316,21720,632,6.944000,0
120.517280,317,21780,634,6.944000,0
120.524224,318,21840,636,7.584000,0
120.531808,319,21900,638,8.224000,0
120.540032,320,21960,640,0,1914.272000
122.454304,320,22020,640,7.584000,0
122.461888,321,22080,642,6.944000,0
122.468832,322,22140,644,7.584000,0
122.476416,323,22200,646,6.944000,0
122.483360,324,22260,648,7.584000,0
122.490944,325,22320,650,6.944000,0
122.497888,326,22380,652,7.584000,0
122.505472,327,22440,654,0,1914.912000
124.420384,327,22500,654,8.224000,0
124.428608,328,22560,656,8.224000,0
124.436832,329,22620,658,6.944000,0
124.443776,330,22680,660,8.224000,0
124.452000,331,22740,662,6.304000,0
124.458304,332,22800,664,7.584000,0
124.465888,333,22860,666,6.944000,0
124.472832,334,22920,668,0,1913.632000
126.386464,334,22980,668,7.584000,0
126.394048,335,23040,670,8.224000,0
126.402272,336,23100,672,6.944000,0
126.409216,337,23160,674,6.944000,0
126.416160,338,23220,676,7.584000,0
126.423744,339,23280,678,6.304000,0
126.430048,340,23340,680,6.944000,0
126.436992,341,23400,682,0,1915.552000
128.352544,341,23460,682,6.944000,0
128.359488,342,23520,684,7.584000,0
128.367072,343,23580,686,6.304000,0
128.373376,344,23640,688,8.224000,0
128.381600,345,23700,690,6.944000,0
128.388544,346,23760,692,7.584000,0
128.396128,347,23820,694,6.304000,0
128.402432,348,23880,696,0,1916.192000
130.318624,348,23940,696,6.944000,0
130.325568,349,24000,698,6.944000,0
130.332512,350,24060,700,7.584000,0
130.340096,351,24120,702,8.224000,0
130.348320,352,24180,704,8.224000,0
130.356544,353,24240,706,6.304000,0
130.362848,354,24300,708,7.584000,0
130.370432,355,24360,710,0,1914.272000
132.284704,355,24420,710,6.304000,0
132.291008,356,24480,712,6.304000,0
132.297312,357,24540,714,6.944000,0
132.304256,358,24600,716,7.584000,0
132.311840,359,24660,718,6.304000,0
132.318144,360,24720,720,8.224000,0
132.326368,361,24780,722,6.944000,0
132.333312,362,24840,724,0,1917.472000
134.250784,362,24900,724,7.584000,0
134.258368,363,24960,726,8.224000,0
134.266592,364,25020,728,8.224000,0
134.274816,365,25080,730,6.944000,0
134.281760,366,25140,732,7.584000,0
134.289344,367,25200,734,8.224000,0
134.297568,368,25260,736,0,1919.296000
136.216864,368,25320,736,7.584000,0
136.224448,369,25380,738,6.944000,0
136.231392,370,25440,740,7.584000,0
136.238976,371,25500,742,6.944000,0
136.245920,372,25560,744,7.584000,0
136.253504,373,25620,746,6.944000,0
136.260448,374,25680,748,7.584000,0
136.268032,375,25740,750,0,1914.912000
138.182944,375,25800,750,7.584000,0
138.190528,376,25860,752,6.944000,0
138.197472,377,25920,754,6.944000,0
138.204416,378,25980,756,7.584000,0
138.212000,379,26040,758,6.944000,0
138.218944,380,26100,760,6.304000,0
138.225248,381,26160,762,6.944000,0
138.232192,382,26220,764,0,1916.832000
140.149024,382,26280,764,7.584000,0
140.156608,383,26340,766,6.944000,0
140.163552,384,26400,768,6.944000,0
140.170496,385,26460,770,6.944000,0
140.177440,386,26520,772,7.584000,0
140.185024,387,26580,774,8.224000,0
140.193248,388,26640,776,7.584000,0
140.200832,389,26700,778,0,1914.272000
142.115104,389,26760,778,6.944000,0
142.122048,390,26820,780,7.584000,0
142.129632,391,26880,782,6.304000,0
142.135936,392,26940,784,8.224000,0
142.144160,393,27000,786,6.944000,0
142.151104,394,27060,788,7.584000,0
142.158688,395,27120,790,7.584000,0
142.166272,396,27180,792,0,1914.912000
144.081184,396,27240,792,6.944000,0
144.088128,397,27300,794,6.944000,0
144.095072,398,27360,796,7.584000,0
144.102656,399,27420,798,6.304000,0
144.108960,400,27480,800,6.944000,0
144.115904,401,27540,802,6.944000,0
144.122848,402,27600,804,7.584000,0
144.130432,403,27660,806,0,1916.832000
146.047264,403,27720,806,8.224000,0
146.055488,404,27780,808,6.304000,0
146.061792,405,27840,810,6.304000,0
146.068096,406,27900,812,7.584000,0
146.075680,407,27960,814,6.304000,0
146.081984,408,28020,816,6.304000,0
146.088288,409,28080,818,6.304000,0
146.094592,410,28140,820,0,1918.752000
148.013344,410,28200,820,7.584000,0
148.020928,411,28260,822,6.304000,0
148.027232,412,28320,824,6.304000,0
148.033536,413,28380,826,6.304000,0
148.039840,414,28440,828,7.584000,0
148.047424,415,28500,830,6.304000,0
148.053728,416,28560,832,6.304000,0
148.060032,417,28620,834,0,1919.392000
149.979424,417,28680,834,6.944000,0
149.986368,418,28740,836,7.584000,0
149.993952,419,28800,838,7.584000,0
150.001536,420,28860,840,6.944000,0
150.008480,421,28920,842,6.944000,0
150.015424,422,28980,844,7.584000,0
150.023008,423,29040,846,8.224000,0
150.031232,424,29100,848,0,1914.272000
151.945504,424,29160,848,7.584000,0
151.953088,425,29220,850,6.944000,0
151.960032,426,29280,852,7.584000,0
151.967616,427,29340,854,6.944000,0
151.974560,428,29400,856,7.584000,0
151.982144,429,29460,858,6.944000,0
151.989088,430,29520,860,7.584000,0
151.996672,431,29580,862,0,1914.912000
153.911584,431,29640,862,8.224000,0
153.919808,432,29700,864,8.224000,0
153.928032,433,29760,866,6.944000,0
153.934976,434,29820,868,8.224000,0
153.943200,435,29880,870,6.304000,0
153.949504,436,29940,872,7.584000,0
153.957088,437,30000,874,6.944000,0
153.964032,438,30060,876,0,1913.632000
155.877664,438,30120,876,7.584000,0
155.885248,439,30180,878,8.224000,0
155.893472,440,30240,880,6.944000,0
155.900416,441,30300,882,6.944000,0
155.907360,442,30360,884,7.584000,0
155.914944,443,30420,886,6.304000,0
155.921248,444,30480,888,6.944000,0
155.928192,445,30540,890,0,1915.552000
157.843744,445,30600,890,6.944000,0
157.850688,446,30660,892,7.584000,0
157.858272,447,30720,894,6.304000,0
157.864576,448,30780,896,8.224000,0
157.872800,449,30840,898,6.944000,0
157.879744,450,30900,900,7.584000,0
157.887328,451,30960,902,6.304000,0
157.893632,452,31020,904,0,1916.192000
159.809824,452,31080,904,6.944000,0
159.816768,453,31140,906,6.944000,0
159.823712,454,31200,908,7.584000,0
159.831296,455,31260,910,8.224000,0
159.839520,456,31320,912,8.224000,0
159.847744,457,31380,914,6.304000,0
159.854048,458,31440,916,7.584000,0
159.861632,459,31500,918,0,1914.272000
161.775904,459,31560,918,6.304000,0
161.782208,460,31620,920,6.304000,0
161.788512,461,31680,922,6.944000,0
161.795456,462,31740,924,7.584000,0
161.803040,463,31800,926,6.304000,0
161.809344,464,31860,928,8.224000,0
161.817568,465,31920,930,6.944000,0
161.824512,466,31980,932,0,1917.472000
163.741984,466,32040,932,7.584000,0
163.749568,467,32100,934,8.224000,0
163.757792,468,32160,936,8.224000,0
163.766016,469,32220,938,6.944000,0
163.772960,470,32280,940,7.584000,0
163.780544,471,32340,942,8.224000,0
163.788768,472,32400,944,0,1919.296000
165.708064,472,32460,944,7.584000,0
165.715648,473,32520,946,6.944000,0
165.722592,474,32580,948,7.584000,0
165.730176,475,32640,950,6.944000,0
165.737120,476,32700,952,7.584000,0
165.744704,477,32760,954,6.944000,0
165.751648,478,32820,956,7.584000,0
165.759232,479,32880,958,0,1914.912000
167.674144,479,32940,958,7.584000,0
167.681728,480,33000,960,6.944000,0
167.688672,481,33060,962,6.944000,0
167.695616,482,33120,964,7.584000,0
167.703200,483,33180,966,6.944000,0
167.710144,484,33240,968,6.304000,0
167.716448,485,33300,970,6.944000,0
167.723392,486,33360,972,0,1916.832000
169.640224,486,33420,972,7.584000,0
169.647808,487,33480,974,6.944000,0
169.654752,488,33540,976,6.944000,0
169.661696,489,33600,978,6.944000,0
169.668640,490,33660,980,7.584000,0
169.676224,491,33720,982,8.224000,0
169.684448,492,33780,984,7.584000,0
169.692032,493,33840,986,0,1914.272000
171.606304,493,33900,986,6.944000,0
171.613248,494,33960,988,7.584000,0
171.620832,495,34020,990,6.304000,0
171.627136,496,34080,992,8.224000,0
171.635360,497,34140,994,6.944000,0
171.642304,498,34200,996,7.584000,0
171.649888,499,34260,998,7.584000,0
171.657472,500,34320,1000,0,1914.912000
173.572384,500,34380,1000,6.944000,0
173.579328,501,34440,1002,6.944000,0
173.586272,502,34500,1004,7.584000,0
173.593856,503,34560,1006,6.304000,0
173.600160,504,34620,1008,6.944000,0
173.607104,505,34680,1010,6.944000,0
173.614048,506,34740,1012,7.584000,0
173.621632,507,34800,1014,0,1916.832000
175.538464,507,34860,1014,8.224000,0
175.546688,508,34920,1016,6.304000,0
175.552992,509,34980,1018,6.304000,0
175.559296,510,35040,1020,7.584000,0
175.566880,511,35100,1022,6.304000,0
175.573184,512,35160,1024,6.304000,0
175.579488,513,35220,1026,6.304000,0
175.585792,514,35280,1028,0,1918.752000
177.504544,514,35340,1028,7.584000,0
177.512128,515,35400,1030,6.304000,0
177.518432,516,35460,1032,6.304000,0
177.524736,517,35520,1034,6.304000,0
177.531040,518,35580,1036,7.584000,0
177.538624,519,35640,1038,6.304000,0
177.544928,520,35700,1040,6.304000,0
177.551232,521,35760,1042,0,1919.392000
179.470624,521,35820,1042,6.944000,0
179.477568,522,35880,1044,7.584000,0
179.485152,523,35940,1046,7.584000,0
179.492736,524,36000,1048,6.944000,0
179.499680,525,36060,1050,6.944000,0
179.506624,526,36120,1052,7.584000,0
179.514208,527,36180,1054,8.224000,0
179.522432,528,36240,1056,0,1914.272000
181.436704,528,36300,1056,7.584000,0
181.444288,529,36360,1058,6.944000,0
181.451232,530,36420,1060,7.584000,0
181.458816,531,36480,1062,6.944000,0
181.465760,532,36540,1064,7.584000,0
181.473344,533,36600,1066,6.944000,0
181.480288,534,36660,1068,7.584000,0
181.487872,535,36720,1070,0,1914.912000
183.402784,535,36780,1070,8.224000,0
183.411008,536,36840,1072,8.224000,0
183.419232,537,36900,1074,6.944000,0
183.426176,538,36960,1076,8.224000,0
183.434400,539,37020,1078,6.304000,0
183.440704,540,37080,1080,7.584000,0
183.448288,541,37140,1082,6.944000,0
183.455232,542,37200,1084,0,1913.632000
185.368864,542,37260,1084,7.584000,0
185.376448,543,37320,1086,8.224000,0
185.384672,544,37380,1088,6.944000,0
185.391616,545,37440,1090,6.944000,0
185.398560,546,37500,1092,7.584000,0
185.406144,547,37560,1094,6.304000,0
185.412448,548,37620,1096,6.944000,0
185.419392,549,37680,1098,0,1915.552000
187.334944,549,37740,1098,6.944000,0
187.341888,550,37800,1100,7.584000,0
187.349472,551,37860,1102,6.304000,0
187.355776,552,37920,1104,8.224000,0
187.364000,553,37980,1106,6.944000,0
187.370944,554,38040,1108,7.584000,0
187.378528,555,38100,1110,6.304000,0
187.384832,556,38160,1112,0,1916.192000
189.301024,556,38220,1112,6.944000,0
189.307968,557,38280,1114,6.944000,0
189.314912,558,38340,1116,7.584000,0
189.322496,559,38400,1118,8.224000,0
189.330720,560,38460,1120,8.224000,0
189.338944,561,38520,1122,6.304000,0
189.345248,562,38580,1124,7.584000,0
189.352832,563,38640,1126,0,1914.272000
191.267104,563,38700,1126,6.304000,0
191.273408,564,38760,1128,6.304000,0
191.279712,565,38820,1130,6.944000,0
191.286656,566,38880,1132,7.584000,0
191.294240,567,38940,1134,6.304000,0
191.300544,568,39000,1136,8.224000,0
191.308768,569,39060,1138,6.944000,0
191.315712,570,39120,1140,0,1917.472000
193.233184,570,39180,1140,7.584000,0
193.240768,571,39240,1142,8.224000,0
193.248992,572,39300,1144,8.224000,0
193.257216,573,39360,1146,6.944000,0
193.264160,574,39420,1148,7.584000,0
193.271744,575,39480,1150,8.224000,0
193.279968,576,39540,1152,0,1919.296000
195.199264,576,39600,1152,7.584000,0
195.206848,577,39660,1154,6.944000,0
195.213792,578,39720,1156,7.584000,0
195.221376,579,39780,1158,6.944000,0
195.228320,580,39840,1160,7.584000,0
195.235904,581,39900,1162,6.944000,0
195.242848,582,39960,1164,7.584000,0
195.250432,583,40020,1166,0,1914.912000
197.165344,583,40080,1166,7.584000,0
197.172928,584,40140,1168,6.944000,0
197.179872,585,40200,1170,6.944000,0
197.186816,586,40260,1172,7.584000,0
197.194400,587,40320,1174,6.944000,0
197.201344,588,40380,1176,6.304000,0
197.207648,589,40440,1178,6.944000,0
197.214592,590,40500,1180,0,1916.832000
199.131424,590,40560,1180,7.584000,0
199.139008,591,40620,1182,6.944000,0
199.145952,592,40680,1184,6.944000,0
199.152896,593,40740,1186,6.944000,0
199.159840,594,40800,1188,7.584000,0
199.167424,595,40860,1190,8.224000,0
199.175648,596,40920,1192,7.584000,0
199.183232,597,40980,1194,0,1914.272000
201.097504,597,41040,1194,6.944000,0
201.104448,598,41100,1196,7.584000,0
201.112032,599,41160,1198,6.304000,0
201.118336,600,41220,1200,8.224000,0
201.126560,601,41280,1202,6.944000,0
201.133504,602,41340,1204,7.584000,0
201.141088,603,41400,1206,7.584000,0
201.148672,604,41460,1208,0,1914.912000
203.063584,604,41520,1208,6.944000,0
203.070528,605,41580,1210,6.944000,0
203.077472,606,41640,1212,7.584000,0
203.085056,607,41700,1214,6.304000,0
203.091360,608,41760,1216,6.944000,0
203.098304,609,41820,1218,6.944000,0
203.105248,610,41880,1220,7.584000,0
203.112832,611,41940,1222,0,1916.832000
205.029664,611,42000,1222,8.224000,0
205.037888,612,42060,1224,6.304000,0
205.044192,613,42120,1226,6.304000,0
205.050496,614,42180,1228,7.584000,0
205.058080,615,42240,1230,6.304000,0
205.064384,616,42300,1232,6.304000,0
205.070688,617,42360,1234,6.304000,0
205.076992,618,42420,1236,0,1918.752000
206.995744,618,42480,1236,7.584000,0
207.003328,619,42540,1238,6.304000,0
207.009632,620,42600,1240,6.304000,0
207.015936,621,42660,1242,6.304000,0
207.022240,622,42720,1244,7.584000,0
207.029824,623,42780,1246,6.304000,0
207.036128,624,42840,1248,6.304000,0
207.042432,625,42900,1250,0,1919.392000
208.961824,625,42960,1250,6.944000,0
208.968768,626,43020,1252,7.584000,0
208.976352,627,43080,1254,7.584000,0
208.983936,628,43140,1256,6.944000,0
208.990880,629,43200,1258,6.944000,0
208.997824,630,43260,1260,7.584000,0
209.005408,631,43320,1262,8.224000,0
209.013632,632,43380,1264,0,1914.272000
210.927904,632,43440,1264,7.584000,0
210.935488,633,43500,1266,6.944000,0
210.942432,634,43560,1268,7.584000,0
210.950016,635,43620,1270,6.944000,0
210.956960,636,43680,1272,7.584000,0
210.964544,637,43740,1274,6.944000,0
210.971488,638,43800,1276,7.584000,0
210.979072,639,43860,1278,0,1914.912000
212.893984,639,43920,1278,8.224000,0
212.902208,640,43980,1280,8.224000,0
212.910432,641,44040,1282,6.944000,0
212.917376,642,44100,1284,8.224000,0
212.925600,643,44160,1286,6.304000,0
212.931904,644,44220,1288,7.584000,0
212.939488,645,44280,1290,6.944000,0
212.946432,646,44340,1292,0,1913.632000
214.860064,646,44400,1292,7.584000,0
214.867648,647,44460,1294,8.224000,0
214.875872,648,44520,1296,6.944000,0
214.882816,649,44580,1298,6.944000,0
214.889760,650,44640,1300,7.584000,0
214.897344,651,44700,1302,6.304000,0
214.903648,652,44760,1304,6.944000,0
214.910592,653,44820,1306,0,1915.552000
216.826144,653,44880,1306,6.944000,0
216.833088,654,44940,1308,7.584000,0
216.840672,655,45000,1310,6.304000,0
216.846976,656,45060,1312,8.224000,0
216.855200,657,45120,1314,6.944000,0
216.862144,658,45180,1316,7.584000,0
216.869728,659,45240,1318,6.304000,0
216.876032,660,45300,1320,0,1916.192000
218.792224,660,45360,1320,6.944000,0
218.799168,661,45420,1322,6.944000,0
218.806112,662,45480,1324,7.584000,0
218.813696,663,45540,1326,8.224000,0
218.821920,664,45600,1328,8.224000,0
218.830144,665,45660,1330,6.304000,0
218.836448,666,45720,1332,7.584000,0
218.844032,667,45780,1334,0,1914.272000
220.758304,667,45840,1334,6.304000,0
220.764608,668,45900,1336,6.304000,0
220.770912,669,45960,1338,6.944000,0
220.777856,670,46020,1340,7.584000,0
220.785440,671,46080,1342,6.304000,0
220.791744,672,46140,1344,8.224000,0
220.799968,673,46200,1346,6.944000,0
220.806912,674,46260,1348,0,1917.472000
222.724384,674,46320,1348,7.584000,0
222.731968,675,46380,1350,8.224000,0
222.740192,676,46440,1352,8.224000,0
222.748416,677,46500,1354,6.944000,0
222.755360,678,46560,1356,7.584000,0
222.762944,679,46620,1358,8.224000,0
222.771168,680,46680,1360,0,1919.296000
224.690464,680,46740,1360,7.584000,0
224.698048,681,46800,1362,6.944000,0
224.704992,682,46860,1364,7.584000,0
224.712576,683,46920,1366,6.944000,0
224.719520,684,46980,1368,7.584000,0
224.727104,685,47040,1370,6.944000,0
224.734048,686,47100,1372,7.584000,0
224.741632,687,47160,1374,0,1914.912000
226.656544,687,47220,1374,7.584000,0
226.664128,688,47280,1376,6.944000,0
226.671072,689,47340,1378,6.944000,0
226.678016,690,47400,1380,7.584000,0
226.685600,691,47460,1382,6.944000,0
226.692544,692,47520,1384,6.304000,0
226.698848,693,47580,1386,6.944000,0
226.705792,694,47640,1388,0,1916.832000
228.622624,694,47700,1388,7.584000,0
228.630208,695,47760,1390,6.944000,0
228.637152,696,47820,1392,6.944000,0
228.644096,697,47880,1394,6.944000,0
228.651040,698,47940,1396,7.584000,0
228.658624,699,48000,1398,8.224000,0
228.666848,700,48060,1400,7.584000,0
228.674432,701,48120,1402,0,1914.272000
230.588704,701,48180,1402,6.944000,0
230.595648,702,48240,1404,7.584000,0
230.603232,703,48300,1406,6.304000,0
230.609536,704,48360,1408,8.224000,0
230.617760,705,48420,1410,6.944000,0
230.624704,706,48480,1412,7.584000,0
230.632288,707,48540,1414,7.584000,0
230.639872,708,48600,1416,0,1914.912000
232.554784,708,48660,1416,6.944000,0
232.561728,709,48720,1418,6.944000,0
232.568672,710,48780,1420,7.584000,0
232.576256,711,48840,1422,6.304000,0
232.582560,712,48900,1424,6.944000,0
232.589504,713,48960,1426,6.944000,0
232.596448,714,49020,1428,7.584000,0
232.604032,715,49080,1430,0,1916.832000
234.520864,715,49140,1430,8.224000,0
234.529088,716,49200,1432,6.304000,0
234.535392,717,49260,1434,6.304000,0
234.541696,718,49320,1436,7.584000,0
234.549280,719,49380,1438,6.304000,0
234.555584,720,49440,1440,6.304000,0
234.561888,721,49500,1442,6.304000,0
234.568192,722,49560,1444,