Time,CovertPackets,AllPackets,BitsSent,PacketInterval;GTSInterval
65.132672,1,2,2,5.056000,0
65.137728,2,3,4,5.696000,0
65.143424,3,4,6,5.696000,0
65.149120,4,5,8,5.056000,0
65.154176,5,6,10,5.056000,0
65.159232,6,7,12,5.696000,0
65.164928,7,8,14,6.336000,0
65.171264,8,9,16,5.696000,0
65.176960,9,10,18,5.056000,0
65.182016,10,11,20,0,7811.200000
72.993216,10,12,20,5.696000,0
72.998912,11,13,22,5.056000,0
73.003968,12,14,24,5.696000,0
73.009664,13,15,26,5.056000,0
73.014720,14,16,28,5.696000,0
73.020416,15,17,30,6.336000,0
73.026752,16,18,32,6.336000,0
73.033088,17,19,34,5.056000,0
73.038144,18,20,36,6.336000,0
73.044480,19,21,38,4.416000,0
73.048896,20,22,40,5.696000,0
73.054592,21,23,42,5.056000,0
73.059648,22,24,44,5.696000,0
73.065344,23,25,46,6.336000,0
73.071680,24,26,48,5.056000,0
73.076736,25,27,50,5.056000,0
73.081792,26,28,52,5.696000,0
73.087488,27,29,54,4.416000,0
73.091904,28,30,56,5.056000,0
73.096960,29,31,58,5.056000,0
73.102016,30,32,60,5.696000,0
73.107712,31,33,62,4.416000,0
73.112128,32,34,64,0,7745.408000
80.857536,32,35,64,6.336000,0
80.863872,33,36,66,5.056000,0
80.868928,34,37,68,5.696000,0
80.874624,35,38,70,4.416000,0
80.879040,36,39,72,5.056000,0
80.884096,37,40,74,5.056000,0
80.889152,38,41,76,5.696000,0
80.894848,39,42,78,6.336000,0
80.901184,40,43,80,6.336000,0
80.907520,41,44,82,4.416000,0
80.911936,42,45,84,5.696000,0
80.917632,43,46,86,4.416000,0
80.922048,44,47,88,4.416000,0
80.926464,45,48,90,5.056000,0
80.931520,46,49,92,5.696000,0
80.937216,47,50,94,4.416000,0
80.941632,48,51,96,6.336000,0
80.947968,49,52,98,5.056000,0
80.953024,50,53,100,5.696000,0
80.958720,51,54,102,6.336000,0
80.965056,52,55,104,6.336000,0
80.971392,53,56,106,5.056000,0
80.976448,54,57,108,0,7745.408000
88.721856,54,58,108,5.696000,0
88.727552,55,59,110,6.336000,0
88.733888,56,60,112,5.696000,0
88.739584,57,61,114,5.056000,0
88.744640,58,62,116,5.696000,0
88.750336,59,63,118,5.056000,0
88.755392,60,64,120,5.696000,0
88.761088,61,65,122,5.056000,0
88.766144,62,66,124,5.696000,0
88.771840,63,67,126,5.696000,0
88.777536,64,68,128,5.056000,0
88.782592,65,69,130,5.056000,0
88.787648,66,70,132,5.696000,0
88.793344,67,71,134,5.056000,0
88.798400,68,72,136,4.416000,0
88.802816,69,73,138,5.056000,0
88.807872,70,74,140,5.696000,0
88.813568,71,75,142,5.056000,0
88.818624,72,76,144,5.056000,0
88.823680,73,77,146,5.056000,0
88.828736,74,78,148,5.696000,0
88.834432,75,79,150,0,7751.744000
96.586176,75,80,150,6.336000,0
96.592512,76,81,152,5.696000,0
96.598208,77,82,154,5.056000,0
96.603264,78,83,156,5.696000,0
96.608960,79,84,158,4.416000,0
96.613376,80,85,160,6.336000,0
96.619712,81,86,162,5.056000,0
96.624768,82,87,164,5.696000,0
96.630464,83,88,166,5.696000,0
96.636160,84,89,168,5.056000,0
96.641216,85,90,170,5.056000,0
96.646272,86,91,172,5.696000,0
96.651968,87,92,174,4.416000,0
96.656384,88,93,176,5.056000,0
96.661440,89,94,178,5.056000,0
96.666496,90,95,180,5.696000,0
96.672192,91,96,182,6.336000,0
96.678528,92,97,184,4.416000,0
96.682944,93,98,186,4.416000,0
96.687360,94,99,188,5.696000,0
96.693056,95,100,190,4.416000,0
96.697472,96,101,192,4.416000,0
96.701888,97,102,194,0,7748.608000
104.450496,97,103,194,4.416000,0
104.454912,98,104,196,5.696000,0
104.460608,99,105,198,4.416000,0
104.465024,100,106,200,4.416000,0
104.469440,101,107,202,4.416000,0
104.473856,102,108,204,5.696000,0
104.479552,103,109,206,4.416000,0
104.483968,104,110,208,4.416000,0
104.488384,105,111,210,5.056000,0
104.493440,106,112,212,5.696000,0
104.499136,107,113,214,5.696000,0
104.504832,108,114,216,5.056000,0
104.509888,109,115,218,5.056000,0
104.514944,110,116,220,5.696000,0
104.520640,111,117,222,6.336000,0
104.526976,112,118,224,5.696000,0
104.532672,113,119,226,5.056000,0
104.537728,114,120,228,5.696000,0
104.543424,115,121,230,5.056000,0
104.548480,116,122,232,5.696000,0
104.554176,117,123,234,5.056000,0
104.559232,118,124,236,5.696000,0
104.564928,119,125,238,0,7749.888000
112.314816,119,126,238,6.336000,0
112.321152,120,127,240,6.336000,0
112.327488,121,128,242,5.056000,0
112.332544,122,129,244,6.336000,0
112.338880,123,130,246,4.416000,0
112.343296,124,131,248,5.696000,0
112.348992,125,132,250,5.056000,0
112.354048,126,133,252,5.696000,0
112.359744,127,134,254,6.336000,0
112.366080,128,135,256,5.056000,0
112.371136,129,136,258,5.056000,0
112.376192,130,137,260,5.696000,0
112.381888,131,138,262,4.416000,0
112.386304,132,139,264,5.056000,0
112.391360,133,140,266,5.056000,0
112.396416,134,141,268,5.696000,0
112.402112,135,142,270,4.416000,0
112.406528,136,143,272,6.336000,0
112.412864,137,144,274,5.056000,0
112.417920,138,145,276,5.696000,0
112.423616,139,146,278,4.416000,0
112.428032,140,147,280,0,7751.104000
120.179136,140,148,280,5.056000,0
120.184192,141,149,282,5.056000,0
120.189248,142,150,284,5.696000,0
120.194944,143,151,286,6.336000,0
120.201280,144,152,288,6.336000,0
120.207616,145,153,290,4.416000,0
120.212032,146,154,292,5.696000,0
120.217728,147,155,294,4.416000,0
120.222144,148,156,296,4.416000,0
120.226560,149,157,298,5.056000,0
120.231616,150,158,300,5.696000,0
120.237312,151,159,302,4.416000,0
120.241728,152,160,304,6.336000,0
120.248064,153,161,306,5.056000,0
120.253120,154,162,308,5.696000,0
120.258816,155,163,310,6.336000,0
120.265152,156,164,312,6.336000,0
120.271488,157,165,314,5.056000,0
120.276544,158,166,316,5.696000,0
120.282240,159,167,318,6.336000,0
120.288576,160,168,320,5.696000,0
120.294272,161,169,322,0,7749.184000
128.043456,161,170,322,5.056000,0
128.048512,162,171,324,5.696000,0
128.054208,163,172,326,5.056000,0
128.059264,164,173,328,5.696000,0
128.064960,165,174,330,5.056000,0
128.070016,166,175,332,5.696000,0
128.075712,167,176,334,5.696000,0
128.081408,168,177,336,5.056000,0
128.086464,169,178,338,5.056000,0
128.091520,170,179,340,5.696000,0
128.097216,171,180,342,5.056000,0
128.102272,172,181,344,4.416000,0
128.106688,173,182,346,5.056000,0
128.111744,174,183,348,5.696000,0
128.117440,175,184,350,5.056000,0
128.122496,176,185,352,5.056000,0
128.127552,177,186,354,5.056000,0
128.132608,178,187,356,5.696000,0
128.138304,179,188,358,6.336000,0
128.144640,180,189,360,5.696000,0
128.150336,181,190,362,5.056000,0
128.155392,182,191,364,0,7752.384000
135.907776,182,192,364,5.696000,0
135.913472,183,193,366,4.416000,0
135.917888,184,194,368,6.336000,0
135.924224,185,195,370,5.056000,0
135.929280,186,196,372,5.696000,0
135.934976,187,197,374,5.696000,0
135.940672,188,198,376,5.056000,0
135.945728,189,199,378,5.056000,0
135.950784,190,200,380,5.696000,0
135.956480,191,201,382,4.416000,0
135.960896,192,202,384,5.056000,0
135.965952,193,203,386,5.056000,0
135.971008,194,204,388,5.696000,0
135.976704,195,205,390,6.336000,0
135.983040,196,206,392,4.416000,0
135.987456,197,207,394,4.416000,0
135.991872,198,208,396,5.696000,0
135.997568,199,209,398,4.416000,0
136.001984,200,210,400,4.416000,0
136.006400,201,211,402,4.416000,0
136.010816,202,212,404,5.696000,0
136.016512,203,213,406,0,7755.584000
143.772096,203,214,406,4.416000,0
143.776512,204,215,408,4.416000,0
143.780928,205,216,410,4.416000,0
143.785344,206,217,412,5.696000,0
143.791040,207,218,414,4.416000,0
143.795456,208,219,416,4.416000,0
143.799872,209,220,418,5.056000,0
143.804928,210,221,420,5.696000,0
143.810624,211,222,422,5.696000,0
143.816320,212,223,424,5.056000,0
143.821376,213,224,426,5.056000,0
143.826432,214,225,428,5.696000,0
143.832128,215,226,430,6.336000,0
143.838464,216,227,432,5.696000,0
143.844160,217,228,434,5.056000,0
143.849216,218,229,436,5.696000,0
143.854912,219,230,438,5.056000,0
143.859968,220,231,440,5.696000,0
143.865664,221,232,442,5.056000,0
143.870720,222,233,444,5.696000,0
143.876416,223,234,446,6.336000,0
143.882752,224,235,448,6.336000,0
143.889088,225,236,450,0,7747.328000
151.636416,225,237,450,5.056000,0
151.641472,226,238,452,6.336000,0
151.647808,227,239,454,4.416000,0
151.652224,228,240,456,5.696000,0
151.657920,229,241,458,5.056000,0
151.662976,230,242,460,5.696000,0
151.668672,231,243,462,6.336000,0
151.675008,232,244,464,5.056000,0
151.680064,233,245,466,5.056000,0
151.685120,234,246,468,5.696000,0
151.690816,235,247,470,4.416000,0
151.695232,236,248,472,5.056000,0
151.700288,237,249,474,5.056000,0
151.705344,238,250,476,5.696000,0
151.711040,239,251,478,4.416000,0
151.715456,240,252,480,6.336000,0
151.721792,241,253,482,5.056000,0
151.726848,242,254,484,5.696000,0
151.732544,243,255,486,4.416000,0
151.736960,244,256,488,5.056000,0
151.742016,245,257,490,5.056000,0
151.747072,246,258,492,5.696000,0
151.752768,247,259,494,0,7747.968000
159.500736,247,260,494,6.336000,0
159.507072,248,261,496,6.336000,0
159.513408,249,262,498,4.416000,0
159.517824,250,263,500,5.696000,0
159.523520,251,264,502,4.416000,0
159.527936,252,265,504,4.416000,0
159.532352,253,266,506,5.056000,0
159.537408,254,267,508,5.696000,0
159.543104,255,268,510,4.416000,0
159.547520,256,269,512,6.336000,0
159.553856,257,270,514,5.056000,0
159.558912,258,271,516,5.696000,0
159.564608,259,272,518,6.336000,0
159.570944,260,273,520,6.336000,0
159.577280,261,274,522,5.056000,0
159.582336,262,275,524,5.696000,0
159.588032,263,276,526,6.336000,0
159.594368,264,277,528,5.696000,0
159.600064,265,278,530,5.056000,0
159.605120,266,279,532,5.696000,0
159.610816,267,280,534,5.056000,0
159.615872,268,281,536,5.696000,0
159.621568,269,282,538,0,7743.488000
167.365056,269,283,538,5.056000,0
167.370112,270,284,540,5.696000,0
167.375808,271,285,542,5.696000,0
167.381504,272,286,544,5.056000,0
167.386560,273,287,546,5.056000,0
167.391616,274,288,548,5.696000,0
167.397312,275,289,550,5.056000,0
167.402368,276,290,552,4.416000,0
167.406784,277,291,554,5.056000,0
167.411840,278,292,556,5.696000,0
167.417536,279,293,558,5.056000,0
167.422592,280,294,560,5.056000,0
167.427648,281,295,562,5.056000,0
167.432704,282,296,564,5.696000,0
167.438400,283,297,566,6.336000,0
167.444736,284,298,568,5.696000,0
167.450432,285,299,570,5.056000,0
167.455488,286,300,572,5.696000,0
167.461184,287,301,574,4.416000,0
167.465600,288,302,576,6.336000,0
167.471936,289,303,578,5.056000,0
167.476992,290,304,580,5.696000,0
167.482688,291,305,582,0,7746.688000
175.229376,291,306,582,5.696000,0
175.235072,292,307,584,5.056000,0
175.240128,293,308,586,5.056000,0
175.245184,294,309,588,5.696000,0
175.250880,295,310,590,4.416000,0
175.255296,296,311,592,5.056000,0
175.260352,297,312,594,5.056000,0
175.265408,298,313,596,5.696000,0
175.271104,299,314,598,6.336000,0
175.277440,300,315,600,4.416000,0
175.281856,301,316,602,4.416000,0
175.286272,302,317,604,5.696000,0
175.291968,303,318,606,4.416000,0
175.296384,304,319,608,4.416000,0
175.300800,305,320,610,4.416000,0
175.305216,306,321,612,5.696000,0
175.310912,307,322,614,4.416000,0
175.315328,308,323,616,4.416000,0
175.319744,309,324,618,4.416000,0
175.324160,310,325,620,5.696000,0
175.329856,311,326,622,4.416000,0
175.334272,312,327,624,0,7759.424000
183.093696,312,328,624,4.416000,0
183.098112,313,329,626,4.416000,0
183.102528,314,330,628,5.056000,0
183.107584,315,331,630,5.696000,0
183.113280,316,332,632,5.696000,0
183.118976,317,333,634,5.056000,0
183.124032,318,334,636,5.056000,0
183.129088,319,335,638,5.696000,0
183.134784,320,336,640,6.336000,0
183.141120,321,337,642,5.696000,0
183.146816,322,338,644,5.056000,0
183.151872,323,339,646,5.696000,0
183.157568,324,340,648,5.056000,0
183.162624,325,341,650,5.696000,0
183.168320,326,342,652,5.056000,0
183.173376,327,343,654,5.696000,0
183.179072,328,344,656,6.336000,0
183.185408,329,345,658,6.336000,0
183.191744,330,346,660,5.056000,0
183.196800,331,347,662,6.336000,0
183.203136,332,348,664,4.416000,0
183.207552,333,349,666,5.696000,0
183.213248,334,350,668,0,7744.768000
190.958016,334,351,668,5.056000,0
190.963072,335,352,670,5.696000,0
190.968768,336,353,672,6.336000,0
190.975104,337,354,674,5.056000,0
190.980160,338,355,676,5.056000,0
190.985216,339,356,678,5.696000,0
190.990912,340,357,680,4.416000,0
190.995328,341,358,682,5.056000,0
191.000384,342,359,684,5.056000,0
191.005440,343,360,686,5.696000,0
191.011136,344,361,688,4.416000,0
191.015552,345,362,690,6.336000,0
191.021888,346,363,692,5.056000,0
191.026944,347,364,694,5.696000,0
191.032640,348,365,696,4.416000,0
191.037056,349,366,698,5.056000,0
191.042112,350,367,700,5.056000,0
191.047168,351,368,702,5.696000,0
191.052864,352,369,704,6.336000,0
191.059200,353,370,706,6.336000,0
191.065536,354,371,708,4.416000,0
191.069952,355,372,710,0,7752.384000
198.822336,355,373,710,5.696000,0
198.828032,356,374,712,4.416000,0
198.832448,357,375,714,4.416000,0
198.836864,358,376,716,5.056000,0
198.841920,359,377,718,5.696000,0
198.847616,360,378,720,4.416000,0
198.852032,361,379,722,6.336000,0
198.858368,362,380,724,5.056000,0
198.863424,363,381,726,5.696000,0
198.869120,364,382,728,6.336000,0
198.875456,365,383,730,6.336000,0
198.881792,366,384,732,5.056000,0
198.886848,367,385,734,5.696000,0
198.892544,368,386,736,6.336000,0
198.898880,369,387,738,5.696000,0
198.904576,370,388,740,5.056000,0
198.909632,371,389,742,5.696000,0
198.915328,372,390,744,5.056000,0
198.920384,373,391,746,5.696000,0
198.926080,374,392,748,5.056000,0
198.931136,375,393,750,5.696000,0
198.936832,376,394,752,0,7749.824000
206.686656,376,395,752,5.696000,0
206.692352,377,396,754,5.056000,0
206.697408,378,397,756,5.056000,0
206.702464,379,398,758,5.696000,0
206.708160,380,399,760,5.056000,0
206.713216,381,400,762,4.416000,0
206.717632,382,401,764,5.056000,0
206.722688,383,402,766,5.696000,0
206.728384,384,403,768,5.056000,0
206.733440,385,404,770,5.056000,0
206.738496,386,405,772,5.056000,0
206.743552,387,406,774,5.696000,0
206.749248,388,407,776,6.336000,0
206.755584,389,408,778,5.696000,0
206.761280,390,409,780,5.056000,0
206.766336,391,410,782,5.696000,0
206.772032,392,411,784,4.416000,0
206.776448,393,412,786,6.336000,0
206.782784,394,413,788,5.056000,0
206.787840,395,414,790,5.696000,0
206.793536,396,415,792,5.696000,0
206.799232,397,416,794,0,7751.744000
214.550976,397,417,794,5.056000,0
214.556032,398,418,796,5.056000,0
214.561088,399,419,798,5.696000,0
214.566784,400,420,800,4.416000,0
214.571200,401,421,802,5.056000,0
214.576256,402,422,804,5.056000,0
214.581312,403,423,806,5.696000,0
214.587008,404,424,808,6.336000,0
214.593344,405,425,810,4.416000,0
214.597760,406,426,812,4.416000,0
214.602176,407,427,814,5.696000,0
214.607872,408,428,816,4.416000,0
214.612288,409,429,818,4.416000,0
214.616704,410,430,820,4.416000,0
214.621120,411,431,822,5.696000,0
214.626816,412,432,824,4.416000,0
214.631232,413,433,826,4.416000,0
214.635648,414,434,828,4.416000,0
214.640064,415,435,830,5.696000,0
214.645760,416,436,832,4.416000,0
214.650176,417,437,834,4.416000,0
214.654592,418,438,836,5.056000,0
214.659648,419,439,838,0,7755.648000
222.415296,419,440,838,5.696000,0
222.420992,420,441,840,5.696000,0
222.426688,421,442,842,5.056000,0
222.431744,422,443,844,5.056000,0
222.436800,423,444,846,5.696000,0
222.442496,424,445,848,6.336000,0
222.448832,425,446,850,5.696000,0
222.454528,426,447,852,5.056000,0
222.459584,427,448,854,5.696000,0
222.465280,428,449,856,5.056000,0
222.470336,429,450,858,5.696000,0
222.476032,430,451,860,5.056000,0
222.481088,431,452,862,5.696000,0
222.486784,432,453,864,6.336000,0
222.493120,433,454,866,6.336000,0
222.499456,434,455,868,5.056000,0
222.504512,435,456,870,6.336000,0
222.510848,436,457,872,4.416000,0
222.515264,437,458,874,5.696000,0
222.520960,438,459,876,5.056000,0
222.526016,439,460,878,5.696000,0
222.531712,440,461,880,6.336000,0
222.538048,441,462,882,0,7741.568000
230.279616,441,463,882,5.056000,0
230.284672,442,464,884,5.056000,0
230.289728,443,465,886,5.696000,0
230.295424,444,466,888,4.416000,0
230.299840,445,467,890,5.056000,0
230.304896,446,468,892,5.056000,0
230.309952,447,469,894,5.696000,0
230.315648,448,470,896,4.416000,0
230.320064,449,471,898,6.336000,0
230.326400,450,472,900,5.056000,0
230.331456,451,473,902,5.696000,0
230.337152,452,474,904,4.416000,0
230.341568,453,475,906,5.056000,0
230.346624,454,476,908,5.056000,0
230.351680,455,477,910,5.696000,0
230.357376,456,478,912,6.336000,0
230.363712,457,479,914,6.336000,0
230.370048,458,480,916,4.416000,0
230.374464,459,481,918,5.696000,0
230.380160,460,482,920,4.416000,0
230.384576,461,483,922,4.416000,0
230.388992,462,484,924,5.056000,0
230.394048,463,485,926,0,7749.888000
238.143936,463,486,926,5.696000,0
238.149632,464,487,928,4.416000,0
238.154048,465,488,930,6.336000,0
238.160384,466,489,932,5.056000,0
238.165440,467,490,934,5.696000,0
238.171136,468,491,936,6.336000,0
238.177472,469,492,938,6.336000,0
238.183808,470,493,940,5.056000,0
238.188864,471,494,942,5.696000,0
238.194560,472,495,944,6.336000,0
238.200896,473,496,946,5.696000,0
238.206592,474,497,948,5.056000,0
238.211648,475,498,950,5.696000,0
238.217344,476,499,952,5.056000,0
238.222400,477,500,954,5.696000,0
238.228096,478,501,956,5.056000,0
238.233152,479,502,958,5.696000,0
238.238848,480,503,960,5.696000,0
238.244544,481,504,962,5.056000,0
238.249600,482,505,964,5.056000,0
238.254656,483,506,966,5.696000,0
238.260352,484,507,968,0,7747.904000
246.008256,484,508,968,5.056000,0
246.013312,485,509,970,4.416000,0
246.017728,486,510,972,5.056000,0
246.022784,487,511,974,5.696000,0
246.028480,488,512,976,5.056000,0
246.033536,489,513,978,5.056000,0
246.038592,490,514,980,5.056000,0
246.043648,491,515,982,5.696000,0
246.049344,492,516,984,6.336000,0
246.055680,493,517,986,5.696000,0
246.061376,494,518,988,5.056000,0
246.066432,495,519,990,5.696000,0
246.072128,496,520,992,4.416000,0
246.076544,497,521,994,6.336000,0
246.082880,498,522,996,5.056000,0
246.087936,499,523,998,5.696000,0
246.093632,500,524,1000,5.696000,0
246.099328,501,525,1002,5.056000,0
246.104384,502,526,1004,5.056000,0
246.109440,503,527,1006,5.696000,0
246.115136,504,528,1008,4.416000,0
246.119552,505,529,1010,5.056000,0
246.124608,506,530,1012,0,7747.968000
253.872576,506,531,1012,5.056000,0
253.877632,507,532,1014,5.696000,0
253.883328,508,533,1016,6.336000,0
253.889664,509,534,1018,4.416000,0
253.894080,510,535,1020,4.416000,0
253.898496,511,536,1022,5.696000,0
253.904192,512,537,1024,4.416000,0
253.908608,513,538,1026,4.416000,0
253.913024,514,539,1028,4.416000,0
253.917440,515,540,1030,5.696000,0
253.923136,516,541,1032,4.416000,0
253.927552,517,542,1034,4.416000,0
253.931968,518,543,1036,4.416000,0
253.936384,519,544,1038,5.696000,0
253.942080,520,545,1040,4.416000,0
253.946496,521,546,1042,4.416000,0
253.950912,522,547,1044,5.056000,0
253.955968,523,548,1046,5.696000,0
253.961664,524,549,1048,5.696000,0
253.967360,525,550,1050,5.056000,0
253.972416,526,551,1052,5.056000,0
253.977472,527,552,1054,5.696000,0
253.983168,528,553,1056,0,7753.728000
261.736896,528,554,1056,6.336000,0
261.743232,529,555,1058,5.696000,0
261.748928,530,556,1060,5.056000,0
261.753984,531,557,1062,5.696000,0
261.759680,532,558,1064,5.056000,0
261.764736,533,559,1066,5.696000,0
261.770432,534,560,1068,5.056000,0
261.775488,535,561,1070,5.696000,0
261.781184,536,562,1072,6.336000,0
261.787520,537,563,1074,6.336000,0
261.793856,538,564,1076,5.056000,0
261.798912,539,565,1078,6.336000,0
261.805248,540,566,1080,4.416000,0
261.809664,541,567,1082,5.696000,0
261.815360,542,568,1084,5.056000,0
261.820416,543,569,1086,5.696000,0
261.826112,544,570,1088,6.336000,0
261.832448,545,571,1090,5.056000,0
261.837504,546,572,1092,5.056000,0
261.842560,547,573,1094,5.696000,0
261.848256,548,574,1096,4.416000,0
261.852672,549,575,1098,0,7748.544000
269.601216,549,576,1098,5.056000,0
269.606272,550,577,1100,5.056000,0
269.611328,551,578,1102,5.696000,0
269.617024,552,579,1104,4.416000,0
269.621440,553,580,1106,6.336000,0
269.627776,554,581,1108,5.056000,0
269.632832,555,582,1110,5.696000,0
269.638528,556,583,1112,4.416000,0
269.642944,557,584,1114,5.056000,0
269.648000,558,585,1116,5.056000,0
269.653056,559,586,1118,5.696000,0
269.658752,560,587,1120,6.336000,0
269.665088,561,588,1122,6.336000,0
269.671424,562,589,1124,4.416000,0
269.675840,563,590,1126,5.696000,0
269.681536,564,591,1128,4.416000,0
269.685952,565,592,1130,4.416000,0
269.690368,566,593,1132,5.056000,0
269.695424,567,594,1134,5.696000,0
269.701120,568,595,1136,4.416000,0
269.705536,569,596,1138,6.336000,0
269.711872,570,597,1140,5.056000,0
269.716928,571,598,1142,