Time,CovertPackets,AllPackets,BitsSent,PacketInterval;GTSInterval
32.017408,1,30,2,5.504000,0
32.022912,2,45,4,6.144000,0
32.029056,3,60,6,6.144000,0
32.035200,4,75,8,5.504000,0
32.040704,5,90,10,5.504000,0
32.046208,6,105,12,6.144000,0
32.052352,7,120,14,6.784000,0
32.059136,8,135,16,6.144000,0
32.065280,9,150,18,0,1913.984000
33.979264,9,165,18,5.504000,0
33.984768,10,180,20,6.144000,0
33.990912,11,195,22,5.504000,0
33.996416,12,210,24,6.144000,0
34.002560,13,225,26,5.504000,0
34.008064,14,240,28,6.144000,0
34.014208,15,255,30,6.784000,0
34.020992,16,270,32,6.784000,0
34.027776,17,285,34,5.504000,0
34.033280,18,300,36,0,1912.064000
35.945344,18,315,36,6.784000,0
35.952128,19,330,38,4.864000,0
35.956992,20,345,40,6.144000,0
35.963136,21,360,42,5.504000,0
35.968640,22,375,44,6.144000,0
35.974784,23,390,46,6.784000,0
35.981568,24,405,48,5.504000,0
35.987072,25,420,50,5.504000,0
35.992576,26,435,52,6.144000,0
35.998720,27,450,54,0,1912.704000
37.911424,27,465,54,4.864000,0
37.916288,28,480,56,5.504000,0
37.921792,29,495,58,5.504000,0
37.927296,30,510,60,6.144000,0
37.933440,31,525,62,4.864000,0
37.938304,32,540,64,6.784000,0
37.945088,33,555,66,5.504000,0
37.950592,34,570,68,6.144000,0
37.956736,35,585,70,4.864000,0
37.961600,36,600,72,0,1915.904000
39.877504,36,615,72,5.504000,0
39.883008,37,630,74,5.504000,0
39.888512,38,645,76,6.144000,0
39.894656,39,660,78,6.784000,0
39.901440,40,675,80,6.784000,0
39.908224,41,690,82,4.864000,0
39.913088,42,705,84,6.144000,0
39.919232,43,720,86,4.864000,0
39.924096,44,735,88,4.864000,0
39.928960,45,750,90,0,1914.624000
41.843584,45,765,90,5.504000,0
41.849088,46,780,92,6.144000,0
41.855232,47,795,94,4.864000,0
41.860096,48,810,96,6.784000,0
41.866880,49,825,98,5.504000,0
41.872384,50,840,100,6.144000,0
41.878528,51,855,102,6.784000,0
41.885312,52,870,104,6.784000,0
41.892096,53,885,106,5.504000,0
41.897600,54,900,108,0,1912.064000
43.809664,54,915,108,6.144000,0
43.815808,55,930,110,6.784000,0
43.822592,56,945,112,6.144000,0
43.828736,57,960,114,5.504000,0
43.834240,58,975,116,6.144000,0
43.840384,59,990,118,0,1935.360000
45.775744,59,1005,118,5.504000,0
45.781248,60,1020,120,0,1960.576000
47.741824,60,1035,120,6.144000,0
47.747968,61,1050,122,0,1959.936000
49.707904,61,1065,122,0,1966.080000
51.673984,61,1080,122,5.504000,0
51.679488,62,1095,124,0,1960.576000
53.640064,62,1110,124,6.144000,0
53.646208,63,1125,126,0,1959.936000
55.606144,63,1140,126,6.144000,0
55.612288,64,1155,128,0,1959.936000
57.572224,64,1170,128,5.504000,0
57.577728,65,1185,130,0,1960.576000
59.538304,65,1200,130,0,1966.080000
61.504384,65,1215,130,5.504000,0
61.509888,66,1230,132,0,1960.576000
63.470464,66,1245,132,6.144000,0
63.476608,67,1260,134,0,1959.936000
65.436544,67,1275,134,5.504000,0
65.442048,68,1290,136,0,1960.576000
67.402624,68,1305,136,0,1966.080000
69.368704,68,1320,136,4.864000,0
69.373568,69,1335,138,0,1961.216000
71.334784,69,1350,138,5.504000,0
71.340288,70,1365,140,0,1960.576000
73.300864,70,1380,140,0,1966.080000
75.266944,70,1395,140,6.144000,0
75.273088,71,1410,142,0,1959.936000
77.233024,71,1425,142,5.504000,0
77.238528,72,1440,144,0,1960.576000
79.199104,72,1455,144,5.504000,0
79.204608,73,1470,146,0,1960.576000
81.165184,73,1485,146,0,1966.080000
83.131264,73,1500,146,5.504000,0
83.136768,74,1515,148,0,1960.576000
85.097344,74,1530,148,6.144000,0
85.103488,75,1545,150,0,1959.936000
87.063424,75,1560,150,6.784000,0
87.070208,76,1575,152,0,1959.296000
89.029504,76,1590,152,0,1966.080000
90.995584,76,1605,152,6.144000,0
91.001728,77,1620,154,0,1959.936000
92.961664,77,1635,154,5.504000,0
92.967168,78,1650,156,0,1960.576000
94.927744,78,1665,156,6.144000,0
94.933888,79,1680,158,0,1959.936000
96.893824,79,1695,158,4.864000,0
96.898688,80,1710,160,0,1961.216000
98.859904,80,1725,160,6.784000,0
98.866688,81,1740,162,0,1959.296000
100.825984,81,1755,162,5.504000,0
100.831488,82,1770,164,0,1960.576000
102.792064,82,1785,164,0,1966.080000
104.758144,82,1800,164,6.144000,0
104.764288,83,1815,166,0,1959.936000
106.724224,83,1830,166,6.144000,0
106.730368,84,1845,168,0,1959.936000
108.690304,84,1860,168,5.504000,0
108.695808,85,1875,170,0,1960.576000
110.656384,85,1890,170,5.504000,0
110.661888,86,1905,172,0,1960.576000
112.622464,86,1920,172,6.144000,0
112.628608,87,1935,174,0,1959.936000
114.588544,87,1950,174,0,1966.080000
116.554624,87,1965,174,4.864000,0
116.559488,88,1980,176,0,1961.216000
118.520704,88,1995,176,5.504000,0
118.526208,89,2010,178,0,1960.576000
120.486784,89,2025,178,5.504000,0
120.492288,90,2040,180,0,1960.576000
122.452864,90,2055,180,6.144000,0
122.459008,91,2070,182,0,1959.936000
124.418944,91,2085,182,0,1966.080000
126.385024,91,2100,182,6.784000,0
126.391808,92,2115,184,0,1959.296000
128.351104,92,2130,184,4.864000,0
128.355968,93,2145,186,0,1961.216000
130.317184,93,2160,186,4.864000,0
130.322048,94,2175,188,0,1961.216000
132.283264,94,2190,188,0,1966.080000
134.249344,94,2205,188,6.144000,0
134.255488,95,2220,190,0,1959.936000
136.215424,95,2235,190,4.864000,0
136.220288,96,2250,192,0,1961.216000
138.181504,96,2265,192,4.864000,0
138.186368,97,2280,194,0,1961.216000
140.147584,97,2295,194,0,1966.080000
142.113664,97,2310,194,4.864000,0
142.118528,98,2325,196,0,1961.216000
144.079744,98,2340,196,6.144000,0
144.085888,99,2355,198,0,1959.936000
146.045824,99,2370,198,0,1966.080000
148.011904,99,2385,198,4.864000,0
148.016768,100,2400,200,0,1961.216000
149.977984,100,2415,200,4.864000,0
149.982848,101,2430,202,0,1961.216000
151.944064,101,2445,202,4.864000,0
151.948928,102,2460,204,0,1961.216000
153.910144,102,2475,204,0,1966.080000
155.876224,102,2490,204,6.144000,0
155.882368,103,2505,206,0,1959.936000
157.842304,103,2520,206,4.864000,0
157.847168,104,2535,208,0,1961.216000
159.808384,104,2550,208,4.864000,0
159.813248,105,2565,210,0,1961.216000
161.774464,105,2580,210,4.864000,0
161.779328,106,2595,212,0,1961.216000
163.740544,106,2610,212,4.864000,0
163.745408,107,2625,214,0,1961.216000
165.706624,107,2640,214,0,1966.080000
167.672704,107,2655,214,4.864000,0
167.677568,108,2670,216,0,1961.216000
169.638784,108,2685,216,0,1966.080000
171.604864,108,2700,216,4.864000,0
171.609728,109,2715,218,0,1961.216000
173.570944,109,2730,218,4.864000,0
173.575808,110,2745,220,0,1961.216000
175.537024,110,2760,220,0,1966.080000
177.503104,110,2775,220,4.864000,0
177.507968,111,2790,222,0,1961.216000
179.469184,111,2805,222,4.864000,0
179.474048,112,2820,224,0,1961.216000
181.435264,112,2835,224,4.864000,0
181.440128,113,2850,226,0,1961.216000
183.401344,113,2865,226,4.864000,0
183.406208,114,2880,228,0,1961.216000
185.367424,114,2895,228,0,1966.080000
187.333504,114,2910,228,4.864000,0
187.338368,115,2925,230,0,1961.216000
189.299584,115,2940,230,4.864000,0
189.304448,116,2955,232,0,1961.216000
191.265664,116,2970,232,4.864000,0
191.270528,117,2985,234,0,1961.216000
193.231744,117,3000,234,4.864000,0
193.236608,118,3015,236,0,1961.216000
195.197824,118,3030,236,0,1966.080000
197.163904,118,3045,236,4.864000,0
197.168768,119,3060,238,0,1961.216000
199.129984,119,3075,238,4.864000,0
199.134848,120,3090,240,0,1961.216000
201.096064,120,3105,240,0,1966.080000
203.062144,120,3120,240,4.864000,0
203.067008,121,3135,242,0,1961.216000
205.028224,121,3150,242,4.864000,0
205.033088,122,3165,244,0,1961.216000
206.994304,122,3180,244,4.864000,0
206.999168,123,3195,246,0,1961.216000
208.960384,123,3210,246,0,1966.080000
210.926464,123,3225,246,4.864000,0
210.931328,124,3240,248,0,1961.216000
212.892544,124,3255,248,4.864000,0
212.897408,125,3270,250,0,1961.216000
214.858624,125,3285,250,4.864000,0
214.863488,126,3300,252,0,1961.216000
216.824704,126,3315,252,4.864000,0
216.829568,127,3330,254,0,1961.216000
218.790784,127,3345,254,0,1966.080000
220.756864,127,3360,254,4.864000,0
220.761728,128,3375,256,0,1961.216000
222.722944,128,3390,256,4.864000,0
222.727808,129,3405,258,0,1961.216000
224.689024,129,3420,258,4.864000,0
224.693888,130,3435,260,0,1961.216000
226.655104,130,3450,260,4.864000,0
226.659968,131,3465,262,0,1961.216000
228.621184,131,3480,262,4.864000,0
228.626048,132,3495,264,0,1961.216000
230.587264,132,3510,264,4.864000,0
230.592128,133,3525,266,0,1961.216000
232.553344,133,3540,266,0,1966.080000
234.519424,133,3555,266,4.864000,0
234.524288,134,3570,268,0,1961.216000
236.485504,134,3585,268,4.864000,0
236.490368,135,3600,270,0,1961.216000
238.451584,135,3615,270,4.864000,0
238.456448,136,3630,272,0,1961.216000
240.417664,136,3645,272,4.864000,0
240.422528,137,3660,274,0,1961.216000
242.383744,137,3675,274,4.864000,0
242.388608,138,3690,276,