Time,CovertPackets,AllPackets,BitsSent,PacketInterval;GTSInterval
30.130048,1,90,2,0,486.336000
30.616384,1,135,2,6.464000,0
30.622848,2,180,4,0,485.056000
31.107904,2,225,4,7.104000,0
31.115008,3,270,6,0,484.416000
31.599424,3,315,6,7.104000,0
31.606528,4,360,8,0,484.416000
32.090944,4,405,8,6.464000,0
32.097408,5,450,10,0,485.056000
32.582464,5,495,10,6.464000,0
32.588928,6,540,12,0,485.056000
33.073984,6,585,12,7.104000,0
33.081088,7,630,14,0,484.416000
33.565504,7,675,14,7.744000,0
33.573248,8,720,16,0,483.776000
34.057024,8,765,16,7.104000,0
34.064128,9,810,18,0,484.416000
34.548544,9,855,18,6.464000,0
34.555008,10,900,20,0,485.056000
35.040064,10,945,20,7.104000,0
35.047168,11,990,22,0,484.416000
35.531584,11,1035,22,6.464000,0
35.538048,12,1080,24,0,485.056000
36.023104,12,1125,24,7.104000,0
36.030208,13,1170,26,0,484.416000
36.514624,13,1215,26,6.464000,0
36.521088,14,1260,28,0,485.056000
37.006144,14,1305,28,7.104000,0
37.013248,15,1350,30,0,484.416000
37.497664,15,1395,30,7.744000,0
37.505408,16,1440,32,0,483.776000
37.989184,16,1485,32,7.744000,0
37.996928,17,1530,34,0,483.776000
38.480704,17,1575,34,6.464000,0
38.487168,18,1620,36,0,485.056000
38.972224,18,1665,36,7.744000,0
38.979968,19,1710,38,0,483.776000
39.463744,19,1755,38,5.824000,0
39.469568,20,1800,40,0,485.696000
39.955264,20,1845,40,7.104000,0
39.962368,21,1890,42,0,484.416000
40.446784,21,1935,42,6.464000,0
40.453248,22,1980,44,0,485.056000
40.938304,22,2025,44,7.104000,0
40.945408,23,2070,46,0,484.416000
41.429824,23,2115,46,7.744000,0
41.437568,24,2160,48,0,483.776000
41.921344,24,2205,48,6.464000,0
41.927808,25,2250,50,0,485.056000
42.412864,25,2295,50,6.464000,0
42.419328,26,2340,52,0,485.056000
42.904384,26,2385,52,7.104000,0
42.911488,27,2430,54,0,484.416000
43.395904,27,2475,54,5.824000,0
43.401728,28,2520,56,0,485.696000
43.887424,28,2565,56,6.464000,0
43.893888,29,2610,58,0,485.056000
44.378944,29,2655,58,6.464000,0
44.385408,30,2700,60,0,485.056000
44.870464,30,2745,60,7.104000,0
44.877568,31,2790,62,0,484.416000
45.361984,31,2835,62,5.824000,0
45.367808,32,2880,64,0,485.696000
45.853504,32,2925,64,7.744000,0
45.861248,33,2970,66,0,483.776000
46.345024,33,3015,66,6.464000,0
46.351488,34,3060,68,0,485.056000
46.836544,34,3105,68,7.104000,0
46.843648,35,3150,70,0,484.416000
47.328064,35,3195,70,5.824000,0
47.333888,36,3240,72,0,485.696000
47.819584,36,3285,72,6.464000,0
47.826048,37,3330,74,0,485.056000
48.311104,37,3375,74,6.464000,0
48.317568,38,3420,76,0,485.056000
48.802624,38,3465,76,7.104000,0
48.809728,39,3510,78,0,484.416000
49.294144,39,3555,78,7.744000,0
49.301888,40,3600,80,0,483.776000
49.785664,40,3645,80,7.744000,0
49.793408,41,3690,82,0,483.776000
50.277184,41,3735,82,0,491.520000
50.768704,41,3780,82,0,491.520000
51.260224,41,3825,82,0,491.520000
51.751744,41,3870,82,5.824000,0
51.757568,42,3915,84,0,977.216000
52.734784,42,3960,84,0,491.520000
53.226304,42,4005,84,0,491.520000
53.717824,42,4050,84,0,491.520000
54.209344,42,4095,84,7.104000,0
54.216448,43,4140,86,0,975.936000
55.192384,43,4185,86,0,491.520000
55.683904,43,4230,86,0,491.520000
56.175424,43,4275,86,0,491.520000
56.666944,43,4320,86,0,491.520000
57.158464,43,4365,86,5.824000,0
57.164288,44,4410,88,0,485.696000
57.649984,44,4455,88,0,491.520000
58.141504,44,4500,88,0,491.520000
58.633024,44,4545,88,0,983.040000
59.616064,44,4590,88,0,491.520000
60.107584,44,4635,88,5.824000,0
60.113408,45,4680,90,0,485.696000
60.599104,45,4725,90,0,491.520000
61.090624,45,4770,90,0,491.520000
61.582144,45,4815,90,0,491.520000
62.073664,45,4860,90,0,491.520000
62.565184,45,4905,90,0,491.520000
63.056704,45,4950,90,0,491.520000
63.548224,45,4995,90,0,491.520000
64.039744,45,5040,90,0,491.520000
64.531264,45,5085,90,0,491.520000
65.022784,45,5130,90,0,983.040000
66.005824,45,5175,90,0,491.520000
66.497344,45,5220,90,6.464000,0
66.503808,46,5265,92,0,485.056000
66.988864,46,5310,92,0,491.520000
67.480384,46,5355,92,0,983.040000
68.463424,46,5400,92,0,491.520000
68.954944,46,5445,92,7.104000,0
68.962048,47,5490,94,0,484.416000
69.446464,47,5535,94,0,983.040000
70.429504,47,5580,94,0,491.520000
70.921024,47,5625,94,0,491.520000
71.412544,47,5670,94,0,491.520000
71.904064,47,5715,94,0,491.520000
72.395584,47,5760,94,0,491.520000
72.887104,47,5805,94,0,491.520000
73.378624,47,5850,94,0,491.520000
73.870144,47,5895,94,0,491.520000
74.361664,47,5940,94,0,491.520000
74.853184,47,5985,94,0,491.520000
75.344704,47,6030,94,0,491.520000
75.836224,47,6075,94,0,491.520000
76.327744,47,6120,94,0,491.520000
76.819264,47,6165,94,0,491.520000
77.310784,47,6210,94,0,983.040000
78.293824,47,6255,94,0,491.520000
78.785344,47,6300,94,0,491.520000
79.276864,47,6345,94,5.824000,0
79.282688,48,6390,96,0,977.216000
80.259904,48,6435,96,7.744000,0
80.267648,49,6480,98,0,483.776000
80.751424,49,6525,98,0,491.520000
81.242944,49,6570,98,0,491.520000
81.734464,49,6615,98,0,491.520000
82.225984,49,6660,98,0,491.520000
82.717504,49,6705,98,0,491.520000
83.209024,49,6750,98,0,491.520000
83.700544,49,6795,98,0,491.520000
84.192064,49,6840,98,0,491.520000
84.683584,49,6885,98,0,491.520000
85.175104,49,6930,98,0,491.520000
85.666624,49,6975,98,0,491.520000
86.158144,49,7020,98,0,491.520000
86.649664,49,7065,98,0,491.520000
87.141184,49,7110,98,0,983.040000
88.124224,49,7155,98,0,491.520000
88.615744,49,7200,98,0,491.520000
89.107264,49,7245,98,0,491.520000
89.598784,49,7290,98,6.464000,0
89.605248,50,7335,100,0,485.056000
90.090304,50,7380,100,0,983.040000
91.073344,50,7425,100,0,491.520000
91.564864,50,7470,100,0,491.520000
92.056384,50,7515,100,0,491.520000
92.547904,50,7560,100,0,491.520000
93.039424,50,7605,100,0,491.520000
93.530944,50,7650,100,0,491.520000
94.022464,50,7695,100,7.104000,0
94.029568,51,7740,102,0,484.416000
94.513984,51,7785,102,0,491.520000
95.005504,51,7830,102,0,491.520000
95.497024,51,7875,102,0,491.520000
95.988544,51,7920,102,0,491.520000
96.480064,51,7965,102,0,491.520000
96.971584,51,8010,102,0,983.040000
97.954624,51,8055,102,7.744000,0
97.962368,52,8100,104,0,483.776000
98.446144,52,8145,104,0,983.040000
99.429184,52,8190,104,0,491.520000
99.920704,52,8235,104,0,491.520000
100.412224,52,8280,104,0,491.520000
100.903744,52,8325,104,7.744000,0
100.911488,53,8370,106,0,975.296000
101.886784,53,8415,106,0,491.520000
102.378304,53,8460,106,0,491.520000
102.869824,53,8505,106,0,983.040000
103.852864,53,8550,106,0,491.520000
104.344384,53,8595,106,0,491.520000
104.835904,53,8640,106,0,491.520000
105.327424,53,8685,106,0,491.520000
105.818944,53,8730,106,0,491.520000
106.310464,53,8775,106,0,491.520000
106.801984,53,8820,106,0,491.520000
107.293504,53,8865,106,0,491.520000
107.785024,53,8910,106,0,491.520000
108.276544,53,8955,106,0,491.520000
108.768064,53,9000,106,0,491.520000
109.259584,53,9045,106,0,491.520000
109.751104,53,9090,106,0,491.520000
110.242624,53,9135,106,0,491.520000
110.734144,53,9180,106,0,491.520000
111.225664,53,9225,106,0,491.520000
111.717184,53,9270,106,0,491.520000
112.208704,53,9315,106,0,491.520000
112.700224,53,9360,106,0,491.520000
113.191744,53,9405,106,0,491.520000
113.683264,53,9450,106,0,491.520000
114.174784,53,9495,106,6.464000,0
114.181248,54,9540,108,0,976.576000
115.157824,54,9585,108,0,491.520000
115.649344,54,9630,108,0,491.520000
116.140864,54,9675,108,0,491.520000
116.632384,54,9720,108,0,491.520000
117.123904,54,9765,108,0,491.520000
117.615424,54,9810,108,0,491.520000
118.106944,54,9855,108,0,491.520000
118.598464,54,9900,108,0,491.520000
119.089984,54,9945,108,0,491.520000
119.581504,54,9990,108,0,491.520000
120.073024,54,10035,108,0,491.520000
120.564544,54,10080,108,0,491.520000
121.056064,54,10125,108,0,491.520000
121.547584,54,10170,108,0,983.040000
122.530624,54,10215,108,7.104000,0
122.537728,55,10260,110,0,484.416000
123.022144,55,10305,110,0,491.520000
123.513664,55,10350,110,0,491.520000
124.005184,55,10395,110,0,983.040000
124.988224,55,10440,110,0,491.520000
125.479744,55,10485,110,0,491.520000
125.971264,55,10530,110,0,491.520000
126.462784,55,10575,110,7.744000,0
126.470528,56,10620,112,0,483.776000
126.954304,56,10665,112,0,491.520000
127.445824,56,10710,112,0,491.520000
127.937344,56,10755,112,0,491.520000
128.428864,56,10800,112,0,491.520000
128.920384,56,10845,112,0,983.040000
129.903424,56,10890,112,7.104000,0
129.910528,57,10935,114,0,484.416000
130.394944,57,10980,114,0,491.520000
130.886464,57,11025,114,0,491.520000
131.377984,57,11070,114,0,491.520000
131.869504,57,11115,114,0,491.520000
132.361024,57,11160,114,0,491.520000
132.852544,57,11205,114,0,983.040000
133.835584,57,11250,114,0,491.520000
134.327104,57,11295,114,0,491.520000
134.818624,57,11340,114,0,491.520000
135.310144,57,11385,114,0,491.520000
135.801664,57,11430,114,0,491.520000
136.293184,57,11475,114,0,491.520000
136.784704,57,11520,114,0,491.520000
137.276224,57,11565,114,0,491.520000
137.767744,57,11610,114,0,491.520000
138.259264,57,11655,114,0,491.520000
138.750784,57,11700,114,0,491.520000
139.242304,57,11745,114,0,491.520000
139.733824,57,11790,114,0,491.520000
140.225344,57,11835,114,0,491.520000
140.716864,57,11880,114,0,491.520000
141.208384,57,11925,114,0,491.520000
141.699904,57,11970,114,0,491.520000
142.191424,57,12015,114,0,491.520000
142.682944,57,12060,114,0,491.520000
143.174464,57,12105,114,0,491.520000
143.665984,57,12150,114,0,491.520000
144.157504,57,12195,114,0,491.520000
144.649024,57,12240,114,0,491.520000
145.140544,57,12285,114,0,491.520000
145.632064,57,12330,114,0,491.520000
146.123584,57,12375,114,0,983.040000
147.106624,57,12420,114,0,491.520000
147.598144,57,12465,114,0,491.520000
148.089664,57,12510,114,6.464000,0
148.096128,58,12555,116,0,485.056000
148.581184,58,12600,116,0,983.040000
149.564224,58,12645,116,0,491.520000
150.055744,58,12690,116,0,491.520000
150.547264,58,12735,116,0,491.520000
151.038784,58,12780,116,0,983.040000
152.021824,58,12825,116,0,491.520000
152.513344,58,12870,116,0,491.520000
153.004864,58,12915,116,7.104000,0
153.011968,59,12960,118,0,975.936000
153.987904,59,13005,118,6.464000,0
153.994368,60,13050,120,0,485.056000
154.479424,60,13095,120,0,491.520000
154.970944,60,13140,120,0,491.520000
155.462464,60,13185,120,0,983.040000
156.445504,60,13230,120,0,491.520000
156.937024,60,13275,120,0,491.520000
157.428544,60,13320,120,0,491.520000
157.920064,60,13365,120,0,491.520000
158.411584,60,13410,120,0,491.520000
158.903104,60,13455,120,0,491.520000
159.394624,60,13500,120,0,491.520000
159.886144,60,13545,120,0,491.520000
160.377664,60,13590,120,0,491.520000
160.869184,60,13635,120,0,491.520000
161.360704,60,13680,120,0,491.520000
161.852224,60,13725,120,0,491.520000
162.343744,60,13770,120,0,983.040000
163.326784,60,13815,120,0,491.520000
163.818304,60,13860,120,0,983.040000
164.801344,60,13905,120,0,491.520000
165.292864,60,13950,120,0,491.520000
165.784384,60,13995,120,7.104000,0
165.791488,61,14040,122,0,484.416000
166.275904,61,14085,122,0,491.520000
166.767424,61,14130,122,0,491.520000
167.258944,61,14175,122,0,491.520000
167.750464,61,14220,122,0,491.520000
168.241984,61,14265,122,0,491.520000
168.733504,61,14310,122,0,491.520000
169.225024,61,14355,122,0,491.520000
169.716544,61,14400,122,0,491.520000
170.208064,61,14445,122,0,491.520000
170.699584,61,14490,122,0,491.520000
171.191104,61,14535,122,0,491.520000
171.682624,61,14580,122,0,491.520000
172.174144,61,14625,122,0,491.520000
172.665664,61,14670,122,0,491.520000
173.157184,61,14715,122,0,491.520000
173.648704,61,14760,122,0,491.520000
174.140224,61,14805,122,0,491.520000
174.631744,61,14850,122,0,491.520000
175.123264,61,14895,122,0,491.520000
175.614784,61,14940,122,0,491.520000
176.106304,61,14985,122,0,491.520000
176.597824,61,15030,122,0,491.520000
177.089344,61,15075,122,6.464000,0
177.095808,62,15120,124,0,485.056000
177.580864,62,15165,124,0,491.520000
178.072384,62,15210,124,0,983.040000
179.055424,62,15255,124,7.104000,0
179.062528,63,15300,126,0,975.936000
180.038464,63,15345,126,7.104000,0
180.045568,64,15390,128,0,484.416000
180.529984,64,15435,128,0,491.520000
181.021504,64,15480,128,0,983.040000
182.004544,64,15525,128,0,491.520000
182.496064,64,15570,128,0,491.520000
182.987584,64,15615,128,0,491.520000
183.479104,64,15660,128,0,491.520000
183.970624,64,15705,128,0,491.520000
184.462144,64,15750,128,0,491.520000
184.953664,64,15795,128,0,491.520000
185.445184,64,15840,128,6.464000,0
185.451648,65,15885,130,0,485.056000
185.936704,65,15930,130,0,491.520000
186.428224,65,15975,130,0,983.040000
187.411264,65,16020,130,0,491.520000
187.902784,65,16065,130,0,491.520000
188.394304,65,16110,130,0,491.520000
188.885824,65,16155,130,0,491.520000
189.377344,65,16200,130,0,491.520000
189.868864,65,16245,130,0,491.520000
190.360384,65,16290,130,0,491.520000
190.851904,65,16335,130,0,491.520000
191.343424,65,16380,130,0,491.520000
191.834944,65,16425,130,0,491.520000
192.326464,65,16470,130,0,491.520000
192.817984,65,16515,130,0,491.520000
193.309504,65,16560,130,0,491.520000
193.801024,65,16605,130,0,491.520000
194.292544,65,16650,130,0,491.520000
194.784064,65,16695,130,0,983.040000
195.767104,65,16740,130,0,491.520000
196.258624,65,16785,130,0,491.520000
196.750144,65,16830,130,0,491.520000
197.241664,65,16875,130,0,491.520000
197.733184,65,16920,130,6.464000,0
197.739648,66,16965,132,0,976.576000
198.716224,66,17010,132,0,491.520000
199.207744,66,17055,132,0,491.520000
199.699264,66,17100,132,0,491.520000
200.190784,66,17145,132,0,983.040000
201.173824,66,17190,132,0,491.520000
201.665344,66,17235,132,0,491.520000
202.156864,66,17280,132,0,491.520000
202.648384,66,17325,132,0,491.520000
203.139904,66,17370,132,0,491.520000
203.631424,66,17415,132,0,491.520000
204.122944,66,17460,132,0,491.520000
204.614464,66,17505,132,7.104000,0
204.621568,67,17550,134,0,484.416000
205.105984,67,17595,134,0,491.520000
205.597504,67,17640,134,0,491.520000
206.089024,67,17685,134,0,491.520000
206.580544,67,17730,134,0,491.520000
207.072064,67,17775,134,0,983.040000
208.055104,67,17820,134,6.464000,0
208.061568,68,17865,136,0,976.576000
209.038144,68,17910,136,0,491.520000
209.529664,68,17955,136,5.824000,0
209.535488,69,18000,138,0,485.696000
210.021184,69,18045,138,0,491.520000
210.512704,69,18090,138,0,983.040000
211.495744,69,18135,138,6.464000,0
211.502208,70,18180,140,0,976.576000
212.478784,70,18225,140,0,491.520000
212.970304,70,18270,140,0,491.520000
213.461824,70,18315,140,0,491.520000
213.953344,70,18360,140,0,491.520000
214.444864,70,18405,140,0,491.520000
214.936384,70,18450,140,0,491.520000
215.427904,70,18495,140,0,491.520000
215.919424,70,18540,140,0,491.520000
216.410944,70,18585,140,0,491.520000
216.902464,70,18630,140,0,491.520000
217.393984,70,18675,140,0,491.520000
217.885504,70,18720,140,0,491.520000
218.377024,70,18765,140,7.104000,0
218.384128,71,18810,142,0,484.416000
218.868544,71,18855,142,0,491.520000
219.360064,71,18900,142,0,491.520000
219.851584,71,18945,142,0,491.520000
220.343104,71,18990,142,0,491.520000
220.834624,71,19035,142,0,491.520000
221.326144,71,19080,142,0,491.520000
221.817664,71,19125,142,0,491.520000
222.309184,71,19170,142,0,491.520000
222.800704,71,19215,142,0,491.520000
223.292224,71,19260,142,0,491.520000
223.783744,71,19305,142,0,491.520000
224.275264,71,19350,142,0,491.520000
224.766784,71,19395,142,0,491.520000
225.258304,71,19440,142,0,491.520000
225.749824,71,19485,142,0,491.520000
226.241344,71,19530,142,0,491.520000
226.732864,71,19575,142,6.464000,0
226.739328,72,19620,144,0,485.056000
227.224384,72,19665,144,0,491.520000
227.715904,72,19710,144,0,491.520000
228.207424,72,19755,144,0,983.040000
229.190464,72,19800,144,0,491.520000
229.681984,72,19845,144,0,491.520000
230.173504,72,19890,144,0,491.520000
230.665024,72,19935,144,0,491.520000
231.156544,72,19980,144,6.464000,0
231.163008,73,20025,146,0,976.576000
232.139584,73,20070,146,6.464000,0
232.146048,74,20115,148,0,485.056000
232.631104,74,20160,148,0,491.520000
233.122624,74,20205,148,0,491.520000
233.614144,74,20250,148,0,491.520000
234.105664,74,20295,148,0,491.520000
