Time,CovertPackets,AllPackets,BitsSent,PacketInterval;GTSInterval
65.132672,1,2,2,5.056000,0
65.137728,2,3,4,5.696000,0
65.143424,3,4,6,5.696000,0
65.149120,4,5,8,5.056000,0
65.154176,5,6,10,5.056000,0
65.159232,6,7,12,5.696000,0
65.164928,7,8,14,6.336000,0
65.171264,8,9,16,5.696000,0
65.176960,9,10,18,5.056000,0
65.182016,10,11,20,5.696000,0
65.187712,11,12,22,5.056000,0
65.192768,12,13,24,5.696000,0
65.198464,13,14,26,5.056000,0
65.203520,14,15,28,5.696000,0
65.209216,15,16,30,6.336000,0
65.215552,16,17,32,6.336000,0
65.221888,17,18,34,5.056000,0
65.226944,18,19,36,6.336000,0
65.233280,19,20,38,4.416000,0
65.237696,20,21,40,5.696000,0
65.243392,21,22,42,5.056000,0
65.248448,22,23,44,5.696000,0
65.254144,23,24,46,0,7739.072000
72.993216,23,25,46,6.336000,0
72.999552,24,26,48,5.056000,0
73.004608,25,27,50,5.056000,0
73.009664,26,28,52,5.696000,0
73.015360,27,29,54,4.416000,0
73.019776,28,30,56,5.056000,0
73.024832,29,31,58,5.056000,0
73.029888,30,32,60,5.696000,0
73.035584,31,33,62,4.416000,0
73.040000,32,34,64,6.336000,0
73.046336,33,35,66,5.056000,0
73.051392,34,36,68,5.696000,0
73.057088,35,37,70,4.416000,0
73.061504,36,38,72,5.056000,0
73.066560,37,39,74,5.056000,0
73.071616,38,40,76,5.696000,0
73.077312,39,41,78,6.336000,0
73.083648,40,42,80,6.336000,0
73.089984,41,43,82,4.416000,0
73.094400,42,44,84,5.696000,0
73.100096,43,45,86,4.416000,0
73.104512,44,46,88,4.416000,0
73.108928,45,47,90,5.056000,0
73.113984,46,48,92,0,7743.552000
80.857536,46,49,92,5.696000,0
80.863232,47,50,94,4.416000,0
80.867648,48,51,96,6.336000,0
80.873984,49,52,98,5.056000,0
80.879040,50,53,100,5.696000,0
80.884736,51,54,102,6.336000,0
80.891072,52,55,104,6.336000,0
80.897408,53,56,106,5.056000,0
80.902464,54,57,108,5.696000,0
80.908160,55,58,110,6.336000,0
80.914496,56,59,112,5.696000,0
80.920192,57,60,114,5.056000,0
80.925248,58,61,116,5.696000,0
80.930944,59,62,118,5.056000,0
80.936000,60,63,120,5.696000,0
80.941696,61,64,122,5.056000,0
80.946752,62,65,124,5.696000,0
80.952448,63,66,126,5.696000,0
80.958144,64,67,128,5.056000,0
80.963200,65,68,130,5.056000,0
80.968256,66,69,132,5.696000,0
80.973952,67,70,134,0,7747.904000
88.721856,67,71,134,5.056000,0
88.726912,68,72,136,4.416000,0
88.731328,69,73,138,5.056000,0
88.736384,70,74,140,5.696000,0
88.742080,71,75,142,5.056000,0
88.747136,72,76,144,5.056000,0
88.752192,73,77,146,5.056000,0
88.757248,74,78,148,5.696000,0
88.762944,75,79,150,6.336000,0
88.769280,76,80,152,5.696000,0
88.774976,77,81,154,5.056000,0
88.780032,78,82,156,5.696000,0
88.785728,79,83,158,4.416000,0
88.790144,80,84,160,6.336000,0
88.796480,81,85,162,5.056000,0
88.801536,82,86,164,5.696000,0
88.807232,83,87,166,5.696000,0
88.812928,84,88,168,5.056000,0
88.817984,85,89,170,5.056000,0
88.823040,86,90,172,5.696000,0
88.828736,87,91,174,4.416000,0
88.833152,88,92,176,0,7753.024000
96.586176,88,93,176,5.056000,0
96.591232,89,94,178,5.056000,0
96.596288,90,95,180,5.696000,0
96.601984,91,96,182,6.336000,0
96.608320,92,97,184,4.416000,0
96.612736,93,98,186,4.416000,0
96.617152,94,99,188,5.696000,0
96.622848,95,100,190,4.416000,0
96.627264,96,101,192,4.416000,0
96.631680,97,102,194,4.416000,0
96.636096,98,103,196,5.696000,0
96.641792,99,104,198,4.416000,0
96.646208,100,105,200,4.416000,0
96.650624,101,106,202,4.416000,0
96.655040,102,107,204,5.696000,0
96.660736,103,108,206,4.416000,0
96.665152,104,109,208,4.416000,0
96.669568,105,110,210,5.056000,0
96.674624,106,111,212,5.696000,0
96.680320,107,112,214,5.696000,0
96.686016,108,113,216,5.056000,0
96.691072,109,114,218,5.056000,0
96.696128,110,115,220,5.696000,0
96.701824,111,116,222,0,7748.672000
104.450496,111,117,222,6.336000,0
104.456832,112,118,224,5.696000,0
104.462528,113,119,226,5.056000,0
104.467584,114,120,228,5.696000,0
104.473280,115,121,230,5.056000,0
104.478336,116,122,232,5.696000,0
104.484032,117,123,234,5.056000,0
104.489088,118,124,236,5.696000,0
104.494784,119,125,238,6.336000,0
104.501120,120,126,240,6.336000,0
104.507456,121,127,242,5.056000,0
104.512512,122,128,244,6.336000,0
104.518848,123,129,246,4.416000,0
104.523264,124,130,248,5.696000,0
104.528960,125,131,250,5.056000,0
104.534016,126,132,252,5.696000,0
104.539712,127,133,254,6.336000,0
104.546048,128,134,256,5.056000,0
104.551104,129,135,258,5.056000,0
104.556160,130,136,260,5.696000,0
104.561856,131,137,262,4.416000,0
104.566272,132,138,264,5.056000,0
104.571328,133,139,266,0,7743.488000
112.314816,133,140,266,5.056000,0
112.319872,134,141,268,5.696000,0
112.325568,135,142,270,4.416000,0
112.329984,136,143,272,6.336000,0
112.336320,137,144,274,5.056000,0
112.341376,138,145,276,5.696000,0
112.347072,139,146,278,4.416000,0
112.351488,140,147,280,5.056000,0
112.356544,141,148,282,5.056000,0
112.361600,142,149,284,5.696000,0
112.367296,143,150,286,6.336000,0
112.373632,144,151,288,6.336000,0
112.379968,145,152,290,4.416000,0
112.384384,146,153,292,5.696000,0
112.390080,147,154,294,4.416000,0
112.394496,148,155,296,4.416000,0
112.398912,149,156,298,5.056000,0
112.403968,150,157,300,5.696000,0
112.409664,151,158,302,4.416000,0
112.414080,152,159,304,6.336000,0
112.420416,153,160,306,5.056000,0
112.425472,154,161,308,5.696000,0
112.431168,155,162,310,6.336000,0
112.437504,156,163,312,0,7741.632000
120.179136,156,164,312,6.336000,0
120.185472,157,165,314,5.056000,0
120.190528,158,166,316,5.696000,0
120.196224,159,167,318,6.336000,0
120.202560,160,168,320,5.696000,0
120.208256,161,169,322,5.056000,0
120.213312,162,170,324,5.696000,0
120.219008,163,171,326,5.056000,0
120.224064,164,172,328,5.696000,0
120.229760,165,173,330,5.056000,0
120.234816,166,174,332,5.696000,0
120.240512,167,175,334,5.696000,0
120.246208,168,176,336,5.056000,0
120.251264,169,177,338,5.056000,0
120.256320,170,178,340,5.696000,0
120.262016,171,179,342,5.056000,0
120.267072,172,180,344,4.416000,0
120.271488,173,181,346,5.056000,0
120.276544,174,182,348,5.696000,0
120.282240,175,183,350,5.056000,0
120.287296,176,184,352,5.056000,0
120.292352,177,185,354,0,7751.104000
128.043456,177,186,354,5.056000,0
128.048512,178,187,356,5.696000,0
128.054208,179,188,358,6.336000,0
128.060544,180,189,360,5.696000,0
128.066240,181,190,362,5.056000,0
128.071296,182,191,364,5.696000,0
128.076992,183,192,366,4.416000,0
128.081408,184,193,368,6.336000,0
128.087744,185,194,370,5.056000,0
128.092800,186,195,372,5.696000,0
128.098496,187,196,374,5.696000,0
128.104192,188,197,376,5.056000,0
128.109248,189,198,378,5.056000,0
128.114304,190,199,380,5.696000,0
128.120000,191,200,382,4.416000,0
128.124416,192,201,384,5.056000,0
128.129472,193,202,386,5.056000,0
128.134528,194,203,388,5.696000,0
128.140224,195,204,390,6.336000,0
128.146560,196,205,392,4.416000,0
128.150976,197,206,394,4.416000,0
128.155392,198,207,396,0,7752.384000
135.907776,198,208,396,5.696000,0
135.913472,199,209,398,4.416000,0
135.917888,200,210,400,4.416000,0
135.922304,201,211,402,4.416000,0
135.926720,202,212,404,5.696000,0
135.932416,203,213,406,4.416000,0
135.936832,204,214,408,4.416000,0
135.941248,205,215,410,4.416000,0
135.945664,206,216,412,5.696000,0
135.951360,207,217,414,4.416000,0
135.955776,208,218,416,4.416000,0
135.960192,209,219,418,5.056000,0
135.965248,210,220,420,5.696000,0
135.970944,211,221,422,5.696000,0
135.976640,212,222,424,5.056000,0
135.981696,213,223,426,5.056000,0
135.986752,214,224,428,5.696000,0
135.992448,215,225,430,6.336000,0
135.998784,216,226,432,5.696000,0
136.004480,217,227,434,5.056000,0
136.009536,218,228,436,5.696000,0
136.015232,219,229,438,5.056000,0
136.020288,220,230,440,0,7751.808000
143.772096,220,231,440,5.696000,0
143.777792,221,232,442,5.056000,0
143.782848,222,233,444,5.696000,0
143.788544,223,234,446,6.336000,0
143.794880,224,235,448,6.336000,0
143.801216,225,236,450,5.056000,0
143.806272,226,237,452,6.336000,0
143.812608,227,238,454,4.416000,0
143.817024,228,239,456,5.696000,0
143.822720,229,240,458,5.056000,0
143.827776,230,241,460,5.696000,0
143.833472,231,242,462,6.336000,0
143.839808,232,243,464,5.056000,0
143.844864,233,244,466,5.056000,0
143.849920,234,245,468,5.696000,0
143.855616,235,246,470,4.416000,0
143.860032,236,247,472,5.056000,0
143.865088,237,248,474,5.056000,0
143.870144,238,249,476,5.696000,0
143.875840,239,250,478,4.416000,0
143.880256,240,251,480,6.336000,0
143.886592,241,252,482,0,7749.824000
151.636416,241,253,482,5.056000,0
151.641472,242,254,484,5.696000,0
151.647168,243,255,486,4.416000,0
151.651584,244,256,488,5.056000,0
151.656640,245,257,490,5.056000,0
151.661696,246,258,492,5.696000,0
151.667392,247,259,494,6.336000,0
151.673728,248,260,496,6.336000,0
151.680064,249,261,498,4.416000,0
151.684480,250,262,500,5.696000,0
151.690176,251,263,502,4.416000,0
151.694592,252,264,504,4.416000,0
151.699008,253,265,506,5.056000,0
151.704064,254,266,508,5.696000,0
151.709760,255,267,510,4.416000,0
151.714176,256,268,512,6.336000,0
151.720512,257,269,514,5.056000,0
151.725568,258,270,516,5.696000,0
151.731264,259,271,518,6.336000,0
151.737600,260,272,520,6.336000,0
151.743936,261,273,522,5.056000,0
151.748992,262,274,524,5.696000,0
151.754688,263,275,526,0,7746.048000
159.500736,263,276,526,6.336000,0
159.507072,264,277,528,5.696000,0
159.512768,265,278,530,5.056000,0
159.517824,266,279,532,5.696000,0
159.523520,267,280,534,5.056000,0
159.528576,268,281,536,5.696000,0
159.534272,269,282,538,5.056000,0
159.539328,270,283,540,5.696000,0
159.545024,271,284,542,5.696000,0
159.550720,272,285,544,5.056000,0
159.555776,273,286,546,5.056000,0
159.560832,274,287,548,5.696000,0
159.566528,275,288,550,5.056000,0
159.571584,276,289,552,4.416000,0
159.576000,277,290,554,5.056000,0
159.581056,278,291,556,5.696000,0
159.586752,279,292,558,5.056000,0
159.591808,280,293,560,5.056000,0
159.596864,281,294,562,5.056000,0
159.601920,282,295,564,5.696000,0
159.607616,283,296,566,6.336000,0
159.613952,284,297,568,5.696000,0
159.619648,285,298,570,5.056000,0
159.624704,286,299,572,5.696000,0
159.630400,287,300,574,0,7734.656000
167.365056,287,301,574,4.416000,0
167.369472,288,302,576,6.336000,0
167.375808,289,303,578,5.056000,0
167.380864,290,304,580,5.696000,0
167.386560,291,305,582,5.696000,0
167.392256,292,306,584,5.056000,0
167.397312,293,307,586,5.056000,0
167.402368,294,308,588,5.696000,0
167.408064,295,309,590,4.416000,0
167.412480,296,310,592,5.056000,0
167.417536,297,311,594,5.056000,0
167.422592,298,312,596,5.696000,0
167.428288,299,313,598,6.336000,0
167.434624,300,314,600,4.416000,0
167.439040,301,315,602,4.416000,0
167.443456,302,316,604,5.696000,0
167.449152,303,317,606,4.416000,0
167.453568,304,318,608,4.416000,0
167.457984,305,319,610,4.416000,0
167.462400,306,320,612,5.696000,0
167.468096,307,321,614,4.416000,0
167.472512,308,322,616,0,7756.864000
175.229376,308,323,616,4.416000,0
175.233792,309,324,618,4.416000,0
175.238208,310,325,620,5.696000,0
175.243904,311,326,622,4.416000,0
175.248320,312,327,624,4.416000,0
175.252736,313,328,626,5.056000,0
175.257792,314,329,628,5.696000,0
175.263488,315,330,630,5.696000,0
175.269184,316,331,632,5.056000,0
175.274240,317,332,634,5.056000,0
175.279296,318,333,636,5.696000,0
175.284992,319,334,638,6.336000,0
175.291328,320,335,640,5.696000,0
175.297024,321,336,642,5.056000,0
175.302080,322,337,644,5.696000,0
175.307776,323,338,646,5.056000,0
175.312832,324,339,648,5.696000,0
175.318528,325,340,650,5.056000,0
175.323584,326,341,652,5.696000,0
175.329280,327,342,654,6.336000,0
175.335616,328,343,656,6.336000,0
175.341952,329,344,658,0,7751.744000
183.093696,329,345,658,5.056000,0
183.098752,330,346,660,6.336000,0
183.105088,331,347,662,4.416000,0
183.109504,332,348,664,5.696000,0
183.115200,333,349,666,5.056000,0
183.120256,334,350,668,5.696000,0
183.125952,335,351,670,6.336000,0
183.132288,336,352,672,5.056000,0
183.137344,337,353,674,5.056000,0
183.142400,338,354,676,5.696000,0
183.148096,339,355,678,4.416000,0
183.152512,340,356,680,5.056000,0
183.157568,341,357,682,5.056000,0
183.162624,342,358,684,5.696000,0
183.168320,343,359,686,4.416000,0
183.172736,344,360,688,6.336000,0
183.179072,345,361,690,5.056000,0
183.184128,346,362,692,5.696000,0
183.189824,347,363,694,4.416000,0
183.194240,348,364,696,5.056000,0
183.199296,349,365,698,5.056000,0
183.204352,350,366,700,0,7753.664000
190.958016,350,367,700,5.696000,0
190.963712,351,368,702,6.336000,0
190.970048,352,369,704,6.336000,0
190.976384,353,370,706,4.416000,0
190.980800,354,371,708,5.696000,0
190.986496,355,372,710,4.416000,0
190.990912,356,373,712,4.416000,0
190.995328,357,374,714,5.056000,0
191.000384,358,375,716,5.696000,0
191.006080,359,376,718,4.416000,0
191.010496,360,377,720,6.336000,0
191.016832,361,378,722,5.056000,0
191.021888,362,379,724,5.696000,0
191.027584,363,380,726,6.336000,0
191.033920,364,381,728,6.336000,0
191.040256,365,382,730,5.056000,0
191.045312,366,383,732,5.696000,0
191.051008,367,384,734,6.336000,0
191.057344,368,385,736,5.696000,0
191.063040,369,386,738,5.056000,0
191.068096,370,387,740,5.696000,0
191.073792,371,388,742,5.056000,0
191.078848,372,389,744,0,7743.488000
198.822336,372,390,744,5.696000,0
198.828032,373,391,746,5.056000,0
198.833088,374,392,748,5.696000,0
198.838784,375,393,750,5.696000,0
198.844480,376,394,752,5.056000,0
198.849536,377,395,754,5.056000,0
198.854592,378,396,756,5.696000,0
198.860288,379,397,758,5.056000,0
198.865344,380,398,760,4.416000,0
198.869760,381,399,762,5.056000,0
198.874816,382,400,764,5.696000,0
198.880512,383,401,766,5.056000,0
198.885568,384,402,768,5.056000,0
198.890624,385,403,770,5.056000,0
198.895680,386,404,772,5.696000,0
198.901376,387,405,774,6.336000,0
198.907712,388,406,776,5.696000,0
198.913408,389,407,778,5.056000,0
198.918464,390,408,780,5.696000,0
198.924160,391,409,782,4.416000,0
198.928576,392,410,784,6.336000,0
198.934912,393,411,786,5.056000,0
198.939968,394,412,788,0,7746.688000
206.686656,394,413,788,5.696000,0
206.692352,395,414,790,5.696000,0
206.698048,396,415,792,5.056000,0
206.703104,397,416,794,5.056000,0
206.708160,398,417,796,5.696000,0
206.713856,399,418,798,4.416000,0
206.718272,400,419,800,5.056000,0
206.723328,401,420,802,5.056000,0
206.728384,402,421,804,5.696000,0
206.734080,403,422,806,6.336000,0
206.740416,404,423,808,4.416000,0
206.744832,405,424,810,4.416000,0
206.749248,406,425,812,5.696000,0
206.754944,407,426,814,4.416000,0
206.759360,408,427,816,4.416000,0
206.763776,409,428,818,4.416000,0
206.768192,410,429,820,5.696000,0
206.773888,411,430,822,4.416000,0
206.778304,412,431,824,4.416000,0
206.782720,413,432,826,4.416000,0
206.787136,414,433,828,5.696000,0
206.792832,415,434,830,0,7758.144000
214.550976,415,435,830,4.416000,0
214.555392,416,436,832,4.416000,0
214.559808,417,437,834,5.056000,0
214.564864,418,438,836,5.696000,0
214.570560,419,439,838,5.696000,0
214.576256,420,440,840,5.056000,0
214.581312,421,441,842,5.056000,0
214.586368,422,442,844,5.696000,0
214.592064,423,443,846,6.336000,0
214.598400,424,444,848,5.696000,0
214.604096,425,445,850,5.056000,0
214.609152,426,446,852,5.696000,0
214.614848,427,447,854,5.056000,0
214.619904,428,448,856,5.696000,0
214.625600,429,449,858,5.056000,0
214.630656,430,450,860,5.696000,0
214.636352,431,451,862,6.336000,0
214.642688,432,452,864,6.336000,0
214.649024,433,453,866,5.056000,0
214.654080,434,454,868,6.336000,0
214.660416,435,455,870,4.416000,0
214.664832,436,456,872,5.696000,0
214.670528,437,457,874,0,7744.768000
222.415296,437,458,874,5.056000,0
222.420352,438,459,876,5.696000,0
222.426048,439,460,878,6.336000,0
222.432384,440,461,880,5.056000,0
222.437440,441,462,882,5.056000,0
222.442496,442,463,884,5.696000,0
222.448192,443,464,886,4.416000,0
222.452608,444,465,888,5.056000,0
222.457664,445,466,890,5.056000,0
222.462720,446,467,892,5.696000,0
222.468416,447,468,894,4.416000,0
222.472832,448,469,896,6.336000,0
222.479168,449,470,898,5.056000,0
222.484224,450,471,900,5.696000,0
222.489920,451,472,902,4.416000,0
222.494336,452,473,904,5.056000,0
222.499392,453,474,906,5.056000,0
222.504448,454,475,908,5.696000,0
222.510144,455,476,910,6.336000,0
222.516480,456,477,912,6.336000,0
222.522816,457,478,914,4.416000,0
222.527232,458,479,916,5.696000,0
222.532928,459,480,918,4.416000,0
222.537344,460,481,920,4.416000,0
222.541760,461,482,922,5.056000,0
222.546816,462,483,924,0,7732.800000
230.279616,462,484,924,5.696000,0
230.285312,463,485,926,4.416000,0
230.289728,464,486,928,6.336000,0
230.296064,465,487,930,5.056000,0
230.301120,466,488,932,5.696000,0
230.306816,467,489,934,6.336000,0
230.313152,468,490,936,6.336000,0
230.319488,469,491,938,5.056000,0
230.324544,470,492,940,5.696000,0
230.330240,471,493,942,6.336000,0
230.336576,472,494,944,5.696000,0
230.342272,473,495,946,5.056000,0
230.347328,474,496,948,5.696000,0
230.353024,475,497,950,5.056000,0
230.358080,476,498,952,5.696000,0
230.363776,477,499,954,5.056000,0
230.368832,478,500,956,5.696000,0
230.374528,479,501,958,5.696000,0
230.380224,480,502,960,5.056000,0
230.385280,481,503,962,5.056000,0
230.390336,482,504,964,5.696000,0
230.396032,483,505,966,5.056000,0
230.401088,484,506,968,0,7742.848000
238.143936,484,507,968,4.416000,0
238.148352,485,508,970,5.056000,0
238.153408,486,509,972,5.696000,0
238.159104,487,510,974,5.056000,0
238.164160,488,511,976,5.056000,0
238.169216,489,512,978,5.056000,0
238.174272,490,513,980,5.696000,0
238.179968,491,514,982,6.336000,0
238.186304,492,515,984,5.696000,0
238.192000,493,516,986,5.056000,0
238.197056,494,517,988,5.696000,0
238.202752,495,518,990,4.416000,0
238.207168,496,519,992,6.336000,0
238.213504,497,520,994,5.056000,0
238.218560,498,521,996,5.696000,0
238.224256,499,522,998,5.696000,0
238.229952,500,523,1000,5.056000,0
238.235008,501,524,1002,5.056000,0
238.240064,502,525,1004,5.696000,0
238.245760,503,526,1006,4.416000,0
238.250176,504,527,1008,5.056000,0
238.255232,505,528,1010,5.056000,0
238.260288,506,529,1012,0,7747.968000
246.008256,506,530,1012,5.696000,0
246.013952,507,531,1014,6.336000,0
246.020288,508,532,1016,4.416000,0
246.024704,509,533,1018,4.416000,0
246.029120,510,534,1020,5.696000,0
246.034816,511,535,1022,4.416000,0
246.039232,512,536,1024,4.416000,0
246.043648,513,537,1026,4.416000,0
246.048064,514,538,1028,5.696000,0
246.053760,515,539,1030,4.416000,0
246.058176,516,540,1032,4.416000,0
246.062592,517,541,1034,4.416000,0
246.067008,518,542,1036,5.696000,0
246.072704,519,543,1038,4.416000,0
246.077120,520,544,1040,4.416000,0
246.081536,521,545,1042,5.056000,0
246.086592,522,546,1044,5.696000,0
246.092288,523,547,1046,5.696000,0
246.097984,524,548,1048,5.056000,0
246.103040,525,549,1050,5.056000,0
246.108096,526,550,1052,5.696000,0
246.113792,527,551,1054,6.336000,0
246.120128,528,552,1056,0,7752.448000
253.872576,528,553,1056,5.696000,0
253.878272,529,554,1058,5.056000,0
253.883328,530,555,1060,5.696000,0
253.889024,531,556,1062,5.056000,0
253.894080,532,557,1064,5.696000,0
253.899776,533,558,1066,5.056000,0
253.904832,534,559,1068,5.696000,0
253.910528,535,560,1070,6.336000,0
253.916864,536,561,1072,6.336000,0
253.923200,537,562,1074,5.056000,0
253.928256,538,563,1076,6.336000,0
253.934592,539,564,1078,4.416000,0
253.939008,540,565,1080,5.696000,0
253.944704,541,566,1082,5.056000,0
253.949760,542,567,1084,5.696000,0
253.955456,543,568,1086,6.336000,0
253.961792,544,569,1088,5.056000,0
253.966848,545,570,1090,5.056000,0
253.971904,546,571,1092,5.696000,0
253.977600,547,572,1094,4.416000,0
253.982016,548,573,1096,5.056000,0
253.987072,549,574,1098,5.056000,0
253.992128,550,575,1100,5.696000,0
253.997824,551,576,1102,4.416000,0
254.002240,552,577,1104,0,7734.656000
261.736896,552,578,1104,6.336000,0
261.743232,553,579,1106,5.056000,0
261.748288,554,580,1108,5.696000,0
261.753984,555,581,1110,4.416000,0
261.758400,556,582,1112,5.056000,0
261.763456,557,583,1114,5.056000,0
261.768512,558,584,1116,5.696000,0
261.774208,559,585,1118,6.336000,0
261.780544,560,586,1120,6.336000,0
261.786880,561,587,1122,4.416000,0
261.791296,562,588,1124,5.696000,0
261.796992,563,589,1126,4.416000,0
261.801408,564,590,1128,4.416000,0
261.805824,565,591,1130,5.056000,0
261.810880,566,592,1132,5.696000,0
261.816576,567,593,1134,4.416000,0
261.820992,568,594,1136,6.336000,0
261.827328,569,595,1138,5.056000,0
261.832384,570,596,1140,5.696000,0
261.838080,571,597,1142,6.336000,0
261.844416,572,598,1144,6.336000,0
261.850752,573,599,1146,5.056000,0
261.855808,574,600,1148,5.696000,0
261.861504,575,601,1150,0,7739.712000
269.601216,575,602,1150,6.336000,0
269.607552,576,603,1152,5.696000,0
269.613248,577,604,1154,5.056000,0
269.618304,578,605,1156,5.696000,0
269.624000,579,606,1158,5.056000,0
269.629056,580,607,1160,5.696000,0
269.634752,581,608,1162,5.056000,0
269.639808,582,609,1164,5.696000,0
269.645504,583,610,1166,5.696000,0
269.651200,584,611,1168,5.056000,0
269.656256,585,612,1170,5.056000,0
269.661312,586,613,1172,5.696000,0
269.667008,587,614,1174,5.056000,0
269.672064,588,615,1176,4.416000,0
269.676480,589,616,1178,5.056000,0
269.681536,590,617,1180,5.696000,0
269.687232,591,618,1182,5.056000,0
269.692288,592,619,1184,5.056000,0
269.697344,593,620,1186,5.056000,0
269.702400,594,621,1188,5.696000,0
269.708096,595,622,1190,6.336000,0
269.714432,596,623,1192,5.696000,0
269.720128,597,624,1194,5.056000,0
269.725184,598,625,1196,5.696000,0
269.730880,599,626,1198,0,7734.656000
277.465536,599,627,1198,4.416000,0
277.469952,600,628,1200,6.336000,0
277.476288,601,629,1202,5.056000,0
277.481344,602,630,1204,5.696000,0
277.487040,603,631,1206,5.696000,0
277.492736,604,632,1208,5.056000,0
277.497792,605,633,1210,5.056000,0
277.502848,606,634,1212,5.696000,0
277.508544,607,635,1214,4.416000,0
277.512960,608,636,1216,5.056000,0
277.518016,609,637,1218,5.056000,0
277.523072,610,638,1220,5.696000,0
277.528768,611,639,1222,6.336000,0
277.535104,612,640,1224,4.416000,0
277.539520,613,641,1226,4.416000,0
277.543936,614,642,1228,5.696000,0
277.549632,615,643,1230,4.416000,0
277.554048,616,644,1232,4.416000,0
277.558464,617,645,1234,4.416000,0
277.562880,618,646,1236,5.696000,0
277.568576,619,647,1238,4.416000,0
277.572992,620,648,1240,4.416000,0
277.577408,621,649,1242,4.416000,0
277.581824,622,650,1244,