Time,CovertPackets,AllPackets,BitsSent,PacketInterval;GTSInterval
32.017408,1,30,2,5.504000,0
32.022912,2,45,4,6.144000,0
32.029056,3,60,6,6.144000,0
32.035200,4,75,8,5.504000,0
32.040704,5,90,10,5.504000,0
32.046208,6,105,12,6.144000,0
32.052352,7,120,14,6.784000,0
32.059136,8,135,16,6.144000,0
32.065280,9,150,18,0,1913.984000
33.979264,9,165,18,5.504000,0
33.984768,10,180,20,6.144000,0
33.990912,11,195,22,5.504000,0
33.996416,12,210,24,6.144000,0
34.002560,13,225,26,5.504000,0
34.008064,14,240,28,6.144000,0
34.014208,15,255,30,6.784000,0
34.020992,16,270,32,6.784000,0
34.027776,17,285,34,5.504000,0
34.033280,18,300,36,0,1912.064000
35.945344,18,315,36,6.784000,0
35.952128,19,330,38,4.864000,0
35.956992,20,345,40,6.144000,0
35.963136,21,360,42,5.504000,0
35.968640,22,375,44,6.144000,0
35.974784,23,390,46,6.784000,0
35.981568,24,405,48,5.504000,0
35.987072,25,420,50,5.504000,0
35.992576,26,435,52,6.144000,0
35.998720,27,450,54,0,1912.704000
37.911424,27,465,54,4.864000,0
37.916288,28,480,56,5.504000,0
37.921792,29,495,58,5.504000,0
37.927296,30,510,60,6.144000,0
37.933440,31,525,62,4.864000,0
37.938304,32,540,64,6.784000,0
37.945088,33,555,66,5.504000,0
37.950592,34,570,68,6.144000,0
37.956736,35,585,70,4.864000,0
37.961600,36,600,72,0,1915.904000
39.877504,36,615,72,5.504000,0
39.883008,37,630,74,5.504000,0
39.888512,38,645,76,6.144000,0
39.894656,39,660,78,6.784000,0
39.901440,40,675,80,6.784000,0
39.908224,41,690,82,4.864000,0
39.913088,42,705,84,6.144000,0
39.919232,43,720,86,4.864000,0
39.924096,44,735,88,4.864000,0
39.928960,45,750,90,0,1914.624000
41.843584,45,765,90,5.504000,0
41.849088,46,780,92,6.144000,0
41.855232,47,795,94,4.864000,0
41.860096,48,810,96,6.784000,0
41.866880,49,825,98,5.504000,0
41.872384,50,840,100,6.144000,0
41.878528,51,855,102,6.784000,0
41.885312,52,870,104,6.784000,0
41.892096,53,885,106,5.504000,0
41.897600,54,900,108,0,1912.064000
43.809664,54,915,108,6.144000,0
43.815808,55,930,110,6.784000,0
43.822592,56,945,112,6.144000,0
43.828736,57,960,114,5.504000,0
43.834240,58,975,116,6.144000,0
43.840384,59,990,118,5.504000,0
43.845888,60,1005,120,0,1929.856000
45.775744,60,1020,120,6.144000,0
45.781888,61,1035,122,0,1959.936000
47.741824,61,1050,122,5.504000,0
47.747328,62,1065,124,6.144000,0
47.753472,63,1080,126,0,1954.432000
49.707904,63,1095,126,6.144000,0
49.714048,64,1110,128,0,1959.936000
51.673984,64,1125,128,5.504000,0
51.679488,65,1140,130,0,1960.576000
53.640064,65,1155,130,5.504000,0
53.645568,66,1170,132,6.144000,0
53.651712,67,1185,134,0,1954.432000
55.606144,67,1200,134,5.504000,0
55.611648,68,1215,136,0,1960.576000
57.572224,68,1230,136,4.864000,0
57.577088,69,1245,138,5.504000,0
57.582592,70,1260,140,0,1955.712000
59.538304,70,1275,140,6.144000,0
59.544448,71,1290,142,5.504000,0
59.549952,72,1305,144,0,1954.432000
61.504384,72,1320,144,5.504000,0
61.509888,73,1335,146,0,1960.576000
63.470464,73,1350,146,5.504000,0
63.475968,74,1365,148,0,1960.576000
65.436544,74,1380,148,6.144000,0
65.442688,75,1395,150,6.784000,0
65.449472,76,1410,152,0,1953.152000
67.402624,76,1425,152,6.144000,0
67.408768,77,1440,154,0,1959.936000
69.368704,77,1455,154,5.504000,0
69.374208,78,1470,156,0,1960.576000
71.334784,78,1485,156,6.144000,0
71.340928,79,1500,158,4.864000,0
71.345792,80,1515,160,0,1955.072000
73.300864,80,1530,160,6.784000,0
73.307648,81,1545,162,0,1959.296000
75.266944,81,1560,162,5.504000,0
75.272448,82,1575,164,6.144000,0
75.278592,83,1590,166,0,1954.432000
77.233024,83,1605,166,6.144000,0
77.239168,84,1620,168,0,1959.936000
79.199104,84,1635,168,5.504000,0
79.204608,85,1650,170,5.504000,0
79.210112,86,1665,172,0,1955.072000
81.165184,86,1680,172,6.144000,0
81.171328,87,1695,174,4.864000,0
81.176192,88,1710,176,0,1955.072000
83.131264,88,1725,176,5.504000,0
83.136768,89,1740,178,0,1960.576000
85.097344,89,1755,178,5.504000,0
85.102848,90,1770,180,6.144000,0
85.108992,91,1785,182,0,1954.432000
87.063424,91,1800,182,6.784000,0
87.070208,92,1815,184,0,1959.296000
89.029504,92,1830,184,4.864000,0
89.034368,93,1845,186,0,1961.216000
90.995584,93,1860,186,4.864000,0
91.000448,94,1875,188,6.144000,0
91.006592,95,1890,190,0,1955.072000
92.961664,95,1905,190,4.864000,0
92.966528,96,1920,192,4.864000,0
92.971392,97,1935,194,0,1956.352000
94.927744,97,1950,194,4.864000,0
94.932608,98,1965,196,0,1961.216000
96.893824,98,1980,196,6.144000,0
96.899968,99,1995,198,4.864000,0
96.904832,100,2010,200,0,1955.072000
98.859904,100,2025,200,4.864000,0
98.864768,101,2040,202,0,1961.216000
100.825984,101,2055,202,4.864000,0
100.830848,102,2070,204,6.144000,0
100.836992,103,2085,206,0,1955.072000
102.792064,103,2100,206,4.864000,0
102.796928,104,2115,208,0,1961.216000
104.758144,104,2130,208,4.864000,0
104.763008,105,2145,210,0,1961.216000
106.724224,105,2160,210,4.864000,0
106.729088,106,2175,212,4.864000,0
106.733952,107,2190,214,0,1956.352000
108.690304,107,2205,214,5.504000,0
108.695808,108,2220,216,0,1960.576000
110.656384,108,2235,216,6.144000,0
110.662528,109,2250,218,6.144000,0
110.668672,110,2265,220,0,1953.792000
112.622464,110,2280,220,5.504000,0
112.627968,111,2295,222,0,1960.576000
114.588544,111,2310,222,5.504000,0
114.594048,112,2325,224,6.144000,0
114.600192,113,2340,226,0,1954.432000
116.554624,113,2355,226,6.784000,0
116.561408,114,2370,228,6.144000,0
116.567552,115,2385,230,0,1953.152000
118.520704,115,2400,230,5.504000,0
118.526208,116,2415,232,0,1960.576000
120.486784,116,2430,232,6.144000,0
120.492928,117,2445,234,5.504000,0
120.498432,118,2460,236,0,1954.432000
122.452864,118,2475,236,6.144000,0
122.459008,119,2490,238,0,1959.936000
124.418944,119,2505,238,5.504000,0
124.424448,120,2520,240,0,1960.576000
126.385024,120,2535,240,6.144000,0
126.391168,121,2550,242,6.784000,0
126.397952,122,2565,244,0,1953.152000
128.351104,122,2580,244,6.784000,0
128.357888,123,2595,246,5.504000,0
128.363392,124,2610,248,0,1953.792000
130.317184,124,2625,248,6.784000,0
130.323968,125,2640,250,0,1959.296000
132.283264,125,2655,250,4.864000,0
132.288128,126,2670,252,0,1961.216000
134.249344,126,2685,252,6.144000,0
134.255488,127,2700,254,5.504000,0
134.260992,128,2715,256,0,1954.432000
136.215424,128,2730,256,6.144000,0
136.221568,129,2745,258,0,1959.936000
138.181504,129,2760,258,6.784000,0
138.188288,130,2775,260,0,1959.296000
140.147584,130,2790,260,5.504000,0
140.153088,131,2805,262,0,1960.576000
142.113664,131,2820,262,5.504000,0
142.119168,132,2835,264,6.144000,0
142.125312,133,2850,266,0,1954.432000
144.079744,133,2865,266,4.864000,0
144.084608,134,2880,268,5.504000,0
144.090112,135,2895,270,0,1955.712000
146.045824,135,2910,270,5.504000,0
146.051328,136,2925,272,0,1960.576000
148.011904,136,2940,272,6.144000,0
148.018048,137,2955,274,0,1959.936000
149.977984,137,2970,274,4.864000,0
149.982848,138,2985,276,6.784000,0
149.989632,139,3000,278,0,1954.432000
151.944064,139,3015,278,5.504000,0
151.949568,140,3030,280,0,1960.576000
153.910144,140,3045,280,6.144000,0
153.916288,141,3060,282,0,1959.936000
155.876224,141,3075,282,4.864000,0
155.881088,142,3090,284,0,1961.216000
157.842304,142,3105,284,5.504000,0
157.847808,143,3120,286,5.504000,0
157.853312,144,3135,288,0,1955.072000
159.808384,144,3150,288,6.144000,0
159.814528,145,3165,290,0,1959.936000
161.774464,145,3180,290,6.784000,0
161.781248,146,3195,292,6.784000,0
161.788032,147,3210,294,0,1952.512000
163.740544,147,3225,294,4.864000,0
163.745408,148,3240,296,0,1961.216000
165.706624,148,3255,296,6.144000,0
165.712768,149,3270,298,4.864000,0
165.717632,150,3285,300,0,1955.072000
167.672704,150,3300,300,4.864000,0
167.677568,151,3315,302,0,1961.216000
169.638784,151,3330,302,5.504000,0
169.644288,152,3345,304,0,1960.576000
171.604864,152,3360,304,6.144000,0
171.611008,153,3375,306,4.864000,0
171.615872,154,3390,308,0,1955.072000
173.570944,154,3405,308,6.784000,0
173.577728,155,3420,310,0,1959.296000
175.537024,155,3435,310,5.504000,0
175.542528,156,3450,312,0,1960.576000
177.503104,156,3465,312,6.144000,0
177.509248,157,3480,314,6.784000,0
177.516032,158,3495,316,0,1953.152000
179.469184,158,3510,316,6.784000,0
179.475968,159,3525,318,0,1959.296000
181.435264,159,3540,318,5.504000,0
181.440768,160,3555,320,6.144000,0
181.446912,161,3570,322,0,1954.432000
183.401344,161,3585,322,6.784000,0
183.408128,162,3600,324,0,1959.296000
185.367424,162,3615,324,6.144000,0
185.373568,163,3630,326,0,1959.936000
187.333504,163,3645,326,5.504000,0
187.339008,164,3660,328,0,1960.576000
189.299584,164,3675,328,6.144000,0
189.305728,165,3690,330,0,1959.936000
191.265664,165,3705,330,5.504000,0
191.271168,166,3720,332,6.144000,0
191.277312,167,3735,334,0,1954.432000
193.231744,167,3750,334,5.504000,0
193.237248,168,3765,336,0,1960.576000
195.197824,168,3780,336,6.144000,0
195.203968,169,3795,338,0,1959.936000
197.163904,169,3810,338,6.144000,0
197.170048,170,3825,340,5.504000,0
197.175552,171,3840,342,0,1954.432000
199.129984,171,3855,342,5.504000,0
199.135488,172,3870,344,0,1960.576000
201.096064,172,3885,344,6.144000,0
201.102208,173,3900,346,0,1959.936000
203.062144,173,3915,346,5.504000,0
203.067648,174,3930,348,0,1960.576000
205.028224,174,3945,348,4.864000,0
205.033088,175,3960,350,5.504000,0
205.038592,176,3975,352,0,1955.712000
206.994304,176,3990,352,6.144000,0
207.000448,177,4005,354,5.504000,0
207.005952,178,4020,356,0,1954.432000
208.960384,178,4035,356,5.504000,0
208.965888,179,4050,358,0,1960.576000
210.926464,179,4065,358,5.504000,0
210.931968,180,4080,360,6.144000,0
210.938112,181,4095,362,0,1954.432000
212.892544,181,4110,362,6.784000,0
212.899328,182,4125,364,6.144000,0
212.905472,183,4140,366,0,1953.152000
214.858624,183,4155,366,5.504000,0
214.864128,184,4170,368,0,1960.576000
216.824704,184,4185,368,6.144000,0
216.830848,185,4200,370,0,1959.936000
218.790784,185,4215,370,4.864000,0
218.795648,186,4230,372,6.784000,0
218.802432,187,4245,374,0,1954.432000
220.756864,187,4260,374,5.504000,0
220.762368,188,4275,376,0,1960.576000
222.722944,188,4290,376,6.144000,0
222.729088,189,4305,378,6.144000,0
222.735232,190,4320,380,0,1953.792000
224.689024,190,4335,380,5.504000,0
224.694528,191,4350,382,0,1960.576000
226.655104,191,4365,382,5.504000,0
226.660608,192,4380,384,6.144000,0
226.666752,193,4395,386,0,1954.432000
228.621184,193,4410,386,4.864000,0
228.626048,194,4425,388,0,1961.216000
230.587264,194,4440,388,5.504000,0
230.592768,195,4455,390,0,1960.576000
232.553344,195,4470,390,5.504000,0
232.558848,196,4485,392,6.144000,0
232.564992,197,4500,394,0,1954.432000
234.519424,197,4515,394,6.784000,0
234.526208,198,4530,396,0,1959.296000
236.485504,198,4545,396,4.864000,0
236.490368,199,4560,398,4.864000,0
236.495232,200,4575,400,0,1956.352000
238.451584,200,4590,400,6.144000,0
238.457728,201,4605,402,0,1959.936000
240.417664,201,4620,402,4.864000,0
240.422528,202,4635,404,4.864000,0
240.427392,203,4650,406,0,1956.352000
242.383744,203,4665,406,4.864000,0
242.388608,204,4680,408,6.144000,0
242.394752,205,4695,410,0,1955.072000
244.349824,205,4710,410,4.864000,0
244.354688,206,4725,412,