Time,CovertPackets,AllPackets,BitsSent,PacketInterval;GTSInterval
32.019328,1,90,2,6.464000,0
32.025792,2,135,4,7.104000,0
32.032896,3,180,6,7.104000,0
32.040000,4,225,8,6.464000,0
32.046464,5,270,10,6.464000,0
32.052928,6,315,12,7.104000,0
32.060032,7,360,14,7.744000,0
32.067776,8,405,16,0,1912.448000
33.980224,8,450,16,7.104000,0
33.987328,9,495,18,6.464000,0
33.993792,10,540,20,7.104000,0
34.000896,11,585,22,6.464000,0
34.007360,12,630,24,7.104000,0
34.014464,13,675,26,6.464000,0
34.020928,14,720,28,7.104000,0
34.028032,15,765,30,0,1918.272000
35.946304,15,810,30,7.744000,0
35.954048,16,855,32,7.744000,0
35.961792,17,900,34,6.464000,0
35.968256,18,945,36,7.744000,0
35.976000,19,990,38,5.824000,0
35.981824,20,1035,40,7.104000,0
35.988928,21,1080,42,6.464000,0
35.995392,22,1125,44,0,1916.992000
37.912384,22,1170,44,7.104000,0
37.919488,23,1215,46,7.744000,0
37.927232,24,1260,48,6.464000,0
37.933696,25,1305,50,6.464000,0
37.940160,26,1350,52,7.104000,0
37.947264,27,1395,54,5.824000,0
37.953088,28,1440,56,6.464000,0
37.959552,29,1485,58,6.464000,0
37.966016,30,1530,60,0,1912.448000
39.878464,30,1575,60,7.104000,0
39.885568,31,1620,62,5.824000,0
39.891392,32,1665,64,7.744000,0
39.899136,33,1710,66,6.464000,0
39.905600,34,1755,68,7.104000,0
39.912704,35,1800,70,5.824000,0
39.918528,36,1845,72,6.464000,0
39.924992,37,1890,74,6.464000,0
39.931456,38,1935,76,0,1913.088000
41.844544,38,1980,76,7.104000,0
41.851648,39,2025,78,7.744000,0
41.859392,40,2070,80,7.744000,0
41.867136,41,2115,82,5.824000,0
41.872960,42,2160,84,7.104000,0
41.880064,43,2205,86,5.824000,0
41.885888,44,2250,88,5.824000,0
41.891712,45,2295,90,6.464000,0
41.898176,46,2340,92,0,1912.448000
43.810624,46,2385,92,7.104000,0
43.817728,47,2430,94,5.824000,0
43.823552,48,2475,96,7.744000,0
43.831296,49,2520,98,6.464000,0
43.837760,50,2565,100,7.104000,0
43.844864,51,2610,102,7.744000,0
43.852608,52,2655,104,7.744000,0
43.860352,53,2700,106,0,1916.352000
45.776704,53,2745,106,6.464000,0
45.783168,54,2790,108,7.104000,0
45.790272,55,2835,110,7.744000,0
45.798016,56,2880,112,7.104000,0
45.805120,57,2925,114,6.464000,0
45.811584,58,2970,116,7.104000,0
45.818688,59,3015,118,6.464000,0
45.825152,60,3060,120,0,1917.632000
47.742784,60,3105,120,7.104000,0
47.749888,61,3150,122,6.464000,0
47.756352,62,3195,124,7.104000,0
47.763456,63,3240,126,0,1945.408000
49.708864,63,3285,126,7.104000,0
49.715968,64,3330,128,6.464000,0
49.722432,65,3375,130,6.464000,0
49.728896,66,3420,132,0,1946.048000
51.674944,66,3465,132,7.104000,0
51.682048,67,3510,134,6.464000,0
51.688512,68,3555,136,5.824000,0
51.694336,69,3600,138,6.464000,0
51.700800,70,3645,140,0,1940.224000
53.641024,70,3690,140,7.104000,0
53.648128,71,3735,142,6.464000,0
53.654592,72,3780,144,6.464000,0
53.661056,73,3825,146,0,1946.048000
55.607104,73,3870,146,6.464000,0
55.613568,74,3915,148,7.104000,0
55.620672,75,3960,150,7.744000,0
55.628416,76,4005,152,0,1944.768000
57.573184,76,4050,152,7.104000,0
57.580288,77,4095,154,6.464000,0
57.586752,78,4140,156,7.104000,0
57.593856,79,4185,158,0,1945.408000
59.539264,79,4230,158,5.824000,0
59.545088,80,4275,160,7.744000,0
59.552832,81,4320,162,6.464000,0
59.559296,82,4365,164,0,1946.048000
61.505344,82,4410,164,7.104000,0
61.512448,83,4455,166,7.104000,0
61.519552,84,4500,168,6.464000,0
61.526016,85,4545,170,0,1945.408000
63.471424,85,4590,170,6.464000,0
63.477888,86,4635,172,7.104000,0
63.484992,87,4680,174,5.824000,0
63.490816,88,4725,176,0,1946.688000
65.437504,88,4770,176,6.464000,0
65.443968,89,4815,178,6.464000,0
65.450432,90,4860,180,7.104000,0
65.457536,91,4905,182,0,1946.048000
67.403584,91,4950,182,7.744000,0
67.411328,92,4995,184,5.824000,0
67.417152,93,5040,186,0,1952.512000
69.369664,93,5085,186,5.824000,0
69.375488,94,5130,188,7.104000,0
69.382592,95,5175,190,5.824000,0
69.388416,96,5220,192,0,1947.328000
71.335744,96,5265,192,5.824000,0
71.341568,97,5310,194,5.824000,0
71.347392,98,5355,196,0,1954.432000
73.301824,98,5400,196,7.104000,0
73.308928,99,5445,198,5.824000,0
73.314752,100,5490,200,5.824000,0
73.320576,101,5535,202,0,1947.328000
75.267904,101,5580,202,5.824000,0
75.273728,102,5625,204,7.104000,0
75.280832,103,5670,206,0,1953.152000
77.233984,103,5715,206,5.824000,0
77.239808,104,5760,208,5.824000,0
77.245632,105,5805,210,6.464000,0
77.252096,106,5850,212,7.104000,0
77.259200,107,5895,214,0,1940.864000
79.200064,107,5940,214,7.104000,0
79.207168,108,5985,216,6.464000,0
79.213632,109,6030,218,6.464000,0
79.220096,110,6075,220,0,1946.048000
81.166144,110,6120,220,7.104000,0
81.173248,111,6165,222,7.744000,0
81.180992,112,6210,224,7.104000,0
81.188096,113,6255,226,0,1944.128000
83.132224,113,6300,226,6.464000,0
83.138688,114,6345,228,7.104000,0
83.145792,115,6390,230,0,1952.512000
85.098304,115,6435,230,6.464000,0
85.104768,116,6480,232,7.104000,0
85.111872,117,6525,234,6.464000,0
85.118336,118,6570,236,7.104000,0
85.125440,119,6615,238,0,1938.944000
87.064384,119,6660,238,7.744000,0
87.072128,120,6705,240,7.744000,0
87.079872,121,6750,242,6.464000,0
87.086336,122,6795,244,0,1944.128000
89.030464,122,6840,244,7.744000,0
89.038208,123,6885,246,5.824000,0
89.044032,124,6930,248,0,1952.512000
90.996544,124,6975,248,7.104000,0
91.003648,125,7020,250,6.464000,0
91.010112,126,7065,252,7.104000,0
91.017216,127,7110,254,0,1945.408000
92.962624,127,7155,254,7.744000,0
92.970368,128,7200,256,6.464000,0
92.976832,129,7245,258,6.464000,0
92.983296,130,7290,260,0,1945.408000
94.928704,130,7335,260,7.104000,0
94.935808,131,7380,262,5.824000,0
94.941632,132,7425,264,6.464000,0
94.948096,133,7470,266,6.464000,0
94.954560,134,7515,268,0,1940.224000
96.894784,134,7560,268,7.104000,0
96.901888,135,7605,270,5.824000,0
96.907712,136,7650,272,0,1953.152000
98.860864,136,7695,272,7.744000,0
98.868608,137,7740,274,6.464000,0
98.875072,138,7785,276,7.104000,0
98.882176,139,7830,278,0,1944.768000
100.826944,139,7875,278,5.824000,0
100.832768,140,7920,280,6.464000,0
100.839232,141,7965,282,6.464000,0
100.845696,142,8010,284,0,1947.328000
102.793024,142,8055,284,7.104000,0
102.800128,143,8100,286,7.744000,0
102.807872,144,8145,288,7.744000,0
102.815616,145,8190,290,0,1943.488000
104.759104,145,8235,290,5.824000,0
104.764928,146,8280,292,7.104000,0
104.772032,147,8325,294,5.824000,0
104.777856,148,8370,296,0,1947.328000
106.725184,148,8415,296,5.824000,0
106.731008,149,8460,298,6.464000,0
106.737472,150,8505,300,0,1953.792000
108.691264,150,8550,300,7.104000,0
108.698368,151,8595,302,5.824000,0
108.704192,152,8640,304,7.744000,0
108.711936,153,8685,306,0,1945.408000
110.657344,153,8730,306,6.464000,0
110.663808,154,8775,308,7.104000,0
110.670912,155,8820,310,7.744000,0
110.678656,156,8865,312,7.744000,0
110.686400,157,8910,314,0,1937.024000
112.623424,157,8955,314,6.464000,0
112.629888,158,9000,316,7.104000,0
112.636992,159,9045,318,0,1952.512000
114.589504,159,9090,318,7.744000,0
114.597248,160,9135,320,7.104000,0
114.604352,161,9180,322,6.464000,0
114.610816,162,9225,324,0,1944.768000
116.555584,162,9270,324,7.104000,0
116.562688,163,9315,326,6.464000,0
116.569152,164,9360,328,7.104000,0
116.576256,165,9405,330,0,1945.408000
118.521664,165,9450,330,6.464000,0
118.528128,166,9495,332,7.104000,0
118.535232,167,9540,334,7.104000,0
118.542336,168,9585,336,0,1945.408000
120.487744,168,9630,336,6.464000,0
120.494208,169,9675,338,6.464000,0
120.500672,170,9720,340,7.104000,0
120.507776,171,9765,342,0,1946.048000
122.453824,171,9810,342,6.464000,0
122.460288,172,9855,344,5.824000,0
122.466112,173,9900,346,6.464000,0
122.472576,174,9945,348,0,1947.328000
124.419904,174,9990,348,7.104000,0
124.427008,175,10035,350,6.464000,0
124.433472,176,10080,352,6.464000,0
124.439936,177,10125,354,0,1946.048000
126.385984,177,10170,354,6.464000,0
126.392448,178,10215,356,7.104000,0
126.399552,179,10260,358,7.744000,0
126.407296,180,10305,360,0,1944.768000
128.352064,180,10350,360,7.104000,0
128.359168,181,10395,362,6.464000,0
128.365632,182,10440,364,7.104000,0
128.372736,183,10485,366,0,1945.408000
130.318144,183,10530,366,5.824000,0
130.323968,184,10575,368,7.744000,0
130.331712,185,10620,370,6.464000,0
130.338176,186,10665,372,7.104000,0
130.345280,187,10710,374,0,1938.944000
132.284224,187,10755,374,7.104000,0
132.291328,188,10800,376,6.464000,0
132.297792,189,10845,378,6.464000,0
132.304256,190,10890,380,0,1946.048000
134.250304,190,10935,380,7.104000,0
134.257408,191,10980,382,5.824000,0
134.263232,192,11025,384,6.464000,0
134.269696,193,11070,386,0,1946.688000
136.216384,193,11115,386,6.464000,0
136.222848,194,11160,388,7.104000,0
136.229952,195,11205,390,0,1952.512000
138.182464,195,11250,390,7.744000,0
138.190208,196,11295,392,5.824000,0
138.196032,197,11340,394,5.824000,0
138.201856,198,11385,396,0,1946.688000
140.148544,198,11430,396,7.104000,0
140.155648,199,11475,398,5.824000,0
140.161472,200,11520,400,5.824000,0
140.167296,201,11565,402,0,1947.328000
142.114624,201,11610,402,5.824000,0
142.120448,202,11655,404,7.104000,0
142.127552,203,11700,406,0,1953.152000
144.080704,203,11745,406,5.824000,0
144.086528,204,11790,408,5.824000,0
144.092352,205,11835,410,5.824000,0
144.098176,206,11880,412,7.104000,0
144.105280,207,11925,414,0,1941.504000
146.046784,207,11970,414,5.824000,0
146.052608,208,12015,416,0,1960.256000
148.012864,208,12060,416,5.824000,0
148.018688,209,12105,418,5.824000,0
148.024512,210,12150,420,6.464000,0
148.030976,211,12195,422,0,1947.968000
149.978944,211,12240,422,7.104000,0
149.986048,212,12285,424,7.104000,0
149.993152,213,12330,426,0,1951.872000
151.945024,213,12375,426,6.464000,0
151.951488,214,12420,428,6.464000,0
151.957952,215,12465,430,7.104000,0
151.965056,216,12510,432,0,1946.048000
153.911104,216,12555,432,7.744000,0
153.918848,217,12600,434,7.104000,0
153.925952,218,12645,436,6.464000,0
153.932416,219,12690,438,0,1944.768000
155.877184,219,12735,438,7.104000,0
155.884288,220,12780,440,6.464000,0
155.890752,221,12825,442,0,1952.512000
157.843264,221,12870,442,7.104000,0
157.850368,222,12915,444,6.464000,0
157.856832,223,12960,446,7.104000,0
157.863936,224,13005,448,0,1945.408000
159.809344,224,13050,448,7.744000,0
159.817088,225,13095,450,7.744000,0
159.824832,226,13140,452,6.464000,0
159.831296,227,13185,454,7.744000,0
159.839040,228,13230,456,0,1936.384000
161.775424,228,13275,456,5.824000,0
161.781248,229,13320,458,7.104000,0
161.788352,230,13365,460,0,1953.152000
163.741504,230,13410,460,6.464000,0
163.747968,231,13455,462,7.104000,0
163.755072,232,13500,464,7.744000,0
163.762816,233,13545,466,0,1944.768000
165.707584,233,13590,466,6.464000,0
165.714048,234,13635,468,6.464000,0
165.720512,235,13680,470,7.104000,0
165.727616,236,13725,472,0,1946.048000
167.673664,236,13770,472,5.824000,0
167.679488,237,13815,474,6.464000,0
167.685952,238,13860,476,0,1953.792000
169.639744,238,13905,476,6.464000,0
169.646208,239,13950,478,7.104000,0
169.653312,240,13995,480,5.824000,0
169.659136,241,14040,482,0,1946.688000
171.605824,241,14085,482,7.744000,0
171.613568,242,14130,484,6.464000,0
171.620032,243,14175,486,0,1951.872000
173.571904,243,14220,486,7.104000,0
173.579008,244,14265,488,5.824000,0
173.584832,245,14310,490,0,1953.152000
175.537984,245,14355,490,6.464000,0
175.544448,246,14400,492,6.464000,0
175.550912,247,14445,494,7.104000,0
175.558016,248,14490,496,0,1946.048000
177.504064,248,14535,496,7.744000,0
177.511808,249,14580,498,7.744000,0
177.519552,250,14625,500,5.824000,0
177.525376,251,14670,502,7.104000,0
177.532480,252,14715,504,0,1937.664000
179.470144,252,14760,504,5.824000,0
179.475968,253,14805,506,5.824000,0
179.481792,254,14850,508,0,1954.432000
181.436224,254,14895,508,6.464000,0
181.442688,255,14940,510,7.104000,0
181.449792,256,14985,512,5.824000,0
181.455616,257,15030,514,0,1946.688000
183.402304,257,15075,514,7.744000,0
183.410048,258,15120,516,6.464000,0
183.416512,259,15165,518,7.104000,0
183.423616,260,15210,520,0,1944.768000
185.368384,260,15255,520,7.744000,0
185.376128,261,15300,522,7.744000,0
185.383872,262,15345,524,0,1950.592000
187.334464,262,15390,524,6.464000,0
187.340928,263,15435,526,7.104000,0
187.348032,264,15480,528,7.744000,0
187.355776,265,15525,530,0,1944.768000
189.300544,265,15570,530,7.104000,0
189.307648,266,15615,532,6.464000,0
189.314112,267,15660,534,7.104000,0
189.321216,268,15705,536,0,1945.408000
191.266624,268,15750,536,6.464000,0
191.273088,269,15795,538,7.104000,0
191.280192,270,15840,540,6.464000,0
191.286656,271,15885,542,0,1946.048000
193.232704,271,15930,542,7.104000,0
193.239808,272,15975,544,7.104000,0
193.246912,273,16020,546,6.464000,0
193.253376,274,16065,548,0,1945.408000
195.198784,274,16110,548,6.464000,0
195.205248,275,16155,550,7.104000,0
195.212352,276,16200,552,0,1952.512000
197.164864,276,16245,552,6.464000,0
197.171328,277,16290,554,5.824000,0
197.177152,278,16335,556,6.464000,0
197.183616,279,16380,558,0,1947.328000
199.130944,279,16425,558,7.104000,0
199.138048,280,16470,560,6.464000,0
199.144512,281,16515,562,0,1952.512000
201.097024,281,16560,562,6.464000,0
201.103488,282,16605,564,6.464000,0
201.109952,283,16650,566,7.104000,0
201.117056,284,16695,568,0,1946.048000
203.063104,284,16740,568,7.744000,0
203.070848,285,16785,570,7.104000,0
203.077952,286,16830,572,6.464000,0
203.084416,287,16875,574,0,1944.768000
205.029184,287,16920,574,7.104000,0
205.036288,288,16965,576,5.824000,0
205.042112,289,17010,578,0,1953.152000
206.995264,289,17055,578,7.744000,0
207.003008,290,17100,580,6.464000,0
207.009472,291,17145,582,7.104000,0
207.016576,292,17190,584,0,1944.768000
208.961344,292,17235,584,7.104000,0
208.968448,293,17280,586,6.464000,0
208.974912,294,17325,588,6.464000,0
208.981376,295,17370,590,7.104000,0
208.988480,296,17415,592,0,1938.944000
210.927424,296,17460,592,5.824000,0
210.933248,297,17505,594,6.464000,0
210.939712,298,17550,596,0,1953.792000
212.893504,298,17595,596,6.464000,0
212.899968,299,17640,598,7.104000,0
212.907072,300,17685,600,7.744000,0
212.914816,301,17730,602,5.824000,0
212.920640,302,17775,604,0,1938.944000
214.859584,302,17820,604,5.824000,0
214.865408,303,17865,606,7.104000,0
214.872512,304,17910,608,0,1953.152000
216.825664,304,17955,608,5.824000,0
216.831488,305,18000,610,5.824000,0
216.837312,306,18045,612,5.824000,0
216.843136,307,18090,614,0,1948.608000
218.791744,307,18135,614,7.104000,0
218.798848,308,18180,616,5.824000,0
218.804672,309,18225,618,5.824000,0
218.810496,310,18270,620,0,1947.328000
220.757824,310,18315,620,5.824000,0
220.763648,311,18360,622,7.104000,0
220.770752,312,18405,624,5.824000,0
220.776576,313,18450,626,0,1947.328000
222.723904,313,18495,626,5.824000,0
222.729728,314,18540,628,5.824000,0
222.735552,315,18585,630,6.464000,0
222.742016,316,18630,632,0,1947.968000
224.689984,316,18675,632,7.104000,0
224.697088,317,18720,634,7.104000,0
224.704192,318,18765,636,6.464000,0
224.710656,319,18810,638,6.464000,0
224.717120,320,18855,640,0,1938.944000
226.656064,320,18900,640,7.104000,0
226.663168,321,18945,642,7.744000,0
226.670912,322,18990,644,7.104000,0
226.678016,323,19035,646,0,1944.128000
228.622144,323,19080,646,6.464000,0
228.628608,324,19125,648,7.104000,0
228.635712,325,19170,650,6.464000,0
228.642176,326,19215,652,0,1946.048000
230.588224,326,19260,652,7.104000,0
230.595328,327,19305,654,6.464000,0
230.601792,328,19350,656,0,1952.512000
232.554304,328,19395,656,7.104000,0
232.561408,329,19440,658,7.744000,0
232.569152,330,19485,660,7.744000,0
232.576896,331,19530,662,0,1943.488000
234.520384,331,19575,662,6.464000,0
234.526848,332,19620,664,7.744000,0
234.534592,333,19665,666,5.824000,0
234.540416,334,19710,668,0,1946.048000
236.486464,334,19755,668,7.104000,0
236.493568,335,19800,670,6.464000,0
236.500032,336,19845,672,7.104000,0
236.507136,337,19890,674,7.744000,0
236.514880,338,19935,676,