Time,CovertPackets,AllPackets,BitsSent,PacketInterval;GTSInterval
72.993216,0,2,0,4.416000,0
72.997632,1,3,2,4.416000,0
73.002048,2,4,4,5.056000,0
73.007104,3,5,6,0,7850.432000
80.857536,3,6,6,5.696000,0
80.863232,4,7,8,5.696000,0
80.868928,5,8,10,5.056000,0
80.873984,6,9,12,0,7847.872000
88.721856,6,10,12,5.056000,0
88.726912,7,11,14,5.696000,0
88.732608,8,12,16,6.336000,0
88.738944,9,13,18,0,7847.232000
96.586176,9,14,18,5.696000,0
96.591872,10,15,20,5.056000,0
96.596928,11,16,22,5.696000,0
96.602624,12,17,24,0,7847.872000
104.450496,12,18,24,5.056000,0
104.455552,13,19,26,5.696000,0
104.461248,14,20,28,0,7853.568000
112.314816,14,21,28,5.056000,0
112.319872,15,22,30,5.696000,0
112.325568,16,23,32,6.336000,0
112.331904,17,24,34,0,7847.232000
120.179136,17,25,34,6.336000,0
120.185472,18,26,36,5.056000,0
120.190528,19,27,38,6.336000,0
120.196864,20,28,40,0,7846.592000
128.043456,20,29,40,4.416000,0
128.047872,21,30,42,5.696000,0
128.053568,22,31,44,5.056000,0
128.058624,23,32,46,0,7849.152000
135.907776,23,33,46,5.696000,0
135.913472,24,34,48,6.336000,0
135.919808,25,35,50,5.056000,0
135.924864,26,36,52,0,7847.232000
143.772096,26,37,52,5.056000,0
143.777152,27,38,54,5.696000,0
143.782848,28,39,56,0,7853.568000
151.636416,28,40,56,4.416000,0
151.640832,29,41,58,5.056000,0
151.645888,30,42,60,5.056000,0
151.650944,31,43,62,0,7849.792000
159.500736,31,44,62,5.696000,0
159.506432,32,45,64,4.416000,0
159.510848,33,46,66,6.336000,0
159.517184,34,47,68,0,7847.872000
167.365056,34,48,68,5.056000,0
167.370112,35,49,70,5.696000,0
167.375808,36,50,72,4.416000,0
167.380224,37,51,74,0,7849.152000
175.229376,37,52,74,5.056000,0
175.234432,38,53,76,5.056000,0
175.239488,39,54,78,0,7854.208000
183.093696,39,55,78,5.696000,0
183.099392,40,56,80,6.336000,0
183.105728,41,57,82,6.336000,0
183.112064,42,58,84,0,7845.952000
190.958016,42,59,84,4.416000,0
190.962432,43,60,86,5.696000,0
190.968128,44,61,88,4.416000,0
190.972544,45,62,90,0,7849.792000
198.822336,45,63,90,4.416000,0
198.826752,46,64,92,5.056000,0
198.831808,47,65,94,5.696000,0
198.837504,48,66,96,0,7849.152000
206.686656,48,67,96,4.416000,0
206.691072,49,68,98,6.336000,0
206.697408,50,69,100,0,7853.568000
214.550976,50,70,100,5.056000,0
214.556032,51,71,102,5.696000,0
214.561728,52,72,104,6.336000,0
214.568064,53,73,106,0,7847.232000
222.415296,53,74,106,6.336000,0
222.421632,54,75,108,5.056000,0
222.426688,55,76,110,5.696000,0
222.432384,56,77,112,0,7847.232000
230.279616,56,78,112,6.336000,0
230.285952,57,79,114,5.696000,0
230.291648,58,80,116,0,7852.288000
238.143936,58,81,116,5.056000,0
238.148992,59,82,118,5.696000,0
238.154688,60,83,120,5.056000,0
238.159744,61,84,122,0,7848.512000
246.008256,61,85,122,5.696000,0
246.013952,62,86,124,5.056000,0
246.019008,63,87,126,5.696000,0
246.024704,64,88,128,0,7847.872000
253.872576,64,89,128,5.696000,0
253.878272,65,90,130,5.056000,0
253.883328,66,91,132,0,7853.568000
261.736896,66,92,132,5.056000,0
261.741952,67,93,134,5.696000,0
261.747648,68,94,136,5.056000,0
261.752704,69,95,138,0,7848.512000
269.601216,69,96,138,4.416000,0
269.605632,70,97,140,5.056000,0
269.610688,71,98,142,5.696000,0
269.616384,72,99,144,0,7849.152000
277.465536,72,100,144,5.056000,0
277.470592,73,101,146,5.056000,0
277.475648,74,102,148,