Time,CovertPackets,AllPackets,BitsSent,PacketInterval;GTSInterval
32.020288,1,120,2,6.944000,0
32.027232,2,180,4,7.584000,0
32.034816,3,240,6,7.584000,0
32.042400,4,300,8,6.944000,0
32.049344,5,360,10,6.944000,0
32.056288,6,420,12,7.584000,0
32.063872,7,480,14,0,1916.832000
33.980704,7,540,14,8.224000,0
33.988928,8,600,16,7.584000,0
33.996512,9,660,18,6.944000,0
34.003456,10,720,20,7.584000,0
34.011040,11,780,22,6.944000,0
34.017984,12,840,24,7.584000,0
34.025568,13,900,26,6.944000,0
34.032512,14,960,28,0,1914.272000
35.946784,14,1020,28,7.584000,0
35.954368,15,1080,30,8.224000,0
35.962592,16,1140,32,8.224000,0
35.970816,17,1200,34,6.944000,0
35.977760,18,1260,36,8.224000,0
35.985984,19,1320,38,6.304000,0
35.992288,20,1380,40,7.584000,0
35.999872,21,1440,42,0,1912.992000
37.912864,21,1500,42,6.944000,0
37.919808,22,1560,44,7.584000,0
37.927392,23,1620,46,8.224000,0
37.935616,24,1680,48,6.944000,0
37.942560,25,1740,50,6.944000,0
37.949504,26,1800,52,7.584000,0
37.957088,27,1860,54,6.304000,0
37.963392,28,1920,56,0,1915.552000
39.878944,28,1980,56,6.944000,0
39.885888,29,2040,58,6.944000,0
39.892832,30,2100,60,7.584000,0
39.900416,31,2160,62,6.304000,0
39.906720,32,2220,64,8.224000,0
39.914944,33,2280,66,6.944000,0
39.921888,34,2340,68,7.584000,0
39.929472,35,2400,70,0,1915.552000
41.845024,35,2460,70,6.304000,0
41.851328,36,2520,72,6.944000,0
41.858272,37,2580,74,6.944000,0
41.865216,38,2640,76,7.584000,0
41.872800,39,2700,78,8.224000,0
41.881024,40,2760,80,8.224000,0
41.889248,41,2820,82,6.304000,0
41.895552,42,2880,84,0,1915.552000
43.811104,42,2940,84,7.584000,0
43.818688,43,3000,86,6.304000,0
43.824992,44,3060,88,6.304000,0
43.831296,45,3120,90,6.944000,0
43.838240,46,3180,92,7.584000,0
43.845824,47,3240,94,6.304000,0
43.852128,48,3300,96,8.224000,0
43.860352,49,3360,98,0,1916.832000
45.777184,49,3420,98,6.944000,0
45.784128,50,3480,100,7.584000,0
45.791712,51,3540,102,8.224000,0
45.799936,52,3600,104,0,1943.328000
47.743264,52,3660,104,8.224000,0
47.751488,53,3720,106,0,1957.856000
49.709344,53,3780,106,0,1966.080000
51.675424,53,3840,106,6.944000,0
51.682368,54,3900,108,0,1959.136000
53.641504,54,3960,108,7.584000,0
53.649088,55,4020,110,0,1958.496000
55.607584,55,4080,110,8.224000,0
55.615808,56,4140,112,0,1957.856000
57.573664,56,4200,112,7.584000,0
57.581248,57,4260,114,0,1958.496000
59.539744,57,4320,114,0,1966.080000
61.505824,57,4380,114,6.944000,0
61.512768,58,4440,116,0,1959.136000
63.471904,58,4500,116,7.584000,0
63.479488,59,4560,118,0,1958.496000
65.437984,59,4620,118,6.944000,0
65.444928,60,4680,120,0,1959.136000
67.404064,60,4740,120,0,1966.080000
69.370144,60,4800,120,7.584000,0
69.377728,61,4860,122,0,1958.496000
71.336224,61,4920,122,6.944000,0
71.343168,62,4980,124,0,1959.136000
73.302304,62,5040,124,0,1966.080000
75.268384,62,5100,124,7.584000,0
75.275968,63,5160,126,0,1958.496000
77.234464,63,5220,126,7.584000,0
77.242048,64,5280,128,0,1958.496000
79.200544,64,5340,128,6.944000,0
79.207488,65,5400,130,0,1959.136000
81.166624,65,5460,130,0,1966.080000
83.132704,65,5520,130,6.944000,0
83.139648,66,5580,132,0,1959.136000
85.098784,66,5640,132,7.584000,0
85.106368,67,5700,134,0,1958.496000
87.064864,67,5760,134,6.944000,0
87.071808,68,5820,136,0,1959.136000
89.030944,68,5880,136,0,1966.080000
90.997024,68,5940,136,6.304000,0
91.003328,69,6000,138,0,1959.776000
92.963104,69,6060,138,6.944000,0
92.970048,70,6120,140,0,1959.136000
94.929184,70,6180,140,7.584000,0
94.936768,71,6240,142,0,1958.496000
96.895264,71,6300,142,6.944000,0
96.902208,72,6360,144,0,1959.136000
98.861344,72,6420,144,6.944000,0
98.868288,73,6480,146,0,1959.136000
100.827424,73,6540,146,6.944000,0
100.834368,74,6600,148,0,1959.136000
102.793504,74,6660,148,0,1966.080000
104.759584,74,6720,148,7.584000,0
104.767168,75,6780,150,0,1958.496000
106.725664,75,6840,150,8.224000,0
106.733888,76,6900,152,0,1957.856000
108.691744,76,6960,152,7.584000,0
108.699328,77,7020,154,0,1958.496000
110.657824,77,7080,154,6.944000,0
110.664768,78,7140,156,0,1959.136000
112.623904,78,7200,156,7.584000,0
112.631488,79,7260,158,0,1958.496000
114.589984,79,7320,158,0,1966.080000
116.556064,79,7380,158,6.304000,0
116.562368,80,7440,160,0,1959.776000
118.522144,80,7500,160,8.224000,0
118.530368,81,7560,162,0,1957.856000
120.488224,81,7620,162,6.944000,0
120.495168,82,7680,164,0,1959.136000
122.454304,82,7740,164,7.584000,0
122.461888,83,7800,166,0,1958.496000
124.420384,83,7860,166,0,1966.080000
126.386464,83,7920,166,7.584000,0
126.394048,84,7980,168,0,1958.496000
128.352544,84,8040,168,6.944000,0
128.359488,85,8100,170,0,1959.136000
130.318624,85,8160,170,6.944000,0
130.325568,86,8220,172,0,1959.136000
132.284704,86,8280,172,0,1966.080000
134.250784,86,8340,172,7.584000,0
134.258368,87,8400,174,0,1958.496000
136.216864,87,8460,174,6.304000,0
136.223168,88,8520,176,0,1959.776000
138.182944,88,8580,176,6.944000,0
138.189888,89,8640,178,0,1959.136000
140.149024,89,8700,178,0,1966.080000
142.115104,89,8760,178,6.944000,0
142.122048,90,8820,180,0,1959.136000
144.081184,90,8880,180,7.584000,0
144.088768,91,8940,182,0,1958.496000
146.047264,91,9000,182,0,1966.080000
148.013344,91,9060,182,8.224000,0
148.021568,92,9120,184,0,1957.856000
149.979424,92,9180,184,6.304000,0
149.985728,93,9240,186,0,1959.776000
151.945504,93,9300,186,6.304000,0
151.951808,94,9360,188,0,1959.776000
153.911584,94,9420,188,0,1966.080000
155.877664,94,9480,188,7.584000,0
155.885248,95,9540,190,0,1958.496000
157.843744,95,9600,190,6.304000,0
157.850048,96,9660,192,0,1959.776000
159.809824,96,9720,192,6.304000,0
159.816128,97,9780,194,0,1959.776000
161.775904,97,9840,194,6.304000,0
161.782208,98,9900,196,0,1959.776000
163.741984,98,9960,196,7.584000,0
163.749568,99,10020,198,0,1958.496000
165.708064,99,10080,198,0,1966.080000
167.674144,99,10140,198,6.304000,0
167.680448,100,10200,200,0,1959.776000
169.640224,100,10260,200,0,1966.080000
171.606304,100,10320,200,6.304000,0
171.612608,101,10380,202,0,1959.776000
173.572384,101,10440,202,6.304000,0
173.578688,102,10500,204,0,1959.776000
175.538464,102,10560,204,0,1966.080000
177.504544,102,10620,204,7.584000,0
177.512128,103,10680,206,0,1958.496000
179.470624,103,10740,206,6.304000,0
179.476928,104,10800,208,0,1959.776000
181.436704,104,10860,208,6.304000,0
181.443008,105,10920,210,0,1959.776000
183.402784,105,10980,210,6.304000,0
183.409088,106,11040,212,0,1959.776000
185.368864,106,11100,212,0,1966.080000
187.334944,106,11160,212,6.304000,0
187.341248,107,11220,214,0,1959.776000
189.301024,107,11280,214,6.304000,0
189.307328,108,11340,216,0,1959.776000
191.267104,108,11400,216,6.304000,0
191.273408,109,11460,218,0,1959.776000
193.233184,109,11520,218,6.304000,0
193.239488,110,11580,220,0,1959.776000
195.199264,110,11640,220,0,1966.080000
197.165344,110,11700,220,6.304000,0
197.171648,111,11760,222,0,1959.776000
199.131424,111,11820,222,6.304000,0
199.137728,112,11880,224,0,1959.776000
201.097504,112,11940,224,0,1966.080000
203.063584,112,12000,224,6.304000,0
203.069888,113,12060,226,0,1959.776000
205.029664,113,12120,226,6.304000,0
205.035968,114,12180,228,0,1959.776000
206.995744,114,12240,228,6.304000,0
207.002048,115,12300,230,0,1959.776000
208.961824,115,12360,230,0,1966.080000
210.927904,115,12420,230,6.304000,0
210.934208,116,12480,232,0,1959.776000
212.893984,116,12540,232,6.304000,0
212.900288,117,12600,234,0,1959.776000
214.860064,117,12660,234,6.304000,0
214.866368,118,12720,236,0,1959.776000
216.826144,118,12780,236,6.304000,0
216.832448,119,12840,238,0,1959.776000
218.792224,119,12900,238,0,1966.080000
220.758304,119,12960,238,6.304000,0
220.764608,120,13020,240,0,1959.776000
222.724384,120,13080,240,6.304000,0
222.730688,121,13140,242,0,1959.776000
224.690464,121,13200,242,6.304000,0
224.696768,122,13260,244,0,1959.776000
226.656544,122,13320,244,6.304000,0
226.662848,123,13380,246,0,1959.776000
228.622624,123,13440,246,6.304000,0
228.628928,124,13500,248,0,1959.776000
230.588704,124,13560,248,6.304000,0
230.595008,125,13620,250,0,1959.776000
232.554784,125,13680,250,0,1966.080000
234.520864,125,13740,250,6.304000,0
234.527168,126,13800,252,0,1959.776000
236.486944,126,13860,252,6.304000,0
236.493248,127,13920,254,0,1959.776000
238.453024,127,13980,254,6.304000,0
238.459328,128,14040,256,0,1959.776000
240.419104,128,14100,256,6.304000,0
240.425408,129,14160,258,0,1959.776000
242.385184,129,14220,258,6.304000,0
242.391488,130,14280,260,0,1959.776000
244.351264,130,14340,260,