Time,CovertPackets,AllPackets,BitsSent,PacketInterval,GTSInterval
260.511248,1,2,4,6.048000,0
260.517296,2,3,8,7.488000,0
260.524784,3,4,12,6.048000,0
260.530832,4,5,16,9.888000,0
260.540720,5,6,20,6.048000,0
260.546768,6,7,24,6.048000,0
260.552816,7,8,28,6.048000,0
260.558864,8,9,32,10.368000,0
260.569232,9,10,36,6.528000,0
260.575760,10,11,40,4.128000,0
260.579888,11,12,44,6.048000,0
260.585936,12,13,48,9.408000,0
260.595344,13,14,52,6.048000,0
260.601392,14,15,56,3.648000,0
260.605040,15,16,60,6.048000,0
260.611088,16,17,64,4.608000,0
260.615696,17,18,68,6.048000,0
260.621744,18,19,72,3.648000,0
260.625392,19,20,76,6.048000,0
260.631440,20,21,80,10.368000,0
260.641808,21,22,84,0,31323.568000
291.965376,21,23,84,4.128000,0
291.969504,22,24,88,3.168000,0
291.972672,23,25,92,6.048000,0
291.978720,24,26,96,4.608000,0
291.983328,25,27,100,6.048000,0
291.989376,26,28,104,10.368000,0
291.999744,27,29,108,6.048000,0
292.005792,28,30,112,9.888000,0
292.015680,29,31,116,6.048000,0
292.021728,30,32,120,6.048000,0
292.027776,31,33,124,6.048000,0
292.033824,32,34,128,7.488000,0
292.041312,33,35,132,6.048000,0
292.047360,34,36,136,5.088000,0
292.052448,35,37,140,6.048000,0
292.058496,36,38,144,5.568000,0
292.064064,37,39,148,6.048000,0
292.070112,38,40,152,9.888000,0
292.080000,39,41,156,6.048000,0
292.086048,40,42,160,4.608000,0
292.090656,41,43,164,6.048000,0
292.096704,42,44,168,0,31325.952000
323.422656,42,45,168,7.488000,0
323.430144,43,46,172,6.048000,0
323.436192,44,47,176,3.648000,0
323.439840,45,48,180,6.048000,0
323.445888,46,49,184,8.928000,0
323.454816,47,50,188,4.128000,0
323.458944,48,51,192,3.168000,0
323.462112,49,52,196,4.128000,0
323.466240,50,53,200,3.168000,0
323.469408,51,54,204,4.128000,0
323.473536,52,55,208,3.168000,0
323.476704,53,56,212,6.048000,0
323.482752,54,57,216,7.488000,0
323.490240,55,58,220,6.048000,0
323.496288,56,59,224,9.888000,0
323.506176,57,60,228,6.048000,0
323.512224,58,61,232,6.048000,0
323.518272,59,62,236,6.048000,0
323.524320,60,63,240,10.368000,0
323.534688,61,64,244,6.528000,0
323.541216,62,65,248,4.128000,0
323.545344,63,66,252,0,31334.592000
354.879936,63,67,252,6.048000,0
354.885984,64,68,256,9.408000,0
354.895392,65,69,260,6.048000,0
354.901440,66,70,264,3.648000,0
354.905088,67,71,268,6.048000,0
354.911136,68,72,272,4.608000,0
354.915744,69,73,276,6.048000,0
354.921792,70,74,280,3.648000,0
354.925440,71,75,284,6.048000,0
354.931488,72,76,288,10.368000,0
354.941856,73,77,292,4.128000,0
354.945984,74,78,296,3.168000,0
354.949152,75,79,300,6.048000,0
354.955200,76,80,304,4.608000,0
354.959808,77,81,308,6.048000,0
354.965856,78,82,312,10.368000,0
354.976224,79,83,316,6.048000,0
354.982272,80,84,320,9.888000,0
354.992160,81,85,324,6.048000,0
354.998208,82,86,328,6.048000,0
355.004256,83,87,332,6.048000,0
355.010304,84,88,336,0,31326.912000
386.337216,84,89,336,7.488000,0
386.344704,85,90,340,6.048000,0
386.350752,86,91,344,5.088000,0
386.355840,87,92,348,6.048000,0
386.361888,88,93,352,5.568000,0
386.367456,89,94,356,6.048000,0
386.373504,90,95,360,9.888000,0
386.383392,91,96,364,6.048000,0
386.389440,92,97,368,4.608000,0
386.394048,93,98,372,6.048000,0
386.400096,94,99,376,7.488000,0
386.407584,95,100,380,6.048000,0
386.413632,96,101,384,3.648000,0
386.417280,97,102,388,6.048000,0
386.423328,98,103,392,8.928000,0
386.432256,99,104,396,4.128000,0
386.436384,100,105,400,3.168000,0
386.439552,101,106,404,4.128000,0
386.443680,102,107,408,3.168000,0
386.446848,103,108,412,4.128000,0
386.450976,104,109,416,3.168000,0
386.454144,105,110,420,6.048000,0
386.460192,106,111,424,7.488000,0
386.467680,107,112,428,6.048000,0
386.473728,108,113,432,0,31320.768000
417.794496,108,114,432,9.888000,0
417.804384,109,115,436,6.048000,0
417.810432,110,116,440,6.048000,0
417.816480,111,117,444,6.048000,0
417.822528,112,118,448,10.368000,0
417.832896,113,119,452,6.528000,0
417.839424,114,120,456,4.128000,0
417.843552,115,121,460,6.048000,0
417.849600,116,122,464,9.408000,0
417.859008,117,123,468,6.048000,0
417.865056,118,124,472,3.648000,0
417.868704,119,125,476,6.048000,0
417.874752,120,126,480,4.608000,0
417.879360,121,127,484,6.048000,0
417.885408,122,128,488,3.648000,0
417.889056,123,129,492,6.048000,0
417.895104,124,130,496,10.368000,0
417.905472,125,131,500,4.128000,0
417.909600,126,132,504,3.168000,0
417.912768,127,133,508,6.048000,0
417.918816,128,134,512,4.608000,0
417.923424,129,135,516,6.048000,0
417.929472,130,136,520,0,31322.304000
449.251776,130,137,520,10.368000,0
449.262144,131,138,524,6.048000,0
449.268192,132,139,528,9.888000,0
449.278080,133,140,532,6.048000,0
449.284128,134,141,536,6.048000,0
449.290176,135,142,540,6.048000,0
449.296224,136,143,544,7.488000,0
449.303712,137,144,548,6.048000,0
449.309760,138,145,552,5.088000,0
449.314848,139,146,556,6.048000,0
449.320896,140,147,560,5.568000,0
449.326464,141,148,564,6.048000,0
449.332512,142,149,568,9.888000,0
449.342400,143,150,572,6.048000,0
449.348448,144,151,576,4.608000,0
449.353056,145,152,580,6.048000,0
449.359104,146,153,584,7.488000,0
449.366592,147,154,588,6.048000,0
449.372640,148,155,592,3.648000,0
449.376288,149,156,596,6.048000,0
449.382336,150,157,600,8.928000,0
449.391264,151,158,604,4.128000,0
449.395392,152,159,608,3.168000,0
449.398560,153,160,612,