Time,CovertPackets,AllPackets,BitsSent,PacketInterval,GTSInterval
65.132048,1,2,0,3.136000,0
65.135184,2,3,0,3.648000,0
65.138832,3,4,0,3.648000,0
65.142480,4,5,0,3.136000,0
65.145616,5,6,0,3.648000,0
65.149264,6,7,0,3.136000,0
65.152400,7,8,0,3.136000,0
65.155536,8,9,1,3.648000,0
65.159184,9,10,1,3.136000,0
65.162320,10,11,1,3.648000,0
65.165968,11,12,1,3.648000,0
65.169616,12,13,1,3.136000,0
65.172752,13,14,1,3.648000,0
65.176400,14,15,1,3.648000,0
65.180048,15,16,1,3.648000,0
65.183696,16,17,2,3.136000,0
65.186832,17,18,2,3.136000,0
65.189968,18,19,2,3.648000,0
65.193616,19,20,2,3.648000,0
65.197264,20,21,2,3.136000,0
65.200400,21,22,2,0,7792.816000
72.993216,21,23,2,3.136000,0
72.996352,22,24,2,3.648000,0
73.000000,23,25,2,3.648000,0
73.003648,24,26,3,3.136000,0
73.006784,25,27,3,3.136000,0
73.009920,26,28,3,3.648000,0
73.013568,27,29,3,3.648000,0
73.017216,28,30,3,3.136000,0
73.020352,29,31,3,3.648000,0
73.024000,30,32,3,3.648000,0
73.027648,31,33,3,3.648000,0
73.031296,32,34,4,3.648000,0
73.034944,33,35,4,3.136000,0
73.038080,34,36,4,3.648000,0
73.041728,35,37,4,3.648000,0
73.045376,36,38,4,3.648000,0
73.049024,37,39,4,3.136000,0
73.052160,38,40,4,3.136000,0
73.055296,39,41,4,3.648000,0
73.058944,40,42,5,3.136000,0
73.062080,41,43,5,3.136000,0
73.065216,42,44,5,3.648000,0
73.068864,43,45,5,0,7788.672000
80.857536,43,46,5,3.648000,0
80.861184,44,47,5,3.136000,0
80.864320,45,48,5,3.648000,0
80.867968,46,49,5,3.648000,0
80.871616,47,50,5,3.136000,0
80.874752,48,51,6,3.648000,0
80.878400,49,52,6,3.136000,0
80.881536,50,53,6,3.648000,0
80.885184,51,54,6,3.648000,0
80.888832,52,55,6,3.136000,0
80.891968,53,56,6,3.136000,0
80.895104,54,57,6,3.136000,0
80.898240,55,58,6,3.136000,0
80.901376,56,59,7,3.648000,0
80.905024,57,60,7,3.136000,0
80.908160,58,61,7,3.648000,0
80.911808,59,62,7,3.648000,0
80.915456,60,63,7,3.136000,0
80.918592,61,64,7,3.136000,0
80.921728,62,65,7,3.136000,0
80.924864,63,66,7,3.648000,0
80.928512,64,67,8,0,7793.344000
88.721856,64,68,8,3.648000,0
88.725504,65,69,8,3.136000,0
88.728640,66,70,8,3.648000,0
88.732288,67,71,8,3.648000,0
88.735936,68,72,8,3.136000,0
88.739072,69,73,8,3.136000,0
88.742208,70,74,8,3.136000,0
88.745344,71,75,8,3.136000,0
88.748480,72,76,9,3.648000,0
88.752128,73,77,9,3.136000,0
88.755264,74,78,9,3.648000,0
88.758912,75,79,9,3.648000,0
88.762560,76,80,9,3.136000,0
88.765696,77,81,9,3.648000,0
88.769344,78,82,9,3.648000,0
88.772992,79,83,9,3.648000,0
88.776640,80,84,10,3.648000,0
88.780288,81,85,10,3.136000,0
88.783424,82,86,10,3.136000,0
88.786560,83,87,10,3.648000,0
88.790208,84,88,10,3.136000,0
88.793344,85,89,10,0,7792.832000
96.586176,85,90,10,3.136000,0
96.589312,86,91,10,3.136000,0
96.592448,87,92,10,3.136000,0
96.595584,88,93,11,3.136000,0
96.598720,89,94,11,3.136000,0
96.601856,90,95,11,3.648000,0
96.605504,91,96,11,3.648000,0
96.609152,92,97,11,3.136000,0
96.612288,93,98,11,3.136000,0
96.615424,94,99,11,3.136000,0
96.618560,95,100,11,3.648000,0
96.622208,96,101,12,3.648000,0
96.625856,97,102,12,3.136000,0
96.628992,98,103,12,3.648000,0
96.632640,99,104,12,3.648000,0
96.636288,100,105,12,3.136000,0
96.639424,101,106,12,3.648000,0
96.643072,102,107,12,3.648000,0
96.646720,103,108,12,3.648000,0
96.650368,104,109,13,3.648000,0
96.654016,105,110,13,3.136000,0
96.657152,106,111,13,3.648000,0
96.660800,107,112,13,3.648000,0
96.664448,108,113,13,0,7786.048000
104.450496,108,114,13,3.136000,0
104.453632,109,115,13,3.648000,0
104.457280,110,116,13,3.648000,0
104.460928,111,117,13,3.648000,0
104.464576,112,118,14,3.136000,0
104.467712,113,119,14,3.136000,0
104.470848,114,120,14,3.648000,0
104.474496,115,121,14,3.648000,0
104.478144,116,122,14,3.136000,0
104.481280,117,123,14,3.136000,0
104.484416,118,124,14,3.648000,0
104.488064,119,125,14,3.648000,0
104.491712,120,126,15,3.136000,0
104.494848,121,127,15,3.136000,0
104.497984,122,128,15,3.648000,0
104.501632,123,129,15,3.648000,0
104.505280,124,130,15,3.136000,0
104.508416,125,131,15,3.648000,0
104.512064,126,132,15,3.136000,0
104.515200,127,133,15,3.136000,0
104.518336,128,134,16,3.648000,0
104.521984,129,135,16,0,7792.832000
112.314816,129,136,16,3.136000,0
112.317952,130,137,16,3.648000,0
112.321600,131,138,16,3.648000,0
112.325248,132,139,16,3.136000,0
112.328384,133,140,16,3.136000,0
112.331520,134,141,16,3.648000,0
112.335168,135,142,16,3.136000,0
112.338304,136,143,17,3.136000,0
112.341440,137,144,17,3.136000,0
112.344576,138,145,17,3.648000,0
112.348224,139,146,17,3.648000,0
112.351872,140,147,17,3.136000,0
112.355008,141,148,17,3.136000,0
112.358144,142,149,17,3.648000,0
112.361792,143,150,17,3.136000,0
112.364928,144,151,18,3.648000,0
112.368576,145,152,18,3.136000,0
112.371712,146,153,18,3.648000,0
112.375360,147,154,18,3.648000,0
112.379008,148,155,18,3.136000,0
112.382144,149,156,18,3.648000,0
112.385792,150,157,18,3.648000,0
112.389440,151,158,18,3.648000,0
112.393088,152,159,19,0,7786.048000
120.179136,152,160,19,3.136000,0
120.182272,153,161,19,3.136000,0
120.185408,154,162,19,3.648000,0
120.189056,155,163,19,3.648000,0
120.192704,156,164,19,3.136000,0
120.195840,157,165,19,3.136000,0
120.198976,158,166,19,3.136000,0
120.202112,159,167,19,3.648000,0
120.205760,160,168,20,3.648000,0
120.209408,161,169,20,3.136000,0
120.212544,162,170,20,3.648000,0
120.216192,163,171,20,3.648000,0
120.219840,164,172,20,3.136000,0
120.222976,165,173,20,3.648000,0
120.226624,166,174,20,3.136000,0
120.229760,167,175,20,3.136000,0
120.232896,168,176,21,3.648000,0
120.236544,169,177,21,3.136000,0
120.239680,170,178,21,3.648000,0
120.243328,171,179,21,3.648000,0
120.246976,172,180,21,3.136000,0
120.250112,173,181,21,0,7793.344000
128.043456,173,182,21,3.136000,0
128.046592,174,183,21,3.136000,0
128.049728,175,184,21,3.136000,0
128.052864,176,185,22,3.648000,0
128.056512,177,186,22,3.136000,0
128.059648,178,187,22,3.648000,0
128.063296,179,188,22,3.648000,0
128.066944,180,189,22,3.136000,0
128.070080,181,190,22,3.648000,0
128.073728,182,191,22,3.648000,0
128.077376,183,192,22,3.136000,0
128.080512,184,193,23,3.136000,0
128.083648,185,194,23,3.136000,0
128.086784,186,195,23,3.136000,0
128.089920,187,196,23,3.648000,0
128.093568,188,197,23,3.136000,0
128.096704,189,198,23,3.136000,0
128.099840,190,199,23,3.136000,0
128.102976,191,200,23,3.136000,0
128.106112,192,201,24,3.136000,0
128.109248,193,202,24,3.136000,0
128.112384,194,203,24,0,7795.392000
135.907776,194,204,24,3.136000,0
135.910912,195,205,24,3.648000,0
135.914560,196,206,24,3.136000,0
135.917696,197,207,24,3.136000,0
135.920832,198,208,24,3.136000,0
135.923968,199,209,24,3.136000,0
135.927104,200,210,25,3.136000,0
135.930240,201,211,25,3.136000,0
135.933376,202,212,25,3.136000,0
135.936512,203,213,25,3.648000,0
135.940160,204,214,25,3.136000,0
135.943296,205,215,25,3.136000,0
135.946432,206,216,25,3.136000,0
135.949568,207,217,25,3.136000,0
135.952704,208,218,26,3.136000,0
135.955840,209,219,26,3.136000,0
135.958976,210,220,26,3.648000,0
135.962624,211,221,26,3.648000,0
135.966272,212,222,26,3.136000,0
135.969408,213,223,26,3.648000,0
135.973056,214,224,26,3.136000,0
135.976192,215,225,26,3.136000,0
135.979328,216,226,27,0,7792.768000
143.772096,216,227,27,3.648000,0
143.775744,217,228,27,3.136000,0
143.778880,218,229,27,3.648000,0
143.782528,219,230,27,3.648000,0
143.786176,220,231,27,3.136000,0
143.789312,221,232,27,3.648000,0
143.792960,222,233,27,3.648000,0
143.796608,223,234,27,3.648000,0
143.800256,224,235,28,3.136000,0
143.803392,225,236,28,3.136000,0
143.806528,226,237,28,3.648000,0
143.810176,227,238,28,3.648000,0
143.813824,228,239,28,3.136000,0
143.816960,229,240,28,3.136000,0
143.820096,230,241,28,3.648000,0
143.823744,231,242,28,3.648000,0
143.827392,232,243,29,3.136000,0
143.830528,233,244,29,3.136000,0
143.833664,234,245,29,3.648000,0
143.837312,235,246,29,3.648000,0
143.840960,236,247,29,3.136000,0
143.844096,237,248,29,0,7792.320000
151.636416,237,249,29,3.648000,0
151.640064,238,250,29,3.648000,0
151.643712,239,251,29,3.648000,0
151.647360,240,252,30,3.648000,0
151.651008,241,253,30,3.136000,0
151.654144,242,254,30,3.648000,0
151.657792,243,255,30,3.648000,0
151.661440,244,256,30,3.648000,0
151.665088,245,257,30,3.136000,0
151.668224,246,258,30,3.136000,0
151.671360,247,259,30,3.648000,0
151.675008,248,260,31,3.136000,0
151.678144,249,261,31,3.136000,0
151.681280,250,262,31,3.648000,0
151.684928,251,263,31,3.648000,0
151.688576,252,264,31,3.136000,0
151.691712,253,265,31,3.648000,0
151.695360,254,266,31,3.648000,0
151.699008,255,267,31,3.136000,0
151.702144,256,268,32,3.648000,0
151.705792,257,269,32,3.136000,0
151.708928,258,270,32,0,7791.808000
159.500736,258,271,32,3.648000,0
159.504384,259,272,32,3.648000,0
159.508032,260,273,32,3.136000,0
159.511168,261,274,32,3.136000,0
159.514304,262,275,32,3.136000,0
159.517440,263,276,32,3.136000,0
159.520576,264,277,33,3.648000,0
159.524224,265,278,33,3.136000,0
159.527360,266,279,33,3.648000,0
159.531008,267,280,33,3.648000,0
159.534656,268,281,33,3.136000,0
159.537792,269,282,33,3.136000,0
159.540928,270,283,33,3.136000,0
159.544064,271,284,33,3.648000,0
159.547712,272,285,34,3.648000,0
159.551360,273,286,34,3.136000,0
159.554496,274,287,34,3.648000,0
159.558144,275,288,34,3.648000,0
159.561792,276,289,34,3.136000,0
159.564928,277,290,34,3.136000,0
159.568064,278,291,34,3.136000,0
159.571200,279,292,34,3.136000,0
159.574336,280,293,35,0,7790.720000
167.365056,280,294,35,3.648000,0
167.368704,281,295,35,3.136000,0
167.371840,282,296,35,3.648000,0
167.375488,283,297,35,3.648000,0
167.379136,284,298,35,3.136000,0
167.382272,285,299,35,3.648000,0
167.385920,286,300,35,3.648000,0
167.389568,287,301,35,3.648000,0
167.393216,288,302,36,3.648000,0
167.396864,289,303,36,3.136000,0
167.400000,290,304,36,3.136000,0
167.403136,291,305,36,3.648000,0
167.406784,292,306,36,3.136000,0
167.409920,293,307,36,3.136000,0
167.413056,294,308,36,3.136000,0
167.416192,295,309,36,3.136000,0
167.419328,296,310,37,3.136000,0
167.422464,297,311,37,3.136000,0
167.425600,298,312,37,3.648000,0
167.429248,299,313,37,3.648000,0
167.432896,300,314,37,3.136000,0
167.436032,301,315,37,0,7793.344000
175.229376,301,316,37,3.136000,0
175.232512,302,317,37,3.136000,0
175.235648,303,318,37,3.648000,0
175.239296,304,319,38,3.648000,0
175.242944,305,320,38,3.136000,0
175.246080,306,321,38,3.648000,0
175.249728,307,322,38,3.648000,0
175.253376,308,323,38,3.136000,0
175.256512,309,324,38,3.648000,0
175.260160,310,325,38,3.648000,0
175.263808,311,326,38,3.648000,0
175.267456,312,327,39,3.648000,0
175.271104,313,328,39,3.136000,0
175.274240,314,329,39,3.648000,0
175.277888,315,330,39,3.648000,0
175.281536,316,331,39,3.136000,0
175.284672,317,332,39,3.648000,0
175.288320,318,333,39,3.648000,0
175.291968,319,334,39,3.648000,0
175.295616,320,335,40,3.136000,0
175.298752,321,336,40,3.136000,0
175.301888,322,337,40,0,7791.808000
183.093696,322,338,40,3.648000,0
183.097344,323,339,40,3.648000,0
183.100992,324,340,40,3.136000,0
183.104128,325,341,40,3.136000,0
183.107264,326,342,40,3.648000,0
183.110912,327,343,40,3.648000,0
183.114560,328,344,41,3.136000,0
183.117696,329,345,41,3.136000,0
183.120832,330,346,41,3.648000,0
183.124480,331,347,41,3.648000,0
183.128128,332,348,41,3.136000,0
183.131264,333,349,41,3.648000,0
183.134912,334,350,41,3.136000,0
183.138048,335,351,41,3.136000,0
183.141184,336,352,42,3.648000,0
183.144832,337,353,42,3.136000,0
183.147968,338,354,42,3.648000,0
183.151616,339,355,42,3.648000,0
183.155264,340,356,42,3.136000,0
183.158400,341,357,42,3.136000,0
183.161536,342,358,42,3.648000,0
183.165184,343,359,42,0,7792.832000
190.958016,343,360,42,3.136000,0
190.961152,344,361,43,3.136000,0
190.964288,345,362,43,3.136000,0
190.967424,346,363,43,3.648000,0
190.971072,347,364,43,3.648000,0
190.974720,348,365,43,3.136000,0
190.977856,349,366,43,3.136000,0
190.980992,350,367,43,3.648000,0
190.984640,351,368,43,3.136000,0
190.987776,352,369,44,3.648000,0
190.991424,353,370,44,3.136000,0
190.994560,354,371,44,3.648000,0
190.998208,355,372,44,3.648000,0
191.001856,356,373,44,3.136000,0
191.004992,357,374,44,3.648000,0
191.008640,358,375,44,3.648000,0
191.012288,359,376,44,3.648000,0
191.015936,360,377,45,3.136000,0
191.019072,361,378,45,3.136000,0
191.022208,362,379,45,3.648000,0
191.025856,363,380,45,3.648000,0
191.029504,364,381,45,3.136000,0
191.032640,365,382,45,3.136000,0
191.035776,366,383,45,0,7786.560000
198.822336,366,384,45,3.136000,0
198.825472,367,385,45,3.648000,0
198.829120,368,386,46,3.648000,0
198.832768,369,387,46,3.136000,0
198.835904,370,388,46,3.648000,0
198.839552,371,389,46,3.648000,0
198.843200,372,390,46,3.136000,0
198.846336,373,391,46,3.648000,0
198.849984,374,392,46,3.136000,0
198.853120,375,393,46,3.136000,0
198.856256,376,394,47,3.648000,0
198.859904,377,395,47,3.136000,0
198.863040,378,396,47,3.648000,0
198.866688,379,397,47,3.648000,0
198.870336,380,398,47,3.136000,0
198.873472,381,399,47,3.136000,0
198.876608,382,400,47,3.136000,0
198.879744,383,401,47,3.136000,0
198.882880,384,402,48,3.648000,0
198.886528,385,403,48,3.136000,0
198.889664,386,404,48,3.648000,0
198.893312,387,405,48,3.648000,0
198.896960,388,406,48,0,7789.696000
206.686656,388,407,48,3.136000,0
206.689792,389,408,48,3.648000,0
206.693440,390,409,48,3.648000,0
206.697088,391,410,48,3.136000,0
206.700224,392,411,49,3.136000,0
206.703360,393,412,49,3.136000,0
206.706496,394,413,49,3.136000,0
206.709632,395,414,49,3.648000,0
206.713280,396,415,49,3.136000,0
206.716416,397,416,49,3.136000,0
206.719552,398,417,49,3.136000,0
206.722688,399,418,49,3.136000,0
206.725824,400,419,50,3.136000,0
206.728960,401,420,50,3.136000,0
206.732096,402,421,50,3.136000,0
206.735232,403,422,50,3.648000,0
206.738880,404,423,50,3.136000,0
206.742016,405,424,50,3.136000,0
206.745152,406,425,50,3.136000,0
206.748288,407,426,50,3.136000,0
206.751424,408,427,51,3.136000,0
206.754560,409,428,51,0,7796.416000
214.550976,409,429,51,3.136000,0
214.554112,410,430,51,3.136000,0
214.557248,411,431,51,3.648000,0
214.560896,412,432,51,3.136000,0
214.564032,413,433,51,3.136000,0
214.567168,414,434,51,3.136000,0
214.570304,415,435,51,3.136000,0
214.573440,416,436,52,3.136000,0
214.576576,417,437,52,3.136000,0
214.579712,418,438,52,3.648000,0
214.583360,419,439,52,3.648000,0
214.587008,420,440,52,3.136000,0
214.590144,421,441,52,3.648000,0
214.593792,422,442,52,3.136000,0
214.596928,423,443,52,3.136000,0
214.600064,424,444,53,3.648000,0
214.603712,425,445,53,3.136000,0
214.606848,426,446,53,3.648000,0
214.610496,427,447,53,3.648000,0
214.614144,428,448,53,3.136000,0
214.617280,429,449,53,3.648000,0
214.620928,430,450,53,0,7794.368000
222.415296,430,451,53,3.648000,0
222.418944,431,452,53,3.648000,0
222.422592,432,453,54,3.136000,0
222.425728,433,454,54,3.136000,0
222.428864,434,455,54,3.648000,0
222.432512,435,456,54,3.648000,0
222.436160,436,457,54,3.136000,0
222.439296,437,458,54,3.136000,0
222.442432,438,459,54,3.648000,0
222.446080,439,460,54,3.648000,0
222.449728,440,461,55,3.136000,0
222.452864,441,462,55,3.136000,0
222.456000,442,463,55,3.648000,0
222.459648,443,464,55,3.648000,0
222.463296,444,465,55,3.136000,0
222.466432,445,466,55,3.648000,0
222.470080,446,467,55,3.648000,0
222.473728,447,468,55,3.648000,0
222.477376,448,469,56,3.648000,0
222.481024,449,470,56,3.136000,0
222.484160,450,471,56,3.648000,0
222.487808,451,472,56,3.648000,0
222.491456,452,473,56,3.648000,0
222.495104,453,474,56,0,7784.512000
230.279616,453,475,56,3.136000,0
230.282752,454,476,56,3.136000,0
230.285888,455,477,56,3.648000,0
230.289536,456,478,57,3.136000,0
230.292672,457,479,57,3.136000,0
230.295808,458,480,57,3.648000,0
230.299456,459,481,57,3.648000,0
230.303104,460,482,57,3.136000,0
230.306240,461,483,57,3.648000,0
230.309888,462,484,57,3.648000,0
230.313536,463,485,57,3.136000,0
230.316672,464,486,58,3.648000,0
230.320320,465,487,58,3.136000,0
230.323456,466,488,58,3.648000,0
230.327104,467,489,58,3.648000,0
230.330752,468,490,58,3.136000,0
230.333888,469,491,58,3.136000,0
230.337024,470,492,58,3.136000,0
230.340160,471,493,58,3.136000,0
230.343296,472,494,59,3.648000,0
230.346944,473,495,59,3.136000,0
230.350080,474,496,59,3.648000,0
230.353728,475,497,59,0,7790.208000
238.143936,475,498,59,3.648000,0
238.147584,476,499,59,3.136000,0
238.150720,477,500,59,3.136000,0
238.153856,478,501,59,3.136000,0
238.156992,479,502,59,3.648000,0
238.160640,480,503,60,3.648000,0
238.164288,481,504,60,3.136000,0
238.167424,482,505,60,3.648000,0
238.171072,483,506,60,3.648000,0
238.174720,484,507,60,3.136000,0
238.177856,485,508,60,3.136000,0
238.180992,486,509,60,3.136000,0
238.184128,487,510,60,3.136000,0
238.187264,488,511,61,3.648000,0
238.190912,489,512,61,3.136000,0
238.194048,490,513,61,3.648000,0
238.197696,491,514,61,3.648000,0
238.201344,492,515,61,3.136000,0
238.204480,493,516,61,3.648000,0
238.208128,494,517,61,3.648000,0
238.211776,495,518,61,3.648000,0
238.215424,496,519,62,0,7792.832000
246.008256,496,520,62,3.648000,0
246.011904,497,521,62,3.136000,0
246.015040,498,522,62,3.136000,0
246.018176,499,523,62,3.648000,0
246.021824,500,524,62,3.136000,0
246.024960,501,525,62,3.136000,0
246.028096,502,526,62,3.136000,0
246.031232,503,527,62,3.136000,0
246.034368,504,528,63,3.136000,0
246.037504,505,529,63,3.136000,0
246.040640,506,530,63,3.648000,0
246.044288,507,531,63,3.648000,0
246.047936,508,532,63,3.136000,0
246.051072,509,533,63,3.136000,0
246.054208,510,534,63,3.136000,0
246.057344,511,535,63,3.648000,0
246.060992,512,536,64,3.648000,0
246.064640,513,537,64,3.136000,0
246.067776,514,538,64,3.648000,0
246.071424,515,539,64,3.648000,0
246.075072,516,540,64,3.136000,0
246.078208,517,541,64,3.648000,0
246.081856,518,542,64,0,7790.720000
253.872576,518,543,64,3.648000,0
253.876224,519,544,64,3.648000,0
253.879872,520,545,65,3.648000,0
253.883520,521,546,65,3.136000,0
253.886656,522,547,65,3.648000,0
253.890304,523,548,65,3.648000,0
253.893952,524,549,65,3.136000,0
253.897088,525,550,65,3.648000,0
253.900736,526,551,65,3.648000,0
253.904384,527,552,65,3.648000,0
253.908032,528,553,66,3.136000,0
253.911168,529,554,66,3.136000,0
253.914304,530,555,66,3.648000,0
253.917952,531,556,66,3.648000,0
253.921600,532,557,66,3.136000,0
253.924736,533,558,66,3.136000,0
253.927872,534,559,66,3.648000,0
253.931520,535,560,66,3.648000,0
253.935168,536,561,67,3.136000,0
253.938304,537,562,67,3.136000,0
253.941440,538,563,67,3.648000,0
253.945088,539,564,67,3.648000,0
253.948736,540,565,67,3.136000,0
253.951872,541,566,67,3.648000,0
253.955520,542,567,67,0,7781.376000
261.736896,542,568,67,3.136000,0
261.740032,543,569,67,3.136000,0
261.743168,544,570,68,3.648000,0
261.746816,545,571,68,3.136000,0
261.749952,546,572,68,3.648000,0
261.753600,547,573,68,3.648000,0
261.757248,548,574,68,3.136000,0
261.760384,549,575,68,3.136000,0
261.763520,550,576,68,3.648000,0
261.767168,551,577,68,3.136000,0
261.770304,552,578,69,3.136000,0
261.773440,553,579,69,3.136000,0
261.776576,554,580,69,3.648000,0
261.780224,555,581,69,3.648000,0
261.783872,556,582,69,3.136000,0
261.787008,557,583,69,3.136000,0
261.790144,558,584,69,3.648000,0
261.793792,559,585,69,3.136000,0
261.796928,560,586,70,3.648000,0
261.800576,561,587,70,3.136000,0
261.803712,562,588,70,3.648000,0
261.807360,563,589,70,3.648000,0
261.811008,564,590,70,0,7790.208000
269.601216,564,591,70,3.136000,0
269.604352,565,592,70,3.648000,0
269.608000,566,593,70,3.648000,0
269.611648,567,594,70,3.648000,0
269.615296,568,595,71,3.136000,0
269.618432,569,596,71,3.136000,0
269.621568,570,597,71,3.648000,0
269.625216,571,598,71,3.648000,0
269.628864,572,599,71,3.136000,0
269.632000,573,600,71,3.136000,0
269.635136,574,601,71,3.136000,0
269.638272,575,602,71,3.648000,0
269.641920,576,603,72,3.648000,0
269.645568,577,604,72,3.136000,0
269.648704,578,605,72,3.648000,0
269.652352,579,606,72,3.648000,0
269.656000,580,607,72,3.136000,0
269.659136,581,608,72,3.648000,0
269.662784,582,609,72,3.136000,0
269.665920,583,610,72,3.136000,0
269.669056,584,611,73,3.648000,0
269.672704,585,612,73,