Time,CovertPackets,AllPackets,BitsSent,PacketInterval,GTSInterval
260.511248,1,2,0,6.048000,0
260.517296,2,3,1,7.488000,0
260.524784,3,4,1,13.728000,0
260.538512,4,5,2,17.568000,0
260.556080,5,6,2,6.048000,0
260.562128,6,7,3,21.408000,0
260.583536,7,8,3,21.408000,0
260.604944,8,9,4,10.368000,0
260.615312,9,10,4,6.528000,0
260.621840,10,11,5,4.128000,0
260.625968,11,12,5,6.048000,0
260.632016,12,13,6,9.408000,0
260.641424,13,14,6,13.728000,0
260.655152,14,15,7,19.008000,0
260.674160,15,16,7,21.408000,0
260.695568,16,17,8,4.608000,0
260.700176,17,18,8,6.048000,0
260.706224,18,19,9,11.328000,0
260.717552,19,20,9,21.408000,0
260.738960,20,21,10,10.368000,0
260.749328,21,22,10,19.488000,0
260.768816,22,23,11,18.528000,0
260.787344,23,24,11,13.728000,0
260.801072,24,25,12,0,31164.304000
291.965376,24,26,12,12.288000,0
291.977664,25,27,12,21.408000,0
291.999072,26,28,13,18.048000,0
292.017120,27,29,13,13.728000,0
292.030848,28,30,14,9.888000,0
292.040736,29,31,14,6.048000,0
292.046784,30,32,15,21.408000,0
292.068192,31,33,15,21.408000,0
292.089600,32,34,16,7.488000,0
292.097088,33,35,16,13.728000,0
292.110816,34,36,17,5.088000,0
292.115904,35,37,17,13.728000,0
292.129632,36,38,18,5.568000,0
292.135200,37,39,18,6.048000,0
292.141248,38,40,19,17.568000,0
292.158816,39,41,19,6.048000,0
292.164864,40,42,20,4.608000,0
292.169472,41,43,20,6.048000,0
292.175520,42,44,21,22.848000,0
292.198368,43,45,21,6.048000,0
292.204416,44,46,22,11.328000,0
292.215744,45,47,22,13.728000,0
292.229472,46,48,23,8.928000,0
292.238400,47,49,23,19.488000,0
292.257888,48,50,24,10.848000,0
292.268736,49,51,24,0,31153.920000
323.422656,49,52,24,19.488000,0
323.442144,50,53,25,10.848000,0
323.452992,51,54,25,11.808000,0
323.464800,52,55,26,18.528000,0
323.483328,53,56,26,13.728000,0
323.497056,54,57,27,15.168000,0
323.512224,55,58,27,21.408000,0
323.533632,56,59,28,9.888000,0
323.543520,57,60,28,6.048000,0
323.549568,58,61,29,6.048000,0
323.555616,59,62,29,21.408000,0
323.577024,60,63,30,10.368000,0
323.587392,61,64,30,6.528000,0
323.593920,62,65,31,19.488000,0
323.613408,63,66,31,6.048000,0
323.619456,64,67,32,9.408000,0
323.628864,65,68,32,13.728000,0
323.642592,66,69,33,3.648000,0
323.646240,67,70,33,6.048000,0
323.652288,68,71,34,4.608000,0
323.656896,69,72,34,6.048000,0
323.662944,70,73,35,11.328000,0
323.674272,71,74,35,0,31205.664000
354.879936,71,75,35,6.048000,0
354.885984,72,76,36,10.368000,0
354.896352,73,77,36,4.128000,0
354.900480,74,78,37,3.168000,0
354.903648,75,79,37,6.048000,0
354.909696,76,80,38,4.608000,0
354.914304,77,81,38,6.048000,0
354.920352,78,82,39,18.048000,0
354.938400,79,83,39,13.728000,0
354.952128,80,84,40,17.568000,0
354.969696,81,85,40,21.408000,0
354.991104,82,86,41,6.048000,0
354.997152,83,87,41,13.728000,0
355.010880,84,88,42,22.848000,0
355.033728,85,89,42,21.408000,0
355.055136,86,90,43,5.088000,0
355.060224,87,91,43,21.408000,0
355.081632,88,92,44,13.248000,0
355.094880,89,93,44,6.048000,0
355.100928,90,94,45,17.568000,0
355.118496,91,95,45,6.048000,0
355.124544,92,96,46,0,31212.672000
386.337216,92,97,46,19.968000,0
386.357184,93,98,46,21.408000,0
386.378592,94,99,47,7.488000,0
386.386080,95,100,47,13.728000,0
386.399808,96,101,48,3.648000,0
386.403456,97,102,48,21.408000,0
386.424864,98,103,49,8.928000,0
386.433792,99,104,49,19.488000,0
386.453280,100,105,50,3.168000,0
386.456448,101,106,50,11.808000,0
386.468256,102,107,51,10.848000,0
386.479104,103,108,51,11.808000,0
386.490912,104,109,52,3.168000,0
386.494080,105,110,52,21.408000,0
386.515488,106,111,53,15.168000,0
386.530656,107,112,53,6.048000,0
386.536704,108,113,54,9.888000,0
386.546592,109,114,54,21.408000,0
386.568000,110,115,55,13.728000,0
386.581728,111,116,55,6.048000,0
386.587776,112,117,56,10.368000,0
386.598144,113,118,56,14.208000,0
386.612352,114,119,57,19.488000,0
386.631840,115,120,57,13.728000,0
386.645568,116,121,58,24.768000,0
386.670336,117,122,58,0,31124.160000
417.794496,117,123,58,21.408000,0
417.815904,118,124,59,3.648000,0
417.819552,119,125,59,21.408000,0
417.840960,120,126,60,12.288000,0
417.853248,121,127,60,6.048000,0
417.859296,122,128,61,3.648000,0
417.862944,123,129,61,6.048000,0
417.868992,124,130,62,18.048000,0
417.887040,125,131,62,4.128000,0
417.891168,126,132,63,18.528000,0
417.909696,127,133,63,21.408000,0
417.931104,128,134,64,4.608000,0
417.935712,129,135,64,21.408000,0
417.957120,130,136,65,25.728000,0
417.982848,131,137,65,6.048000,0
417.988896,132,138,66,25.248000,0
418.014144,133,139,66,21.408000,0
418.035552,134,140,67,6.048000,0
418.041600,135,141,67,13.728000,0
418.055328,136,142,68,22.848000,0
418.078176,137,143,68,21.408000,0
418.099584,138,144,69,5.088000,0
418.104672,139,145,69,21.408000,0
418.126080,140,146,70,0,31125.696000
449.251776,140,147,70,20.928000,0
449.272704,141,148,70,21.408000,0
449.294112,142,149,71,25.248000,0
449.319360,143,150,71,13.728000,0
449.333088,144,151,72,19.968000,0
449.353056,145,152,72,6.048000,0
449.359104,146,153,73,15.168000,0
449.374272,147,154,73,6.048000,0
449.380320,148,155,74,11.328000,0
449.391648,149,156,74,6.048000,0
449.397696,150,157,75,16.608000,0
449.414304,151,158,75,11.808000,0
449.426112,152,159,76,18.528000,0
449.444640,153,160,76,11.808000,0
449.456448,154,161,77,3.168000,0
449.459616,155,162,77,11.808000,0
449.471424,156,163,78,10.848000,0
449.482272,157,164,78,13.728000,0
449.496000,158,165,79,15.168000,0
449.511168,159,166,79,21.408000,0
449.532576,160,167,80,9.888000,0
449.542464,161,168,80,13.728000,0
449.556192,162,169,81,21.408000,0
449.577600,163,170,81,6.048000,0
449.583648,164,171,82,18.048000,0
449.601696,165,172,82,