Time,CovertPackets,AllPackets,BitsSent,PacketInterval;GTSInterval
260.511248,1,2,0,3.136000,0
260.514384,2,3,0,3.168000,0
260.517552,3,4,0,3.168000,0
260.520720,4,5,0,3.136000,0
260.523856,5,6,0,3.168000,0
260.527024,6,7,0,3.136000,0
260.530160,7,8,0,3.136000,0
260.533296,8,9,1,3.168000,0
260.536464,9,10,1,3.136000,0
260.539600,10,11,1,0,31425.776000
291.965376,10,12,1,3.168000,0
291.968544,11,13,1,3.168000,0
291.971712,12,14,1,3.136000,0
291.974848,13,15,1,3.168000,0
291.978016,14,16,1,3.168000,0
291.981184,15,17,1,3.168000,0
291.984352,16,18,2,3.136000,0
291.987488,17,19,2,3.136000,0
291.990624,18,20,2,3.168000,0
291.993792,19,21,2,3.168000,0
291.996960,20,22,2,3.136000,0
292.000096,21,23,2,3.136000,0
292.003232,22,24,2,3.168000,0
292.006400,23,25,2,3.168000,0
292.009568,24,26,3,3.136000,0
292.012704,25,27,3,3.136000,0
292.015840,26,28,3,3.168000,0
292.019008,27,29,3,3.168000,0
292.022176,28,30,3,3.136000,0
292.025312,29,31,3,3.168000,0
292.028480,30,32,3,3.168000,0
292.031648,31,33,3,0,31391.008000
323.422656,31,34,3,3.168000,0
323.425824,32,35,4,3.168000,0
323.428992,33,36,4,3.136000,0
323.432128,34,37,4,3.168000,0
323.435296,35,38,4,3.168000,0
323.438464,36,39,4,3.168000,0
323.441632,37,40,4,3.136000,0
323.444768,38,41,4,3.136000,0
323.447904,39,42,4,3.168000,0
323.451072,40,43,5,3.136000,0
323.454208,41,44,5,3.136000,0
323.457344,42,45,5,3.168000,0
323.460512,43,46,5,3.168000,0
323.463680,44,47,5,3.136000,0
323.466816,45,48,5,3.168000,0
323.469984,46,49,5,3.168000,0
323.473152,47,50,5,3.136000,0
323.476288,48,51,6,3.168000,0
323.479456,49,52,6,3.136000,0
323.482592,50,53,6,3.168000,0
323.485760,51,54,6,3.168000,0
323.488928,52,55,6,0,31391.008000
354.879936,52,56,6,3.136000,0
354.883072,53,57,6,3.136000,0
354.886208,54,58,6,3.136000,0
354.889344,55,59,6,3.136000,0
354.892480,56,60,7,3.168000,0
354.895648,57,61,7,3.136000,0
354.898784,58,62,7,3.168000,0
354.901952,59,63,7,3.168000,0
354.905120,60,64,7,3.136000,0
354.908256,61,65,7,3.136000,0
354.911392,62,66,7,3.136000,0
354.914528,63,67,7,3.168000,0
354.917696,64,68,8,3.168000,0
354.920864,65,69,8,3.136000,0
354.924000,66,70,8,3.168000,0
354.927168,67,71,8,3.168000,0
354.930336,68,72,8,3.136000,0
354.933472,69,73,8,3.136000,0
354.936608,70,74,8,3.136000,0
354.939744,71,75,8,3.136000,0
354.942880,72,76,9,3.168000,0
354.946048,73,77,9,0,31391.168000
386.337216,73,78,9,3.136000,0
386.340352,74,79,9,3.168000,0
386.343520,75,80,9,3.168000,0
386.346688,76,81,9,3.136000,0
386.349824,77,82,9,3.168000,0
386.352992,78,83,9,3.168000,0
386.356160,79,84,9,3.168000,0
386.359328,80,85,10,3.168000,0
386.362496,81,86,10,3.136000,0
386.365632,82,87,10,3.136000,0
386.368768,83,88,10,3.168000,0
386.371936,84,89,10,3.136000,0
386.375072,85,90,10,3.136000,0
386.378208,86,91,10,3.136000,0
386.381344,87,92,10,3.136000,0
386.384480,88,93,11,3.136000,0
386.387616,89,94,11,3.136000,0
386.390752,90,95,11,3.168000,0
386.393920,91,96,11,3.168000,0
386.397088,92,97,11,3.136000,0
386.400224,93,98,11,3.136000,0
386.403360,94,99,11,0,31391.136000
417.794496,94,100,11,3.136000,0
417.797632,95,101,11,3.168000,0
417.800800,96,102,12,3.168000,0
417.803968,97,103,12,3.136000,0
417.807104,98,104,12,3.168000,0
417.810272,99,105,12,3.168000,0
417.813440,100,106,12,3.136000,0
417.816576,101,107,12,3.168000,0
417.819744,102,108,12,3.168000,0
417.822912,103,109,12,3.168000,0
417.826080,104,110,13,3.168000,0
417.829248,105,111,13,3.136000,0
417.832384,106,112,13,3.168000,0
417.835552,107,113,13,3.168000,0
417.838720,108,114,13,3.136000,0
417.841856,109,115,13,3.168000,0
417.845024,110,116,13,3.168000,0
417.848192,111,117,13,3.168000,0
417.851360,112,118,14,3.136000,0
417.854496,113,119,14,3.136000,0
417.857632,114,120,14,3.168000,0
417.860800,115,121,14,0,31390.976000
449.251776,115,122,14,3.168000,0
449.254944,116,123,14,3.136000,0
449.258080,117,124,14,3.136000,0
449.261216,118,125,14,3.168000,0
449.264384,119,126,14,3.168000,0
449.267552,120,127,15,3.136000,0
449.270688,121,128,15,3.136000,0
449.273824,122,129,15,3.168000,0
449.276992,123,130,15,3.168000,0
449.280160,124,131,15,3.136000,0
449.283296,125,132,15,3.168000,0
449.286464,126,133,15,3.136000,0
449.289600,127,134,15,3.136000,0
449.292736,128,135,16,3.168000,0
449.295904,129,136,16,3.136000,0
449.299040,130,137,16,3.168000,0
449.302208,131,138,16,3.168000,0
449.305376,132,139,16,3.136000,0
449.308512,133,140,16,3.136000,0
449.311648,134,141,16,3.168000,0
449.314816,135,142,16,3.136000,0
449.317952,136,143,17,