Time,CovertPackets,AllPackets,BitsSent,PacketInterval,GTSInterval
88.725008,1,2,0,3.136000,0
88.728144,2,3,0,0,7858.032000
96.586176,2,4,0,3.168000,0
96.589344,3,5,0,3.168000,0
96.592512,4,6,0,3.136000,0
96.595648,5,7,0,0,7854.848000
104.450496,5,8,0,3.168000,0
104.453664,6,9,0,3.136000,0
104.456800,7,10,0,0,7858.016000
112.314816,7,11,0,3.136000,0
112.317952,8,12,1,3.168000,0
112.321120,9,13,1,3.136000,0
112.324256,10,14,1,0,7854.880000
120.179136,10,15,1,3.168000,0
120.182304,11,16,1,3.168000,0
120.185472,12,17,1,3.136000,0
120.188608,13,18,1,0,7854.848000
128.043456,13,19,1,3.168000,0
128.046624,14,20,1,3.168000,0
128.049792,15,21,1,0,7857.984000
135.907776,15,22,1,3.168000,0
135.910944,16,23,2,3.136000,0
135.914080,17,24,2,3.136000,0
135.917216,18,25,2,0,7854.880000
143.772096,18,26,2,3.168000,0
143.775264,19,27,2,3.168000,0
143.778432,20,28,2,3.136000,0
143.781568,21,29,2,0,7854.848000
151.636416,21,30,2,3.136000,0
151.639552,22,31,2,3.168000,0
151.642720,23,32,2,3.168000,0
151.645888,24,33,3,0,7854.848000
159.500736,24,34,3,3.136000,0
159.503872,25,35,3,3.136000,0
159.507008,26,36,3,0,7858.048000
167.365056,26,37,3,3.168000,0
167.368224,27,38,3,3.168000,0
167.371392,28,39,3,3.136000,0
167.374528,29,40,3,0,7854.848000
175.229376,29,41,3,3.168000,0
175.232544,30,42,3,3.168000,0
175.235712,31,43,3,3.168000,0
175.238880,32,44,4,0,7854.816000
183.093696,32,45,4,3.168000,0
183.096864,33,46,4,3.136000,0
183.100000,34,47,4,3.168000,0
183.103168,35,48,4,0,7854.848000
190.958016,35,49,4,3.168000,0
190.961184,36,50,4,3.168000,0
190.964352,37,51,4,0,7857.984000
198.822336,37,52,4,3.136000,0
198.825472,38,53,4,3.136000,0
198.828608,39,54,4,3.168000,0
198.831776,40,55,5,0,7854.880000
206.686656,40,56,5,3.136000,0
206.689792,41,57,5,3.136000,0
206.692928,42,58,5,3.168000,0
206.696096,43,59,5,0,7854.880000
214.550976,43,60,5,3.168000,0
214.554144,44,61,5,3.136000,0
214.557280,45,62,5,3.168000,0
214.560448,46,63,5,0,7854.848000
222.415296,46,64,5,3.168000,0
222.418464,47,65,5,3.136000,0
222.421600,48,66,6,0,7858.016000
230.279616,48,67,6,3.168000,0
230.282784,49,68,6,3.136000,0
230.285920,50,69,6,3.168000,0
230.289088,51,70,6,0,7854.848000
238.143936,51,71,6,3.168000,0
238.147104,52,72,6,3.136000,0
238.150240,53,73,6,3.136000,0
238.153376,54,74,6,0,7854.880000
246.008256,54,75,6,3.136000,0
246.011392,55,76,6,3.136000,0
246.014528,56,77,7,3.168000,0
246.017696,57,78,7,0,7854.880000
253.872576,57,79,7,3.136000,0
253.875712,58,80,7,3.168000,0
253.878880,59,81,7,0,7858.016000
261.736896,59,82,7,3.168000,0
261.740064,60,83,7,3.136000,0
261.743200,61,84,7,3.136000,0
261.746336,62,85,7,0,7854.880000
269.601216,62,86,7,3.136000,0
269.604352,63,87,7,3.168000,0
269.607520,64,88,8,3.168000,0
269.610688,65,89,8,0,7854.848000
