Time,CovertPackets,AllPackets,BitsSent,PacketInterval,GTSInterval
128.046608,1,2,0,0,7861.168000
135.907776,1,3,0,3.136000,0
135.910912,2,4,0,3.168000,0
135.914080,3,5,0,0,7858.016000
143.772096,3,6,0,3.168000,0
143.775264,4,7,0,0,7861.152000
151.636416,4,8,0,3.136000,0
151.639552,5,9,0,3.168000,0
151.642720,6,10,0,0,7858.016000
159.500736,6,11,0,3.136000,0
159.503872,7,12,0,0,7861.184000
167.365056,7,13,0,3.136000,0
167.368192,8,14,1,3.168000,0
167.371360,9,15,1,0,7858.016000
175.229376,9,16,1,3.136000,0
175.232512,10,17,1,0,7861.184000
183.093696,10,18,1,3.168000,0
183.096864,11,19,1,3.168000,0
183.100032,12,20,1,0,7857.984000
190.958016,12,21,1,3.136000,0
190.961152,13,22,1,0,7861.184000
198.822336,13,23,1,3.168000,0
198.825504,14,24,1,3.168000,0
198.828672,15,25,1,0,7857.984000
206.686656,15,26,1,3.168000,0
206.689824,16,27,2,0,7861.152000
214.550976,16,28,2,3.136000,0
214.554112,17,29,2,3.136000,0
214.557248,18,30,2,0,7858.048000
222.415296,18,31,2,3.168000,0
222.418464,19,32,2,0,7861.152000
230.279616,19,33,2,3.168000,0
230.282784,20,34,2,3.136000,0
230.285920,21,35,2,0,7858.016000
238.143936,21,36,2,3.136000,0
238.147072,22,37,2,3.168000,0
238.150240,23,38,2,0,7858.016000
246.008256,23,39,2,3.168000,0
246.011424,24,40,3,0,7861.152000
253.872576,24,41,3,3.136000,0
253.875712,25,42,3,3.136000,0
253.878848,26,43,3,0,7858.048000
261.736896,26,44,3,3.168000,0
261.740064,27,45,3,0,7861.152000
