Delay,Aut_Number,Aut_Slot,MensagemAut
0.983744,1,3,5
0.980000,1,3,5
0.976144,1,3,5
0.495376,1,3,5
0.492144,1,3,5
0.003856,1,3,5
0.000000,1,3,5
0.490496,2,4,9
0.486640,2,4,9
0.006576,2,4,9
0.003344,2,4,9
0.000000,2,4,9
0.498352,3,6,13
0.495120,3,6,13
0.491520,3,6,13
0.006832,3,6,13
0.003344,3,6,13
0.000000,3,6,13
0.976064,4,8,17
0.494864,4,8,17
0.491264,4,8,17
0.488032,4,8,17
0.003344,4,8,17
0.000000,4,8,17
0.495632,5,9,21
0.010688,5,9,21
0.007088,5,9,21
0.003344,5,9,21
0.000000,5,9,21
0.494864,6,11,25
0.491120,6,11,25
0.487520,6,11,25
0.484032,6,11,25
0.003344,6,11,25
0.000000,6,11,25
0.491520,7,12,29
0.487920,7,12,29
0.006832,7,12,29
0.003344,7,12,29
0.000000,7,12,29
0.491888,8,13,33
0.010688,8,13,33
0.006832,8,13,33
0.003344,8,13,33
0.000000,8,13,33
0.498608,9,15,37
0.495376,9,15,37
0.491520,9,15,37
0.007088,9,15,37
0.003600,9,15,37
0.000000,9,15,37
0.494864,10,17,41
0.491120,10,17,41
0.487264,10,17,41
0.483776,10,17,41
0.003344,10,17,41
0.000000,10,17,41
0.491776,11,18,45
0.488432,11,18,45
0.007088,11,18,45
0.003600,11,18,45
0.000000,11,18,45
0.495120,12,20,49
0.491376,12,20,49
0.488032,12,20,49
0.484800,12,20,49
0.003600,12,20,49
0.000000,12,20,49
0.495376,13,22,53
0.491632,13,22,53
0.487776,13,22,53
0.484288,13,22,53
0.003856,13,22,53
0.000000,13,22,53
0.491008,14,23,57
0.487408,14,23,57
0.007088,14,23,57
0.003600,14,23,57
0.000000,14,23,57
0.491888,15,24,61
0.010944,15,24,61
0.007088,15,24,61
0.003856,15,24,61
0.000000,15,24,61
0.495120,16,26,65
0.491632,16,26,65
0.488288,16,26,65
0.485056,16,26,65
0.003600,16,26,65
0.000000,16,26,65
0.491008,17,27,69
0.487664,17,27,69
0.006832,17,27,69
0.003344,17,27,69
0.000000,17,27,69
1.467584,18,30,73
0.986640,18,30,73
0.495120,18,30,73
0.491520,18,30,73
0.488288,18,30,73
0.003600,18,30,73
0.000000,18,30,73
0.491520,19,31,77
0.487664,19,31,77
0.007344,19,31,77
0.003600,19,31,77
0.000000,19,31,77
0.491888,20,32,81
0.011456,20,32,81
0.007600,20,32,81
0.003856,20,32,81
0.000000,20,32,81
0.495376,21,34,85
0.492144,21,34,85
0.488288,21,34,85
0.484800,21,34,85
0.003856,21,34,85
0.000000,21,34,85
0.491008,22,35,89
0.487664,22,35,89
0.007088,22,35,89
0.003344,22,35,89
0.000000,22,35,89
0.492144,23,36,93
0.010944,23,36,93
0.007088,23,36,93
0.003344,23,36,93
0.000000,23,36,93
0.495120,24,38,97
0.491888,24,38,97
0.488288,24,38,97
0.484544,24,38,97
0.003600,24,38,97
0.000000,24,38,97
0.491776,25,39,101
0.488432,25,39,101
0.007344,25,39,101
0.003856,25,39,101
0.000000,25,39,101
0.491120,26,40,105
0.010176,26,40,105
0.006832,26,40,105
0.003344,26,40,105
0.000000,26,40,105
0.495120,27,42,109
0.491376,27,42,109
0.488032,27,42,109
0.484800,27,42,109
0.003600,27,42,109
0.000000,27,42,109
0.491520,28,43,113
0.488176,28,43,113
0.006832,28,43,113
0.003344,28,43,113
0.000000,28,43,113
0.491632,29,44,117
0.010432,29,44,117
0.006576,29,44,117
0.003344,29,44,117
0.000000,29,44,117
0.495120,30,46,121
0.491376,30,46,121
0.488032,30,46,121
0.484544,30,46,121
0.003600,30,46,121
0.000000,30,46,121
0.491520,31,47,125
0.488176,31,47,125
0.007344,31,47,125
0.003600,31,47,125
0.000000,31,47,125
0.491632,32,48,129
0.010944,32,48,129
0.007088,32,48,129
0.003344,32,48,129
0.000000,32,48,129
0.495376,33,50,133
0.491888,33,50,133
0.488288,33,50,133
0.484544,33,50,133
0.003856,33,50,133
0.000000,33,50,133
0.490752,34,51,137
0.487152,34,51,137
0.006576,34,51,137
0.003344,34,51,137
0.000000,34,51,137
0.492656,35,52,141
0.010944,35,52,141
0.007600,35,52,141
0.003856,35,52,141
0.000000,35,52,141
0.494864,36,54,145
0.491632,36,54,145
0.488032,36,54,145
0.484544,36,54,145
0.003344,36,54,145
0.000000,36,54,145
0.491776,37,55,149
0.488432,37,55,149
0.007088,37,55,149
0.003856,37,55,149
0.000000,37,55,149
0.491632,38,56,153
0.010432,38,56,153
0.007088,38,56,153
0.003344,38,56,153
0.000000,38,56,153
0.495376,39,58,157
0.491632,39,58,157
0.488032,39,58,157
0.484288,39,58,157
0.003856,39,58,157
0.000000,39,58,157
0.491264,40,59,161
0.487920,40,59,161
0.007344,40,59,161
0.003856,40,59,161
0.000000,40,59,161
0.491632,41,60,165
0.011200,41,60,165
0.007600,41,60,165
0.003856,41,60,165
0.000000,41,60,165
0.495376,42,62,169
0.491888,42,62,169
0.488288,42,62,169
0.484544,42,62,169
0.003856,42,62,169
0.000000,42,62,169
0.490752,43,63,173
0.486896,43,63,173
0.006576,43,63,173
0.003344,43,63,173
0.000000,43,63,173
0.492912,44,64,177
0.011200,44,64,177
0.007600,44,64,177
0.003856,44,64,177
0.000000,44,64,177
0.495120,45,66,181
0.491632,45,66,181
0.488288,45,66,181
0.484800,45,66,181
0.003600,45,66,181
0.000000,45,66,181
0.491776,46,67,185
0.487920,46,67,185
0.007600,46,67,185
0.003856,46,67,185
0.000000,46,67,185
0.490864,47,68,189
0.010432,47,68,189
0.007088,47,68,189
0.003600,47,68,189
0.000000,47,68,189
0.494864,48,70,193
0.491632,48,70,193
0.488288,48,70,193
0.485056,48,70,193
0.003344,48,70,193
0.000000,48,70,193
0.491264,49,71,197
0.487664,49,71,197
0.006832,49,71,197
0.003600,49,71,197
0.000000,49,71,197
0.492400,50,72,201
0.010944,50,72,201
0.007600,50,72,201
0.003856,50,72,201
0.000000,50,72,201
0.494864,51,74,205
0.491120,51,74,205
0.487776,51,74,205
0.484032,51,74,205
0.003344,51,74,205
0.000000,51,74,205
0.492288,52,75,209
0.488432,52,75,209
0.007344,52,75,209
0.003600,52,75,209
0.000000,52,75,209
0.491376,53,76,213
0.010432,53,76,213
0.007088,53,76,213
0.003344,53,76,213
0.000000,53,76,213
0.495376,54,78,217
0.491888,54,78,217
0.488032,54,78,217
0.484800,54,78,217
0.003856,54,78,217
0.000000,54,78,217
0.491008,55,79,221
0.487408,55,79,221
0.007088,55,79,221
0.003856,55,79,221
0.000000,55,79,221
0.491632,56,80,225
0.010688,56,80,225
0.007344,56,80,225
0.003600,56,80,225
0.000000,56,80,225
0.495120,57,82,229
0.491632,57,82,229
0.488032,57,82,229
0.484288,57,82,229
0.003600,57,82,229
0.000000,57,82,229
0.491520,58,83,233
0.488176,58,83,233
0.007088,58,83,233
0.003344,58,83,233
0.000000,58,83,233
0.490864,59,84,237
0.010176,59,84,237
0.006832,59,84,237
0.003344,59,84,237
0.000000,59,84,237
0.495376,60,86,241
0.491888,60,86,241
0.488544,60,86,241
0.485056,60,86,241
0.003856,60,86,241
0.000000,60,86,241
0.491520,61,87,245
0.488176,61,87,245
0.007600,61,87,245
0.003856,61,87,245
0.000000,61,87,245
0.491376,62,88,249
0.010688,62,88,249
0.007344,62,88,249
0.003600,62,88,249
0.000000,62,88,249
0.495376,63,90,253
0.492144,63,90,253
0.488544,63,90,253
0.485056,63,90,253
0.003856,63,90,253
0.000000,63,90,253
0.491264,64,91,257
0.487408,64,91,257
0.007088,64,91,257
0.003600,64,91,257
0.000000,64,91,257
0.491888,65,92,261
0.010944,65,92,261
0.007088,65,92,261
0.003344,65,92,261
0.000000,65,92,261
0.495120,66,94,265
0.491888,66,94,265
0.488544,66,94,265
0.484800,66,94,265
0.003600,66,94,265
0.000000,66,94,265
0.491264,67,95,269
0.487920,67,95,269
0.007088,67,95,269
0.003344,67,95,269
0.000000,67,95,269
0.491632,68,96,273
0.010432,68,96,273
0.006576,68,96,273
0.003344,68,96,273
0.000000,68,96,273
0.495120,69,98,277
0.491632,69,98,277
0.488288,69,98,277
0.485056,69,98,277
0.003600,69,98,277
0.000000,69,98,277
0.491264,70,99,281
0.487408,70,99,281
0.006832,70,99,281
0.003600,70,99,281
0.000000,70,99,281
0.491632,71,100,285
0.010688,71,100,285
0.007088,71,100,285
0.003344,71,100,285
0.000000,71,100,285
0.495120,72,102,289
0.491376,72,102,289
0.487776,72,102,289
0.484032,72,102,289
0.003600,72,102,289
0.000000,72,102,289
0.491776,73,103,293
0.487920,73,103,293
0.007344,73,103,293
0.003856,73,103,293
0.000000,73,103,293
0.490864,74,104,297
0.010432,74,104,297
0.007088,74,104,297
0.003344,74,104,297
0.000000,74,104,297
0.495120,75,106,301
0.491376,75,106,301
0.487520,75,106,301
0.484032,75,106,301
0.003600,75,106,301
0.000000,75,106,301
0.491264,76,107,305
0.487920,76,107,305
0.006832,76,107,305
0.003344,76,107,305
0.000000,76,107,305
0.491376,77,108,309
0.010432,77,108,309
0.007088,77,108,309
0.003600,77,108,309
0.000000,77,108,309
0.495376,78,110,313
0.492144,78,110,313
0.488288,78,110,313
0.484544,78,110,313
0.003856,78,110,313
0.000000,78,110,313
0.491008,79,111,317
0.487408,79,111,317
0.006832,79,111,317
0.003600,79,111,317
0.000000,79,111,317
0.492144,80,112,321
0.010944,80,112,321
0.007344,80,112,321
0.003600,80,112,321
0.000000,80,112,321
0.495376,81,114,325
0.491888,81,114,325
0.488288,81,114,325
0.485056,81,114,325
0.003856,81,114,325
0.000000,81,114,325
0.491520,82,115,329
0.487920,82,115,329
0.007600,82,115,329
0.003856,82,115,329
0.000000,82,115,329
0.490864,83,116,333
0.010688,83,116,333
0.007088,83,116,333
0.003344,83,116,333
0.000000,83,116,333
0.494864,84,118,337
0.491120,84,118,337
0.487264,84,118,337
0.484032,84,118,337
0.003344,84,118,337
0.000000,84,118,337
0.491776,85,119,341
0.487920,85,119,341
0.007344,85,119,341
0.003856,85,119,341
0.000000,85,119,341
0.490864,86,120,345
0.009920,86,120,345
0.006576,86,120,345
0.003344,86,120,345
0.000000,86,120,345
0.495120,87,122,349
0.491632,87,122,349
0.487776,87,122,349
0.484032,87,122,349
0.003600,87,122,349
0.000000,87,122,349
0.491776,88,123,353
0.488176,88,123,353
0.007344,88,123,353
0.003600,88,123,353
0.000000,88,123,353
0.491120,89,124,357
0.010688,89,124,357
0.006832,89,124,357
0.003600,89,124,357
0.000000,89,124,357
0.495376,90,126,361
0.491632,90,126,361
0.488032,90,126,361
0.484288,90,126,361
0.003856,90,126,361
0.000000,90,126,361
0.491520,91,127,365
0.487920,91,127,365
0.007600,91,127,365
0.003856,91,127,365
0.000000,91,127,365
0.490864,92,128,369
0.010432,92,128,369
0.006832,92,128,369
0.003344,92,128,369
0.000000,92,128,369
0.494864,93,130,373
0.491632,93,130,373
0.487776,93,130,373
0.484032,93,130,373
0.003344,93,130,373
0.000000,93,130,373
0.491520,94,131,377
0.487920,94,131,377
0.006832,94,131,377
0.003344,94,131,377
0.000000,94,131,377
0.492144,95,132,381
0.010944,95,132,381
0.007088,95,132,381
0.003344,95,132,381
0.000000,95,132,381
0.495120,96,134,385
0.491376,96,134,385
0.487520,96,134,385
0.483776,96,134,385
0.003600,96,134,385
0.000000,96,134,385
0.491776,97,135,389
0.488432,97,135,389
0.007088,97,135,389
0.003856,97,135,389
0.000000,97,135,389
0.491632,98,136,393
0.010432,98,136,393
0.006832,98,136,393
0.003600,98,136,393
0.000000,98,136,393
0.495120,99,138,397
0.491376,99,138,397
0.487520,99,138,397
0.484288,99,138,397
0.003600,99,138,397
0.000000,99,138,397
0.491520,100,139,401
0.487920,100,139,401
0.007088,100,139,401
0.003600,100,139,401
0.000000,100,139,401
0.491376,101,140,405
0.010688,101,140,405
0.007088,101,140,405
0.003344,101,140,405
0.000000,101,140,405
0.495376,102,142,409
0.491632,102,142,409
0.488288,102,142,409
0.485056,102,142,409
0.003856,102,142,409
0.000000,102,142,409
0.491264,103,143,413
0.487920,103,143,413
0.007088,103,143,413
0.003600,103,143,413
0.000000,103,143,413
0.492144,104,144,417
0.010944,104,144,417
0.007344,104,144,417
0.003600,104,144,417
0.000000,104,144,417
0.495376,105,146,421
0.492144,105,146,421
0.488544,105,146,421
0.485056,105,146,421
0.003856,105,146,421
0.000000,105,146,421
0.491520,106,147,425
0.487664,106,147,425
0.007088,106,147,425
0.003600,106,147,425
0.000000,106,147,425
0.490864,107,148,429
0.010176,107,148,429
0.006576,107,148,429
0.003344,107,148,429
0.000000,107,148,429
0.494864,108,150,433
0.491376,108,150,433
0.487776,108,150,433
0.484288,108,150,433
0.003344,108,150,433
0.000000,108,150,433
0.491520,109,151,437
0.487920,109,151,437
0.006832,109,151,437
0.003600,109,151,437
0.000000,109,151,437
0.492400,110,152,441
0.010944,110,152,441
0.007088,110,152,441
0.003344,110,152,441
0.000000,110,152,441
0.495376,111,154,445
0.492144,111,154,445
0.488544,111,154,445
0.485056,111,154,445
0.003856,111,154,445
0.000000,111,154,445
0.491520,112,155,449
0.487664,112,155,449
0.007600,112,155,449
0.003856,112,155,449
0.000000,112,155,449
0.491632,113,156,453
0.011200,113,156,453
0.007600,113,156,453
0.003856,113,156,453
0.000000,113,156,453
0.495376,114,158,457
0.491632,114,158,457
0.488032,114,158,457
0.484288,114,158,457
0.003856,114,158,457
0.000000,114,158,457
0.491520,115,159,461
0.488176,115,159,461
0.007344,115,159,461
0.003600,115,159,461
0.000000,115,159,461
0.492144,116,160,465
0.011200,116,160,465
0.007344,116,160,465
0.003856,116,160,465
0.000000,116,160,465
0.495120,117,162,469
0.491632,117,162,469
0.488288,117,162,469
0.484800,117,162,469
0.003600,117,162,469
0.000000,117,162,469
0.491008,118,163,473
0.487152,118,163,473
0.006576,118,163,473
0.003344,118,163,473
0.000000,118,163,473
0.492400,119,164,477
0.010944,119,164,477
0.007088,119,164,477
0.003600,119,164,477
0.000000,119,164,477
0.495376,120,166,481
0.491888,120,166,481
0.488288,120,166,481
0.484544,120,166,481
0.003856,120,166,481
0.000000,120,166,481
0.491520,121,167,485
0.487664,121,167,485
0.007600,121,167,485
0.003856,121,167,485
0.000000,121,167,485
0.491376,122,168,489
0.011200,122,168,489
0.007600,122,168,489
0.003856,122,168,489
0.000000,122,168,489
0.494864,123,170,493
0.491632,123,170,493
0.488032,123,170,493
0.484288,123,170,493
0.003344,123,170,493
0.000000,123,170,493
0.491776,124,171,497
0.487920,124,171,497
0.006832,124,171,497
0.003600,124,171,497
0.000000,124,171,497
0.492144,125,172,501
0.010688,125,172,501
0.007088,125,172,501
0.003344,125,172,501
0.000000,125,172,501
0.495376,126,174,505
0.491888,126,174,505
0.488288,126,174,505
0.485056,126,174,505
0.003856,126,174,505
0.000000,126,174,505
0.491008,127,175,509
0.487152,127,175,509
0.007088,127,175,509
0.003856,127,175,509
0.000000,127,175,509
0.491632,128,176,513
0.010944,128,176,513
0.007088,128,176,513
0.003344,128,176,513
0.000000,128,176,513
0.494864,129,178,517
0.491376,129,178,517
0.487776,129,178,517
0.484288,129,178,517
0.003344,129,178,517
0.000000,129,178,517
0.492032,130,179,521
0.488432,130,179,521
0.007600,130,179,521
0.003856,130,179,521
0.000000,130,179,521
0.491376,131,180,525
0.011200,131,180,525
0.007344,131,180,525
0.003856,131,180,525
0.000000,131,180,525
0.495120,132,182,529
0.491376,132,182,529
0.488032,132,182,529
0.484800,132,182,529
0.003600,132,182,529
0.000000,132,182,529
0.491520,133,183,533
0.487920,133,183,533
0.007088,133,183,533
0.003344,133,183,533
0.000000,133,183,533
0.492400,134,184,537
0.011200,134,184,537
0.007600,134,184,537
0.003856,134,184,537
0.000000,134,184,537
0.494864,135,186,541
0.491376,135,186,541
0.487520,135,186,541
0.483776,135,186,541
0.003344,135,186,541
0.000000,135,186,541
0.491520,136,187,545
0.487920,136,187,545
0.007088,136,187,545
0.003600,136,187,545
0.000000,136,187,545
0.491376,137,188,549
0.010688,137,188,549
0.007088,137,188,549
0.003344,137,188,549
0.000000,137,188,549
0.494864,138,190,553
0.491632,138,190,553
0.487776,138,190,553
0.484544,138,190,553
0.003344,138,190,553
0.000000,138,190,553
0.492288,139,191,557
0.488944,139,191,557
0.007344,139,191,557
0.003600,139,191,557
0.000000,139,191,557
0.491376,140,192,561
0.010944,140,192,561
0.007088,140,192,561
0.003856,140,192,561
0.000000,140,192,561
0.495376,141,194,565
0.491888,141,194,565
0.488032,141,194,565
0.484800,141,194,565
0.003856,141,194,565
0.000000,141,194,565
0.491776,142,195,569
0.488176,142,195,569
0.007344,142,195,569
0.003600,142,195,569
0.000000,142,195,569
0.491376,143,196,573
0.010432,143,196,573
0.007088,143,196,573
0.003344,143,196,573
0.000000,143,196,573
0.495376,144,198,577
0.491888,144,198,577
0.488288,144,198,577
0.484544,144,198,577
0.003856,144,198,577
0.000000,144,198,577
0.491008,145,199,581
0.487664,145,199,581
0.006832,145,199,581
0.003600,145,199,581
0.000000,145,199,581
0.492144,146,200,585
0.010688,146,200,585
0.006832,146,200,585
0.003600,146,200,585
0.000000,146,200,585
0.495120,147,202,589
0.491888,147,202,589
0.488288,147,202,589
0.484800,147,202,589
0.003600,147,202,589
0.000000,147,202,589
0.491520,148,203,593
0.487920,148,203,593
0.007088,148,203,593
0.003856,148,203,593
0.000000,148,203,593
0.491632,149,204,597
0.010944,149,204,597
0.007088,149,204,597
0.003344,149,204,597
0.000000,149,204,597
0.494864,150,206,601
0.491632,150,206,601
0.488032,150,206,601
0.484800,150,206,601
0.003344,150,206,601
0.000000,150,206,601
0.491264,151,207,605
0.487408,151,207,605
0.006832,151,207,605
0.003600,151,207,605
0.000000,151,207,605
0.491888,152,208,609
0.010432,152,208,609
0.006832,152,208,609
0.003344,152,208,609
0.000000,152,208,609
0.495376,153,210,613
0.491888,153,210,613
0.488288,153,210,613
0.484544,153,210,613
0.003856,153,210,613
0.000000,153,210,613
0.491776,154,211,617
0.488176,154,211,617
0.007344,154,211,617
0.003600,154,211,617
0.000000,154,211,617
0.491120,155,212,621
0.010432,155,212,621
0.007088,155,212,621
0.003600,155,212,621
0.000000,155,212,621
0.494864,156,214,625
0.491376,156,214,625
0.487520,156,214,625
0.483776,156,214,625
0.003344,156,214,625
0.000000,156,214,625
0.491264,157,215,629
0.487920,157,215,629
0.006832,157,215,629
0.003344,157,215,629
0.000000,157,215,629
0.491376,158,216,633
0.010432,158,216,633
0.006832,158,216,633
0.003344,158,216,633
0.000000,158,216,633
0.495120,159,218,637
0.491632,159,218,637
0.488032,159,218,637
0.484544,159,218,637
0.003600,159,218,637
0.000000,159,218,637
0.492288,160,219,641
0.488944,160,219,641
0.007600,160,219,641
0.003856,160,219,641
0.000000,160,219,641
0.490608,161,220,645
0.010176,161,220,645
0.006832,161,220,645
0.003600,161,220,645
0.000000,161,220,645
0.495120,162,222,649
0.491632,162,222,649
0.488032,162,222,649
0.484288,162,222,649
0.003600,162,222,649
0.000000,162,222,649
0.492032,163,223,653
0.488688,163,223,653
0.007600,163,223,653
0.003856,163,223,653
0.000000,163,223,653
0.491376,164,224,657
0.010944,164,224,657
0.007344,164,224,657
0.003856,164,224,657
0.000000,164,224,657
0.495376,165,226,661
0.492144,165,226,661
0.488288,165,226,661
0.484800,165,226,661
0.003856,165,226,661
0.000000,165,226,661
0.491520,166,227,665
0.487920,166,227,665
0.007344,166,227,665
0.003856,166,227,665
0.000000,166,227,665
0.491632,167,228,669
0.010688,167,228,669
0.007088,167,228,669
0.003856,167,228,669
0.000000,167,228,669
0.495376,168,230,673
0.491888,168,230,673
0.488032,168,230,673
0.484544,168,230,673
0.003856,168,230,673
0.000000,168,230,673
0.491008,169,231,677
0.487152,169,231,677
0.007088,169,231,677
0.003600,169,231,677
0.000000,169,231,677
0.492144,170,232,681
0.010944,170,232,681
0.007344,170,232,681
0.003600,170,232,681
0.000000,170,232,681
0.495120,171,234,685
0.491376,171,234,685
0.487520,171,234,685
0.484032,171,234,685
0.003600,171,234,685
0.000000,171,234,685
0.491520,172,235,689
0.488176,172,235,689
0.007344,172,235,689
0.003600,172,235,689
0.000000,172,235,689
0.491120,173,236,693
0.010176,173,236,693
0.006832,173,236,693
0.003344,173,236,693
0.000000,173,236,693
0.495376,174,238,697
0.491632,174,238,697
0.488032,174,238,697
0.484800,174,238,697
0.003856,174,238,697
0.000000,174,238,697
0.491008,175,239,701
0.487152,175,239,701
0.007088,175,239,701
0.003344,175,239,701
0.000000,175,239,701
0.492144,176,240,705
0.010944,176,240,705
0.007088,176,240,705
0.003856,176,240,705
0.000000,176,240,705
0.495120,177,242,709
0.491376,177,242,709
0.487520,177,242,709
0.484032,177,242,709
0.003600,177,242,709
0.000000,177,242,709
0.491776,178,243,713
0.488176,178,243,713
0.007344,178,243,713
0.003856,178,243,713
0.000000,178,243,713
0.492144,179,244,717
0.011200,179,244,717
0.007344,179,244,717
0.003856,179,244,717
0.000000,179,244,717
0.495120,180,246,721
0.491888,180,246,721
0.488288,180,246,721
0.484800,180,246,721
0.003600,180,246,721
0.000000,180,246,721
0.491264,181,247,725
0.487920,181,247,725
0.006832,181,247,725
0.003600,181,247,725
0.000000,181,247,725
0.491888,182,248,729
0.010944,182,248,729
0.007600,182,248,729
0.003856,182,248,729
0.000000,182,248,729
0.495376,183,250,733
0.492144,183,250,733
0.488288,183,250,733
0.484544,183,250,733
0.003856,183,250,733
0.000000,183,250,733
0.491008,184,251,737
0.487408,184,251,737
0.006832,184,251,737
0.003600,184,251,737
0.000000,184,251,737
0.492400,185,252,741
0.010944,185,252,741
0.007344,185,252,741
0.003856,185,252,741
0.000000,185,252,741
0.495376,186,254,745
0.491888,186,254,745
0.488032,186,254,745
0.484800,186,254,745
0.003856,186,254,745
0.000000,186,254,745
0.491264,187,255,749
0.487408,187,255,749
0.006832,187,255,749
0.003600,187,255,749
0.000000,187,255,749
0.492144,188,256,753
0.011200,188,256,753
0.007600,188,256,753
0.003856,188,256,753
0.000000,188,256,753
0.494864,189,258,757
0.491376,189,258,757
0.487520,189,258,757
0.484288,189,258,757
0.003344,189,258,757
0.000000,189,258,757
0.491776,190,259,761
0.487920,190,259,761
0.007344,190,259,761
0.003856,190,259,761
0.000000,190,259,761
0.491376,191,260,765
0.010432,191,260,765
0.007088,191,260,765
0.003344,191,260,765
0.000000,191,260,765
0.495376,192,262,769
0.491888,192,262,769
0.488544,192,262,769
0.485312,192,262,769
0.003856,192,262,769
0.000000,192,262,769
0.491776,193,263,773
0.488176,193,263,773
0.007344,193,263,773
0.003856,193,263,773
0.000000,193,263,773
0.491376,194,264,777
0.010944,194,264,777
0.007088,194,264,777
0.003856,194,264,777
0.000000,194,264,777
0.495376,195,266,781
0.491632,195,266,781
0.488032,195,266,781
0.484544,195,266,781
0.003856,195,266,781
0.000000,195,266,781
0.491520,196,267,785
0.487920,196,267,785
0.007088,196,267,785
0.003344,196,267,785
0.000000,196,267,785
0.491120,197,268,789
0.010176,197,268,789
0.006832,197,268,789
0.003600,197,268,789
0.000000,197,268,789
0.495376,198,270,793
0.491888,198,270,793
0.488288,198,270,793
0.485056,198,270,793
0.003856,198,270,793
0.000000,198,270,793
0.491520,199,271,797
0.487920,199,271,797
0.007088,199,271,797
0.003600,199,271,797
0.000000,199,271,797
0.491632,200,272,801
0.010432,200,272,801
0.006832,200,272,801
0.003600,200,272,801
0.000000,200,272,801
0.495120,201,274,805
0.491888,201,274,805
0.488288,201,274,805
0.484544,201,274,805
0.003600,201,274,805
0.000000,201,274,805
0.491520,202,275,809
0.487920,202,275,809
0.006832,202,275,809
0.003344,202,275,809
0.000000,202,275,809
0.492144,203,276,813
0.010944,203,276,813
0.007088,203,276,813
0.003600,203,276,813
0.000000,203,276,813
0.495376,204,278,817
0.492144,204,278,817
0.488800,204,278,817
0.485056,204,278,817
0.003856,204,278,817
0.000000,204,278,817
0.491008,205,279,821
0.487664,205,279,821
0.006832,205,279,821
0.003344,205,279,821
0.000000,205,279,821
0.491632,206,280,825
0.010688,206,280,825
0.006832,206,280,825
0.003600,206,280,825
0.000000,206,280,825
0.495120,207,282,829
0.491376,207,282,829
0.488032,207,282,829
0.484544,207,282,829
0.003600,207,282,829
0.000000,207,282,829
0.491264,208,283,833
0.487408,208,283,833
0.007088,208,283,833
0.003344,208,283,833
0.000000,208,283,833
0.492144,209,284,837
0.010944,209,284,837
0.007088,209,284,837
0.003344,209,284,837
0.000000,209,284,837
0.494864,210,286,841
0.491376,210,286,841
0.487776,210,286,841
0.484032,210,286,841
0.003344,210,286,841
0.000000,210,286,841
0.492288,211,287,845
0.488688,211,287,845
0.007600,211,287,845
0.003856,211,287,845
0.000000,211,287,845
0.491376,212,288,849
0.010944,212,288,849
0.007344,212,288,849
0.003600,212,288,849
0.000000,212,288,849
0.495120,213,290,853
0.491376,213,290,853
0.487520,213,290,853
0.484288,213,290,853
0.003600,213,290,853
0.000000,213,290,853
0.491776,214,291,857
0.487920,214,291,857
0.007600,214,291,857
0.003856,214,291,857
0.000000,214,291,857
0.490864,215,292,861
0.010432,215,292,861
0.006832,215,292,861
0.003344,215,292,861
0.000000,215,292,861
0.495376,216,294,865
0.491888,216,294,865
0.488288,216,294,865
0.485056,216,294,865
0.003856,216,294,865
0.000000,216,294,865
0.491264,217,295,869
0.487920,217,295,869
0.007088,217,295,869
0.003344,217,295,869
0.000000,217,295,869
0.491888,218,296,873
0.010944,218,296,873
0.007088,218,296,873
0.003344,218,296,873
0.000000,218,296,873
0.494864,219,298,877
0.491632,219,298,877
0.488032,219,298,877
0.484288,219,298,877
0.003344,219,298,877
0.000000,219,298,877
0.491520,220,299,881
0.487920,220,299,881
0.006832,220,299,881
0.003600,220,299,881
0.000000,220,299,881
0.491888,221,300,885
0.010432,221,300,885
0.006832,221,300,885
0.003344,221,300,885
0.000000,221,300,885
0.495376,222,302,889
0.491888,222,302,889
0.488544,222,302,889
0.484800,222,302,889
0.003856,222,302,889
0.000000,222,302,889
0.491264,223,303,893
0.487408,223,303,893
0.007088,223,303,893
0.003856,223,303,893
0.000000,223,303,893
0.491376,224,304,897
0.010432,224,304,897
0.007088,224,304,897
0.003856,224,304,897
0.000000,224,304,897
0.494864,225,306,901
0.491376,225,306,901
0.487776,225,306,901
0.484288,225,306,901
0.003344,225,306,901
0.000000,225,306,901
0.491776,226,307,905
0.488432,226,307,905
0.007088,226,307,905
0.003600,226,307,905
0.000000,226,307,905
0.491632,227,308,909
0.010432,227,308,909
0.007088,227,308,909
0.003600,227,308,909
0.000000,227,308,909
0.495376,228,310,913
0.491632,228,310,913
0.488288,228,310,913
0.484544,228,310,913
0.003856,228,310,913
0.000000,228,310,913
0.491520,229,311,917
0.488176,229,311,917
0.007344,229,311,917
0.003856,229,311,917
0.000000,229,311,917
0.491376,230,312,921
0.010688,230,312,921
0.007088,230,312,921
0.003856,230,312,921
0.000000,230,312,921
0.495376,231,314,925
0.491632,231,314,925
0.488288,231,314,925
0.484800,231,314,925
0.003856,231,314,925
0.000000,231,314,925
0.491264,232,315,929
0.487664,232,315,929
0.007344,232,315,929
0.003600,232,315,929
0.000000,232,315,929
0.491376,233,316,933
0.010432,233,316,933
0.006576,233,316,933
0.003344,233,316,933
0.000000,233,316,933
0.495376,234,318,937
0.491888,234,318,937
0.488544,234,318,937
0.485056,234,318,937
0.003856,234,318,937
0.000000,234,318,937
0.490496,235,319,941
0.486896,235,319,941
0.006576,235,319,941
0.003344,235,319,941
0.000000,235,319,941
0.492144,236,320,945
0.010688,236,320,945
0.007088,236,320,945
0.003344,236,320,945
0.000000,236,320,945
0.494864,237,322,949
0.491120,237,322,949
0.487264,237,322,949
0.483520,237,322,949
0.003344,237,322,949
0.000000,237,322,949
0.491520,238,323,953
0.488176,238,323,953
0.006576,238,323,953
0.003344,238,323,953
0.000000,238,323,953
0.492400,239,324,957
0.010688,239,324,957
0.007344,239,324,957
0.003856,239,324,957
0.000000,239,324,957
0.494864,240,326,961
0.491376,240,326,961
0.487520,240,326,961
0.484032,240,326,961
0.003344,240,326,961
0.000000,240,326,961
0.491520,241,327,965
0.487920,241,327,965
0.006832,241,327,965
0.003600,241,327,965
0.000000,241,327,965
0.491376,242,328,969
0.010432,242,328,969
0.006576,242,328,969
0.003344,242,328,969
0.000000,242,328,969
0.495376,243,330,973
0.491888,243,330,973
0.488544,243,330,973
0.484800,243,330,973
0.003856,243,330,973
0.000000,243,330,973
0.491520,244,331,977
0.488176,244,331,977
0.007088,244,331,977
0.003344,244,331,977
0.000000,244,331,977
0.491888,245,332,981
0.010944,245,332,981
0.007344,245,332,981
0.003856,245,332,981
0.000000,245,332,981
0.495376,246,334,985
0.491632,246,334,985
0.487776,246,334,985
0.484032,246,334,985
0.003856,246,334,985
0.000000,246,334,985
0.491008,247,335,989
0.487408,247,335,989
0.007088,247,335,989
0.003600,247,335,989
0.000000,247,335,989
0.491632,248,336,993
0.010688,248,336,993
0.006832,248,336,993
0.003344,248,336,993
0.000000,248,336,993
0.495120,249,338,997
0.491888,249,338,997
0.488544,249,338,997
0.484800,249,338,997
0.003600,249,338,997
0.000000,249,338,997
0.491008,250,339,1001
0.487664,250,339,1001
0.006832,250,339,1001
0.003600,250,339,1001
0.000000,250,339,1001
0.491120,251,340,1005
0.010176,251,340,1005
0.006832,251,340,1005
0.003344,251,340,1005
0.000000,251,340,1005
0.494864,252,342,1009
0.491120,252,342,1009
0.487264,252,342,1009
0.483520,252,342,1009
0.003344,252,342,1009
0.000000,252,342,1009
0.492032,253,343,1013
0.488176,253,343,1013
0.007344,253,343,1013
0.003600,253,343,1013
0.000000,253,343,1013
0.491376,254,344,1017
0.010688,254,344,1017
0.007088,254,344,1017
0.003856,254,344,1017
0.000000,254,344,1017
0.495120,255,346,1021
0.491632,255,346,1021
0.488032,255,346,1021
0.484288,255,346,1021
0.003600,255,346,1021
0.000000,255,346,1021
0.491520,256,347,1025
0.487664,256,347,1025
0.007344,256,347,1025
0.003856,256,347,1025
0.000000,256,347,1025
0.491888,257,348,1029
0.011456,257,348,1029
0.007600,257,348,1029
0.003856,257,348,1029
0.000000,257,348,1029
0.494864,258,350,1033
0.491632,258,350,1033
0.488288,258,350,1033
0.484800,258,350,1033
0.003344,258,350,1033
0.000000,258,350,1033
0.491776,259,351,1037
0.487920,259,351,1037
0.006832,259,351,1037
0.003344,259,351,1037
0.000000,259,351,1037
0.492400,260,352,1041
0.010944,260,352,1041
0.007088,260,352,1041
0.003344,260,352,1041
0.000000,260,352,1041
0.495376,261,354,1045
0.491632,261,354,1045
0.487776,261,354,1045
0.484032,261,354,1045
0.003856,261,354,1045
0.000000,261,354,1045
0.491264,262,355,1049
0.487664,262,355,1049
0.007088,262,355,1049
0.003856,262,355,1049
0.000000,262,355,1049
0.492400,263,356,1053
0.011200,263,356,1053
0.007344,263,356,1053
0.003856,263,356,1053
0.000000,263,356,1053
0.495120,264,358,1057
0.491632,264,358,1057
0.488032,264,358,1057
0.484800,264,358,1057
0.003600,264,358,1057
0.000000,264,358,1057
0.491264,265,359,1061
0.487664,265,359,1061
0.006576,265,359,1061
0.003344,265,359,1061
0.000000,265,359,1061
0.492400,266,360,1065
0.010688,266,360,1065
0.007088,266,360,1065
0.003344,266,360,1065
0.000000,266,360,1065
0.495376,267,362,1069
0.491632,267,362,1069
0.488288,267,362,1069
0.484800,267,362,1069
0.003856,267,362,1069
0.000000,267,362,1069
0.491008,268,363,1073
0.487664,268,363,1073
0.007088,268,363,1073
0.003600,268,363,1073
0.000000,268,363,1073
0.490864,269,364,1077
0.010176,269,364,1077
0.006832,269,364,1077
0.003600,269,364,1077
0.000000,269,364,1077
0.494864,270,366,1081
0.491120,270,366,1081
0.487776,270,366,1081
0.484032,270,366,1081
0.003344,270,366,1081
0.000000,270,366,1081
0.492032,271,367,1085
0.488176,271,367,1085
0.007088,271,367,1085
0.003600,271,367,1085
0.000000,271,367,1085
0.492400,272,368,1089
0.011200,272,368,1089
0.007600,272,368,1089
0.003856,272,368,1089
0.000000,272,368,1089
0.494864,273,370,1093
0.491376,273,370,1093
0.488032,273,370,1093
0.484544,273,370,1093
0.003344,273,370,1093
0.000000,273,370,1093
0.491520,274,371,1097
0.487920,274,371,1097
0.006576,274,371,1097
0.003344,274,371,1097
0.000000,274,371,1097
0.491632,275,372,1101
0.010432,275,372,1101
0.007088,275,372,1101
0.003344,275,372,1101
0.000000,275,372,1101
0.495376,276,374,1105
0.491632,276,374,1105
0.488288,276,374,1105
0.484544,276,374,1105
0.003856,276,374,1105
0.000000,276,374,1105
0.491008,277,375,1109
0.487408,277,375,1109
0.007088,277,375,1109
0.003600,277,375,1109
0.000000,277,375,1109
0.492656,278,376,1113
0.011456,278,376,1113
0.007600,278,376,1113
0.003856,278,376,1113
0.000000,278,376,1113
0.495120,279,378,1117
0.491376,279,378,1117
0.488032,279,378,1117
0.484544,279,378,1117
0.003600,279,378,1117
0.000000,279,378,1117
0.492032,280,379,1121
0.488176,280,379,1121
0.007600,280,379,1121
0.003856,280,379,1121
0.000000,280,379,1121
0.491632,281,380,1125
0.011456,281,380,1125
0.007600,281,380,1125
0.003856,281,380,1125
0.000000,281,380,1125
0.495120,282,382,1129
0.491376,282,382,1129
0.487520,282,382,1129
0.483776,282,382,1129
0.003600,282,382,1129
0.000000,282,382,1129
0.492032,283,383,1133
0.488688,283,383,1133
0.007344,283,383,1133
0.003856,283,383,1133
0.000000,283,383,1133
0.491888,284,384,1137
0.011200,284,384,1137
0.007344,284,384,1137
0.003856,284,384,1137
0.000000,284,384,1137
0.495120,285,386,1141
0.491632,285,386,1141
0.488032,285,386,1141
0.484544,285,386,1141
0.003600,285,386,1141
0.000000,285,386,1141
0.491520,286,387,1145
0.488176,286,387,1145
0.007088,286,387,1145
0.003344,286,387,1145
0.000000,286,387,1145
0.491120,287,388,1149
0.010176,287,388,1149
0.006832,287,388,1149
0.003600,287,388,1149
0.000000,287,388,1149
0.494864,288,390,1153
0.491120,288,390,1153
0.487520,288,390,1153
0.484032,288,390,1153
0.003344,288,390,1153
0.000000,288,390,1153
0.491008,289,391,1157
0.487664,289,391,1157
0.006576,289,391,1157
0.003344,289,391,1157
0.000000,289,391,1157
0.491888,290,392,1161
0.010432,290,392,1161
0.006832,290,392,1161
0.003344,290,392,1161
0.000000,290,392,1161
0.495376,291,394,1165
0.491632,291,394,1165
0.488288,291,394,1165
0.485056,291,394,1165
0.003856,291,394,1165
0.000000,291,394,1165
0.491008,292,395,1169
0.487152,292,395,1169
0.007088,292,395,1169
0.003600,292,395,1169
0.000000,292,395,1169
0.491120,293,396,1173
0.010432,293,396,1173
0.006832,293,396,1173
0.003600,293,396,1173
0.000000,293,396,1173
0.495120,294,398,1177
0.491632,294,398,1177
0.487776,294,398,1177
0.484032,294,398,1177
0.003600,294,398,1177
0.000000,294,398,1177
0.491520,295,399,1181
0.487664,295,399,1181
0.006832,295,399,1181
0.003344,295,399,1181
0.000000,295,399,1181
0.491632,296,400,1185
0.010432,296,400,1185
0.007088,296,400,1185
0.003600,296,400,1185
0.000000,296,400,1185
0.495376,297,402,1189
0.492144,297,402,1189
0.488288,297,402,1189
0.484800,297,402,1189
0.003856,297,402,1189
0.000000,297,402,1189
0.491264,298,403,1193
0.487920,298,403,1193
0.006832,298,403,1193
0.003344,298,403,1193
0.000000,298,403,1193
0.491632,299,404,1197
0.010176,299,404,1197
0.006832,299,404,1197
0.003600,299,404,1197
0.000000,299,404,1197
0.494864,300,406,1201
0.491376,300,406,1201
0.488032,300,406,1201
0.484800,300,406,1201
0.003344,300,406,1201
0.000000,300,406,1201
0.491520,301,407,1205
0.487664,301,407,1205
0.006576,301,407,1205
0.003344,301,407,1205
0.000000,301,407,1205
0.491632,302,408,1209
0.010432,302,408,1209
0.006576,302,408,1209
0.003344,302,408,1209
0.000000,302,408,1209
0.495376,303,410,1213
0.492144,303,410,1213
0.488800,303,410,1213
0.485056,303,410,1213
0.003856,303,410,1213
0.000000,303,410,1213
0.491008,304,411,1217
0.487152,304,411,1217
0.007088,304,411,1217
0.003856,304,411,1217
0.000000,304,411,1217
