Time,CovertPackets,AllPackets,BitsSent,PacketInterval,GTSInterval
30.759184,1,90,2,0,978.480000
31.737664,1,135,2,4.592000,0
31.742256,2,180,4,0,978.448000
32.720704,2,225,4,4.608000,0
32.725312,3,270,6,0,978.432000
33.703744,3,315,6,4.608000,0
33.708352,4,360,8,0,978.432000
34.686784,4,405,8,4.592000,0
34.691376,5,450,10,0,978.448000
35.669824,5,495,10,4.592000,0
35.674416,6,540,12,0,978.448000
36.652864,6,585,12,4.608000,0
36.657472,7,630,14,0,978.432000
37.635904,7,675,14,0,983.040000
38.618944,7,720,14,4.624000,0
38.623568,8,765,16,0,978.416000
39.601984,8,810,16,4.608000,0
39.606592,9,855,18,0,978.432000
40.585024,9,900,18,4.592000,0
40.589616,10,945,20,0,978.448000
41.568064,10,990,20,4.608000,0
41.572672,11,1035,22,0,978.432000
42.551104,11,1080,22,4.592000,0
42.555696,12,1125,24,0,978.448000
43.534144,12,1170,24,4.608000,0
43.538752,13,1215,26,0,978.432000
44.517184,13,1260,26,4.592000,0
44.521776,14,1305,28,0,978.448000
45.500224,14,1350,28,4.608000,0
45.504832,15,1395,30,0,978.432000
46.483264,15,1440,30,4.624000,0
46.487888,16,1485,32,0,978.416000
47.466304,16,1530,32,4.624000,0
47.470928,17,1575,34,0,978.416000
48.449344,17,1620,34,4.592000,0
48.453936,18,1665,36,0,978.448000
49.432384,18,1710,36,4.624000,0
49.437008,19,1755,38,0,978.416000
50.415424,19,1800,38,4.576000,0
50.420000,20,1845,40,0,978.464000
51.398464,20,1890,40,4.608000,0
51.403072,21,1935,42,0,978.432000
52.381504,21,1980,42,4.592000,0
52.386096,22,2025,44,0,978.448000
53.364544,22,2070,44,4.608000,0
53.369152,23,2115,46,0,978.432000
54.347584,23,2160,46,4.624000,0
54.352208,24,2205,48,0,978.416000
55.330624,24,2250,48,4.592000,0
55.335216,25,2295,50,0,978.448000
56.313664,25,2340,50,0,983.040000
57.296704,25,2385,50,4.592000,0
57.301296,26,2430,52,4.608000,0
57.305904,27,2475,54,0,973.840000
58.279744,27,2520,54,0,983.040000
59.262784,27,2565,54,4.576000,0
59.267360,28,2610,56,0,978.464000
60.245824,28,2655,56,4.592000,0
60.250416,29,2700,58,0,978.448000
61.228864,29,2745,58,0,983.040000
62.211904,29,2790,58,4.592000,0
62.216496,30,2835,60,4.608000,0
62.221104,31,2880,62,0,973.840000
63.194944,31,2925,62,4.576000,0
63.199520,32,2970,64,0,978.464000
64.177984,32,3015,64,4.624000,0
64.182608,33,3060,66,0,978.416000
65.161024,33,3105,66,4.592000,0
65.165616,34,3150,68,0,978.448000
66.144064,34,3195,68,4.608000,0
66.148672,35,3240,70,0,978.432000
67.127104,35,3285,70,4.576000,0
67.131680,36,3330,72,0,978.464000
68.110144,36,3375,72,4.592000,0
68.114736,37,3420,74,0,978.448000
69.093184,37,3465,74,4.592000,0
69.097776,38,3510,76,0,978.448000
70.076224,38,3555,76,4.608000,0
70.080832,39,3600,78,0,978.432000
71.059264,39,3645,78,4.624000,0
71.063888,40,3690,80,0,978.416000
72.042304,40,3735,80,4.624000,0
72.046928,41,3780,82,0,978.416000
73.025344,41,3825,82,4.576000,0
73.029920,42,3870,84,0,978.464000
74.008384,42,3915,84,4.608000,0
74.012992,43,3960,86,0,978.432000
74.991424,43,4005,86,4.576000,0
74.996000,44,4050,88,0,978.464000
75.974464,44,4095,88,4.576000,0
75.979040,45,4140,90,0,978.464000
76.957504,45,4185,90,4.592000,0
76.962096,46,4230,92,0,978.448000
77.940544,46,4275,92,0,983.040000
78.923584,46,4320,92,4.608000,0
78.928192,47,4365,94,0,978.432000
79.906624,47,4410,94,4.576000,0
79.911200,48,4455,96,0,978.464000
80.889664,48,4500,96,4.624000,0
80.894288,49,4545,98,0,978.416000
81.872704,49,4590,98,4.592000,0
81.877296,50,4635,100,0,978.448000
82.855744,50,4680,100,4.608000,0
82.860352,51,4725,102,0,978.432000
83.838784,51,4770,102,4.624000,0
83.843408,52,4815,104,0,978.416000
84.821824,52,4860,104,4.624000,0
84.826448,53,4905,106,0,978.416000
85.804864,53,4950,106,0,983.040000
86.787904,53,4995,106,4.592000,0
86.792496,54,5040,108,0,978.448000
87.770944,54,5085,108,4.608000,0
87.775552,55,5130,110,0,978.432000
88.753984,55,5175,110,4.624000,0
88.758608,56,5220,112,0,978.416000
89.737024,56,5265,112,4.608000,0
89.741632,57,5310,114,0,978.432000
90.720064,57,5355,114,4.592000,0
90.724656,58,5400,116,0,978.448000
91.703104,58,5445,116,0,983.040000
92.686144,58,5490,116,4.608000,0
92.690752,59,5535,118,4.592000,0
92.695344,60,5580,120,0,973.840000
93.669184,60,5625,120,4.608000,0
93.673792,61,5670,122,0,978.432000
94.652224,61,5715,122,4.592000,0
94.656816,62,5760,124,0,978.448000
95.635264,62,5805,124,4.608000,0
95.639872,63,5850,126,0,978.432000
96.618304,63,5895,126,4.608000,0
96.622912,64,5940,128,0,978.432000
97.601344,64,5985,128,4.592000,0
97.605936,65,6030,130,0,978.448000
98.584384,65,6075,130,4.592000,0
98.588976,66,6120,132,0,978.448000
99.567424,66,6165,132,4.608000,0
99.572032,67,6210,134,0,978.432000
100.550464,67,6255,134,4.592000,0
100.555056,68,6300,136,0,978.448000
101.533504,68,6345,136,4.576000,0
101.538080,69,6390,138,0,978.464000
102.516544,69,6435,138,4.592000,0
102.521136,70,6480,140,0,978.448000
103.499584,70,6525,140,4.608000,0
103.504192,71,6570,142,0,978.432000
104.482624,71,6615,142,4.592000,0
104.487216,72,6660,144,0,978.448000
105.465664,72,6705,144,4.592000,0
105.470256,73,6750,146,0,978.448000
106.448704,73,6795,146,4.592000,0
106.453296,74,6840,148,0,978.448000
107.431744,74,6885,148,4.608000,0
107.436352,75,6930,150,0,978.432000
108.414784,75,6975,150,4.624000,0
108.419408,76,7020,152,0,978.416000
109.397824,76,7065,152,4.608000,0
109.402432,77,7110,154,0,978.432000
110.380864,77,7155,154,4.592000,0
110.385456,78,7200,156,0,978.448000
111.363904,78,7245,156,4.608000,0
111.368512,79,7290,158,0,978.432000
112.346944,79,7335,158,0,983.040000
113.329984,79,7380,158,4.576000,0
113.334560,80,7425,160,4.624000,0
113.339184,81,7470,162,0,973.840000
114.313024,81,7515,162,4.592000,0
114.317616,82,7560,164,0,978.448000
115.296064,82,7605,164,0,983.040000
116.279104,82,7650,164,4.608000,0
116.283712,83,7695,166,0,978.432000
117.262144,83,7740,166,4.608000,0
117.266752,84,7785,168,0,978.432000
118.245184,84,7830,168,4.592000,0
118.249776,85,7875,170,0,978.448000
119.228224,85,7920,170,4.592000,0
119.232816,86,7965,172,0,978.448000
120.211264,86,8010,172,4.608000,0
120.215872,87,8055,174,0,978.432000
121.194304,87,8100,174,4.576000,0
121.198880,88,8145,176,0,978.464000
122.177344,88,8190,176,4.592000,0
122.181936,89,8235,178,0,978.448000
123.160384,89,8280,178,4.592000,0
123.164976,90,8325,180,0,978.448000
124.143424,90,8370,180,4.608000,0
124.148032,91,8415,182,0,978.432000
125.126464,91,8460,182,4.624000,0
125.131088,92,8505,184,0,978.416000
126.109504,92,8550,184,4.576000,0
126.114080,93,8595,186,0,978.464000
127.092544,93,8640,186,4.576000,0
127.097120,94,8685,188,0,978.464000
128.075584,94,8730,188,4.608000,0
128.080192,95,8775,190,0,978.432000
129.058624,95,8820,190,0,983.040000
130.041664,95,8865,190,4.576000,0
130.046240,96,8910,192,4.576000,0
130.050816,97,8955,194,0,973.888000
131.024704,97,9000,194,4.576000,0
131.029280,98,9045,196,0,978.464000
132.007744,98,9090,196,4.608000,0
132.012352,99,9135,198,0,978.432000
132.990784,99,9180,198,4.576000,0
132.995360,100,9225,200,0,978.464000
133.973824,100,9270,200,4.576000,0
133.978400,101,9315,202,0,978.464000
134.956864,101,9360,202,0,983.040000
135.939904,101,9405,202,4.576000,0
135.944480,102,9450,204,0,978.464000
136.922944,102,9495,204,4.608000,0
136.927552,103,9540,206,0,978.432000
137.905984,103,9585,206,0,983.040000
138.889024,103,9630,206,4.576000,0
138.893600,104,9675,208,0,978.464000
139.872064,104,9720,208,4.576000,0
139.876640,105,9765,210,0,978.464000
140.855104,105,9810,210,4.576000,0
140.859680,106,9855,212,0,978.464000
141.838144,106,9900,212,4.576000,0
141.842720,107,9945,214,4.576000,0
141.847296,108,9990,216,0,973.888000
142.821184,108,10035,216,0,983.040000
143.804224,108,10080,216,4.592000,0
143.808816,109,10125,218,4.608000,0
143.813424,110,10170,220,0,973.840000
144.787264,110,10215,220,4.608000,0
144.791872,111,10260,222,0,978.432000
145.770304,111,10305,222,4.592000,0
145.774896,112,10350,224,0,978.448000
146.753344,112,10395,224,4.592000,0
146.757936,113,10440,226,0,978.448000
147.736384,113,10485,226,0,983.040000
148.719424,113,10530,226,4.608000,0
148.724032,114,10575,228,0,978.432000
149.702464,114,10620,228,4.624000,0
149.707088,115,10665,230,0,978.416000
150.685504,115,10710,230,4.608000,0
150.690112,116,10755,232,0,978.432000
151.668544,116,10800,232,4.592000,0
151.673136,117,10845,234,0,978.448000
152.651584,117,10890,234,4.608000,0
152.656192,118,10935,236,0,978.432000
153.634624,118,10980,236,4.592000,0
153.639216,119,11025,238,0,978.448000
154.617664,119,11070,238,4.608000,0
154.622272,120,11115,240,0,978.432000
155.600704,120,11160,240,0,983.040000
156.583744,120,11205,240,4.592000,0
156.588336,121,11250,242,0,978.448000
157.566784,121,11295,242,0,983.040000
158.549824,121,11340,242,4.608000,0
158.554432,122,11385,244,4.624000,0
158.559056,123,11430,246,0,973.808000
159.532864,123,11475,246,4.624000,0
159.537488,124,11520,248,0,978.416000
160.515904,124,11565,248,4.592000,0
160.520496,125,11610,250,0,978.448000
161.498944,125,11655,250,4.624000,0
161.503568,126,11700,252,0,978.416000
162.481984,126,11745,252,4.576000,0
162.486560,127,11790,254,0,978.464000
163.465024,127,11835,254,4.608000,0
163.469632,128,11880,256,0,978.432000
164.448064,128,11925,256,4.592000,0
164.452656,129,11970,258,0,978.448000
165.431104,129,12015,258,4.608000,0
165.435712,130,12060,260,0,978.432000
166.414144,130,12105,260,4.624000,0
166.418768,131,12150,262,0,978.416000
167.397184,131,12195,262,0,983.040000
168.380224,131,12240,262,4.592000,0
168.384816,132,12285,264,0,978.448000
169.363264,132,12330,264,4.592000,0
169.367856,133,12375,266,0,978.448000
170.346304,133,12420,266,4.608000,0
170.350912,134,12465,268,0,978.432000
171.329344,134,12510,268,4.576000,0
171.333920,135,12555,270,0,978.464000
172.312384,135,12600,270,4.592000,0
172.316976,136,12645,272,0,978.448000
173.295424,136,12690,272,4.592000,0
173.300016,137,12735,274,0,978.448000
174.278464,137,12780,274,4.608000,0
174.283072,138,12825,276,0,978.432000
175.261504,138,12870,276,4.576000,0
175.266080,139,12915,278,0,978.464000
176.244544,139,12960,278,4.624000,0
176.249168,140,13005,280,0,978.416000
177.227584,140,13050,280,4.592000,0
177.232176,141,13095,282,0,978.448000
178.210624,141,13140,282,4.608000,0
178.215232,142,13185,284,4.576000,0
178.219808,143,13230,286,0,973.856000
179.193664,143,13275,286,4.592000,0
179.198256,144,13320,288,0,978.448000
180.176704,144,13365,288,4.592000,0
180.181296,145,13410,290,0,978.448000
181.159744,145,13455,290,4.608000,0
181.164352,146,13500,292,0,978.432000
182.142784,146,13545,292,4.624000,0
182.147408,147,13590,294,0,978.416000
183.125824,147,13635,294,4.624000,0
183.130448,148,13680,296,0,978.416000
184.108864,148,13725,296,4.576000,0
184.113440,149,13770,298,0,978.464000
185.091904,149,13815,298,4.608000,0
185.096512,150,13860,300,0,978.432000
186.074944,150,13905,300,4.576000,0
186.079520,151,13950,302,0,978.464000
187.057984,151,13995,302,4.576000,0
187.062560,152,14040,304,0,978.464000
188.041024,152,14085,304,4.592000,0
188.045616,153,14130,306,0,978.448000
189.024064,153,14175,306,0,983.040000
190.007104,153,14220,306,4.608000,0
190.011712,154,14265,308,4.576000,0
190.016288,155,14310,310,0,973.856000
190.990144,155,14355,310,4.624000,0
190.994768,156,14400,312,0,978.416000
191.973184,156,14445,312,4.592000,0
191.977776,157,14490,314,0,978.448000
192.956224,157,14535,314,4.608000,0
192.960832,158,14580,316,0,978.432000
193.939264,158,14625,316,0,983.040000
194.922304,158,14670,316,4.624000,0
194.926928,159,14715,318,0,978.416000
195.905344,159,14760,318,4.624000,0
195.909968,160,14805,320,0,978.416000
196.888384,160,14850,320,4.592000,0
196.892976,161,14895,322,0,978.448000
197.871424,161,14940,322,4.608000,0
197.876032,162,14985,324,0,978.432000
198.854464,162,15030,324,4.624000,0
198.859088,163,15075,326,0,978.416000
199.837504,163,15120,326,4.608000,0
199.842112,164,15165,328,0,978.432000
200.820544,164,15210,328,4.592000,0
200.825136,165,15255,330,0,978.448000
201.803584,165,15300,330,4.608000,0
201.808192,166,15345,332,0,978.432000
202.786624,166,15390,332,0,983.040000
203.769664,166,15435,332,4.592000,0
203.774256,167,15480,334,0,978.448000
204.752704,167,15525,334,4.608000,0
204.757312,168,15570,336,0,978.432000
205.735744,168,15615,336,4.592000,0
205.740336,169,15660,338,0,978.448000
206.718784,169,15705,338,0,983.040000
207.701824,169,15750,338,4.608000,0
207.706432,170,15795,340,0,978.432000
208.684864,170,15840,340,4.608000,0
208.689472,171,15885,342,0,978.432000
209.667904,171,15930,342,4.592000,0
209.672496,172,15975,344,4.592000,0
209.677088,173,16020,346,0,973.856000
210.650944,173,16065,346,4.608000,0
210.655552,174,16110,348,0,978.432000
211.633984,174,16155,348,4.592000,0
211.638576,175,16200,350,0,978.448000
212.617024,175,16245,350,4.576000,0
212.621600,176,16290,352,0,978.464000
213.600064,176,16335,352,4.592000,0
213.604656,177,16380,354,4.608000,0
213.609264,178,16425,356,0,973.840000
214.583104,178,16470,356,4.592000,0
214.587696,179,16515,358,0,978.448000
215.566144,179,16560,358,4.592000,0
215.570736,180,16605,360,0,978.448000
216.549184,180,16650,360,4.592000,0
216.553776,181,16695,362,0,1961.488000
218.515264,181,16740,362,4.608000,0
218.519872,182,16785,364,4.624000,0
218.524496,183,16830,366,0,973.808000
219.498304,183,16875,366,4.608000,0
219.502912,184,16920,368,0,978.432000
220.481344,184,16965,368,0,983.040000
221.464384,184,17010,368,4.592000,0
221.468976,185,17055,370,0,978.448000
222.447424,185,17100,370,4.608000,0
222.452032,186,17145,372,0,978.432000
223.430464,186,17190,372,4.576000,0
223.435040,187,17235,374,0,978.464000
224.413504,187,17280,374,4.624000,0
224.418128,188,17325,376,0,978.416000
225.396544,188,17370,376,4.592000,0
225.401136,189,17415,378,0,978.448000
226.379584,189,17460,378,4.608000,0
226.384192,190,17505,380,0,978.432000
227.362624,190,17550,380,4.608000,0
227.367232,191,17595,382,0,978.432000
228.345664,191,17640,382,4.592000,0
228.350256,192,17685,384,0,978.448000
229.328704,192,17730,384,0,983.040000
230.311744,192,17775,384,4.592000,0
230.316336,193,17820,386,0,978.448000
231.294784,193,17865,386,4.608000,0
231.299392,194,17910,388,