Time,CovertPackets,AllPackets,BitsSent,PacketInterval;GTSInterval
260.511248,1,2,2,3.184000,0
260.514432,2,3,4,3.200000,0
260.517632,3,4,6,3.200000,0
260.520832,4,5,8,3.184000,0
260.524016,5,6,10,3.184000,0
260.527200,6,7,12,3.200000,0
260.530400,7,8,14,3.216000,0
260.533616,8,9,16,3.200000,0
260.536816,9,10,18,3.184000,0
260.540000,10,11,20,3.200000,0
260.543200,11,12,22,3.184000,0
260.546384,12,13,24,3.200000,0
260.549584,13,14,26,3.184000,0
260.552768,14,15,28,3.200000,0
260.555968,15,16,30,3.216000,0
260.559184,16,17,32,3.216000,0
260.562400,17,18,34,3.184000,0
260.565584,18,19,36,3.216000,0
260.568800,19,20,38,3.168000,0
260.571968,20,21,40,3.200000,0
260.575168,21,22,42,0,31390.208000
291.965376,21,23,42,3.184000,0
291.968560,22,24,44,3.200000,0
291.971760,23,25,46,3.216000,0
291.974976,24,26,48,3.184000,0
291.978160,25,27,50,3.184000,0
291.981344,26,28,52,3.200000,0
291.984544,27,29,54,3.168000,0
291.987712,28,30,56,3.184000,0
291.990896,29,31,58,3.184000,0
291.994080,30,32,60,3.200000,0
291.997280,31,33,62,3.168000,0
292.000448,32,34,64,3.216000,0
292.003664,33,35,66,3.184000,0
292.006848,34,36,68,3.200000,0
292.010048,35,37,70,3.168000,0
292.013216,36,38,72,3.184000,0
292.016400,37,39,74,3.184000,0
292.019584,38,40,76,3.200000,0
292.022784,39,41,78,3.216000,0
292.026000,40,42,80,3.216000,0
292.029216,41,43,82,3.168000,0
292.032384,42,44,84,0,31390.272000
323.422656,42,45,84,3.200000,0
323.425856,43,46,86,3.168000,0
323.429024,44,47,88,3.168000,0
323.432192,45,48,90,3.184000,0
323.435376,46,49,92,3.200000,0
323.438576,47,50,94,3.168000,0
323.441744,48,51,96,3.216000,0
323.444960,49,52,98,3.184000,0
323.448144,50,53,100,3.200000,0
323.451344,51,54,102,3.216000,0
323.454560,52,55,104,3.216000,0
323.457776,53,56,106,3.184000,0
323.460960,54,57,108,3.200000,0
323.464160,55,58,110,3.216000,0
323.467376,56,59,112,3.200000,0
323.470576,57,60,114,3.184000,0
323.473760,58,61,116,3.200000,0
323.476960,59,62,118,3.184000,0
323.480144,60,63,120,3.200000,0
323.483344,61,64,122,3.184000,0
323.486528,62,65,124,3.200000,0
323.489728,63,66,126,0,31390.208000
354.879936,63,67,126,3.200000,0
354.883136,64,68,128,3.184000,0
354.886320,65,69,130,3.184000,0
354.889504,66,70,132,3.200000,0
354.892704,67,71,134,3.184000,0
354.895888,68,72,136,3.168000,0
354.899056,69,73,138,3.184000,0
354.902240,70,74,140,3.200000,0
354.905440,71,75,142,3.184000,0
354.908624,72,76,144,3.184000,0
354.911808,73,77,146,3.184000,0
354.914992,74,78,148,3.200000,0
354.918192,75,79,150,3.216000,0
354.921408,76,80,152,3.200000,0
354.924608,77,81,154,3.184000,0
354.927792,78,82,156,3.200000,0
354.930992,79,83,158,3.168000,0
354.934160,80,84,160,3.216000,0
354.937376,81,85,162,3.184000,0
354.940560,82,86,164,3.200000,0
354.943760,83,87,166,3.200000,0
354.946960,84,88,168,0,31390.256000
386.337216,84,89,168,3.184000,0
386.340400,85,90,170,3.184000,0
386.343584,86,91,172,3.200000,0
386.346784,87,92,174,3.168000,0
386.349952,88,93,176,3.184000,0
386.353136,89,94,178,3.184000,0
386.356320,90,95,180,3.200000,0
386.359520,91,96,182,3.216000,0
386.362736,92,97,184,3.168000,0
386.365904,93,98,186,3.168000,0
386.369072,94,99,188,3.200000,0
386.372272,95,100,190,3.168000,0
386.375440,96,101,192,3.168000,0
386.378608,97,102,194,3.168000,0
386.381776,98,103,196,3.200000,0
386.384976,99,104,198,3.168000,0
386.388144,100,105,200,3.168000,0
386.391312,101,106,202,3.168000,0
386.394480,102,107,204,3.200000,0
386.397680,103,108,206,3.168000,0
386.400848,104,109,208,3.168000,0
386.404016,105,110,210,3.184000,0
386.407200,106,111,212,0,31387.296000
417.794496,106,112,212,3.200000,0
417.797696,107,113,214,3.200000,0
417.800896,108,114,216,3.184000,0
417.804080,109,115,218,3.184000,0
417.807264,110,116,220,3.200000,0
417.810464,111,117,222,3.216000,0
417.813680,112,118,224,3.200000,0
417.816880,113,119,226,3.184000,0
417.820064,114,120,228,3.200000,0
417.823264,115,121,230,3.184000,0
417.826448,116,122,232,3.200000,0
417.829648,117,123,234,3.184000,0
417.832832,118,124,236,3.200000,0
417.836032,119,125,238,3.216000,0
417.839248,120,126,240,3.216000,0
417.842464,121,127,242,3.184000,0
417.845648,122,128,244,3.216000,0
417.848864,123,129,246,3.168000,0
417.852032,124,130,248,3.200000,0
417.855232,125,131,250,3.184000,0
417.858416,126,132,252,3.200000,0
417.861616,127,133,254,0,31390.160000
449.251776,127,134,254,3.216000,0
449.254992,128,135,256,3.184000,0
449.258176,129,136,258,3.184000,0
449.261360,130,137,260,3.200000,0
449.264560,131,138,262,3.168000,0
449.267728,132,139,264,3.184000,0
449.270912,133,140,266,3.184000,0
449.274096,134,141,268,3.200000,0
449.277296,135,142,270,3.168000,0
449.280464,136,143,272,3.216000,0
449.283680,137,144,274,3.184000,0
449.286864,138,145,276,3.200000,0
449.290064,139,146,278,3.168000,0
449.293232,140,147,280,3.184000,0
449.296416,141,148,282,3.184000,0
449.299600,142,149,284,3.200000,0
449.302800,143,150,286,3.216000,0
449.306016,144,151,288,3.216000,0
449.309232,145,152,290,3.168000,0
449.312400,146,153,292,3.200000,0
449.315600,147,154,294,3.168000,0
449.318768,148,155,296,3.168000,0
449.321936,149,156,298,