Time,CovertPackets,AllPackets,BitsSent,PacketInterval;GTSInterval
32.719296,0,2,0,0,1966.080000
34.685376,0,3,0,0,1966.080000
36.651456,0,4,0,0,1966.080000
38.617536,0,5,0,0,1966.080000
40.583616,0,6,0,0,1966.080000
42.549696,0,7,0,0,1966.080000
44.515776,0,8,0,0,2949.120000
47.464896,0,9,0,0,1966.080000
49.430976,0,10,0,0,1966.080000
51.397056,0,11,0,0,1966.080000
53.363136,0,12,0,0,1966.080000
55.329216,0,13,0,0,1966.080000
57.295296,0,14,0,0,1966.080000
59.261376,0,15,0,0,2949.120000
62.210496,0,16,0,0,1966.080000
64.176576,0,17,0,0,1966.080000
66.142656,0,18,0,0,1966.080000
68.108736,0,19,0,0,1966.080000
70.074816,0,20,0,0,2949.120000
73.023936,0,21,0,0,1966.080000
74.990016,0,22,0,0,1966.080000
76.956096,0,23,0,0,1966.080000
78.922176,0,24,0,0,1966.080000
80.888256,0,25,0,0,1966.080000
82.854336,0,26,0,0,1966.080000
84.820416,0,27,0,0,1966.080000
86.786496,0,28,0,0,1966.080000
88.752576,0,29,0,0,2949.120000
91.701696,0,30,0,0,1966.080000
93.667776,0,31,0,0,1966.080000
95.633856,0,32,0,0,1966.080000
97.599936,0,33,0,0,1966.080000
99.566016,0,34,0,0,1966.080000
101.532096,0,35,0,0,2949.120000
104.481216,0,36,0,0,1966.080000
106.447296,0,37,0,0,1966.080000
108.413376,0,38,0,0,1966.080000
110.379456,0,39,0,0,1966.080000
112.345536,0,40,0,0,1966.080000
114.311616,0,41,0,0,1966.080000
116.277696,0,42,0,0,1966.080000
118.243776,0,43,0,0,1966.080000
120.209856,0,44,0,0,2949.120000
123.158976,0,45,0,0,1966.080000
125.125056,0,46,0,0,1966.080000
127.091136,0,47,0,0,1966.080000
129.057216,0,48,0,0,1966.080000
131.023296,0,49,0,0,1966.080000
132.989376,0,50,0,0,2949.120000
135.938496,0,51,0,0,1966.080000
137.904576,0,52,0,0,1966.080000
139.870656,0,53,0,0,1966.080000
141.836736,0,54,0,0,1966.080000
143.802816,0,55,0,0,1966.080000
145.768896,0,56,0,0,1966.080000
147.734976,0,57,0,0,2949.120000
150.684096,0,58,0,0,1966.080000
152.650176,0,59,0,0,1966.080000
154.616256,0,60,0,0,1966.080000
156.582336,0,61,0,0,1966.080000
158.548416,0,62,0,0,1966.080000
160.514496,0,63,0,0,1966.080000
162.480576,0,64,0,0,1966.080000
164.446656,0,65,0,0,2949.120000
167.395776,0,66,0,0,1966.080000
169.361856,0,67,0,0,1966.080000
171.327936,0,68,0,0,1966.080000
173.294016,0,69,0,0,1966.080000
175.260096,0,70,0,0,1966.080000
177.226176,0,71,0,0,2949.120000
180.175296,0,72,0,0,1966.080000
182.141376,0,73,0,0,1966.080000
184.107456,0,74,0,0,1966.080000
186.073536,0,75,0,0,1966.080000
188.039616,0,76,0,0,1966.080000
190.005696,0,77,0,0,1966.080000
191.971776,0,78,0,0,1966.080000
193.937856,0,79,0,0,1966.080000
195.903936,0,80,0,0,1966.080000
197.870016,0,81,0,0,2949.120000
200.819136,0,82,0,0,1966.080000
202.785216,0,83,0,0,1966.080000
204.751296,0,84,0,0,1966.080000
206.717376,0,85,0,0,1966.080000
208.683456,0,86,0,0,1966.080000
210.649536,0,87,0,0,1966.080000
212.615616,0,88,0,0,1966.080000
214.581696,0,89,0,0,2949.120000
217.530816,0,90,0,0,1966.080000
219.496896,0,91,0,0,1966.080000
221.462976,0,92,0,0,1966.080000
223.429056,0,93,0,0,1966.080000
225.395136,0,94,0,0,1966.080000
227.361216,0,95,0,0,1966.080000
229.327296,0,96,0,