Time,CovertPackets,AllPackets,BitsSent,PacketInterval,GTSInterval
65.132048,1,2,2,3.872000,0
65.135920,2,3,4,5.472000,0
65.141392,3,4,6,5.472000,0
65.146864,4,5,8,3.872000,0
65.150736,5,6,10,3.872000,0
65.154608,6,7,12,5.472000,0
65.160080,7,8,14,7.072000,0
65.167152,8,9,16,5.472000,0
65.172624,9,10,18,3.872000,0
65.176496,10,11,20,5.472000,0
65.181968,11,12,22,3.872000,0
65.185840,12,13,24,5.472000,0
65.191312,13,14,26,3.872000,0
65.195184,14,15,28,5.472000,0
65.200656,15,16,30,7.072000,0
65.207728,16,17,32,7.072000,0
65.214800,17,18,34,3.872000,0
65.218672,18,19,36,7.072000,0
65.225744,19,20,38,6.368000,0
65.232112,20,21,40,5.472000,0
65.237584,21,22,42,3.872000,0
65.241456,22,23,44,0,7751.760000
72.993216,22,24,44,5.472000,0
72.998688,23,25,46,7.072000,0
73.005760,24,26,48,3.872000,0
73.009632,25,27,50,3.872000,0
73.013504,26,28,52,5.472000,0
73.018976,27,29,54,6.368000,0
73.025344,28,30,56,3.872000,0
73.029216,29,31,58,3.872000,0
73.033088,30,32,60,5.472000,0
73.038560,31,33,62,6.368000,0
73.044928,32,34,64,7.072000,0
73.052000,33,35,66,3.872000,0
73.055872,34,36,68,5.472000,0
73.061344,35,37,70,6.368000,0
73.067712,36,38,72,3.872000,0
73.071584,37,39,74,3.872000,0
73.075456,38,40,76,5.472000,0
73.080928,39,41,78,7.072000,0
73.088000,40,42,80,7.072000,0
73.095072,41,43,82,6.368000,0
73.101440,42,44,84,5.472000,0
73.106912,43,45,86,6.368000,0
73.113280,44,46,88,6.368000,0
73.119648,45,47,90,0,7737.888000
80.857536,45,48,90,3.872000,0
80.861408,46,49,92,5.472000,0
80.866880,47,50,94,6.368000,0
80.873248,48,51,96,7.072000,0
80.880320,49,52,98,3.872000,0
80.884192,50,53,100,5.472000,0
80.889664,51,54,102,7.072000,0
80.896736,52,55,104,7.072000,0
80.903808,53,56,106,3.872000,0
80.907680,54,57,108,5.472000,0
80.913152,55,58,110,7.072000,0
80.920224,56,59,112,5.472000,0
80.925696,57,60,114,3.872000,0
80.929568,58,61,116,5.472000,0
80.935040,59,62,118,3.872000,0
80.938912,60,63,120,5.472000,0
80.944384,61,64,122,3.872000,0
80.948256,62,65,124,5.472000,0
80.953728,63,66,126,5.472000,0
80.959200,64,67,128,3.872000,0
80.963072,65,68,130,3.872000,0
80.966944,66,69,132,0,7754.912000
88.721856,66,70,132,5.472000,0
88.727328,67,71,134,3.872000,0
88.731200,68,72,136,6.368000,0
88.737568,69,73,138,3.872000,0
88.741440,70,74,140,5.472000,0
88.746912,71,75,142,3.872000,0
88.750784,72,76,144,3.872000,0
88.754656,73,77,146,3.872000,0
88.758528,74,78,148,5.472000,0
88.764000,75,79,150,7.072000,0
88.771072,76,80,152,5.472000,0
88.776544,77,81,154,3.872000,0
88.780416,78,82,156,5.472000,0
88.785888,79,83,158,6.368000,0
88.792256,80,84,160,7.072000,0
88.799328,81,85,162,3.872000,0
88.803200,82,86,164,5.472000,0
88.808672,83,87,166,5.472000,0
88.814144,84,88,168,3.872000,0
88.818016,85,89,170,3.872000,0
88.821888,86,90,172,5.472000,0
88.827360,87,91,174,0,7758.816000
96.586176,87,92,174,6.368000,0
96.592544,88,93,176,3.872000,0
96.596416,89,94,178,3.872000,0
96.600288,90,95,180,5.472000,0
96.605760,91,96,182,7.072000,0
96.612832,92,97,184,6.368000,0
96.619200,93,98,186,6.368000,0
96.625568,94,99,188,5.472000,0
96.631040,95,100,190,6.368000,0
96.637408,96,101,192,6.368000,0
96.643776,97,102,194,6.368000,0
96.650144,98,103,196,5.472000,0
96.655616,99,104,198,6.368000,0
96.661984,100,105,200,6.368000,0
96.668352,101,106,202,6.368000,0
96.674720,102,107,204,5.472000,0
96.680192,103,108,206,6.368000,0
96.686560,104,109,208,6.368000,0
96.692928,105,110,210,3.872000,0
96.696800,106,111,212,5.472000,0
96.702272,107,112,214,5.472000,0
96.707744,108,113,216,3.872000,0
96.711616,109,114,218,0,7738.880000
104.450496,109,115,218,3.872000,0
104.454368,110,116,220,5.472000,0
104.459840,111,117,222,7.072000,0
104.466912,112,118,224,5.472000,0
104.472384,113,119,226,3.872000,0
104.476256,114,120,228,5.472000,0
104.481728,115,121,230,3.872000,0
104.485600,116,122,232,5.472000,0
104.491072,117,123,234,3.872000,0
104.494944,118,124,236,5.472000,0
104.500416,119,125,238,7.072000,0
104.507488,120,126,240,7.072000,0
104.514560,121,127,242,3.872000,0
104.518432,122,128,244,7.072000,0
104.525504,123,129,246,6.368000,0
104.531872,124,130,248,5.472000,0
104.537344,125,131,250,3.872000,0
104.541216,126,132,252,5.472000,0
104.546688,127,133,254,7.072000,0
104.553760,128,134,256,3.872000,0
104.557632,129,135,258,3.872000,0
104.561504,130,136,260,5.472000,0
104.566976,131,137,262,0,7747.840000
112.314816,131,138,262,6.368000,0
112.321184,132,139,264,3.872000,0
112.325056,133,140,266,3.872000,0
112.328928,134,141,268,5.472000,0
112.334400,135,142,270,6.368000,0
112.340768,136,143,272,7.072000,0
112.347840,137,144,274,3.872000,0
112.351712,138,145,276,5.472000,0
112.357184,139,146,278,6.368000,0
112.363552,140,147,280,3.872000,0
112.367424,141,148,282,3.872000,0
112.371296,142,149,284,5.472000,0
112.376768,143,150,286,7.072000,0
112.383840,144,151,288,7.072000,0
112.390912,145,152,290,6.368000,0
112.397280,146,153,292,5.472000,0
112.402752,147,154,294,6.368000,0
112.409120,148,155,296,6.368000,0
112.415488,149,156,298,3.872000,0
112.419360,150,157,300,5.472000,0
112.424832,151,158,302,6.368000,0
112.431200,152,159,304,7.072000,0
112.438272,153,160,306,3.872000,0
112.442144,154,161,308,0,7736.992000
120.179136,154,162,308,5.472000,0
120.184608,155,163,310,7.072000,0
120.191680,156,164,312,7.072000,0
120.198752,157,165,314,3.872000,0
120.202624,158,166,316,5.472000,0
120.208096,159,167,318,7.072000,0
120.215168,160,168,320,5.472000,0
120.220640,161,169,322,3.872000,0
120.224512,162,170,324,5.472000,0
120.229984,163,171,326,3.872000,0
120.233856,164,172,328,5.472000,0
120.239328,165,173,330,3.872000,0
120.243200,166,174,332,5.472000,0
120.248672,167,175,334,5.472000,0
120.254144,168,176,336,3.872000,0
120.258016,169,177,338,3.872000,0
120.261888,170,178,340,5.472000,0
120.267360,171,179,342,3.872000,0
120.271232,172,180,344,6.368000,0
120.277600,173,181,346,3.872000,0
120.281472,174,182,348,5.472000,0
120.286944,175,183,350,0,7756.512000
128.043456,175,184,350,3.872000,0
128.047328,176,185,352,3.872000,0
128.051200,177,186,354,3.872000,0
128.055072,178,187,356,5.472000,0
128.060544,179,188,358,7.072000,0
128.067616,180,189,360,5.472000,0
128.073088,181,190,362,3.872000,0
128.076960,182,191,364,5.472000,0
128.082432,183,192,366,6.368000,0
128.088800,184,193,368,7.072000,0
128.095872,185,194,370,3.872000,0
128.099744,186,195,372,5.472000,0
128.105216,187,196,374,5.472000,0
128.110688,188,197,376,3.872000,0
128.114560,189,198,378,3.872000,0
128.118432,190,199,380,5.472000,0
128.123904,191,200,382,6.368000,0
128.130272,192,201,384,3.872000,0
128.134144,193,202,386,3.872000,0
128.138016,194,203,388,5.472000,0
128.143488,195,204,390,7.072000,0
128.150560,196,205,392,0,7757.216000
135.907776,196,206,392,6.368000,0
135.914144,197,207,394,6.368000,0
135.920512,198,208,396,5.472000,0
135.925984,199,209,398,6.368000,0
135.932352,200,210,400,6.368000,0
135.938720,201,211,402,6.368000,0
135.945088,202,212,404,5.472000,0
135.950560,203,213,406,6.368000,0
135.956928,204,214,408,6.368000,0
135.963296,205,215,410,6.368000,0
135.969664,206,216,412,5.472000,0
135.975136,207,217,414,6.368000,0
135.981504,208,218,416,6.368000,0
135.987872,209,219,418,3.872000,0
135.991744,210,220,420,5.472000,0
135.997216,211,221,422,5.472000,0
136.002688,212,222,424,3.872000,0
136.006560,213,223,426,3.872000,0
136.010432,214,224,428,5.472000,0
136.015904,215,225,430,7.072000,0
136.022976,216,226,432,5.472000,0
136.028448,217,227,434,3.872000,0
136.032320,218,228,436,0,7739.776000
143.772096,218,229,436,5.472000,0
143.777568,219,230,438,3.872000,0
143.781440,220,231,440,5.472000,0
143.786912,221,232,442,3.872000,0
143.790784,222,233,444,5.472000,0
143.796256,223,234,446,7.072000,0
143.803328,224,235,448,7.072000,0
143.810400,225,236,450,3.872000,0
143.814272,226,237,452,7.072000,0
143.821344,227,238,454,6.368000,0
143.827712,228,239,456,5.472000,0
143.833184,229,240,458,3.872000,0
143.837056,230,241,460,5.472000,0
143.842528,231,242,462,7.072000,0
143.849600,232,243,464,3.872000,0
143.853472,233,244,466,3.872000,0
143.857344,234,245,468,5.472000,0
143.862816,235,246,470,6.368000,0
143.869184,236,247,472,3.872000,0
143.873056,237,248,474,3.872000,0
143.876928,238,249,476,5.472000,0
143.882400,239,250,478,0,7754.016000
151.636416,239,251,478,6.368000,0
151.642784,240,252,480,7.072000,0
151.649856,241,253,482,3.872000,0
151.653728,242,254,484,5.472000,0
151.659200,243,255,486,6.368000,0
151.665568,244,256,488,3.872000,0
151.669440,245,257,490,3.872000,0
151.673312,246,258,492,5.472000,0
151.678784,247,259,494,7.072000,0
151.685856,248,260,496,7.072000,0
151.692928,249,261,498,6.368000,0
151.699296,250,262,500,5.472000,0
151.704768,251,263,502,6.368000,0
151.711136,252,264,504,6.368000,0
151.717504,253,265,506,3.872000,0
151.721376,254,266,508,5.472000,0
151.726848,255,267,510,6.368000,0
151.733216,256,268,512,7.072000,0
151.740288,257,269,514,3.872000,0
151.744160,258,270,516,5.472000,0
151.749632,259,271,518,7.072000,0
151.756704,260,272,520,7.072000,0
151.763776,261,273,522,0,7736.960000
159.500736,261,274,522,3.872000,0
159.504608,262,275,524,5.472000,0
159.510080,263,276,526,7.072000,0
159.517152,264,277,528,5.472000,0
159.522624,265,278,530,3.872000,0
159.526496,266,279,532,5.472000,0
159.531968,267,280,534,3.872000,0
159.535840,268,281,536,5.472000,0
159.541312,269,282,538,3.872000,0
159.545184,270,283,540,5.472000,0
159.550656,271,284,542,5.472000,0
159.556128,272,285,544,3.872000,0
159.560000,273,286,546,3.872000,0
159.563872,274,287,548,5.472000,0
159.569344,275,288,550,3.872000,0
159.573216,276,289,552,6.368000,0
159.579584,277,290,554,3.872000,0
159.583456,278,291,556,5.472000,0
159.588928,279,292,558,3.872000,0
159.592800,280,293,560,3.872000,0
159.596672,281,294,562,3.872000,0
159.600544,282,295,564,5.472000,0
159.606016,283,296,566,7.072000,0
159.613088,284,297,568,5.472000,0
159.618560,285,298,570,0,7746.496000
167.365056,285,299,570,3.872000,0
167.368928,286,300,572,5.472000,0
167.374400,287,301,574,6.368000,0
167.380768,288,302,576,7.072000,0
167.387840,289,303,578,3.872000,0
167.391712,290,304,580,5.472000,0
167.397184,291,305,582,5.472000,0
167.402656,292,306,584,3.872000,0
167.406528,293,307,586,3.872000,0
167.410400,294,308,588,5.472000,0
167.415872,295,309,590,6.368000,0
167.422240,296,310,592,3.872000,0
167.426112,297,311,594,3.872000,0
167.429984,298,312,596,5.472000,0
167.435456,299,313,598,7.072000,0
167.442528,300,314,600,6.368000,0
167.448896,301,315,602,6.368000,0
167.455264,302,316,604,5.472000,0
167.460736,303,317,606,6.368000,0
167.467104,304,318,608,6.368000,0
167.473472,305,319,610,6.368000,0
167.479840,306,320,612,0,7749.536000
175.229376,306,321,612,5.472000,0
175.234848,307,322,614,6.368000,0
175.241216,308,323,616,6.368000,0
175.247584,309,324,618,6.368000,0
175.253952,310,325,620,5.472000,0
175.259424,311,326,622,6.368000,0
175.265792,312,327,624,6.368000,0
175.272160,313,328,626,3.872000,0
175.276032,314,329,628,5.472000,0
175.281504,315,330,630,5.472000,0
175.286976,316,331,632,3.872000,0
175.290848,317,332,634,3.872000,0
175.294720,318,333,636,5.472000,0
175.300192,319,334,638,7.072000,0
175.307264,320,335,640,5.472000,0
175.312736,321,336,642,3.872000,0
175.316608,322,337,644,5.472000,0
175.322080,323,338,646,3.872000,0
175.325952,324,339,648,5.472000,0
175.331424,325,340,650,3.872000,0
175.335296,326,341,652,5.472000,0
175.340768,327,342,654,0,7752.928000
183.093696,327,343,654,7.072000,0
183.100768,328,344,656,7.072000,0
183.107840,329,345,658,3.872000,0
183.111712,330,346,660,7.072000,0
183.118784,331,347,662,6.368000,0
183.125152,332,348,664,5.472000,0
183.130624,333,349,666,3.872000,0
183.134496,334,350,668,5.472000,0
183.139968,335,351,670,7.072000,0
183.147040,336,352,672,3.872000,0
183.150912,337,353,674,3.872000,0
183.154784,338,354,676,5.472000,0
183.160256,339,355,678,6.368000,0
183.166624,340,356,680,3.872000,0
183.170496,341,357,682,3.872000,0
183.174368,342,358,684,5.472000,0
183.179840,343,359,686,6.368000,0
183.186208,344,360,688,7.072000,0
183.193280,345,361,690,3.872000,0
183.197152,346,362,692,5.472000,0
183.202624,347,363,694,6.368000,0
183.208992,348,364,696,0,7749.024000
190.958016,348,365,696,3.872000,0
190.961888,349,366,698,3.872000,0
190.965760,350,367,700,5.472000,0
190.971232,351,368,702,7.072000,0
190.978304,352,369,704,7.072000,0
190.985376,353,370,706,6.368000,0
190.991744,354,371,708,5.472000,0
190.997216,355,372,710,6.368000,0
191.003584,356,373,712,6.368000,0
191.009952,357,374,714,3.872000,0
191.013824,358,375,716,5.472000,0
191.019296,359,376,718,6.368000,0
191.025664,360,377,720,7.072000,0
191.032736,361,378,722,3.872000,0
191.036608,362,379,724,5.472000,0
191.042080,363,380,726,7.072000,0
191.049152,364,381,728,7.072000,0
191.056224,365,382,730,3.872000,0
191.060096,366,383,732,5.472000,0
191.065568,367,384,734,7.072000,0
191.072640,368,385,736,5.472000,0
191.078112,369,386,738,3.872000,0
191.081984,370,387,740,5.472000,0
191.087456,371,388,742,0,7734.880000
198.822336,371,389,742,3.872000,0
198.826208,372,390,744,5.472000,0
198.831680,373,391,746,3.872000,0
198.835552,374,392,748,5.472000,0
198.841024,375,393,750,5.472000,0
198.846496,376,394,752,3.872000,0
198.850368,377,395,754,3.872000,0
198.854240,378,396,756,5.472000,0
198.859712,379,397,758,3.872000,0
198.863584,380,398,760,6.368000,0
198.869952,381,399,762,3.872000,0
198.873824,382,400,764,5.472000,0
198.879296,383,401,766,3.872000,0
198.883168,384,402,768,3.872000,0
198.887040,385,403,770,3.872000,0
198.890912,386,404,772,5.472000,0
198.896384,387,405,774,7.072000,0
198.903456,388,406,776,5.472000,0
198.908928,389,407,778,3.872000,0
198.912800,390,408,780,5.472000,0
198.918272,391,409,782,6.368000,0
198.924640,392,410,784,7.072000,0
198.931712,393,411,786,0,7754.944000
206.686656,393,412,786,3.872000,0
206.690528,394,413,788,5.472000,0
206.696000,395,414,790,5.472000,0
206.701472,396,415,792,3.872000,0
206.705344,397,416,794,3.872000,0
206.709216,398,417,796,5.472000,0
206.714688,399,418,798,6.368000,0
206.721056,400,419,800,3.872000,0
206.724928,401,420,802,3.872000,0
206.728800,402,421,804,5.472000,0
206.734272,403,422,806,7.072000,0
206.741344,404,423,808,6.368000,0
206.747712,405,424,810,6.368000,0
206.754080,406,425,812,5.472000,0
206.759552,407,426,814,6.368000,0
206.765920,408,427,816,6.368000,0
206.772288,409,428,818,6.368000,0
206.778656,410,429,820,5.472000,0
206.784128,411,430,822,6.368000,0
206.790496,412,431,824,6.368000,0
206.796864,413,432,826,6.368000,0
206.803232,414,433,828,0,7747.744000
214.550976,414,434,828,5.472000,0
214.556448,415,435,830,6.368000,0
214.562816,416,436,832,6.368000,0
214.569184,417,437,834,3.872000,0
214.573056,418,438,836,5.472000,0
214.578528,419,439,838,5.472000,0
214.584000,420,440,840,3.872000,0
214.587872,421,441,842,3.872000,0
214.591744,422,442,844,5.472000,0
214.597216,423,443,846,7.072000,0
214.604288,424,444,848,5.472000,0
214.609760,425,445,850,3.872000,0
214.613632,426,446,852,5.472000,0
214.619104,427,447,854,3.872000,0
214.622976,428,448,856,5.472000,0
214.628448,429,449,858,3.872000,0
214.632320,430,450,860,5.472000,0
214.637792,431,451,862,7.072000,0
214.644864,432,452,864,7.072000,0
214.651936,433,453,866,3.872000,0
214.655808,434,454,868,7.072000,0
214.662880,435,455,870,6.368000,0
214.669248,436,456,872,0,7746.048000
222.415296,436,457,872,5.472000,0
222.420768,437,458,874,3.872000,0
222.424640,438,459,876,5.472000,0
222.430112,439,460,878,7.072000,0
222.437184,440,461,880,3.872000,0
222.441056,441,462,882,3.872000,0
222.444928,442,463,884,5.472000,0
222.450400,443,464,886,6.368000,0
222.456768,444,465,888,3.872000,0
222.460640,445,466,890,3.872000,0
222.464512,446,467,892,5.472000,0
222.469984,447,468,894,6.368000,0
222.476352,448,469,896,7.072000,0
222.483424,449,470,898,3.872000,0
222.487296,450,471,900,5.472000,0
222.492768,451,472,902,6.368000,0
222.499136,452,473,904,3.872000,0
222.503008,453,474,906,3.872000,0
222.506880,454,475,908,5.472000,0
222.512352,455,476,910,7.072000,0
222.519424,456,477,912,7.072000,0
222.526496,457,478,914,6.368000,0
222.532864,458,479,916,5.472000,0
222.538336,459,480,918,6.368000,0
222.544704,460,481,920,6.368000,0
222.551072,461,482,922,0,7728.544000
230.279616,461,483,922,3.872000,0
230.283488,462,484,924,5.472000,0
230.288960,463,485,926,6.368000,0
230.295328,464,486,928,7.072000,0
230.302400,465,487,930,3.872000,0
230.306272,466,488,932,5.472000,0
230.311744,467,489,934,7.072000,0
230.318816,468,490,936,7.072000,0
230.325888,469,491,938,3.872000,0
230.329760,470,492,940,5.472000,0
230.335232,471,493,942,7.072000,0
230.342304,472,494,944,5.472000,0
230.347776,473,495,946,3.872000,0
230.351648,474,496,948,5.472000,0
230.357120,475,497,950,3.872000,0
230.360992,476,498,952,5.472000,0
230.366464,477,499,954,3.872000,0
230.370336,478,500,956,5.472000,0
230.375808,479,501,958,5.472000,0
230.381280,480,502,960,3.872000,0
230.385152,481,503,962,3.872000,0
230.389024,482,504,964,5.472000,0
230.394496,483,505,966,0,7749.440000
238.143936,483,506,966,3.872000,0
238.147808,484,507,968,6.368000,0
238.154176,485,508,970,3.872000,0
238.158048,486,509,972,5.472000,0
238.163520,487,510,974,3.872000,0
238.167392,488,511,976,3.872000,0
238.171264,489,512,978,3.872000,0
238.175136,490,513,980,5.472000,0
238.180608,491,514,982,7.072000,0
238.187680,492,515,984,5.472000,0
238.193152,493,516,986,3.872000,0
238.197024,494,517,988,5.472000,0
238.202496,495,518,990,6.368000,0
238.208864,496,519,992,7.072000,0
238.215936,497,520,994,3.872000,0
238.219808,498,521,996,5.472000,0
238.225280,499,522,998,5.472000,0
238.230752,500,523,1000,3.872000,0
238.234624,501,524,1002,3.872000,0
238.238496,502,525,1004,5.472000,0
238.243968,503,526,1006,6.368000,0
238.250336,504,527,1008,3.872000,0
238.254208,505,528,1010,0,7754.048000
246.008256,505,529,1010,3.872000,0
246.012128,506,530,1012,5.472000,0
246.017600,507,531,1014,7.072000,0
246.024672,508,532,1016,6.368000,0
246.031040,509,533,1018,6.368000,0
246.037408,510,534,1020,5.472000,0
246.042880,511,535,1022,6.368000,0
246.049248,512,536,1024,6.368000,0
246.055616,513,537,1026,6.368000,0
246.061984,514,538,1028,5.472000,0
246.067456,515,539,1030,6.368000,0
246.073824,516,540,1032,6.368000,0
246.080192,517,541,1034,6.368000,0
246.086560,518,542,1036,5.472000,0
246.092032,519,543,1038,6.368000,0
246.098400,520,544,1040,6.368000,0
246.104768,521,545,1042,3.872000,0
246.108640,522,546,1044,5.472000,0
246.114112,523,547,1046,5.472000,0
246.119584,524,548,1048,3.872000,0
246.123456,525,549,1050,3.872000,0
246.127328,526,550,1052,5.472000,0
246.132800,527,551,1054,0,7739.776000
253.872576,527,552,1054,7.072000,0
253.879648,528,553,1056,5.472000,0
253.885120,529,554,1058,3.872000,0
253.888992,530,555,1060,5.472000,0
253.894464,531,556,1062,3.872000,0
253.898336,532,557,1064,5.472000,0
253.903808,533,558,1066,3.872000,0
253.907680,534,559,1068,5.472000,0
253.913152,535,560,1070,7.072000,0
253.920224,536,561,1072,7.072000,0
253.927296,537,562,1074,3.872000,0
253.931168,538,563,1076,7.072000,0
253.938240,539,564,1078,6.368000,0
253.944608,540,565,1080,5.472000,0
253.950080,541,566,1082,3.872000,0
253.953952,542,567,1084,5.472000,0
253.959424,543,568,1086,7.072000,0
253.966496,544,569,1088,3.872000,0
253.970368,545,570,1090,3.872000,0
253.974240,546,571,1092,5.472000,0
253.979712,547,572,1094,6.368000,0
253.986080,548,573,1096,3.872000,0
253.989952,549,574,1098,3.872000,0
253.993824,550,575,1100,5.472000,0
253.999296,551,576,1102,0,7737.600000
261.736896,551,577,1102,6.368000,0
261.743264,552,578,1104,7.072000,0
261.750336,553,579,1106,3.872000,0
261.754208,554,580,1108,5.472000,0
261.759680,555,581,1110,6.368000,0
261.766048,556,582,1112,3.872000,0
261.769920,557,583,1114,3.872000,0
261.773792,558,584,1116,5.472000,0
261.779264,559,585,1118,7.072000,0
261.786336,560,586,1120,7.072000,0
261.793408,561,587,1122,6.368000,0
261.799776,562,588,1124,5.472000,0
261.805248,563,589,1126,6.368000,0
261.811616,564,590,1128,6.368000,0
261.817984,565,591,1130,3.872000,0
261.821856,566,592,1132,5.472000,0
261.827328,567,593,1134,6.368000,0
261.833696,568,594,1136,7.072000,0
261.840768,569,595,1138,3.872000,0
261.844640,570,596,1140,5.472000,0
261.850112,571,597,1142,7.072000,0
261.857184,572,598,1144,7.072000,0
261.864256,573,599,1146,3.872000,0
261.868128,574,600,1148,0,7733.088000
269.601216,574,601,1148,5.472000,0
269.606688,575,602,1150,7.072000,0
269.613760,576,603,1152,5.472000,0
269.619232,577,604,1154,3.872000,0
269.623104,578,605,1156,5.472000,0
269.628576,579,606,1158,3.872000,0
269.632448,580,607,1160,5.472000,0
269.637920,581,608,1162,3.872000,0
269.641792,582,609,1164,5.472000,0
269.647264,583,610,1166,5.472000,0
269.652736,584,611,1168,3.872000,0
269.656608,585,612,1170,3.872000,0
269.660480,586,613,1172,5.472000,0
269.665952,587,614,1174,3.872000,0
269.669824,588,615,1176,6.368000,0
269.676192,589,616,1178,3.872000,0
269.680064,590,617,1180,5.472000,0
269.685536,591,618,1182,3.872000,0
269.689408,592,619,1184,3.872000,0
269.693280,593,620,1186,3.872000,0
269.697152,594,621,1188,5.472000,0
269.702624,595,622,1190,7.072000,0
269.709696,596,623,1192,5.472000,0
269.715168,597,624,1194,3.872000,0
269.719040,598,625,1196,