Time,CovertPackets,AllPackets,BitsSent,PacketInterval,GTSInterval
32.015888,1,2,2,3.872000,0
32.019760,2,3,4,5.472000,0
32.025232,3,4,6,5.472000,0
32.030704,4,5,8,3.872000,0
32.034576,5,6,10,3.872000,0
32.038448,6,7,12,5.472000,0
32.043920,7,8,14,7.072000,0
32.050992,8,9,16,5.472000,0
32.056464,9,10,18,3.872000,0
32.060336,10,11,20,0,1918.480000
33.978816,10,12,20,5.472000,0
33.984288,11,13,22,3.872000,0
33.988160,12,14,24,5.472000,0
33.993632,13,15,26,3.872000,0
33.997504,14,16,28,5.472000,0
34.002976,15,17,30,7.072000,0
34.010048,16,18,32,7.072000,0
34.017120,17,19,34,3.872000,0
34.020992,18,20,36,7.072000,0
34.028064,19,21,38,0,1916.832000
35.944896,19,22,38,6.368000,0
35.951264,20,23,40,5.472000,0
35.956736,21,24,42,3.872000,0
35.960608,22,25,44,5.472000,0
35.966080,23,26,46,7.072000,0
35.973152,24,27,48,3.872000,0
35.977024,25,28,50,3.872000,0
35.980896,26,29,52,5.472000,0
35.986368,27,30,54,6.368000,0
35.992736,28,31,56,3.872000,0
35.996608,29,32,58,0,1914.368000
37.910976,29,33,58,3.872000,0
37.914848,30,34,60,5.472000,0
37.920320,31,35,62,6.368000,0
37.926688,32,36,64,7.072000,0
37.933760,33,37,66,3.872000,0
37.937632,34,38,68,5.472000,0
37.943104,35,39,70,6.368000,0
37.949472,36,40,72,3.872000,0
37.953344,37,41,74,3.872000,0
37.957216,38,42,76,5.472000,0
37.962688,39,43,78,0,1914.368000
39.877056,39,44,78,7.072000,0
39.884128,40,45,80,7.072000,0
39.891200,41,46,82,6.368000,0
39.897568,42,47,84,5.472000,0
39.903040,43,48,86,6.368000,0
39.909408,44,49,88,6.368000,0
39.915776,45,50,90,3.872000,0
39.919648,46,51,92,5.472000,0
39.925120,47,52,94,0,1918.016000
41.843136,47,53,94,6.368000,0
41.849504,48,54,96,7.072000,0
41.856576,49,55,98,3.872000,0
41.860448,50,56,100,5.472000,0
41.865920,51,57,102,7.072000,0
41.872992,52,58,104,7.072000,0
41.880064,53,59,106,3.872000,0
41.883936,54,60,108,5.472000,0
41.889408,55,61,110,0,1919.808000
43.809216,55,62,110,7.072000,0
43.816288,56,63,112,5.472000,0
43.821760,57,64,114,3.872000,0
43.825632,58,65,116,5.472000,0
43.831104,59,66,118,3.872000,0
43.834976,60,67,120,5.472000,0
43.840448,61,68,122,3.872000,0
43.844320,62,69,124,5.472000,0
43.849792,63,70,126,5.472000,0
43.855264,64,71,128,3.872000,0
43.859136,65,72,130,0,1916.160000
45.775296,65,73,130,3.872000,0
45.779168,66,74,132,5.472000,0
45.784640,67,75,134,3.872000,0
45.788512,68,76,136,6.368000,0
45.794880,69,77,138,3.872000,0
45.798752,70,78,140,5.472000,0
45.804224,71,79,142,3.872000,0
45.808096,72,80,144,3.872000,0
45.811968,73,81,146,3.872000,0
45.815840,74,82,148,5.472000,0
45.821312,75,83,150,0,1920.064000
47.741376,75,84,150,7.072000,0
47.748448,76,85,152,5.472000,0
47.753920,77,86,154,3.872000,0
47.757792,78,87,156,5.472000,0
47.763264,79,88,158,6.368000,0
47.769632,80,89,160,7.072000,0
47.776704,81,90,162,3.872000,0
47.780576,82,91,164,5.472000,0
47.786048,83,92,166,5.472000,0
47.791520,84,93,168,0,1915.936000
49.707456,84,94,168,3.872000,0
49.711328,85,95,170,3.872000,0
49.715200,86,96,172,5.472000,0
49.720672,87,97,174,6.368000,0
49.727040,88,98,176,3.872000,0
49.730912,89,99,178,3.872000,0
49.734784,90,100,180,5.472000,0
49.740256,91,101,182,7.072000,0
49.747328,92,102,184,6.368000,0
49.753696,93,103,186,0,1919.840000
51.673536,93,104,186,6.368000,0
51.679904,94,105,188,5.472000,0
51.685376,95,106,190,6.368000,0
51.691744,96,107,192,6.368000,0
51.698112,97,108,194,6.368000,0
51.704480,98,109,196,5.472000,0
51.709952,99,110,198,6.368000,0
51.716320,100,111,200,6.368000,0
51.722688,101,112,202,0,1916.928000
53.639616,101,113,202,6.368000,0
53.645984,102,114,204,5.472000,0
53.651456,103,115,206,6.368000,0
53.657824,104,116,208,6.368000,0
53.664192,105,117,210,3.872000,0
53.668064,106,118,212,5.472000,0
53.673536,107,119,214,5.472000,0
53.679008,108,120,216,3.872000,0
53.682880,109,121,218,3.872000,0
53.686752,110,122,220,0,1918.944000
55.605696,110,123,220,5.472000,0
55.611168,111,124,222,7.072000,0
55.618240,112,125,224,5.472000,0
55.623712,113,126,226,3.872000,0
55.627584,114,127,228,5.472000,0
55.633056,115,128,230,3.872000,0
55.636928,116,129,232,5.472000,0
55.642400,117,130,234,3.872000,0
55.646272,118,131,236,5.472000,0
55.651744,119,132,238,0,1920.032000
57.571776,119,133,238,7.072000,0
57.578848,120,134,240,7.072000,0
57.585920,121,135,242,3.872000,0
57.589792,122,136,244,7.072000,0
57.596864,123,137,246,6.368000,0
57.603232,124,138,248,5.472000,0
57.608704,125,139,250,3.872000,0
57.612576,126,140,252,5.472000,0
57.618048,127,141,254,0,1919.808000
59.537856,127,142,254,7.072000,0
59.544928,128,143,256,3.872000,0
59.548800,129,144,258,3.872000,0
59.552672,130,145,260,5.472000,0
59.558144,131,146,262,6.368000,0
59.564512,132,147,264,3.872000,0
59.568384,133,148,266,3.872000,0
59.572256,134,149,268,5.472000,0
59.577728,135,150,270,6.368000,0
59.584096,136,151,272,0,1919.840000
61.503936,136,152,272,7.072000,0
61.511008,137,153,274,3.872000,0
61.514880,138,154,276,5.472000,0
61.520352,139,155,278,6.368000,0
61.526720,140,156,280,3.872000,0
61.530592,141,157,282,3.872000,0
61.534464,142,158,284,5.472000,0
61.539936,143,159,286,7.072000,0
61.547008,144,160,288,7.072000,0
61.554080,145,161,290,0,1915.936000
63.470016,145,162,290,6.368000,0
63.476384,146,163,292,5.472000,0
63.481856,147,164,294,6.368000,0
63.488224,148,165,296,6.368000,0
63.494592,149,166,298,3.872000,0
63.498464,150,167,300,5.472000,0
63.503936,151,168,302,6.368000,0
63.510304,152,169,304,7.072000,0
63.517376,153,170,306,3.872000,0
63.521248,154,171,308,0,1914.848000
65.436096,154,172,308,5.472000,0
65.441568,155,173,310,7.072000,0
65.448640,156,174,312,7.072000,0
65.455712,157,175,314,3.872000,0
65.459584,158,176,316,5.472000,0
65.465056,159,177,318,7.072000,0
65.472128,160,178,320,5.472000,0
65.477600,161,179,322,3.872000,0
65.481472,162,180,324,5.472000,0
65.486944,163,181,326,0,1915.232000
67.402176,163,182,326,3.872000,0
67.406048,164,183,328,5.472000,0
67.411520,165,184,330,3.872000,0
67.415392,166,185,332,5.472000,0
67.420864,167,186,334,5.472000,0
67.426336,168,187,336,3.872000,0
67.430208,169,188,338,3.872000,0
67.434080,170,189,340,5.472000,0
67.439552,171,190,342,3.872000,0
67.443424,172,191,344,6.368000,0
67.449792,173,192,346,3.872000,0
67.453664,174,193,348,0,1914.592000
69.368256,174,194,348,5.472000,0
69.373728,175,195,350,3.872000,0
69.377600,176,196,352,3.872000,0
69.381472,177,197,354,3.872000,0
69.385344,178,198,356,5.472000,0
69.390816,179,199,358,7.072000,0
69.397888,180,200,360,5.472000,0
69.403360,181,201,362,3.872000,0
69.407232,182,202,364,5.472000,0
69.412704,183,203,366,6.368000,0
69.419072,184,204,368,0,1915.264000
71.334336,184,205,368,7.072000,0
71.341408,185,206,370,3.872000,0
71.345280,186,207,372,5.472000,0
71.350752,187,208,374,5.472000,0
71.356224,188,209,376,3.872000,0
71.360096,189,210,378,3.872000,0
71.363968,190,211,380,5.472000,0
71.369440,191,212,382,6.368000,0
71.375808,192,213,384,3.872000,0
71.379680,193,214,386,3.872000,0
71.383552,194,215,388,0,1916.864000
73.300416,194,216,388,5.472000,0
73.305888,195,217,390,7.072000,0
73.312960,196,218,392,6.368000,0
73.319328,197,219,394,6.368000,0
73.325696,198,220,396,5.472000,0
73.331168,199,221,398,6.368000,0
73.337536,200,222,400,6.368000,0
73.343904,201,223,402,6.368000,0
73.350272,202,224,404,0,1916.224000
75.266496,202,225,404,5.472000,0
75.271968,203,226,406,6.368000,0
75.278336,204,227,408,6.368000,0
75.284704,205,228,410,6.368000,0
75.291072,206,229,412,5.472000,0
75.296544,207,230,414,6.368000,0
75.302912,208,231,416,6.368000,0
75.309280,209,232,418,3.872000,0
75.313152,210,233,420,0,1919.424000
77.232576,210,234,420,5.472000,0
77.238048,211,235,422,5.472000,0
77.243520,212,236,424,3.872000,0
77.247392,213,237,426,3.872000,0
77.251264,214,238,428,5.472000,0
77.256736,215,239,430,7.072000,0
77.263808,216,240,432,5.472000,0
77.269280,217,241,434,3.872000,0
77.273152,218,242,436,5.472000,0
77.278624,219,243,438,3.872000,0
77.282496,220,244,440,0,1916.160000
79.198656,220,245,440,5.472000,0
79.204128,221,246,442,3.872000,0
79.208000,222,247,444,5.472000,0
79.213472,223,248,446,7.072000,0
79.220544,224,249,448,7.072000,0
79.227616,225,250,450,3.872000,0
79.231488,226,251,452,7.072000,0
79.238560,227,252,454,6.368000,0
79.244928,228,253,456,5.472000,0
79.250400,229,254,458,0,1914.336000
81.164736,229,255,458,3.872000,0
81.168608,230,256,460,5.472000,0
81.174080,231,257,462,7.072000,0
81.181152,232,258,464,3.872000,0
81.185024,233,259,466,3.872000,0
81.188896,234,260,468,5.472000,0
81.194368,235,261,470,6.368000,0
81.200736,236,262,472,3.872000,0
81.204608,237,263,474,3.872000,0
81.208480,238,264,476,5.472000,0
81.213952,239,265,478,0,1916.864000
83.130816,239,266,478,6.368000,0
83.137184,240,267,480,7.072000,0
83.144256,241,268,482,3.872000,0
83.148128,242,269,484,5.472000,0
83.153600,243,270,486,6.368000,0
83.159968,244,271,488,3.872000,0
83.163840,245,272,490,3.872000,0
83.167712,246,273,492,5.472000,0
83.173184,247,274,494,7.072000,0
83.180256,248,275,496,0,1916.640000
85.096896,248,276,496,7.072000,0
85.103968,249,277,498,6.368000,0
85.110336,250,278,500,5.472000,0
85.115808,251,279,502,6.368000,0
85.122176,252,280,504,6.368000,0
85.128544,253,281,506,3.872000,0
85.132416,254,282,508,5.472000,0
85.137888,255,283,510,6.368000,0
85.144256,256,284,512,0,1918.720000
87.062976,256,285,512,7.072000,0
87.070048,257,286,514,3.872000,0
87.073920,258,287,516,5.472000,0
87.079392,259,288,518,7.072000,0
87.086464,260,289,520,7.072000,0
87.093536,261,290,522,3.872000,0
87.097408,262,291,524,5.472000,0
87.102880,263,292,526,7.072000,0
87.109952,264,293,528,0,1919.104000
89.029056,264,294,528,5.472000,0
89.034528,265,295,530,3.872000,0
89.038400,266,296,532,5.472000,0
89.043872,267,297,534,3.872000,0
89.047744,268,298,536,5.472000,0
89.053216,269,299,538,3.872000,0
89.057088,270,300,540,5.472000,0
89.062560,271,301,542,5.472000,0
89.068032,272,302,544,3.872000,0
89.071904,273,303,546,3.872000,0
89.075776,274,304,548,0,1919.360000
90.995136,274,305,548,5.472000,0
91.000608,275,306,550,3.872000,0
91.004480,276,307,552,6.368000,0
91.010848,277,308,554,3.872000,0
91.014720,278,309,556,5.472000,0
91.020192,279,310,558,3.872000,0
91.024064,280,311,560,3.872000,0
91.027936,281,312,562,3.872000,0
91.031808,282,313,564,5.472000,0
91.037280,283,314,566,7.072000,0
91.044352,284,315,568,0,1916.864000
92.961216,284,316,568,5.472000,0
92.966688,285,317,570,3.872000,0
92.970560,286,318,572,5.472000,0
92.976032,287,319,574,6.368000,0
92.982400,288,320,576,7.072000,0
92.989472,289,321,578,3.872000,0
92.993344,290,322,580,5.472000,0
92.998816,291,323,582,5.472000,0
93.004288,292,324,584,3.872000,0
93.008160,293,325,586,3.872000,0
93.012032,294,326,588,0,1915.264000
94.927296,294,327,588,5.472000,0
94.932768,295,328,590,6.368000,0
94.939136,296,329,592,3.872000,0
94.943008,297,330,594,3.872000,0
94.946880,298,331,596,5.472000,0
94.952352,299,332,598,7.072000,0
94.959424,300,333,600,6.368000,0
94.965792,301,334,602,6.368000,0
94.972160,302,335,604,5.472000,0
94.977632,303,336,606,0,1915.744000
96.893376,303,337,606,6.368000,0
96.899744,304,338,608,6.368000,0
96.906112,305,339,610,6.368000,0
96.912480,306,340,612,5.472000,0
96.917952,307,341,614,6.368000,0
96.924320,308,342,616,6.368000,0
96.930688,309,343,618,6.368000,0
96.937056,310,344,620,5.472000,0
96.942528,311,345,622,0,1916.928000
98.859456,311,346,622,6.368000,0
98.865824,312,347,624,6.368000,0
98.872192,313,348,626,3.872000,0
98.876064,314,349,628,5.472000,0
98.881536,315,350,630,5.472000,0
98.887008,316,351,632,3.872000,0
98.890880,317,352,634,3.872000,0
98.894752,318,353,636,5.472000,0
98.900224,319,354,638,7.072000,0
98.907296,320,355,640,0,1918.240000
100.825536,320,356,640,5.472000,0
100.831008,321,357,642,3.872000,0
100.834880,322,358,644,5.472000,0
100.840352,323,359,646,3.872000,0
100.844224,324,360,648,5.472000,0
100.849696,325,361,650,3.872000,0
100.853568,326,362,652,5.472000,0
100.859040,327,363,654,7.072000,0
100.866112,328,364,656,7.072000,0
100.873184,329,365,658,3.872000,0
100.877056,330,366,660,0,1914.560000
102.791616,330,367,660,7.072000,0
102.798688,331,368,662,6.368000,0
102.805056,332,369,664,5.472000,0
102.810528,333,370,666,3.872000,0
102.814400,334,371,668,5.472000,0
102.819872,335,372,670,7.072000,0
102.826944,336,373,672,3.872000,0
102.830816,337,374,674,3.872000,0
102.834688,338,375,676,5.472000,0
102.840160,339,376,678,0,1917.536000
104.757696,339,377,678,6.368000,0
104.764064,340,378,680,3.872000,0
104.767936,341,379,682,3.872000,0
104.771808,342,380,684,5.472000,0
104.777280,343,381,686,6.368000,0
104.783648,344,382,688,7.072000,0
104.790720,345,383,690,3.872000,0
104.794592,346,384,692,5.472000,0
104.800064,347,385,694,6.368000,0
104.806432,348,386,696,0,1917.344000
106.723776,348,387,696,3.872000,0
106.727648,349,388,698,3.872000,0
106.731520,350,389,700,5.472000,0
106.736992,351,390,702,7.072000,0
106.744064,352,391,704,7.072000,0
106.751136,353,392,706,6.368000,0
106.757504,354,393,708,5.472000,0
106.762976,355,394,710,6.368000,0
106.769344,356,395,712,6.368000,0
106.775712,357,396,714,0,1914.144000
108.689856,357,397,714,3.872000,0
108.693728,358,398,716,5.472000,0
108.699200,359,399,718,6.368000,0
108.705568,360,400,720,7.072000,0
108.712640,361,401,722,3.872000,0
108.716512,362,402,724,5.472000,0
108.721984,363,403,726,7.072000,0
108.729056,364,404,728,7.072000,0
108.736128,365,405,730,3.872000,0
108.740000,366,406,732,0,1915.936000
110.655936,366,407,732,5.472000,0
110.661408,367,408,734,7.072000,0
110.668480,368,409,736,5.472000,0
110.673952,369,410,738,3.872000,0
110.677824,370,411,740,5.472000,0
110.683296,371,412,742,3.872000,0
110.687168,372,413,744,5.472000,0
110.692640,373,414,746,3.872000,0
110.696512,374,415,748,5.472000,0
110.701984,375,416,750,5.472000,0
110.707456,376,417,752,0,1914.560000
112.622016,376,418,752,3.872000,0
112.625888,377,419,754,3.872000,0
112.629760,378,420,756,5.472000,0
112.635232,379,421,758,3.872000,0
112.639104,380,422,760,6.368000,0
112.645472,381,423,762,3.872000,0
112.649344,382,424,764,5.472000,0
112.654816,383,425,766,3.872000,0
112.658688,384,426,768,3.872000,0
112.662560,385,427,770,3.872000,0
112.666432,386,428,772,5.472000,0
112.671904,387,429,774,0,1916.192000
114.588096,387,430,774,7.072000,0
114.595168,388,431,776,5.472000,0
114.600640,389,432,778,3.872000,0
114.604512,390,433,780,5.472000,0
114.609984,391,434,782,6.368000,0
114.616352,392,435,784,7.072000,0
114.623424,393,436,786,3.872000,0
114.627296,394,437,788,5.472000,0
114.632768,395,438,790,5.472000,0
114.638240,396,439,792,0,1915.936000
116.554176,396,440,792,3.872000,0
116.558048,397,441,794,3.872000,0
116.561920,398,442,796,5.472000,0
116.567392,399,443,798,6.368000,0
116.573760,400,444,800,3.872000,0
116.577632,401,445,802,3.872000,0
116.581504,402,446,804,5.472000,0
116.586976,403,447,806,7.072000,0
116.594048,404,448,808,6.368000,0
116.600416,405,449,810,0,1919.840000
118.520256,405,450,810,6.368000,0
118.526624,406,451,812,5.472000,0
118.532096,407,452,814,6.368000,0
118.538464,408,453,816,6.368000,0
118.544832,409,454,818,6.368000,0
118.551200,410,455,820,5.472000,0
118.556672,411,456,822,6.368000,0
118.563040,412,457,824,6.368000,0
118.569408,413,458,826,0,1916.928000
120.486336,413,459,826,6.368000,0
120.492704,414,460,828,5.472000,0
120.498176,415,461,830,6.368000,0
120.504544,416,462,832,6.368000,0
120.510912,417,463,834,3.872000,0
120.514784,418,464,836,5.472000,0
120.520256,419,465,838,5.472000,0
120.525728,420,466,840,3.872000,0
120.529600,421,467,842,3.872000,0
120.533472,422,468,844,0,1918.944000
122.452416,422,469,844,5.472000,0
122.457888,423,470,846,7.072000,0
122.464960,424,471,848,5.472000,0
122.470432,425,472,850,3.872000,0
122.474304,426,473,852,5.472000,0
122.479776,427,474,854,3.872000,0
122.483648,428,475,856,5.472000,0
122.489120,429,476,858,3.872000,0
122.492992,430,477,860,5.472000,0
122.498464,431,478,862,0,1920.032000
124.418496,431,479,862,7.072000,0
124.425568,432,480,864,7.072000,0
124.432640,433,481,866,3.872000,0
124.436512,434,482,868,7.072000,0
124.443584,435,483,870,6.368000,0
124.449952,436,484,872,5.472000,0
124.455424,437,485,874,3.872000,0
124.459296,438,486,876,5.472000,0
124.464768,439,487,878,0,1919.808000
126.384576,439,488,878,7.072000,0
126.391648,440,489,880,3.872000,0
126.395520,441,490,882,3.872000,0
126.399392,442,491,884,5.472000,0
126.404864,443,492,886,6.368000,0
126.411232,444,493,888,3.872000,0
126.415104,445,494,890,3.872000,0
126.418976,446,495,892,5.472000,0
126.424448,447,496,894,6.368000,0
126.430816,448,497,896,0,1919.840000
128.350656,448,498,896,7.072000,0
128.357728,449,499,898,3.872000,0
128.361600,450,500,900,5.472000,0
128.367072,451,501,902,6.368000,0
128.373440,452,502,904,3.872000,0
128.377312,453,503,906,3.872000,0
128.381184,454,504,908,5.472000,0
128.386656,455,505,910,7.072000,0
128.393728,456,506,912,7.072000,0
128.400800,457,507,914,0,1915.936000
130.316736,457,508,914,6.368000,0
130.323104,458,509,916,5.472000,0
130.328576,459,510,918,6.368000,0
130.334944,460,511,920,6.368000,0
130.341312,461,512,922,3.872000,0
130.345184,462,513,924,5.472000,0
130.350656,463,514,926,6.368000,0
130.357024,464,515,928,7.072000,0
130.364096,465,516,930,3.872000,0
130.367968,466,517,932,0,1914.848000
132.282816,466,518,932,5.472000,0
132.288288,467,519,934,7.072000,0
132.295360,468,520,936,7.072000,0
132.302432,469,521,938,3.872000,0
132.306304,470,522,940,5.472000,0
132.311776,471,523,942,7.072000,0
132.318848,472,524,944,5.472000,0
132.324320,473,525,946,3.872000,0
132.328192,474,526,948,5.472000,0
132.333664,475,527,950,0,1915.232000
134.248896,475,528,950,3.872000,0
134.252768,476,529,952,5.472000,0
134.258240,477,530,954,3.872000,0
134.262112,478,531,956,5.472000,0
134.267584,479,532,958,5.472000,0
134.273056,480,533,960,3.872000,0
134.276928,481,534,962,3.872000,0
134.280800,482,535,964,5.472000,0
134.286272,483,536,966,3.872000,0
134.290144,484,537,968,6.368000,0
134.296512,485,538,970,3.872000,0
134.300384,486,539,972,0,1914.592000
136.214976,486,540,972,5.472000,0
136.220448,487,541,974,3.872000,0
136.224320,488,542,976,3.872000,0
136.228192,489,543,978,3.872000,0
136.232064,490,544,980,5.472000,0
136.237536,491,545,982,7.072000,0
136.244608,492,546,984,5.472000,0
136.250080,493,547,986,3.872000,0
136.253952,494,548,988,5.472000,0
136.259424,495,549,990,6.368000,0
136.265792,496,550,992,0,1915.264000
138.181056,496,551,992,7.072000,0
138.188128,497,552,994,3.872000,0
138.192000,498,553,996,5.472000,0
138.197472,499,554,998,5.472000,0
138.202944,500,555,1000,3.872000,0
138.206816,501,556,1002,3.872000,0
138.210688,502,557,1004,5.472000,0
138.216160,503,558,1006,6.368000,0
138.222528,504,559,1008,3.872000,0
138.226400,505,560,1010,3.872000,0
138.230272,506,561,1012,0,1916.864000
140.147136,506,562,1012,5.472000,0
140.152608,507,563,1014,7.072000,0
140.159680,508,564,1016,6.368000,0
140.166048,509,565,1018,6.368000,0
140.172416,510,566,1020,5.472000,0
140.177888,511,567,1022,6.368000,0
140.184256,512,568,1024,6.368000,0
140.190624,513,569,1026,6.368000,0
140.196992,514,570,1028,0,1916.224000
142.113216,514,571,1028,5.472000,0
142.118688,515,572,1030,6.368000,0
142.125056,516,573,1032,6.368000,0
142.131424,517,574,1034,6.368000,0
142.137792,518,575,1036,5.472000,0
142.143264,519,576,1038,6.368000,0
142.149632,520,577,1040,6.368000,0
142.156000,521,578,1042,3.872000,0
142.159872,522,579,1044,0,1919.424000
144.079296,522,580,1044,5.472000,0
144.084768,523,581,1046,5.472000,0
144.090240,524,582,1048,3.872000,0
144.094112,525,583,1050,3.872000,0
144.097984,526,584,1052,5.472000,0
144.103456,527,585,1054,7.072000,0
144.110528,528,586,1056,5.472000,0
144.116000,529,587,1058,3.872000,0
144.119872,530,588,1060,5.472000,0
144.125344,531,589,1062,3.872000,0
144.129216,532,590,1064,0,1916.160000
146.045376,532,591,1064,5.472000,0
146.050848,533,592,1066,3.872000,0
146.054720,534,593,1068,5.472000,0
146.060192,535,594,1070,7.072000,0
146.067264,536,595,1072,7.072000,0
146.074336,537,596,1074,3.872000,0
146.078208,538,597,1076,7.072000,0
146.085280,539,598,1078,6.368000,0
146.091648,540,599,1080,5.472000,0
146.097120,541,600,1082,0,1914.336000
148.011456,541,601,1082,3.872000,0
148.015328,542,602,1084,5.472000,0
148.020800,543,603,1086,7.072000,0
148.027872,544,604,1088,3.872000,0
148.031744,545,605,1090,3.872000,0
148.035616,546,606,1092,5.472000,0
148.041088,547,607,1094,6.368000,0
148.047456,548,608,1096,3.872000,0
148.051328,549,609,1098,3.872000,0
148.055200,550,610,1100,5.472000,0
148.060672,551,611,1102,0,1916.864000
149.977536,551,612,1102,6.368000,0
149.983904,552,613,1104,7.072000,0
149.990976,553,614,1106,3.872000,0
149.994848,554,615,1108,5.472000,0
150.000320,555,616,1110,6.368000,0
150.006688,556,617,1112,3.872000,0
150.010560,557,618,1114,3.872000,0
150.014432,558,619,1116,5.472000,0
150.019904,559,620,1118,7.072000,0
150.026976,560,621,1120,0,1916.640000
151.943616,560,622,1120,7.072000,0
151.950688,561,623,1122,6.368000,0
151.957056,562,624,1124,5.472000,0
151.962528,563,625,1126,6.368000,0
151.968896,564,626,1128,6.368000,0
151.975264,565,627,1130,3.872000,0
151.979136,566,628,1132,5.472000,0
151.984608,567,629,1134,6.368000,0
151.990976,568,630,1136,0,1918.720000
153.909696,568,631,1136,7.072000,0
153.916768,569,632,1138,3.872000,0
153.920640,570,633,1140,5.472000,0
153.926112,571,634,1142,7.072000,0
153.933184,572,635,1144,7.072000,0
153.940256,573,636,1146,3.872000,0
153.944128,574,637,1148,5.472000,0
153.949600,575,638,1150,7.072000,0
153.956672,576,639,1152,0,1919.104000
155.875776,576,640,1152,5.472000,0
155.881248,577,641,1154,3.872000,0
155.885120,578,642,1156,5.472000,0
155.890592,579,643,1158,3.872000,0
155.894464,580,644,1160,5.472000,0
155.899936,581,645,1162,3.872000,0
155.903808,582,646,1164,5.472000,0
155.909280,583,647,1166,5.472000,0
155.914752,584,648,1168,3.872000,0
155.918624,585,649,1170,3.872000,0
155.922496,586,650,1172,0,1919.360000
157.841856,586,651,1172,5.472000,0
157.847328,587,652,1174,3.872000,0
157.851200,588,653,1176,6.368000,0
157.857568,589,654,1178,3.872000,0
157.861440,590,655,1180,5.472000,0
157.866912,591,656,1182,3.872000,0
157.870784,592,657,1184,3.872000,0
157.874656,593,658,1186,3.872000,0
157.878528,594,659,1188,5.472000,0
157.884000,595,660,1190,7.072000,0
157.891072,596,661,1192,0,1916.864000
159.807936,596,662,1192,5.472000,0
159.813408,597,663,1194,3.872000,0
159.817280,598,664,1196,5.472000,0
159.822752,599,665,1198,6.368000,0
159.829120,600,666,1200,7.072000,0
159.836192,601,667,1202,3.872000,0
159.840064,602,668,1204,5.472000,0
159.845536,603,669,1206,5.472000,0
159.851008,604,670,1208,3.872000,0
159.854880,605,671,1210,3.872000,0
159.858752,606,672,1212,0,1915.264000
161.774016,606,673,1212,5.472000,0
161.779488,607,674,1214,6.368000,0
161.785856,608,675,1216,3.872000,0
161.789728,609,676,1218,3.872000,0
161.793600,610,677,1220,5.472000,0
161.799072,611,678,1222,7.072000,0
161.806144,612,679,1224,6.368000,0
161.812512,613,680,1226,6.368000,0
161.818880,614,681,1228,5.472000,0
161.824352,615,682,1230,0,1915.744000
163.740096,615,683,1230,6.368000,0
163.746464,616,684,1232,6.368000,0
163.752832,617,685,1234,6.368000,0
163.759200,618,686,1236,5.472000,0
163.764672,619,687,1238,6.368000,0
163.771040,620,688,1240,6.368000,0
163.777408,621,689,1242,6.368000,0
163.783776,622,690,1244,5.472000,0
163.789248,623,691,1246,0,1916.928000
165.706176,623,692,1246,6.368000,0
165.712544,624,693,1248,6.368000,0
165.718912,625,694,1250,3.872000,0
165.722784,626,695,1252,5.472000,0
165.728256,627,696,1254,5.472000,0
165.733728,628,697,1256,3.872000,0
165.737600,629,698,1258,3.872000,0
165.741472,630,699,1260,5.472000,0
165.746944,631,700,1262,7.072000,0
165.754016,632,701,1264,0,1918.240000
167.672256,632,702,1264,5.472000,0
167.677728,633,703,1266,3.872000,0
167.681600,634,704,1268,5.472000,0
167.687072,635,705,1270,3.872000,0
167.690944,636,706,1272,5.472000,0
167.696416,637,707,1274,3.872000,0
167.700288,638,708,1276,5.472000,0
167.705760,639,709,1278,7.072000,0
167.712832,640,710,1280,7.072000,0
167.719904,641,711,1282,3.872000,0
167.723776,642,712,1284,0,1914.560000
169.638336,642,713,1284,7.072000,0
169.645408,643,714,1286,6.368000,0
169.651776,644,715,1288,5.472000,0
169.657248,645,716,1290,3.872000,0
169.661120,646,717,1292,5.472000,0
169.666592,647,718,1294,7.072000,0
169.673664,648,719,1296,3.872000,0
169.677536,649,720,1298,3.872000,0
169.681408,650,721,1300,5.472000,0
169.686880,651,722,1302,0,1917.536000
171.604416,651,723,1302,6.368000,0
171.610784,652,724,1304,3.872000,0
171.614656,653,725,1306,3.872000,0
171.618528,654,726,1308,5.472000,0
171.624000,655,727,1310,6.368000,0
171.630368,656,728,1312,7.072000,0
171.637440,657,729,1314,3.872000,0
171.641312,658,730,1316,5.472000,0
171.646784,659,731,1318,6.368000,0
171.653152,660,732,1320,0,1917.344000
173.570496,660,733,1320,3.872000,0
173.574368,661,734,1322,3.872000,0
173.578240,662,735,1324,5.472000,0
173.583712,663,736,1326,7.072000,0
173.590784,664,737,1328,7.072000,0
173.597856,665,738,1330,6.368000,0
173.604224,666,739,1332,5.472000,0
173.609696,667,740,1334,6.368000,0
173.616064,668,741,1336,6.368000,0
173.622432,669,742,1338,0,1914.144000
175.536576,669,743,1338,3.872000,0
175.540448,670,744,1340,5.472000,0
175.545920,671,745,1342,6.368000,0
175.552288,672,746,1344,7.072000,0
175.559360,673,747,1346,3.872000,0
175.563232,674,748,1348,5.472000,0
175.568704,675,749,1350,7.072000,0
175.575776,676,750,1352,7.072000,0
175.582848,677,751,1354,3.872000,0
175.586720,678,752,1356,0,1915.936000
177.502656,678,753,1356,5.472000,0
177.508128,679,754,1358,7.072000,0
177.515200,680,755,1360,5.472000,0
177.520672,681,756,1362,3.872000,0
177.524544,682,757,1364,5.472000,0
177.530016,683,758,1366,3.872000,0
177.533888,684,759,1368,5.472000,0
177.539360,685,760,1370,3.872000,0
177.543232,686,761,1372,5.472000,0
177.548704,687,762,1374,5.472000,0
177.554176,688,763,1376,0,1914.560000
179.468736,688,764,1376,3.872000,0
179.472608,689,765,1378,3.872000,0
179.476480,690,766,1380,5.472000,0
179.481952,691,767,1382,3.872000,0
179.485824,692,768,1384,6.368000,0
179.492192,693,769,1386,3.872000,0
179.496064,694,770,1388,5.472000,0
179.501536,695,771,1390,3.872000,0
179.505408,696,772,1392,3.872000,0
179.509280,697,773,1394,3.872000,0
179.513152,698,774,1396,5.472000,0
179.518624,699,775,1398,0,1916.192000
181.434816,699,776,1398,7.072000,0
181.441888,700,777,1400,5.472000,0
181.447360,701,778,1402,3.872000,0
181.451232,702,779,1404,5.472000,0
181.456704,703,780,1406,6.368000,0
181.463072,704,781,1408,7.072000,0
181.470144,705,782,1410,3.872000,0
181.474016,706,783,1412,5.472000,0
181.479488,707,784,1414,5.472000,0
181.484960,708,785,1416,0,1915.936000
183.400896,708,786,1416,3.872000,0
183.404768,709,787,1418,3.872000,0
183.408640,710,788,1420,5.472000,0
183.414112,711,789,1422,6.368000,0
183.420480,712,790,1424,3.872000,0
183.424352,713,791,1426,3.872000,0
183.428224,714,792,1428,5.472000,0
183.433696,715,793,1430,7.072000,0
183.440768,716,794,1432,6.368000,0
183.447136,717,795,1434,0,1919.840000
185.366976,717,796,1434,6.368000,0
185.373344,718,797,1436,5.472000,0
185.378816,719,798,1438,6.368000,0
185.385184,720,799,1440,6.368000,0
185.391552,721,800,1442,6.368000,0
185.397920,722,801,1444,5.472000,0
185.403392,723,802,1446,6.368000,0
185.409760,724,803,1448,6.368000,0
185.416128,725,804,1450,0,1916.928000
187.333056,725,805,1450,6.368000,0
187.339424,726,806,1452,5.472000,0
187.344896,727,807,1454,6.368000,0
187.351264,728,808,1456,6.368000,0
187.357632,729,809,1458,3.872000,0
187.361504,730,810,1460,5.472000,0
187.366976,731,811,1462,5.472000,0
187.372448,732,812,1464,3.872000,0
187.376320,733,813,1466,3.872000,0
187.380192,734,814,1468,0,1918.944000
189.299136,734,815,1468,5.472000,0
189.304608,735,816,1470,7.072000,0
189.311680,736,817,1472,5.472000,0
189.317152,737,818,1474,3.872000,0
189.321024,738,819,1476,5.472000,0
189.326496,739,820,1478,3.872000,0
189.330368,740,821,1480,5.472000,0
189.335840,741,822,1482,3.872000,0
189.339712,742,823,1484,5.472000,0
189.345184,743,824,1486,0,1920.032000
191.265216,743,825,1486,7.072000,0
191.272288,744,826,1488,7.072000,0
191.279360,745,827,1490,3.872000,0
191.283232,746,828,1492,7.072000,0
191.290304,747,829,1494,6.368000,0
191.296672,748,830,1496,5.472000,0
191.302144,749,831,1498,3.872000,0
191.306016,750,832,1500,5.472000,0
191.311488,751,833,1502,0,1919.808000
193.231296,751,834,1502,7.072000,0
193.238368,752,835,1504,3.872000,0
193.242240,753,836,1506,3.872000,0
193.246112,754,837,1508,5.472000,0
193.251584,755,838,1510,6.368000,0
193.257952,756,839,1512,3.872000,0
193.261824,757,840,1514,3.872000,0
193.265696,758,841,1516,5.472000,0
193.271168,759,842,1518,6.368000,0
193.277536,760,843,1520,0,1919.840000
195.197376,760,844,1520,7.072000,0
195.204448,761,845,1522,3.872000,0
195.208320,762,846,1524,5.472000,0
195.213792,763,847,1526,6.368000,0
195.220160,764,848,1528,3.872000,0
195.224032,765,849,1530,3.872000,0
195.227904,766,850,1532,5.472000,0
195.233376,767,851,1534,7.072000,0
195.240448,768,852,1536,7.072000,0
195.247520,769,853,1538,0,1915.936000
197.163456,769,854,1538,6.368000,0
197.169824,770,855,1540,5.472000,0
197.175296,771,856,1542,6.368000,0
197.181664,772,857,1544,6.368000,0
197.188032,773,858,1546,3.872000,0
197.191904,774,859,1548,5.472000,0
197.197376,775,860,1550,6.368000,0
197.203744,776,861,1552,7.072000,0
197.210816,777,862,1554,3.872000,0
197.214688,778,863,1556,0,1914.848000
199.129536,778,864,1556,5.472000,0
199.135008,779,865,1558,7.072000,0
199.142080,780,866,1560,7.072000,0
199.149152,781,867,1562,3.872000,0
199.153024,782,868,1564,5.472000,0
199.158496,783,869,1566,7.072000,0
199.165568,784,870,1568,5.472000,0
199.171040,785,871,1570,3.872000,0
199.174912,786,872,1572,5.472000,0
199.180384,787,873,1574,0,1915.232000
201.095616,787,874,1574,3.872000,0
201.099488,788,875,1576,5.472000,0
201.104960,789,876,1578,3.872000,0
201.108832,790,877,1580,5.472000,0
201.114304,791,878,1582,5.472000,0
201.119776,792,879,1584,3.872000,0
201.123648,793,880,1586,3.872000,0
201.127520,794,881,1588,5.472000,0
201.132992,795,882,1590,3.872000,0
201.136864,796,883,1592,6.368000,0
201.143232,797,884,1594,3.872000,0
201.147104,798,885,1596,0,1914.592000
203.061696,798,886,1596,5.472000,0
203.067168,799,887,1598,3.872000,0
203.071040,800,888,1600,3.872000,0
203.074912,801,889,1602,3.872000,0
203.078784,802,890,1604,5.472000,0
203.084256,803,891,1606,7.072000,0
203.091328,804,892,1608,5.472000,0
203.096800,805,893,1610,3.872000,0
203.100672,806,894,1612,5.472000,0
203.106144,807,895,1614,6.368000,0
203.112512,808,896,1616,0,1915.264000
205.027776,808,897,1616,7.072000,0
205.034848,809,898,1618,3.872000,0
205.038720,810,899,1620,5.472000,0
205.044192,811,900,1622,5.472000,0
205.049664,812,901,1624,3.872000,0
205.053536,813,902,1626,3.872000,0
205.057408,814,903,1628,5.472000,0
205.062880,815,904,1630,6.368000,0
205.069248,816,905,1632,3.872000,0
205.073120,817,906,1634,3.872000,0
205.076992,818,907,1636,0,1916.864000
206.993856,818,908,1636,5.472000,0
206.999328,819,909,1638,7.072000,0
207.006400,820,910,1640,6.368000,0
207.012768,821,911,1642,6.368000,0
207.019136,822,912,1644,5.472000,0
207.024608,823,913,1646,6.368000,0
207.030976,824,914,1648,6.368000,0
207.037344,825,915,1650,6.368000,0
207.043712,826,916,1652,0,1916.224000
208.959936,826,917,1652,5.472000,0
208.965408,827,918,1654,6.368000,0
208.971776,828,919,1656,6.368000,0
208.978144,829,920,1658,6.368000,0
208.984512,830,921,1660,5.472000,0
208.989984,831,922,1662,6.368000,0
208.996352,832,923,1664,6.368000,0
209.002720,833,924,1666,3.872000,0
209.006592,834,925,1668,0,1919.424000
210.926016,834,926,1668,5.472000,0
210.931488,835,927,1670,5.472000,0
210.936960,836,928,1672,3.872000,0
210.940832,837,929,1674,3.872000,0
210.944704,838,930,1676,5.472000,0
210.950176,839,931,1678,7.072000,0
210.957248,840,932,1680,5.472000,0
210.962720,841,933,1682,3.872000,0
210.966592,842,934,1684,5.472000,0
210.972064,843,935,1686,3.872000,0
210.975936,844,936,1688,0,1916.160000
212.892096,844,937,1688,5.472000,0
212.897568,845,938,1690,3.872000,0
212.901440,846,939,1692,5.472000,0
212.906912,847,940,1694,7.072000,0
212.913984,848,941,1696,7.072000,0
212.921056,849,942,1698,3.872000,0
212.924928,850,943,1700,7.072000,0
212.932000,851,944,1702,6.368000,0
212.938368,852,945,1704,5.472000,0
212.943840,853,946,1706,0,1914.336000
214.858176,853,947,1706,3.872000,0
214.862048,854,948,1708,5.472000,0
214.867520,855,949,1710,7.072000,0
214.874592,856,950,1712,3.872000,0
214.878464,857,951,1714,3.872000,0
214.882336,858,952,1716,5.472000,0
214.887808,859,953,1718,6.368000,0
214.894176,860,954,1720,3.872000,0
214.898048,861,955,1722,3.872000,0
214.901920,862,956,1724,5.472000,0
214.907392,863,957,1726,0,1916.864000
216.824256,863,958,1726,6.368000,0
216.830624,864,959,1728,7.072000,0
216.837696,865,960,1730,3.872000,0
216.841568,866,961,1732,5.472000,0
216.847040,867,962,1734,6.368000,0
216.853408,868,963,1736,3.872000,0
216.857280,869,964,1738,3.872000,0
216.861152,870,965,1740,5.472000,0
216.866624,871,966,1742,7.072000,0
216.873696,872,967,1744,0,1916.640000
218.790336,872,968,1744,7.072000,0
218.797408,873,969,1746,6.368000,0
218.803776,874,970,1748,5.472000,0
218.809248,875,971,1750,6.368000,0
218.815616,876,972,1752,6.368000,0
218.821984,877,973,1754,3.872000,0
218.825856,878,974,1756,5.472000,0
218.831328,879,975,1758,6.368000,0
218.837696,880,976,1760,0,1918.720000
220.756416,880,977,1760,7.072000,0
220.763488,881,978,1762,3.872000,0
220.767360,882,979,1764,5.472000,0
220.772832,883,980,1766,7.072000,0
220.779904,884,981,1768,7.072000,0
220.786976,885,982,1770,3.872000,0
220.790848,886,983,1772,5.472000,0
220.796320,887,984,1774,7.072000,0
220.803392,888,985,1776,0,1919.104000
222.722496,888,986,1776,5.472000,0
222.727968,889,987,1778,3.872000,0
222.731840,890,988,1780,5.472000,0
222.737312,891,989,1782,3.872000,0
222.741184,892,990,1784,5.472000,0
222.746656,893,991,1786,3.872000,0
222.750528,894,992,1788,5.472000,0
222.756000,895,993,1790,5.472000,0
222.761472,896,994,1792,3.872000,0
222.765344,897,995,1794,3.872000,0
222.769216,898,996,1796,0,1919.360000
224.688576,898,997,1796,5.472000,0
224.694048,899,998,1798,3.872000,0
224.697920,900,999,1800,6.368000,0
224.704288,901,1000,1802,3.872000,0
224.708160,902,1001,1804,5.472000,0
224.713632,903,1002,1806,3.872000,0
224.717504,904,1003,1808,3.872000,0
224.721376,905,1004,1810,3.872000,0
224.725248,906,1005,1812,5.472000,0
224.730720,907,1006,1814,7.072000,0
224.737792,908,1007,1816,0,1916.864000
226.654656,908,1008,1816,5.472000,0
226.660128,909,1009,1818,3.872000,0
226.664000,910,1010,1820,5.472000,0
226.669472,911,1011,1822,6.368000,0
226.675840,912,1012,1824,7.072000,0
226.682912,913,1013,1826,3.872000,0
226.686784,914,1014,1828,5.472000,0
226.692256,915,1015,1830,5.472000,0
226.697728,916,1016,1832,3.872000,0
226.701600,917,1017,1834,3.872000,0
226.705472,918,1018,1836,0,1915.264000
228.620736,918,1019,1836,5.472000,0
228.626208,919,1020,1838,6.368000,0
228.632576,920,1021,1840,3.872000,0
228.636448,921,1022,1842,3.872000,0
228.640320,922,1023,1844,5.472000,0
228.645792,923,1024,1846,7.072000,0
228.652864,924,1025,1848,6.368000,0
228.659232,925,1026,1850,6.368000,0
228.665600,926,1027,1852,5.472000,0
228.671072,927,1028,1854,0,1915.744000
230.586816,927,1029,1854,6.368000,0
230.593184,928,1030,1856,6.368000,0
230.599552,929,1031,1858,6.368000,0
230.605920,930,1032,1860,5.472000,0
230.611392,931,1033,1862,6.368000,0
230.617760,932,1034,1864,6.368000,0
230.624128,933,1035,1866,6.368000,0
230.630496,934,1036,1868,5.472000,0
230.635968,935,1037,1870,