Time,CovertPackets,AllPackets,BitsSent,PacketInterval,GTSInterval
260.511248,1,2,8,171.168000,0
260.682416,2,3,16,179.168000,0
260.861584,3,4,24,166.368000,0
261.027952,4,5,32,0,30937.424000
291.965376,4,6,32,180.768000,0
292.146144,5,7,40,185.568000,0
292.331712,6,8,48,177.568000,0
292.509280,7,9,56,0,30913.376000
323.422656,7,10,56,158.368000,0
323.581024,8,11,64,161.568000,0
323.742592,9,12,72,158.368000,0
323.900960,10,13,80,0,30978.976000
354.879936,10,14,80,180.768000,0
355.060704,11,15,88,54.368000,0
355.115072,12,16,96,161.568000,0
355.276640,13,17,104,0,31060.576000
386.337216,13,18,104,180.768000,0
386.517984,14,19,112,179.168000,0
386.697152,15,20,120,166.368000,0
386.863520,16,21,128,0,30930.976000
417.794496,16,22,128,171.168000,0
417.965664,17,23,136,163.168000,0
418.128832,18,24,144,164.768000,0
418.293600,19,25,152,0,30958.176000
449.251776,19,26,152,179.168000,0
449.430944,20,27,160,161.568000,0
449.592512,21,28,168,171.168000,0
449.763680,22,29,176,