Time,CovertPackets,AllPackets,BitsSent,PacketInterval,GTSInterval
65.132048,1,2,0,7.968000,0
65.140016,2,3,0,22.368000,0
65.162384,3,4,0,22.368000,0
65.184752,4,5,1,20.768000,0
65.205520,5,6,1,14.368000,0
65.219888,6,7,1,22.368000,0
65.242256,7,8,1,17.568000,0
65.259824,8,9,2,22.368000,0
65.282192,9,10,2,7.968000,0
65.290160,10,11,2,15.968000,0
65.306128,11,12,2,7.968000,0
65.314096,12,13,3,15.968000,0
65.330064,13,14,3,20.768000,0
65.350832,14,15,3,0,7642.384000
72.993216,14,16,3,9.568000,0
73.002784,15,17,3,11.168000,0
73.013952,16,18,4,17.568000,0
73.031520,17,19,4,7.968000,0
73.039488,18,20,4,23.968000,0
73.063456,19,21,4,19.168000,0
73.082624,20,22,5,9.568000,0
73.092192,21,23,5,20.768000,0
73.112960,22,24,5,22.368000,0
73.135328,23,25,5,23.968000,0
73.159296,24,26,6,14.368000,0
73.173664,25,27,6,7.968000,0
73.181632,26,28,6,22.368000,0
73.204000,27,29,6,0,7653.536000
80.857536,27,30,6,19.168000,0
80.876704,28,31,7,7.968000,0
80.884672,29,32,7,20.768000,0
80.905440,30,33,7,9.568000,0
80.915008,31,34,7,6.368000,0
80.921376,32,35,8,23.968000,0
80.945344,33,36,8,20.768000,0
80.966112,34,37,8,15.968000,0
80.982080,35,38,8,19.168000,0
81.001248,36,39,9,14.368000,0
81.015616,37,40,9,14.368000,0
81.029984,38,41,9,22.368000,0
81.052352,39,42,9,17.568000,0
81.069920,40,43,10,0,7651.936000
88.721856,40,44,10,17.568000,0
88.739424,41,45,10,12.768000,0
88.752192,42,46,10,22.368000,0
88.774560,43,47,10,12.768000,0
88.787328,44,48,11,12.768000,0
88.800096,45,49,11,20.768000,0
88.820864,46,50,11,9.568000,0
88.830432,47,51,11,12.768000,0
88.843200,48,52,12,17.568000,0
88.860768,49,53,12,14.368000,0
88.875136,50,54,12,22.368000,0
88.897504,51,55,12,11.168000,0
88.908672,52,56,13,11.168000,0
88.919840,53,57,13,20.768000,0
88.940608,54,58,13,0,7645.568000
96.586176,54,59,13,22.368000,0
96.608544,55,60,13,23.968000,0
96.632512,56,61,14,15.968000,0
96.648480,57,62,14,20.768000,0
96.669248,58,63,14,22.368000,0
96.691616,59,64,14,20.768000,0
96.712384,60,65,15,15.968000,0
96.728352,61,66,15,20.768000,0
96.749120,62,67,15,9.568000,0
96.758688,63,68,15,9.568000,0
96.768256,64,69,16,20.768000,0
96.789024,65,70,16,0,7661.472000
104.450496,65,71,16,20.768000,0
104.471264,66,72,16,15.968000,0
104.487232,67,73,16,20.768000,0
104.508000,68,74,17,6.368000,0
104.514368,69,75,17,7.968000,0
104.522336,70,76,17,15.968000,0
104.538304,71,77,17,20.768000,0
104.559072,72,78,18,7.968000,0
104.567040,73,79,18,7.968000,0
104.575008,74,80,18,22.368000,0
104.597376,75,81,18,23.968000,0
104.621344,76,82,19,9.568000,0
104.630912,77,83,19,20.768000,0
104.651680,78,84,19,0,7663.136000
112.314816,78,85,19,9.568000,0
112.324384,79,86,19,12.768000,0
112.337152,80,87,20,17.568000,0
112.354720,81,88,20,7.968000,0
112.362688,82,89,20,15.968000,0
112.378656,83,90,20,15.968000,0
112.394624,84,91,21,7.968000,0
112.402592,85,92,21,20.768000,0
112.423360,86,93,21,15.968000,0
112.439328,87,94,21,12.768000,0
112.452096,88,95,22,20.768000,0
112.472864,89,96,22,14.368000,0
112.487232,90,97,22,9.568000,0
112.496800,91,98,22,11.168000,0
112.507968,92,99,23,6.368000,0
112.514336,93,100,23,12.768000,0
112.527104,94,101,23,0,7652.032000
120.179136,94,102,23,22.368000,0
120.201504,95,103,23,19.168000,0
120.220672,96,104,24,12.768000,0
120.233440,97,105,24,6.368000,0
120.239808,98,106,24,9.568000,0
120.249376,99,107,24,6.368000,0
120.255744,100,108,25,19.168000,0
120.274912,101,109,25,12.768000,0
120.287680,102,110,25,15.968000,0
120.303648,103,111,25,19.168000,0
120.322816,104,112,26,6.368000,0
120.329184,105,113,26,7.968000,0
120.337152,106,114,26,15.968000,0
120.353120,107,115,26,9.568000,0
120.362688,108,116,27,7.968000,0
120.370656,109,117,27,14.368000,0
120.385024,110,118,27,9.568000,0
120.394592,111,119,27,0,7648.864000
128.043456,111,120,27,23.968000,0
128.067424,112,121,28,22.368000,0
128.089792,113,122,28,7.968000,0
128.097760,114,123,28,15.968000,0
128.113728,115,124,28,20.768000,0
128.134496,116,125,29,22.368000,0
128.156864,117,126,29,7.968000,0
128.164832,118,127,29,15.968000,0
128.180800,119,128,29,11.168000,0
128.191968,120,129,30,17.568000,0
128.209536,121,130,30,14.368000,0
128.223904,122,131,30,11.168000,0
128.235072,123,132,30,19.168000,0
128.254240,124,133,31,0,7653.536000
135.907776,124,134,31,22.368000,0
135.930144,125,135,31,20.768000,0
135.950912,126,136,31,9.568000,0
135.960480,127,137,31,23.968000,0
135.984448,128,138,32,7.968000,0
135.992416,129,139,32,14.368000,0
136.006784,130,140,32,9.568000,0
136.016352,131,141,32,12.768000,0
136.029120,132,142,33,20.768000,0
136.049888,133,143,33,14.368000,0
136.064256,134,144,33,9.568000,0
136.073824,135,145,33,6.368000,0
136.080192,136,146,34,11.168000,0
136.091360,137,147,34,7.968000,0
136.099328,138,148,34,22.368000,0
136.121696,139,149,34,6.368000,0
136.128064,140,150,35,0,7644.032000
143.772096,140,151,35,7.968000,0
143.780064,141,152,35,7.968000,0
143.788032,142,153,35,15.968000,0
143.804000,143,154,35,23.968000,0
143.827968,144,155,36,17.568000,0
143.845536,145,156,36,19.168000,0
143.864704,146,157,36,22.368000,0
143.887072,147,158,36,6.368000,0
143.893440,148,159,37,19.168000,0
143.912608,149,160,37,14.368000,0
143.926976,150,161,37,15.968000,0
143.942944,151,162,37,6.368000,0
143.949312,152,163,38,23.968000,0
143.973280,153,164,38,7.968000,0
143.981248,154,165,38,0,7655.168000
151.636416,154,166,38,15.968000,0
151.652384,155,167,38,23.968000,0
151.676352,156,168,39,23.968000,0
151.700320,157,169,39,20.768000,0
151.721088,158,170,39,9.568000,0
151.730656,159,171,39,23.968000,0
151.754624,160,172,40,9.568000,0
151.764192,161,173,40,20.768000,0
151.784960,162,174,40,9.568000,0
151.794528,163,175,40,7.968000,0
151.802496,164,176,41,9.568000,0
151.812064,165,177,41,14.368000,0
151.826432,166,178,41,22.368000,0
151.848800,167,179,41,9.568000,0
151.858368,168,180,42,0,7642.368000
159.500736,168,181,42,7.968000,0
159.508704,169,182,42,7.968000,0
159.516672,170,183,42,22.368000,0
159.539040,171,184,42,20.768000,0
159.559808,172,185,43,12.768000,0
159.572576,173,186,43,14.368000,0
159.586944,174,187,43,9.568000,0
159.596512,175,188,43,7.968000,0
159.604480,176,189,44,7.968000,0
159.612448,177,190,44,14.368000,0
159.626816,178,191,44,22.368000,0
159.649184,179,192,44,23.968000,0
159.673152,180,193,45,9.568000,0
159.682720,181,194,45,20.768000,0
159.703488,182,195,45,15.968000,0
159.719456,183,196,45,0,7645.600000
167.365056,183,197,45,12.768000,0
167.377824,184,198,46,23.968000,0
167.401792,185,199,46,14.368000,0
167.416160,186,200,46,9.568000,0
167.425728,187,201,46,22.368000,0
167.448096,188,202,47,7.968000,0
167.456064,189,203,47,7.968000,0
167.464032,190,204,47,9.568000,0
167.473600,191,205,47,6.368000,0
167.479968,192,206,48,20.768000,0
167.500736,193,207,48,20.768000,0
167.521504,194,208,48,9.568000,0
167.531072,195,209,48,17.568000,0
167.548640,196,210,49,12.768000,0
167.561408,197,211,49,12.768000,0
167.574176,198,212,49,9.568000,0
167.583744,199,213,49,0,7645.632000
175.229376,199,214,49,6.368000,0
175.235744,200,215,50,6.368000,0
175.242112,201,216,50,19.168000,0
175.261280,202,217,50,15.968000,0
175.277248,203,218,50,12.768000,0
175.290016,204,219,51,6.368000,0
175.296384,205,220,51,19.168000,0
175.315552,206,221,51,22.368000,0
175.337920,207,222,51,12.768000,0
175.350688,208,223,52,19.168000,0
175.369856,209,224,52,14.368000,0
175.384224,210,225,52,22.368000,0
175.406592,211,226,52,15.968000,0
175.422560,212,227,53,14.368000,0
175.436928,213,228,53,14.368000,0
175.451296,214,229,53,0,7642.400000
183.093696,214,230,53,15.968000,0
183.109664,215,231,53,23.968000,0
183.133632,216,232,54,22.368000,0
183.156000,217,233,54,14.368000,0
183.170368,218,234,54,9.568000,0
183.179936,219,235,54,7.968000,0
183.187904,220,236,55,22.368000,0
183.210272,221,237,55,20.768000,0
183.231040,222,238,55,22.368000,0
183.253408,223,239,55,11.168000,0
183.264576,224,240,56,11.168000,0
183.275744,225,241,56,20.768000,0
183.296512,226,242,56,11.168000,0
183.307680,227,243,56,0,7650.336000
190.958016,227,244,56,12.768000,0
190.970784,228,245,57,9.568000,0
190.980352,229,246,57,7.968000,0
190.988320,230,247,57,22.368000,0
191.010688,231,248,57,17.568000,0
191.028256,232,249,58,7.968000,0
191.036224,233,250,58,20.768000,0
191.056992,234,251,58,22.368000,0
191.079360,235,252,58,19.168000,0
191.098528,236,253,59,7.968000,0
191.106496,237,254,59,14.368000,0
191.120864,238,255,59,9.568000,0
191.130432,239,256,59,19.168000,0
191.149600,240,257,60,17.568000,0
191.167168,241,258,60,7.968000,0
191.175136,242,259,60,0,7647.200000
198.822336,242,260,60,22.368000,0
198.844704,243,261,60,6.368000,0
198.851072,244,262,61,20.768000,0
198.871840,245,263,61,7.968000,0
198.879808,246,264,61,9.568000,0
198.889376,247,265,61,23.968000,0
198.913344,248,266,62,11.168000,0
198.924512,249,267,62,6.368000,0
198.930880,250,268,62,15.968000,0
198.946848,251,269,62,19.168000,0
198.966016,252,270,63,12.768000,0
198.978784,253,271,63,14.368000,0
198.993152,254,272,63,15.968000,0
199.009120,255,273,63,12.768000,0
199.021888,256,274,64,11.168000,0
199.033056,257,275,64,0,7653.600000
206.686656,257,276,64,20.768000,0
206.707424,258,277,64,9.568000,0
206.716992,259,278,64,17.568000,0
206.734560,260,279,65,23.968000,0
206.758528,261,280,65,20.768000,0
206.779296,262,281,65,15.968000,0
206.795264,263,282,65,11.168000,0
206.806432,264,283,66,9.568000,0
206.816000,265,284,66,14.368000,0
206.830368,266,285,66,22.368000,0
206.852736,267,286,66,7.968000,0
206.860704,268,287,67,22.368000,0
206.883072,269,288,67,7.968000,0
206.891040,270,289,67,9.568000,0
206.900608,271,290,67,0,7650.368000
214.550976,271,291,67,22.368000,0
214.573344,272,292,68,20.768000,0
214.594112,273,293,68,14.368000,0
214.608480,274,294,68,22.368000,0
214.630848,275,295,68,20.768000,0
214.651616,276,296,69,6.368000,0
214.657984,277,297,69,7.968000,0
214.665952,278,298,69,9.568000,0
214.675520,279,299,69,14.368000,0
214.689888,280,300,70,7.968000,0
214.697856,281,301,70,7.968000,0
214.705824,282,302,70,9.568000,0
214.715392,283,303,70,23.968000,0
214.739360,284,304,71,9.568000,0
214.748928,285,305,71,14.368000,0
214.763296,286,306,71,0,7652.000000
222.415296,286,307,71,9.568000,0
222.424864,287,308,71,12.768000,0
222.437632,288,309,72,11.168000,0
222.448800,289,310,72,20.768000,0
222.469568,290,311,72,22.368000,0
222.491936,291,312,72,22.368000,0
222.514304,292,313,73,7.968000,0
222.522272,293,314,73,20.768000,0
222.543040,294,315,73,22.368000,0
222.565408,295,316,73,19.168000,0
222.584576,296,317,74,14.368000,0
222.598944,297,318,74,20.768000,0
222.619712,298,319,74,9.568000,0
222.629280,299,320,74,0,7650.336000
230.279616,299,321,74,11.168000,0
230.290784,300,322,75,12.768000,0
230.303552,301,323,75,6.368000,0
230.309920,302,324,75,15.968000,0
230.325888,303,325,75,12.768000,0
230.338656,304,326,76,12.768000,0
230.351424,305,327,76,19.168000,0
230.370592,306,328,76,15.968000,0
230.386560,307,329,76,6.368000,0
230.392928,308,330,77,12.768000,0
230.405696,309,331,77,6.368000,0
230.412064,310,332,77,9.568000,0
230.421632,311,333,77,6.368000,0
230.428000,312,334,78,6.368000,0
230.434368,313,335,78,14.368000,0
230.448736,314,336,78,15.968000,0
230.464704,315,337,78,15.968000,0
230.480672,316,338,79,7.968000,0
230.488640,317,339,79,14.368000,0
230.503008,318,340,79,0,7640.928000
238.143936,318,341,79,9.568000,0
238.153504,319,342,79,11.168000,0
238.164672,320,343,80,22.368000,0
238.187040,321,344,80,20.768000,0
238.207808,322,345,80,15.968000,0
238.223776,323,346,80,14.368000,0
238.238144,324,347,81,9.568000,0
238.247712,325,348,81,20.768000,0
238.268480,326,349,81,9.568000,0
238.278048,327,350,81,17.568000,0
238.295616,328,351,82,23.968000,0
238.319584,329,352,82,14.368000,0
238.333952,330,353,82,17.568000,0
238.351520,331,354,82,12.768000,0
238.364288,332,355,83,0,7643.968000
246.008256,332,356,83,15.968000,0
246.024224,333,357,83,7.968000,0
246.032192,334,358,83,15.968000,0
246.048160,335,359,83,11.168000,0
246.059328,336,360,84,20.768000,0
246.080096,337,361,84,7.968000,0
246.088064,338,362,84,9.568000,0
246.097632,339,363,84,6.368000,0
246.104000,340,364,85,20.768000,0
246.124768,341,365,85,7.968000,0
246.132736,342,366,85,9.568000,0
246.142304,343,367,85,12.768000,0
246.155072,344,368,86,23.968000,0
246.179040,345,369,86,20.768000,0
246.199808,346,370,86,22.368000,0
246.222176,347,371,86,6.368000,0
246.228544,348,372,87,0,7644.032000
253.872576,348,373,87,7.968000,0
253.880544,349,374,87,20.768000,0
253.901312,350,375,87,15.968000,0
253.917280,351,376,87,23.968000,0
253.941248,352,377,88,11.168000,0
253.952416,353,378,88,12.768000,0
253.965184,354,379,88,22.368000,0
253.987552,355,380,88,6.368000,0
253.993920,356,381,89,12.768000,0
254.006688,357,382,89,14.368000,0
254.021056,358,383,89,15.968000,0
254.037024,359,384,89,19.168000,0
254.056192,360,385,90,11.168000,0
254.067360,361,386,90,14.368000,0
254.081728,362,387,90,0,7655.168000
261.736896,362,388,90,22.368000,0
261.759264,363,389,90,11.168000,0
261.770432,364,390,91,17.568000,0
261.788000,365,391,91,7.968000,0
261.795968,366,392,91,15.968000,0
261.811936,367,393,91,23.968000,0
261.835904,368,394,92,9.568000,0
261.845472,369,395,92,7.968000,0
261.853440,370,396,92,22.368000,0
261.875808,371,397,92,20.768000,0
261.896576,372,398,93,9.568000,0
261.906144,373,399,93,14.368000,0
261.920512,374,400,93,22.368000,0
261.942880,375,401,93,9.568000,0
261.952448,376,402,94,7.968000,0
261.960416,377,403,94,0,7640.800000
269.601216,377,404,94,7.968000,0
269.609184,378,405,94,15.968000,0
269.625152,379,406,94,14.368000,0
269.639520,380,407,95,6.368000,0
269.645888,381,408,95,7.968000,0
269.653856,382,409,95,15.968000,0
269.669824,383,410,95,7.968000,0
269.677792,384,411,96,7.968000,0
269.685760,385,412,96,20.768000,0
269.706528,386,413,96,9.568000,0
269.716096,387,414,96,17.568000,0
269.733664,388,415,97,15.968000,0
269.749632,389,416,97,14.368000,0
269.764000,390,417,97,9.568000,0
269.773568,391,418,97,12.768000,0
269.786336,392,419,98,23.968000,0
269.810304,393,420,98,7.968000,0
269.818272,394,421,98,