Time,CovertPackets,AllPackets,BitsSent,PacketInterval,GTSInterval
32.568848,1,2,0,3.136000,0
32.571984,2,3,0,4.768000,0
32.576752,3,4,0,4.768000,0
32.581520,4,5,0,3.136000,0
32.584656,5,6,0,4.768000,0
32.589424,6,7,0,3.136000,0
32.592560,7,8,0,3.136000,0
32.595696,8,9,1,4.768000,0
32.600464,9,10,1,3.136000,0
32.603600,10,11,1,0,3894.256000
36.497856,10,12,1,4.768000,0
36.502624,11,13,1,4.768000,0
36.507392,12,14,1,3.136000,0
36.510528,13,15,1,4.768000,0
36.515296,14,16,1,4.768000,0
36.520064,15,17,1,4.768000,0
36.524832,16,18,2,3.136000,0
36.527968,17,19,2,3.136000,0
36.531104,18,20,2,4.768000,0
36.535872,19,21,2,4.768000,0
36.540640,20,22,2,3.136000,0
36.543776,21,23,2,3.136000,0
36.546912,22,24,2,4.768000,0
36.551680,23,25,2,4.768000,0
36.556448,24,26,3,3.136000,0
36.559584,25,27,3,3.136000,0
36.562720,26,28,3,4.768000,0
36.567488,27,29,3,4.768000,0
36.572256,28,30,3,3.136000,0
36.575392,29,31,3,4.768000,0
36.580160,30,32,3,4.768000,0
36.584928,31,33,3,4.768000,0
36.589696,32,34,4,0,3840.320000
40.430016,32,35,4,4.768000,0
40.434784,33,36,4,3.136000,0
40.437920,34,37,4,4.768000,0
40.442688,35,38,4,4.768000,0
40.447456,36,39,4,4.768000,0
40.452224,37,40,4,3.136000,0
40.455360,38,41,4,3.136000,0
40.458496,39,42,4,4.768000,0
40.463264,40,43,5,3.136000,0
40.466400,41,44,5,3.136000,0
40.469536,42,45,5,4.768000,0
40.474304,43,46,5,4.768000,0
40.479072,44,47,5,3.136000,0
40.482208,45,48,5,4.768000,0
40.486976,46,49,5,4.768000,0
40.491744,47,50,5,3.136000,0
40.494880,48,51,6,4.768000,0
40.499648,49,52,6,3.136000,0
40.502784,50,53,6,4.768000,0
40.507552,51,54,6,4.768000,0
40.512320,52,55,6,3.136000,0
40.515456,53,56,6,0,3846.720000
44.362176,53,57,6,3.136000,0
44.365312,54,58,6,3.136000,0
44.368448,55,59,6,3.136000,0
44.371584,56,60,7,4.768000,0
44.376352,57,61,7,3.136000,0
44.379488,58,62,7,4.768000,0
44.384256,59,63,7,4.768000,0
44.389024,60,64,7,3.136000,0
44.392160,61,65,7,3.136000,0
44.395296,62,66,7,3.136000,0
44.398432,63,67,7,4.768000,0
44.403200,64,68,8,4.768000,0
44.407968,65,69,8,3.136000,0
44.411104,66,70,8,4.768000,0
44.415872,67,71,8,4.768000,0
44.420640,68,72,8,3.136000,0
44.423776,69,73,8,3.136000,0
44.426912,70,74,8,3.136000,0
44.430048,71,75,8,3.136000,0
44.433184,72,76,9,4.768000,0
44.437952,73,77,9,3.136000,0
44.441088,74,78,9,4.768000,0
44.445856,75,79,9,4.768000,0
44.450624,76,80,9,0,3843.712000
48.294336,76,81,9,3.136000,0
48.297472,77,82,9,4.768000,0
48.302240,78,83,9,4.768000,0
48.307008,79,84,9,4.768000,0
48.311776,80,85,10,4.768000,0
48.316544,81,86,10,3.136000,0
48.319680,82,87,10,3.136000,0
48.322816,83,88,10,4.768000,0
48.327584,84,89,10,3.136000,0
48.330720,85,90,10,3.136000,0
48.333856,86,91,10,3.136000,0
48.336992,87,92,10,3.136000,0
48.340128,88,93,11,3.136000,0
48.343264,89,94,11,3.136000,0
48.346400,90,95,11,4.768000,0
48.351168,91,96,11,4.768000,0
48.355936,92,97,11,3.136000,0
48.359072,93,98,11,3.136000,0
48.362208,94,99,11,3.136000,0
48.365344,95,100,11,4.768000,0
48.370112,96,101,12,4.768000,0
48.374880,97,102,12,0,3851.616000
52.226496,97,103,12,3.136000,0
52.229632,98,104,12,4.768000,0
52.234400,99,105,12,4.768000,0
52.239168,100,106,12,3.136000,0
52.242304,101,107,12,4.768000,0
52.247072,102,108,12,4.768000,0
52.251840,103,109,12,4.768000,0
52.256608,104,110,13,4.768000,0
52.261376,105,111,13,3.136000,0
52.264512,106,112,13,4.768000,0
52.269280,107,113,13,4.768000,0
52.274048,108,114,13,3.136000,0
52.277184,109,115,13,4.768000,0
52.281952,110,116,13,4.768000,0
52.286720,111,117,13,4.768000,0
52.291488,112,118,14,3.136000,0
52.294624,113,119,14,3.136000,0
52.297760,114,120,14,4.768000,0
52.302528,115,121,14,4.768000,0
52.307296,116,122,14,3.136000,0
52.310432,117,123,14,3.136000,0
52.313568,118,124,14,4.768000,0
52.318336,119,125,14,0,3840.320000
56.158656,119,126,14,4.768000,0
56.163424,120,127,15,3.136000,0
56.166560,121,128,15,3.136000,0
56.169696,122,129,15,4.768000,0
56.174464,123,130,15,4.768000,0
56.179232,124,131,15,3.136000,0
56.182368,125,132,15,4.768000,0
56.187136,126,133,15,3.136000,0
56.190272,127,134,15,3.136000,0
56.193408,128,135,16,4.768000,0
56.198176,129,136,16,3.136000,0
56.201312,130,137,16,4.768000,0
56.206080,131,138,16,4.768000,0
56.210848,132,139,16,3.136000,0
56.213984,133,140,16,3.136000,0
56.217120,134,141,16,4.768000,0
56.221888,135,142,16,3.136000,0
56.225024,136,143,17,3.136000,0
56.228160,137,144,17,3.136000,0
56.231296,138,145,17,4.768000,0
56.236064,139,146,17,4.768000,0
56.240832,140,147,17,0,3849.984000
60.090816,140,148,17,3.136000,0
60.093952,141,149,17,3.136000,0
60.097088,142,150,17,4.768000,0
60.101856,143,151,17,3.136000,0
60.104992,144,152,18,4.768000,0
60.109760,145,153,18,3.136000,0
60.112896,146,154,18,4.768000,0
60.117664,147,155,18,4.768000,0
60.122432,148,156,18,3.136000,0
60.125568,149,157,18,4.768000,0
60.130336,150,158,18,4.768000,0
60.135104,151,159,18,4.768000,0
60.139872,152,160,19,3.136000,0
60.143008,153,161,19,3.136000,0
60.146144,154,162,19,4.768000,0
60.150912,155,163,19,4.768000,0
60.155680,156,164,19,3.136000,0
60.158816,157,165,19,3.136000,0
60.161952,158,166,19,3.136000,0
60.165088,159,167,19,4.768000,0
60.169856,160,168,20,4.768000,0
60.174624,161,169,20,0,3848.352000
64.022976,161,170,20,3.136000,0
64.026112,162,171,20,4.768000,0
64.030880,163,172,20,4.768000,0
64.035648,164,173,20,3.136000,0
64.038784,165,174,20,4.768000,0
64.043552,166,175,20,3.136000,0
64.046688,167,176,20,3.136000,0
64.049824,168,177,21,4.768000,0
64.054592,169,178,21,3.136000,0
64.057728,170,179,21,4.768000,0
64.062496,171,180,21,4.768000,0
64.067264,172,181,21,3.136000,0
64.070400,173,182,21,3.136000,0
64.073536,174,183,21,3.136000,0
64.076672,175,184,21,3.136000,0
64.079808,176,185,22,4.768000,0
64.084576,177,186,22,3.136000,0
64.087712,178,187,22,4.768000,0
64.092480,179,188,22,4.768000,0
64.097248,180,189,22,3.136000,0
64.100384,181,190,22,4.768000,0
64.105152,182,191,22,4.768000,0
64.109920,183,192,22,0,3845.216000
67.955136,183,193,22,3.136000,0
67.958272,184,194,23,3.136000,0
67.961408,185,195,23,3.136000,0
67.964544,186,196,23,3.136000,0
67.967680,187,197,23,4.768000,0
67.972448,188,198,23,3.136000,0
67.975584,189,199,23,3.136000,0
67.978720,190,200,23,3.136000,0
67.981856,191,201,23,3.136000,0
67.984992,192,202,24,3.136000,0
67.988128,193,203,24,3.136000,0
67.991264,194,204,24,3.136000,0
67.994400,195,205,24,4.768000,0
67.999168,196,206,24,3.136000,0
68.002304,197,207,24,3.136000,0
68.005440,198,208,24,3.136000,0
68.008576,199,209,24,3.136000,0
68.011712,200,210,25,3.136000,0
68.014848,201,211,25,3.136000,0
68.017984,202,212,25,3.136000,0
68.021120,203,213,25,4.768000,0
68.025888,204,214,25,0,3861.408000
71.887296,204,215,25,3.136000,0
71.890432,205,216,25,3.136000,0
71.893568,206,217,25,3.136000,0
71.896704,207,218,25,3.136000,0
71.899840,208,219,26,3.136000,0
71.902976,209,220,26,3.136000,0
71.906112,210,221,26,4.768000,0
71.910880,211,222,26,4.768000,0
71.915648,212,223,26,3.136000,0
71.918784,213,224,26,4.768000,0
71.923552,214,225,26,3.136000,0
71.926688,215,226,26,3.136000,0
71.929824,216,227,27,4.768000,0
71.934592,217,228,27,3.136000,0
71.937728,218,229,27,4.768000,0
71.942496,219,230,27,4.768000,0
71.947264,220,231,27,3.136000,0
71.950400,221,232,27,4.768000,0
71.955168,222,233,27,4.768000,0
71.959936,223,234,27,4.768000,0
71.964704,224,235,28,3.136000,0
71.967840,225,236,28,3.136000,0
71.970976,226,237,28,0,3848.480000
75.819456,226,238,28,4.768000,0
75.824224,227,239,28,4.768000,0
75.828992,228,240,28,3.136000,0
75.832128,229,241,28,3.136000,0
75.835264,230,242,28,4.768000,0
75.840032,231,243,28,4.768000,0
75.844800,232,244,29,3.136000,0
75.847936,233,245,29,3.136000,0
75.851072,234,246,29,4.768000,0
75.855840,235,247,29,4.768000,0
75.860608,236,248,29,3.136000,0
75.863744,237,249,29,4.768000,0
75.868512,238,250,29,4.768000,0
75.873280,239,251,29,4.768000,0
75.878048,240,252,30,4.768000,0
75.882816,241,253,30,3.136000,0
75.885952,242,254,30,4.768000,0
75.890720,243,255,30,4.768000,0
75.895488,244,256,30,4.768000,0
75.900256,245,257,30,3.136000,0
75.903392,246,258,30,3.136000,0
75.906528,247,259,30,4.768000,0
75.911296,248,260,31,0,3840.320000
79.751616,248,261,31,3.136000,0
79.754752,249,262,31,3.136000,0
79.757888,250,263,31,4.768000,0
79.762656,251,264,31,4.768000,0
79.767424,252,265,31,3.136000,0
79.770560,253,266,31,4.768000,0
79.775328,254,267,31,4.768000,0
79.780096,255,268,31,3.136000,0
79.783232,256,269,32,4.768000,0
79.788000,257,270,32,3.136000,0
79.791136,258,271,32,4.768000,0
79.795904,259,272,32,4.768000,0
79.800672,260,273,32,3.136000,0
79.803808,261,274,32,3.136000,0
79.806944,262,275,32,3.136000,0
79.810080,263,276,32,3.136000,0
79.813216,264,277,33,4.768000,0
79.817984,265,278,33,3.136000,0
79.821120,266,279,33,4.768000,0
79.825888,267,280,33,4.768000,0
79.830656,268,281,33,3.136000,0
79.833792,269,282,33,3.136000,0
79.836928,270,283,33,3.136000,0
79.840064,271,284,33,0,3843.712000
83.683776,271,285,33,4.768000,0
83.688544,272,286,34,4.768000,0
83.693312,273,287,34,3.136000,0
83.696448,274,288,34,4.768000,0
83.701216,275,289,34,4.768000,0
83.705984,276,290,34,3.136000,0
83.709120,277,291,34,3.136000,0
83.712256,278,292,34,3.136000,0
83.715392,279,293,34,3.136000,0
83.718528,280,294,35,4.768000,0
83.723296,281,295,35,3.136000,0
83.726432,282,296,35,4.768000,0
83.731200,283,297,35,4.768000,0
83.735968,284,298,35,3.136000,0
83.739104,285,299,35,4.768000,0
83.743872,286,300,35,4.768000,0
83.748640,287,301,35,4.768000,0
83.753408,288,302,36,4.768000,0
83.758176,289,303,36,3.136000,0
83.761312,290,304,36,3.136000,0
83.764448,291,305,36,4.768000,0
83.769216,292,306,36,3.136000,0
83.772352,293,307,36,3.136000,0
83.775488,294,308,36,0,3840.448000
87.615936,294,309,36,3.136000,0
87.619072,295,310,36,3.136000,0
87.622208,296,311,37,3.136000,0
87.625344,297,312,37,3.136000,0
87.628480,298,313,37,4.768000,0
87.633248,299,314,37,4.768000,0
87.638016,300,315,37,3.136000,0
87.641152,301,316,37,3.136000,0
87.644288,302,317,37,3.136000,0
87.647424,303,318,37,4.768000,0
87.652192,304,319,38,4.768000,0
87.656960,305,320,38,3.136000,0
87.660096,306,321,38,4.768000,0
87.664864,307,322,38,4.768000,0
87.669632,308,323,38,3.136000,0
87.672768,309,324,38,4.768000,0
87.677536,310,325,38,4.768000,0
87.682304,311,326,38,4.768000,0
87.687072,312,327,39,4.768000,0
87.691840,313,328,39,3.136000,0
87.694976,314,329,39,4.768000,0
87.699744,315,330,39,0,3848.352000
91.548096,315,331,39,4.768000,0
91.552864,316,332,39,3.136000,0
91.556000,317,333,39,4.768000,0
91.560768,318,334,39,4.768000,0
91.565536,319,335,39,4.768000,0
91.570304,320,336,40,3.136000,0
91.573440,321,337,40,3.136000,0
91.576576,322,338,40,4.768000,0
91.581344,323,339,40,4.768000,0
91.586112,324,340,40,3.136000,0
91.589248,325,341,40,3.136000,0
91.592384,326,342,40,4.768000,0
91.597152,327,343,40,4.768000,0
91.601920,328,344,41,3.136000,0
91.605056,329,345,41,3.136000,0
91.608192,330,346,41,4.768000,0
91.612960,331,347,41,4.768000,0
91.617728,332,348,41,3.136000,0
91.620864,333,349,41,4.768000,0
91.625632,334,350,41,3.136000,0
91.628768,335,351,41,3.136000,0
91.631904,336,352,42,0,3848.352000
95.480256,336,353,42,4.768000,0
95.485024,337,354,42,3.136000,0
95.488160,338,355,42,4.768000,0
95.492928,339,356,42,4.768000,0
95.497696,340,357,42,3.136000,0
95.500832,341,358,42,3.136000,0
95.503968,342,359,42,4.768000,0
95.508736,343,360,42,3.136000,0
95.511872,344,361,43,3.136000,0
95.515008,345,362,43,3.136000,0
95.518144,346,363,43,4.768000,0
95.522912,347,364,43,4.768000,0
95.527680,348,365,43,3.136000,0
95.530816,349,366,43,3.136000,0
95.533952,350,367,43,4.768000,0
95.538720,351,368,43,3.136000,0
95.541856,352,369,44,4.768000,0
95.546624,353,370,44,3.136000,0
95.549760,354,371,44,4.768000,0
95.554528,355,372,44,4.768000,0
95.559296,356,373,44,3.136000,0
95.562432,357,374,44,4.768000,0
95.567200,358,375,44,0,3845.216000
99.412416,358,376,44,4.768000,0
99.417184,359,377,44,4.768000,0
99.421952,360,378,45,3.136000,0
99.425088,361,379,45,3.136000,0
99.428224,362,380,45,4.768000,0
99.432992,363,381,45,4.768000,0
99.437760,364,382,45,3.136000,0
99.440896,365,383,45,3.136000,0
99.444032,366,384,45,3.136000,0
99.447168,367,385,45,4.768000,0
99.451936,368,386,46,4.768000,0
99.456704,369,387,46,3.136000,0
99.459840,370,388,46,4.768000,0
99.464608,371,389,46,4.768000,0
99.469376,372,390,46,3.136000,0
99.472512,373,391,46,4.768000,0
99.477280,374,392,46,3.136000,0
99.480416,375,393,46,3.136000,0
99.483552,376,394,47,4.768000,0
99.488320,377,395,47,3.136000,0
99.491456,378,396,47,4.768000,0
99.496224,379,397,47,0,3848.352000
103.344576,379,398,47,4.768000,0
103.349344,380,399,47,3.136000,0
103.352480,381,400,47,3.136000,0
103.355616,382,401,47,3.136000,0
103.358752,383,402,47,3.136000,0
103.361888,384,403,48,4.768000,0
103.366656,385,404,48,3.136000,0
103.369792,386,405,48,4.768000,0
103.374560,387,406,48,4.768000,0
103.379328,388,407,48,3.136000,0
103.382464,389,408,48,4.768000,0
103.387232,390,409,48,4.768000,0
103.392000,391,410,48,3.136000,0
103.395136,392,411,49,3.136000,0
103.398272,393,412,49,3.136000,0
103.401408,394,413,49,3.136000,0
103.404544,395,414,49,4.768000,0
103.409312,396,415,49,3.136000,0
103.412448,397,416,49,3.136000,0
103.415584,398,417,49,3.136000,0
103.418720,399,418,49,3.136000,0
103.421856,400,419,50,3.136000,0
103.424992,401,420,50,0,3851.744000
107.276736,401,421,50,3.136000,0
107.279872,402,422,50,3.136000,0
107.283008,403,423,50,4.768000,0
107.287776,404,424,50,3.136000,0
107.290912,405,425,50,3.136000,0
107.294048,406,426,50,3.136000,0
107.297184,407,427,50,3.136000,0
107.300320,408,428,51,3.136000,0
107.303456,409,429,51,3.136000,0
107.306592,410,430,51,3.136000,0
107.309728,411,431,51,4.768000,0
107.314496,412,432,51,3.136000,0
107.317632,413,433,51,3.136000,0
107.320768,414,434,51,3.136000,0
107.323904,415,435,51,3.136000,0
107.327040,416,436,52,3.136000,0
107.330176,417,437,52,3.136000,0
107.333312,418,438,52,4.768000,0
107.338080,419,439,52,4.768000,0
107.342848,420,440,52,3.136000,0
107.345984,421,441,52,4.768000,0
107.350752,422,442,52,3.136000,0
107.353888,423,443,52,0,3855.008000
111.208896,423,444,52,3.136000,0
111.212032,424,445,53,4.768000,0
111.216800,425,446,53,3.136000,0
111.219936,426,447,53,4.768000,0
111.224704,427,448,53,4.768000,0
111.229472,428,449,53,3.136000,0
111.232608,429,450,53,4.768000,0
111.237376,430,451,53,4.768000,0
111.242144,431,452,53,4.768000,0
111.246912,432,453,54,3.136000,0
111.250048,433,454,54,3.136000,0
111.253184,434,455,54,4.768000,0
111.257952,435,456,54,4.768000,0
111.262720,436,457,54,3.136000,0
111.265856,437,458,54,3.136000,0
111.268992,438,459,54,4.768000,0
111.273760,439,460,54,4.768000,0
111.278528,440,461,55,3.136000,0
111.281664,441,462,55,3.136000,0
111.284800,442,463,55,4.768000,0
111.289568,443,464,55,4.768000,0
111.294336,444,465,55,0,3846.720000
115.141056,444,466,55,3.136000,0
115.144192,445,467,55,4.768000,0
115.148960,446,468,55,4.768000,0
115.153728,447,469,55,4.768000,0
115.158496,448,470,56,4.768000,0
115.163264,449,471,56,3.136000,0
115.166400,450,472,56,4.768000,0
115.171168,451,473,56,4.768000,0
115.175936,452,474,56,4.768000,0
115.180704,453,475,56,3.136000,0
115.183840,454,476,56,3.136000,0
115.186976,455,477,56,4.768000,0
115.191744,456,478,57,3.136000,0
115.194880,457,479,57,3.136000,0
115.198016,458,480,57,4.768000,0
115.202784,459,481,57,4.768000,0
115.207552,460,482,57,3.136000,0
115.210688,461,483,57,4.768000,0
115.215456,462,484,57,4.768000,0
115.220224,463,485,57,3.136000,0
115.223360,464,486,58,4.768000,0
115.228128,465,487,58,0,3845.088000
119.073216,465,488,58,3.136000,0
119.076352,466,489,58,4.768000,0
119.081120,467,490,58,4.768000,0
119.085888,468,491,58,3.136000,0
119.089024,469,492,58,3.136000,0
119.092160,470,493,58,3.136000,0
119.095296,471,494,58,3.136000,0
119.098432,472,495,59,4.768000,0
119.103200,473,496,59,3.136000,0
119.106336,474,497,59,4.768000,0
119.111104,475,498,59,4.768000,0
119.115872,476,499,59,3.136000,0
119.119008,477,500,59,3.136000,0
119.122144,478,501,59,3.136000,0
119.125280,479,502,59,4.768000,0
119.130048,480,503,60,4.768000,0
119.134816,481,504,60,3.136000,0
119.137952,482,505,60,4.768000,0
119.142720,483,506,60,4.768000,0
119.147488,484,507,60,3.136000,0
119.150624,485,508,60,3.136000,0
119.153760,486,509,60,0,3851.616000
123.005376,486,510,60,3.136000,0
123.008512,487,511,60,3.136000,0
123.011648,488,512,61,4.768000,0
123.016416,489,513,61,3.136000,0
123.019552,490,514,61,4.768000,0
123.024320,491,515,61,4.768000,0
123.029088,492,516,61,3.136000,0
123.032224,493,517,61,4.768000,0
123.036992,494,518,61,4.768000,0
123.041760,495,519,61,4.768000,0
123.046528,496,520,62,4.768000,0
123.051296,497,521,62,3.136000,0
123.054432,498,522,62,3.136000,0
123.057568,499,523,62,4.768000,0
123.062336,500,524,62,3.136000,0
123.065472,501,525,62,3.136000,0
123.068608,502,526,62,3.136000,0
123.071744,503,527,62,3.136000,0
123.074880,504,528,63,3.136000,0
123.078016,505,529,63,3.136000,0
123.081152,506,530,63,4.768000,0
123.085920,507,531,63,0,3851.616000
126.937536,507,532,63,4.768000,0
126.942304,508,533,63,3.136000,0
126.945440,509,534,63,3.136000,0
126.948576,510,535,63,3.136000,0
126.951712,511,536,63,4.768000,0
126.956480,512,537,64,4.768000,0
126.961248,513,538,64,3.136000,0
126.964384,514,539,64,4.768000,0
126.969152,515,540,64,4.768000,0
126.973920,516,541,64,3.136000,0
126.977056,517,542,64,4.768000,0
126.981824,518,543,64,4.768000,0
126.986592,519,544,64,4.768000,0
126.991360,520,545,65,4.768000,0
126.996128,521,546,65,3.136000,0
126.999264,522,547,65,4.768000,0
127.004032,523,548,65,4.768000,0
127.008800,524,549,65,3.136000,0
127.011936,525,550,65,4.768000,0
127.016704,526,551,65,4.768000,0
127.021472,527,552,65,4.768000,0
127.026240,528,553,66,0,3843.456000
130.869696,528,554,66,3.136000,0
130.872832,529,555,66,3.136000,0
130.875968,530,556,66,4.768000,0
130.880736,531,557,66,4.768000,0
130.885504,532,558,66,3.136000,0
130.888640,533,559,66,3.136000,0
130.891776,534,560,66,4.768000,0
130.896544,535,561,66,4.768000,0
130.901312,536,562,67,3.136000,0
130.904448,537,563,67,3.136000,0
130.907584,538,564,67,4.768000,0
130.912352,539,565,67,4.768000,0
130.917120,540,566,67,3.136000,0
130.920256,541,567,67,4.768000,0
130.925024,542,568,67,3.136000,0
130.928160,543,569,67,3.136000,0
130.931296,544,570,68,4.768000,0
130.936064,545,571,68,3.136000,0
130.939200,546,572,68,4.768000,0
130.943968,547,573,68,4.768000,0
130.948736,548,574,68,3.136000,0
130.951872,549,575,68,3.136000,0
130.955008,550,576,68,0,3846.848000
134.801856,550,577,68,4.768000,0
134.806624,551,578,68,3.136000,0
134.809760,552,579,69,3.136000,0
134.812896,553,580,69,3.136000,0
134.816032,554,581,69,4.768000,0
134.820800,555,582,69,4.768000,0
134.825568,556,583,69,3.136000,0
134.828704,557,584,69,3.136000,0
134.831840,558,585,69,4.768000,0
134.836608,559,586,69,3.136000,0
134.839744,560,587,70,4.768000,0
134.844512,561,588,70,3.136000,0
134.847648,562,589,70,4.768000,0
134.852416,563,590,70,4.768000,0
134.857184,564,591,70,3.136000,0
134.860320,565,592,70,4.768000,0
134.865088,566,593,70,4.768000,0
134.869856,567,594,70,4.768000,0
134.874624,568,595,71,3.136000,0
134.877760,569,596,71,3.136000,0
134.880896,570,597,71,4.768000,0
134.885664,571,598,71,4.768000,0
134.890432,572,599,71,0,3843.584000
138.734016,572,600,71,3.136000,0
138.737152,573,601,71,3.136000,0
138.740288,574,602,71,3.136000,0
138.743424,575,603,71,4.768000,0
138.748192,576,604,72,4.768000,0
138.752960,577,605,72,3.136000,0
138.756096,578,606,72,4.768000,0
138.760864,579,607,72,4.768000,0
138.765632,580,608,72,3.136000,0
138.768768,581,609,72,4.768000,0
138.773536,582,610,72,3.136000,0
138.776672,583,611,72,3.136000,0
138.779808,584,612,73,4.768000,0
138.784576,585,613,73,3.136000,0
138.787712,586,614,73,4.768000,0
138.792480,587,615,73,4.768000,0
138.797248,588,616,73,3.136000,0
138.800384,589,617,73,3.136000,0
138.803520,590,618,73,3.136000,0
138.806656,591,619,73,3.136000,0
138.809792,592,620,74,4.768000,0
138.814560,593,621,74,3.136000,0
138.817696,594,622,74,0,3848.480000
142.666176,594,623,74,4.768000,0
142.670944,595,624,74,4.768000,0
142.675712,596,625,74,3.136000,0
142.678848,597,626,74,4.768000,0
142.683616,598,627,74,4.768000,0
142.688384,599,628,74,3.136000,0
142.691520,600,629,75,3.136000,0
142.694656,601,630,75,3.136000,0
142.697792,602,631,75,3.136000,0
142.700928,603,632,75,4.768000,0
142.705696,604,633,75,3.136000,0
142.708832,605,634,75,3.136000,0
142.711968,606,635,75,3.136000,0
142.715104,607,636,75,3.136000,0
142.718240,608,637,76,3.136000,0
142.721376,609,638,76,3.136000,0
142.724512,610,639,76,3.136000,0
142.727648,611,640,76,4.768000,0
142.732416,612,641,76,3.136000,0
142.735552,613,642,76,3.136000,0
142.738688,614,643,76,3.136000,0
142.741824,615,644,76,3.136000,0
142.744960,616,645,77,3.136000,0
142.748096,617,646,77,0,3850.240000
146.598336,617,647,77,3.136000,0
146.601472,618,648,77,3.136000,0
146.604608,619,649,77,4.768000,0
146.609376,620,650,77,3.136000,0
146.612512,621,651,77,3.136000,0
146.615648,622,652,77,3.136000,0
146.618784,623,653,77,3.136000,0
146.621920,624,654,78,3.136000,0
146.625056,625,655,78,3.136000,0
146.628192,626,656,78,4.768000,0
146.632960,627,657,78,4.768000,0
146.637728,628,658,78,3.136000,0
146.640864,629,659,78,4.768000,0
146.645632,630,660,78,3.136000,0
146.648768,631,661,78,3.136000,0
146.651904,632,662,79,4.768000,0
146.656672,633,663,79,3.136000,0
146.659808,634,664,79,4.768000,0
146.664576,635,665,79,4.768000,0
146.669344,636,666,79,3.136000,0
146.672480,637,667,79,4.768000,0
146.677248,638,668,79,4.768000,0
146.682016,639,669,79,0,3848.480000
150.530496,639,670,79,4.768000,0
150.535264,640,671,80,3.136000,0
150.538400,641,672,80,3.136000,0
150.541536,642,673,80,4.768000,0
150.546304,643,674,80,4.768000,0
150.551072,644,675,80,3.136000,0
150.554208,645,676,80,3.136000,0
150.557344,646,677,80,4.768000,0
150.562112,647,678,80,4.768000,0
150.566880,648,679,81,3.136000,0
150.570016,649,680,81,3.136000,0
150.573152,650,681,81,4.768000,0
150.577920,651,682,81,4.768000,0
150.582688,652,683,81,3.136000,0
150.585824,653,684,81,4.768000,0
150.590592,654,685,81,4.768000,0
150.595360,655,686,81,4.768000,0
150.600128,656,687,82,4.768000,0
150.604896,657,688,82,3.136000,0
150.608032,658,689,82,4.768000,0
150.612800,659,690,82,4.768000,0
150.617568,660,691,82,0,3845.088000
154.462656,660,692,82,4.768000,0
154.467424,661,693,82,3.136000,0
154.470560,662,694,82,3.136000,0
154.473696,663,695,82,4.768000,0
154.478464,664,696,83,3.136000,0
154.481600,665,697,83,3.136000,0
154.484736,666,698,83,4.768000,0
154.489504,667,699,83,4.768000,0
154.494272,668,700,83,3.136000,0
154.497408,669,701,83,4.768000,0
154.502176,670,702,83,4.768000,0
154.506944,671,703,83,3.136000,0
154.510080,672,704,84,4.768000,0
154.514848,673,705,84,3.136000,0
154.517984,674,706,84,4.768000,0
154.522752,675,707,84,4.768000,0
154.527520,676,708,84,3.136000,0
154.530656,677,709,84,3.136000,0
154.533792,678,710,84,3.136000,0
154.536928,679,711,84,3.136000,0
154.540064,680,712,85,4.768000,0
154.544832,681,713,85,3.136000,0
154.547968,682,714,85,4.768000,0
154.552736,683,715,85,0,3842.080000
158.394816,683,716,85,4.768000,0
158.399584,684,717,85,3.136000,0
158.402720,685,718,85,3.136000,0
158.405856,686,719,85,3.136000,0
158.408992,687,720,85,4.768000,0
158.413760,688,721,86,4.768000,0
158.418528,689,722,86,3.136000,0
158.421664,690,723,86,4.768000,0
158.426432,691,724,86,4.768000,0
158.431200,692,725,86,3.136000,0
158.434336,693,726,86,3.136000,0
158.437472,694,727,86,3.136000,0
158.440608,695,728,86,3.136000,0
158.443744,696,729,87,4.768000,0
158.448512,697,730,87,3.136000,0
158.451648,698,731,87,4.768000,0
158.456416,699,732,87,4.768000,0
158.461184,700,733,87,3.136000,0
158.464320,701,734,87,4.768000,0
158.469088,702,735,87,4.768000,0
158.473856,703,736,87,4.768000,0
158.478624,704,737,88,0,3848.352000
162.326976,704,738,88,4.768000,0
162.331744,705,739,88,3.136000,0
162.334880,706,740,88,3.136000,0
162.338016,707,741,88,4.768000,0
162.342784,708,742,88,3.136000,0
162.345920,709,743,88,3.136000,0
162.349056,710,744,88,3.136000,0
162.352192,711,745,88,3.136000,0
162.355328,712,746,89,3.136000,0
162.358464,713,747,89,3.136000,0
162.361600,714,748,89,4.768000,0
162.366368,715,749,89,4.768000,0
162.371136,716,750,89,3.136000,0
162.374272,717,751,89,3.136000,0
162.377408,718,752,89,3.136000,0
162.380544,719,753,89,4.768000,0
162.385312,720,754,90,4.768000,0
162.390080,721,755,90,3.136000,0
162.393216,722,756,90,4.768000,0
162.397984,723,757,90,4.768000,0
162.402752,724,758,90,3.136000,0
162.405888,725,759,90,4.768000,0
162.410656,726,760,90,4.768000,0
162.415424,727,761,90,0,3843.712000
166.259136,727,762,90,4.768000,0
166.263904,728,763,91,4.768000,0
166.268672,729,764,91,3.136000,0
166.271808,730,765,91,4.768000,0
166.276576,731,766,91,4.768000,0
166.281344,732,767,91,3.136000,0
166.284480,733,768,91,4.768000,0
166.289248,734,769,91,4.768000,0
166.294016,735,770,91,4.768000,0
166.298784,736,771,92,3.136000,0
166.301920,737,772,92,3.136000,0
166.305056,738,773,92,4.768000,0
166.309824,739,774,92,4.768000,0
166.314592,740,775,92,3.136000,0
166.317728,741,776,92,3.136000,0
166.320864,742,777,92,4.768000,0
166.325632,743,778,92,4.768000,0
166.330400,744,779,93,3.136000,0
166.333536,745,780,93,3.136000,0
166.336672,746,781,93,4.768000,0
166.341440,747,782,93,4.768000,0
166.346208,748,783,93,0,3845.088000
170.191296,748,784,93,3.136000,0
170.194432,749,785,93,4.768000,0
170.199200,750,786,93,3.136000,0
170.202336,751,787,93,3.136000,0
170.205472,752,788,94,4.768000,0
170.210240,753,789,94,3.136000,0
170.213376,754,790,94,4.768000,0
170.218144,755,791,94,4.768000,0
170.222912,756,792,94,3.136000,0
170.226048,757,793,94,3.136000,0
170.229184,758,794,94,4.768000,0
170.233952,759,795,94,3.136000,0
170.237088,760,796,95,3.136000,0
170.240224,761,797,95,3.136000,0
170.243360,762,798,95,4.768000,0
170.248128,763,799,95,4.768000,0
170.252896,764,800,95,3.136000,0
170.256032,765,801,95,3.136000,0
170.259168,766,802,95,4.768000,0
170.263936,767,803,95,3.136000,0
170.267072,768,804,96,4.768000,0
170.271840,769,805,96,3.136000,0
170.274976,770,806,96,4.768000,0
170.279744,771,807,96,0,3843.712000
174.123456,771,808,96,4.768000,0
174.128224,772,809,96,3.136000,0
174.131360,773,810,96,4.768000,0
174.136128,774,811,96,4.768000,0
174.140896,775,812,96,4.768000,0
174.145664,776,813,97,3.136000,0
174.148800,777,814,97,3.136000,0
174.151936,778,815,97,4.768000,0
174.156704,779,816,97,4.768000,0
174.161472,780,817,97,3.136000,0
174.164608,781,818,97,3.136000,0
174.167744,782,819,97,3.136000,0
174.170880,783,820,97,4.768000,0
174.175648,784,821,98,4.768000,0
174.180416,785,822,98,3.136000,0
174.183552,786,823,98,4.768000,0
174.188320,787,824,98,4.768000,0
174.193088,788,825,98,3.136000,0
174.196224,789,826,98,4.768000,0
174.200992,790,827,98,3.136000,0
174.204128,791,828,98,3.136000,0
174.207264,792,829,99,0,3848.352000
178.055616,792,830,99,4.768000,0
178.060384,793,831,99,3.136000,0
178.063520,794,832,99,4.768000,0
178.068288,795,833,99,4.768000,0
178.073056,796,834,99,3.136000,0
178.076192,797,835,99,3.136000,0
178.079328,798,836,99,3.136000,0
178.082464,799,837,99,3.136000,0
178.085600,800,838,100,4.768000,0
178.090368,801,839,100,3.136000,0
178.093504,802,840,100,4.768000,0
178.098272,803,841,100,4.768000,0
178.103040,804,842,100,3.136000,0
178.106176,805,843,100,4.768000,0
178.110944,806,844,100,4.768000,0
178.115712,807,845,100,3.136000,0
178.118848,808,846,101,3.136000,0
178.121984,809,847,101,3.136000,0
178.125120,810,848,101,3.136000,0
178.128256,811,849,101,4.768000,0
178.133024,812,850,101,3.136000,0
178.136160,813,851,101,0,3851.616000
181.987776,813,852,101,3.136000,0
181.990912,814,853,101,3.136000,0
181.994048,815,854,101,3.136000,0
181.997184,816,855,102,3.136000,0
182.000320,817,856,102,3.136000,0
182.003456,818,857,102,3.136000,0
182.006592,819,858,102,4.768000,0
182.011360,820,859,102,3.136000,0
182.014496,821,860,102,3.136000,0
182.017632,822,861,102,3.136000,0
182.020768,823,862,102,3.136000,0
182.023904,824,863,103,3.136000,0
182.027040,825,864,103,3.136000,0
182.030176,826,865,103,3.136000,0
182.033312,827,866,103,4.768000,0
182.038080,828,867,103,3.136000,0
182.041216,829,868,103,3.136000,0
182.044352,830,869,103,3.136000,0
182.047488,831,870,103,3.136000,0
182.050624,832,871,104,3.136000,0
182.053760,833,872,104,3.136000,0
182.056896,834,873,104,0,3863.040000
185.919936,834,874,104,4.768000,0
185.924704,835,875,104,4.768000,0
185.929472,836,876,104,3.136000,0
185.932608,837,877,104,4.768000,0
185.937376,838,878,104,3.136000,0
185.940512,839,879,104,3.136000,0
185.943648,840,880,105,4.768000,0
185.948416,841,881,105,3.136000,0
185.951552,842,882,105,4.768000,0
185.956320,843,883,105,4.768000,0
185.961088,844,884,105,3.136000,0
185.964224,845,885,105,4.768000,0
185.968992,846,886,105,4.768000,0
185.973760,847,887,105,4.768000,0
185.978528,848,888,106,3.136000,0
185.981664,849,889,106,3.136000,0
185.984800,850,890,106,4.768000,0
185.989568,851,891,106,4.768000,0
185.994336,852,892,106,3.136000,0
185.997472,853,893,106,3.136000,0
186.000608,854,894,106,4.768000,0
186.005376,855,895,106,0,3846.720000
189.852096,855,896,106,4.768000,0
189.856864,856,897,107,3.136000,0
189.860000,857,898,107,3.136000,0
189.863136,858,899,107,4.768000,0
189.867904,859,900,107,4.768000,0
189.872672,860,901,107,3.136000,0
189.875808,861,902,107,4.768000,0
189.880576,862,903,107,4.768000,0
189.885344,863,904,107,4.768000,0
189.890112,864,905,108,4.768000,0
189.894880,865,906,108,3.136000,0
189.898016,866,907,108,4.768000,0
189.902784,867,908,108,4.768000,0
189.907552,868,909,108,4.768000,0
189.912320,869,910,108,3.136000,0
189.915456,870,911,108,3.136000,0
189.918592,871,912,108,4.768000,0
189.923360,872,913,109,3.136000,0
189.926496,873,914,109,3.136000,0
189.929632,874,915,109,4.768000,0
189.934400,875,916,109,4.768000,0
189.939168,876,917,109,0,3845.088000
193.784256,876,918,109,3.136000,0
193.787392,877,919,109,4.768000,0
193.792160,878,920,109,4.768000,0
193.796928,879,921,109,3.136000,0
193.800064,880,922,110,4.768000,0
193.804832,881,923,110,3.136000,0
193.807968,882,924,110,4.768000,0
193.812736,883,925,110,4.768000,0
193.817504,884,926,110,3.136000,0
193.820640,885,927,110,3.136000,0
193.823776,886,928,110,3.136000,0
193.826912,887,929,110,3.136000,0
193.830048,888,930,111,4.768000,0
193.834816,889,931,111,3.136000,0
193.837952,890,932,111,4.768000,0
193.842720,891,933,111,4.768000,0
193.847488,892,934,111,3.136000,0
193.850624,893,935,111,3.136000,0
193.853760,894,936,111,3.136000,0
193.856896,895,937,111,4.768000,0
193.861664,896,938,112,4.768000,0
193.866432,897,939,112,0,3849.984000
197.716416,897,940,112,3.136000,0
197.719552,898,941,112,4.768000,0
197.724320,899,942,112,4.768000,0
197.729088,900,943,112,3.136000,0
197.732224,901,944,112,3.136000,0
197.735360,902,945,112,3.136000,0
197.738496,903,946,112,3.136000,0
197.741632,904,947,113,4.768000,0
197.746400,905,948,113,3.136000,0
197.749536,906,949,113,4.768000,0
197.754304,907,950,113,4.768000,0
197.759072,908,951,113,3.136000,0
197.762208,909,952,113,4.768000,0
197.766976,910,953,113,4.768000,0
197.771744,911,954,113,4.768000,0
197.776512,912,955,114,4.768000,0
197.781280,913,956,114,3.136000,0
197.784416,914,957,114,3.136000,0
197.787552,915,958,114,4.768000,0
197.792320,916,959,114,3.136000,0
197.795456,917,960,114,3.136000,0
197.798592,918,961,114,3.136000,0
197.801728,919,962,114,3.136000,0
197.804864,920,963,115,3.136000,0
197.808000,921,964,115,0,3840.576000
201.648576,921,965,115,3.136000,0
201.651712,922,966,115,4.768000,0
201.656480,923,967,115,4.768000,0
201.661248,924,968,115,3.136000,0
201.664384,925,969,115,3.136000,0
201.667520,926,970,115,3.136000,0
201.670656,927,971,115,4.768000,0
201.675424,928,972,116,4.768000,0
201.680192,929,973,116,3.136000,0
201.683328,930,974,116,4.768000,0
201.688096,931,975,116,4.768000,0
201.692864,932,976,116,3.136000,0
201.696000,933,977,116,4.768000,0
201.700768,934,978,116,4.768000,0
201.705536,935,979,116,4.768000,0
201.710304,936,980,117,4.768000,0
201.715072,937,981,117,3.136000,0
201.718208,938,982,117,4.768000,0
201.722976,939,983,117,4.768000,0
201.727744,940,984,117,3.136000,0
201.730880,941,985,117,4.768000,0
201.735648,942,986,117,4.768000,0
201.740416,943,987,117,0,3840.320000
205.580736,943,988,117,4.768000,0
205.585504,944,989,118,3.136000,0
205.588640,945,990,118,3.136000,0
205.591776,946,991,118,4.768000,0
205.596544,947,992,118,4.768000,0
205.601312,948,993,118,3.136000,0
205.604448,949,994,118,3.136000,0
205.607584,950,995,118,4.768000,0
205.612352,951,996,118,4.768000,0
205.617120,952,997,119,3.136000,0
205.620256,953,998,119,3.136000,0
205.623392,954,999,119,4.768000,0
205.628160,955,1000,119,4.768000,0
205.632928,956,1001,119,3.136000,0
205.636064,957,1002,119,4.768000,0
205.640832,958,1003,119,3.136000,0
205.643968,959,1004,119,3.136000,0
205.647104,960,1005,120,4.768000,0
205.651872,961,1006,120,3.136000,0
205.655008,962,1007,120,4.768000,0
205.659776,963,1008,120,4.768000,0
205.664544,964,1009,120,3.136000,0
205.667680,965,1010,120,0,3845.216000
209.512896,965,1011,120,3.136000,0
209.516032,966,1012,120,4.768000,0
209.520800,967,1013,120,3.136000,0
209.523936,968,1014,121,3.136000,0
209.527072,969,1015,121,3.136000,0
209.530208,970,1016,121,4.768000,0
209.534976,971,1017,121,4.768000,0
209.539744,972,1018,121,3.136000,0
209.542880,973,1019,121,3.136000,0
209.546016,974,1020,121,4.768000,0
209.550784,975,1021,121,3.136000,0
209.553920,976,1022,122,4.768000,0
209.558688,977,1023,122,3.136000,0
209.561824,978,1024,122,4.768000,0
209.566592,979,1025,122,4.768000,0
209.571360,980,1026,122,3.136000,0
209.574496,981,1027,122,4.768000,0
209.579264,982,1028,122,4.768000,0
209.584032,983,1029,122,4.768000,0
209.588800,984,1030,123,3.136000,0
209.591936,985,1031,123,3.136000,0
209.595072,986,1032,123,4.768000,0
209.599840,987,1033,123,0,3845.216000
213.445056,987,1034,123,4.768000,0
213.449824,988,1035,123,3.136000,0
213.452960,989,1036,123,3.136000,0
213.456096,990,1037,123,3.136000,0
213.459232,991,1038,123,4.768000,0
213.464000,992,1039,124,4.768000,0
213.468768,993,1040,124,3.136000,0
213.471904,994,1041,124,4.768000,0
213.476672,995,1042,124,4.768000,0
213.481440,996,1043,124,3.136000,0
213.484576,997,1044,124,4.768000,0
213.489344,998,1045,124,3.136000,0
213.492480,999,1046,124,3.136000,0
213.495616,1000,1047,125,4.768000,0
213.500384,1001,1048,125,3.136000,0
213.503520,1002,1049,125,4.768000,0
213.508288,1003,1050,125,4.768000,0
213.513056,1004,1051,125,3.136000,0
213.516192,1005,1052,125,3.136000,0
213.519328,1006,1053,125,3.136000,0
213.522464,1007,1054,125,3.136000,0
213.525600,1008,1055,126,0,3851.616000
217.377216,1008,1056,126,4.768000,0
217.381984,1009,1057,126,3.136000,0
217.385120,1010,1058,126,4.768000,0
217.389888,1011,1059,126,4.768000,0
217.394656,1012,1060,126,3.136000,0
217.397792,1013,1061,126,4.768000,0
217.402560,1014,1062,126,4.768000,0
217.407328,1015,1063,126,3.136000,0
217.410464,1016,1064,127,3.136000,0
217.413600,1017,1065,127,3.136000,0
217.416736,1018,1066,127,3.136000,0
217.419872,1019,1067,127,4.768000,0
217.424640,1020,1068,127,3.136000,0
217.427776,1021,1069,127,3.136000,0
217.430912,1022,1070,127,3.136000,0
217.434048,1023,1071,127,3.136000,0
217.437184,1024,1072,128,3.136000,0
217.440320,1025,1073,128,3.136000,0
217.443456,1026,1074,128,3.136000,0
217.446592,1027,1075,128,4.768000,0
217.451360,1028,1076,128,3.136000,0
217.454496,1029,1077,128,3.136000,0
217.457632,1030,1078,128,3.136000,0
217.460768,1031,1079,128,0,3848.608000
221.309376,1031,1080,128,3.136000,0
221.312512,1032,1081,129,3.136000,0
221.315648,1033,1082,129,3.136000,0
221.318784,1034,1083,129,3.136000,0
221.321920,1035,1084,129,4.768000,0
221.326688,1036,1085,129,3.136000,0
221.329824,1037,1086,129,3.136000,0
221.332960,1038,1087,129,3.136000,0
221.336096,1039,1088,129,3.136000,0
221.339232,1040,1089,130,3.136000,0
221.342368,1041,1090,130,3.136000,0
221.345504,1042,1091,130,4.768000,0
221.350272,1043,1092,130,4.768000,0
221.355040,1044,1093,130,3.136000,0
221.358176,1045,1094,130,4.768000,0
221.362944,1046,1095,130,3.136000,0
221.366080,1047,1096,130,3.136000,0
221.369216,1048,1097,131,4.768000,0
221.373984,1049,1098,131,3.136000,0
221.377120,1050,1099,131,4.768000,0
221.381888,1051,1100,131,4.768000,0
221.386656,1052,1101,131,0,3854.880000
225.241536,1052,1102,131,3.136000,0
225.244672,1053,1103,131,4.768000,0
225.249440,1054,1104,131,4.768000,0
225.254208,1055,1105,131,4.768000,0
225.258976,1056,1106,132,3.136000,0
225.262112,1057,1107,132,3.136000,0
225.265248,1058,1108,132,4.768000,0
225.270016,1059,1109,132,4.768000,0
225.274784,1060,1110,132,3.136000,0
225.277920,1061,1111,132,3.136000,0
225.281056,1062,1112,132,4.768000,0
225.285824,1063,1113,132,4.768000,0
225.290592,1064,1114,133,3.136000,0
225.293728,1065,1115,133,3.136000,0
225.296864,1066,1116,133,4.768000,0
225.301632,1067,1117,133,4.768000,0
225.306400,1068,1118,133,3.136000,0
225.309536,1069,1119,133,4.768000,0
225.314304,1070,1120,133,4.768000,0
225.319072,1071,1121,133,4.768000,0
225.323840,1072,1122,134,4.768000,0
225.328608,1073,1123,134,3.136000,0
225.331744,1074,1124,134,0,3841.952000
229.173696,1074,1125,134,4.768000,0
229.178464,1075,1126,134,4.768000,0
229.183232,1076,1127,134,4.768000,0
229.188000,1077,1128,134,3.136000,0
229.191136,1078,1129,134,3.136000,0
229.194272,1079,1130,134,4.768000,0
229.199040,1080,1131,135,3.136000,0
229.202176,1081,1132,135,3.136000,0
229.205312,1082,1133,135,4.768000,0
229.210080,1083,1134,135,4.768000,0
229.214848,1084,1135,135,3.136000,0
229.217984,1085,1136,135,4.768000,0
229.222752,1086,1137,135,4.768000,0
229.227520,1087,1138,135,3.136000,0
229.230656,1088,1139,136,4.768000,0
229.235424,1089,1140,136,3.136000,0
229.238560,1090,1141,136,4.768000,0
229.243328,1091,1142,136,4.768000,0
229.248096,1092,1143,136,3.136000,0
229.251232,1093,1144,136,3.136000,0
229.254368,1094,1145,136,3.136000,0
229.257504,1095,1146,136,0,3848.352000
233.105856,1095,1147,136,3.136000,0
233.108992,1096,1148,137,4.768000,0
233.113760,1097,1149,137,3.136000,0
233.116896,1098,1150,137,4.768000,0
233.121664,1099,1151,137,4.768000,0
233.126432,1100,1152,137,3.136000,0
233.129568,1101,1153,137,3.136000,0
233.132704,1102,1154,137,3.136000,0
233.135840,1103,1155,137,4.768000,0
233.140608,1104,1156,138,4.768000,0
233.145376,1105,1157,138,3.136000,0
233.148512,1106,1158,138,4.768000,0
233.153280,1107,1159,138,4.768000,0
233.158048,1108,1160,138,3.136000,0
233.161184,1109,1161,138,3.136000,0
233.164320,1110,1162,138,3.136000,0
233.167456,1111,1163,138,3.136000,0
233.170592,1112,1164,139,4.768000,0
233.175360,1113,1165,139,3.136000,0
233.178496,1114,1166,139,4.768000,0
233.183264,1115,1167,139,4.768000,0
233.188032,1116,1168,139,3.136000,0
233.191168,1117,1169,139,