Time,CovertPackets,AllPackets,BitsSent,PacketInterval;GTSInterval
260.512144,1,30,0,3.968000,0
260.516112,2,45,1,3.760000,0
260.519872,3,60,1,3.968000,0
260.523840,4,75,2,3.840000,0
260.527680,5,90,2,3.968000,0
260.531648,6,105,3,3.712000,0
260.535360,7,120,3,3.712000,0
260.539072,8,135,4,4.112000,0
260.543184,9,150,4,3.984000,0
260.547168,10,165,5,4.160000,0
260.551328,11,180,5,4.224000,0
260.555552,12,195,6,3.824000,0
260.559376,13,210,6,3.968000,0
260.563344,14,225,7,4.144000,0
260.567488,15,240,7,4.224000,0
260.571712,16,255,8,3.920000,0
260.575632,17,270,8,3.968000,0
260.579600,18,285,9,3.888000,0
260.583488,19,300,9,3.968000,0
260.587456,20,315,10,4.112000,0
260.591568,21,330,10,0,31374.256000
291.965824,21,345,10,3.904000,0
291.969728,22,360,11,3.872000,0
291.973600,23,375,11,3.712000,0
291.977312,24,390,12,3.920000,0
291.981232,25,405,12,3.712000,0
291.984944,26,420,13,4.112000,0
291.989056,27,435,13,3.712000,0
291.992768,28,450,14,4.096000,0
291.996864,29,465,14,4.224000,0
292.001088,30,480,15,4.224000,0
292.005312,31,495,15,3.968000,0
292.009280,32,510,16,4.272000,0
292.013552,33,525,16,4.224000,0
292.017776,34,540,17,3.680000,0
292.021456,35,555,17,4.224000,0
292.025680,36,570,18,4.208000,0
292.029888,37,585,18,4.224000,0
292.034112,38,600,19,4.096000,0
292.038208,39,615,19,3.712000,0
292.041920,40,630,20,4.176000,0
292.046096,41,645,20,4.224000,0
292.050320,42,660,21,0,31372.784000
323.423104,42,675,21,4.016000,0
323.427120,43,690,21,3.712000,0
323.430832,44,705,22,3.632000,0
323.434464,45,720,22,4.224000,0
323.438688,46,735,23,4.064000,0
323.442752,47,750,23,4.160000,0
323.446912,48,765,24,3.616000,0
323.450528,49,780,24,4.160000,0
323.454688,50,795,25,3.872000,0
323.458560,51,810,25,4.160000,0
323.462720,52,825,26,4.128000,0
323.466848,53,840,26,3.968000,0
323.470816,54,855,27,3.760000,0
323.474576,55,870,27,3.968000,0
323.478544,56,885,28,4.096000,0
323.482640,57,900,28,3.968000,0
323.486608,58,915,29,3.968000,0
323.490576,59,930,29,3.968000,0
323.494544,60,945,30,4.368000,0
323.498912,61,960,30,3.728000,0
323.502640,62,975,31,4.160000,0
323.506800,63,990,31,0,31373.584000
354.880384,63,1005,31,3.712000,0
354.884096,64,1020,32,3.824000,0
354.887920,65,1035,32,4.224000,0
354.892144,66,1050,33,3.888000,0
354.896032,67,1065,33,3.968000,0
354.900000,68,1080,34,3.664000,0
354.903664,69,1095,34,3.968000,0
354.907632,70,1110,35,3.632000,0
354.911264,71,1125,35,3.712000,0
354.914976,72,1140,36,3.856000,0
354.918832,73,1155,36,4.160000,0
354.922992,74,1170,37,3.872000,0
354.926864,75,1185,37,3.712000,0
354.930576,76,1200,38,3.664000,0
354.934240,77,1215,38,3.712000,0
354.937952,78,1230,39,4.368000,0
354.942320,79,1245,39,3.968000,0
354.946288,80,1260,40,3.840000,0
354.950128,81,1275,40,3.712000,0
354.953840,82,1290,41,4.224000,0
354.958064,83,1305,41,4.224000,0
354.962288,84,1320,42,0,31375.376000
386.337664,84,1335,42,4.016000,0
386.341680,85,1350,42,3.968000,0
386.345648,86,1365,43,3.936000,0
386.349584,87,1380,43,3.712000,0
386.353296,88,1395,44,3.696000,0
386.356992,89,1410,44,3.968000,0
386.360960,90,1425,45,4.352000,0
386.365312,91,1440,45,4.224000,0
386.369536,92,1455,46,3.920000,0
386.373456,93,1470,46,3.712000,0
386.377168,94,1485,47,4.016000,0
386.381184,95,1500,47,4.224000,0
386.385408,96,1515,48,3.888000,0
386.389296,97,1530,48,3.968000,0
386.393264,98,1545,49,4.064000,0
386.397328,99,1560,49,3.648000,0
386.400976,100,1575,50,4.128000,0
386.405104,101,1590,50,4.160000,0
386.409264,102,1605,51,4.128000,0
386.413392,103,1620,51,4.160000,0
386.417552,104,1635,52,4.128000,0
386.421680,105,1650,52,3.968000,0
386.425648,106,1665,53,4.016000,0
386.429664,107,1680,53,4.224000,0
386.433888,108,1695,54,0,31361.056000
417.794944,108,1710,54,4.352000,0
417.799296,109,1725,54,3.712000,0
417.803008,110,1740,55,3.968000,0
417.806976,111,1755,55,3.968000,0
417.810944,112,1770,56,4.112000,0
417.815056,113,1785,56,4.240000,0
417.819296,114,1800,57,3.904000,0
417.823200,115,1815,57,3.712000,0
417.826912,116,1830,58,4.336000,0
417.831248,117,1845,58,4.224000,0
417.835472,118,1860,59,3.632000,0
417.839104,119,1875,59,4.224000,0
417.843328,120,1890,60,4.176000,0
417.847504,121,1905,60,4.224000,0
417.851728,122,1920,61,4.144000,0
417.855872,123,1935,61,3.968000,0
417.859840,124,1950,62,3.856000,0
417.863696,125,1965,62,4.160000,0
417.867856,126,1980,63,4.128000,0
417.871984,127,1995,63,3.712000,0
417.875696,128,2010,64,4.176000,0
417.879872,129,2025,64,0,31372.352000
449.252224,129,2040,64,3.968000,0
449.256192,130,2055,65,3.856000,0
449.260048,131,2070,65,3.712000,0
449.263760,132,2085,66,4.352000,0
449.268112,133,2100,66,3.968000,0
449.272080,134,2115,67,3.968000,0
449.276048,135,2130,67,3.968000,0
449.280016,136,2145,68,3.760000,0
449.283776,137,2160,68,3.968000,0
449.287744,138,2175,69,3.680000,0
449.291424,139,2190,69,4.224000,0
449.295648,140,2205,70,3.952000,0
449.299600,141,2220,70,4.224000,0
449.303824,142,2235,71,3.840000,0
449.307664,143,2250,71,3.968000,0
449.311632,144,2265,72,3.920000,0
449.315552,145,2280,72,4.224000,0
449.319776,146,2295,73,4.272000,0
449.324048,147,2310,73,3.712000,0
449.327760,148,2325,74,3.888000,0
449.331648,149,2340,74,3.712000,0
449.335360,150,2355,75,4.320000,0
449.339680,151,2370,75,3.648000,0
449.343328,152,2385,76,