Time,CovertPackets,AllPackets,BitsSent,PacketInterval;GTSInterval
260.514064,1,90,0,5.184000,0
260.519248,2,135,1,4.720000,0
260.523968,3,180,1,4.928000,0
260.528896,4,225,2,5.056000,0
260.533952,5,270,2,4.672000,0
260.538624,6,315,3,0,31428.160000
291.966784,6,360,3,5.184000,0
291.971968,7,405,3,5.184000,0
291.977152,8,450,4,5.328000,0
291.982480,9,495,4,5.200000,0
291.987680,10,540,5,5.120000,0
291.992800,11,585,5,5.184000,0
291.997984,12,630,6,5.040000,0
292.003024,13,675,6,4.928000,0
292.007952,14,720,7,5.104000,0
292.013056,15,765,7,4.928000,0
292.017984,16,810,8,4.880000,0
292.022864,17,855,8,4.928000,0
292.027792,18,900,9,5.104000,0
292.032896,19,945,9,4.928000,0
292.037824,20,990,10,4.816000,0
292.042640,21,1035,10,4.608000,0
292.047248,22,1080,11,5.088000,0
292.052336,23,1125,11,5.184000,0
292.057520,24,1170,12,5.136000,0
292.062656,25,1215,12,4.928000,0
292.067584,26,1260,13,5.072000,0
292.072656,27,1305,13,0,31351.408000
323.424064,27,1350,13,4.672000,0
323.428736,28,1395,14,4.800000,0
323.433536,29,1440,14,4.672000,0
323.438208,30,1485,15,4.928000,0
323.443136,31,1530,15,4.928000,0
323.448064,32,1575,16,4.720000,0
323.452784,33,1620,16,5.184000,0
323.457968,34,1665,17,4.640000,0
323.462608,35,1710,17,4.672000,0
323.467280,36,1755,18,5.168000,0
323.472448,37,1800,18,5.184000,0
323.477632,38,1845,19,5.056000,0
323.482688,39,1890,19,5.184000,0
323.487872,40,1935,20,4.880000,0
323.492752,41,1980,20,4.672000,0
323.497424,42,2025,21,4.720000,0
323.502144,43,2070,21,4.672000,0
323.506816,44,2115,22,4.592000,0
323.511408,45,2160,22,4.928000,0
323.516336,46,2205,23,5.024000,0
323.521360,47,2250,23,4.608000,0
323.525968,48,2295,24,0,31355.376000
354.881344,48,2340,24,5.088000,0
354.886432,49,2385,24,5.120000,0
354.891552,50,2430,25,4.576000,0
354.896128,51,2475,25,4.608000,0
354.900736,52,2520,26,5.088000,0
354.905824,53,2565,26,5.184000,0
354.911008,54,2610,27,5.232000,0
354.916240,55,2655,27,5.184000,0
354.921424,56,2700,28,4.800000,0
354.926224,57,2745,28,4.672000,0
354.930896,58,2790,29,4.672000,0
354.935568,59,2835,29,4.672000,0
354.940240,60,2880,30,4.816000,0
354.945056,61,2925,30,4.688000,0
354.949744,62,2970,31,5.120000,0
354.954864,63,3015,31,4.928000,0
354.959792,64,3060,32,5.040000,0
354.964832,65,3105,32,4.672000,0
354.969504,66,3150,33,5.104000,0
354.974608,67,3195,33,4.928000,0
354.979536,68,3240,34,4.880000,0
354.984416,69,3285,34,0,31354.208000
386.338624,69,3330,34,5.184000,0
386.343808,70,3375,35,4.592000,0
386.348400,71,3420,35,4.928000,0
386.353328,72,3465,36,5.328000,0
386.358656,73,3510,36,4.864000,0
386.363520,74,3555,37,4.832000,0
386.368352,75,3600,37,4.928000,0
386.373280,76,3645,38,4.624000,0
386.377904,77,3690,38,4.672000,0
386.382576,78,3735,39,5.072000,0
386.387648,79,3780,39,5.184000,0
386.392832,80,3825,40,5.312000,0
386.398144,81,3870,40,5.184000,0
386.403328,82,3915,41,4.672000,0
386.408000,83,3960,41,4.928000,0
386.412928,84,4005,42,4.720000,0
386.417648,85,4050,42,5.184000,0
386.422832,86,4095,43,5.152000,0
386.427984,87,4140,43,4.928000,0
386.432912,88,4185,44,4.912000,0
386.437824,89,4230,44,5.184000,0
386.443008,90,4275,45,0,31352.896000
417.795904,90,4320,45,4.800000,0
417.800704,91,4365,45,4.928000,0
417.805632,92,4410,46,4.880000,0
417.810512,93,4455,46,4.928000,0
417.815440,94,4500,47,4.976000,0
417.820416,95,4545,47,4.672000,0
417.825088,96,4590,48,4.848000,0
417.829936,97,4635,48,4.672000,0
417.834608,98,4680,49,5.024000,0
417.839632,99,4725,49,4.864000,0
417.844496,100,4770,50,4.576000,0
417.849072,101,4815,50,4.608000,0
417.853680,102,4860,51,5.088000,0
417.858768,103,4905,51,4.864000,0
417.863632,104,4950,52,4.832000,0
417.868464,105,4995,52,4.672000,0
417.873136,106,5040,53,5.232000,0
417.878368,107,5085,53,4.672000,0
417.883040,108,5130,54,5.056000,0
417.888096,109,5175,54,4.672000,0
417.892768,110,5220,55,5.184000,0
417.897952,111,5265,55,0,31355.232000
449.253184,111,5310,55,4.928000,0
449.258112,112,5355,56,5.328000,0
449.263440,113,5400,56,4.944000,0
449.268384,114,5445,57,4.608000,0
449.272992,115,5490,57,5.184000,0
449.278176,116,5535,58,5.296000,0
449.283472,117,5580,58,5.184000,0
449.288656,118,5625,59,4.592000,0
449.293248,119,5670,59,4.928000,0
449.298176,120,5715,60,5.136000,0
449.303312,121,5760,60,4.672000,0
449.307984,122,5805,61,4.848000,0
449.312832,123,5850,61,5.184000,0
449.318016,124,5895,62,5.328000,0
449.323344,125,5940,62,4.608000,0
449.327952,126,5985,63,5.088000,0
449.333040,127,6030,63,4.672000,0
449.337712,128,6075,64,5.136000,0
449.342848,129,6120,64,4.672000,0
449.347520,130,6165,65,4.816000,0
449.352336,131,6210,65,4.672000,0
449.357008,132,6255,66,