Time,CovertPackets,AllPackets,BitsSent,PacketInterval;GTSInterval
32.016784,1,30,0,3.712000,0
32.020496,2,45,1,4.016000,0
32.024512,3,60,1,3.712000,0
32.028224,4,75,2,4.352000,0
32.032576,5,90,2,3.712000,0
32.036288,6,105,3,4.224000,0
32.040512,7,120,3,3.968000,0
32.044480,8,135,4,4.368000,0
32.048848,9,150,4,3.728000,0
32.052576,10,165,5,3.648000,0
32.056224,11,180,5,3.712000,0
32.059936,12,195,6,4.336000,0
32.064272,13,210,6,3.968000,0
32.068240,14,225,7,0,1911.024000
33.979264,14,240,7,3.888000,0
33.983152,15,255,7,4.224000,0
33.987376,16,270,8,3.920000,0
33.991296,17,285,8,4.224000,0
33.995520,18,300,9,3.888000,0
33.999408,19,315,9,3.968000,0
34.003376,20,330,10,4.368000,0
34.007744,21,345,10,4.160000,0
34.011904,22,360,11,4.128000,0
34.016032,23,375,11,3.712000,0
34.019744,24,390,12,4.176000,0
34.023920,25,405,12,4.224000,0
34.028144,26,420,13,4.112000,0
34.032256,27,435,13,4.224000,0
34.036480,28,450,14,0,1908.864000
35.945344,28,465,14,3.840000,0
35.949184,29,480,14,3.968000,0
35.953152,30,495,15,3.712000,0
35.956864,31,510,15,4.224000,0
35.961088,32,525,16,4.272000,0
35.965360,33,540,16,4.224000,0
35.969584,34,555,17,4.192000,0
35.973776,35,570,17,4.224000,0
35.978000,36,585,18,3.952000,0
35.981952,37,600,18,4.224000,0
35.986176,38,615,19,3.840000,0
35.990016,39,630,19,4.224000,0
35.994240,40,645,20,3.664000,0
35.997904,41,660,20,3.712000,0
36.001616,42,675,21,0,1909.808000
37.911424,42,690,21,4.272000,0
37.915696,43,705,21,3.968000,0
37.919664,44,720,22,3.632000,0
37.923296,45,735,22,3.712000,0
37.927008,46,750,23,4.320000,0
37.931328,47,765,23,3.904000,0
37.935232,48,780,24,3.872000,0
37.939104,49,795,24,4.160000,0
37.943264,50,810,25,4.128000,0
37.947392,51,825,25,3.648000,0
37.951040,52,840,26,4.128000,0
37.955168,53,855,26,3.968000,0
37.959136,54,870,27,3.760000,0
37.962896,55,885,27,3.712000,0
37.966608,56,900,28,0,1910.896000
39.877504,56,915,28,4.096000,0
39.881600,57,930,28,4.224000,0
39.885824,58,945,29,3.712000,0
39.889536,59,960,29,3.712000,0
39.893248,60,975,30,4.368000,0
39.897616,61,990,30,3.728000,0
39.901344,62,1005,31,3.904000,0
39.905248,63,1020,31,3.712000,0
39.908960,64,1035,32,4.336000,0
39.913296,65,1050,32,4.224000,0
39.917520,66,1065,33,4.144000,0
39.921664,67,1080,33,4.224000,0
39.925888,68,1095,34,3.664000,0
39.929552,69,1110,34,3.712000,0
39.933264,70,1125,35,0,1910.320000
41.843584,70,1140,35,3.888000,0
41.847472,71,1155,35,3.712000,0
41.851184,72,1170,36,3.856000,0
41.855040,73,1185,36,4.160000,0
41.859200,74,1200,37,3.872000,0
41.863072,75,1215,37,3.712000,0
41.866784,76,1230,38,3.664000,0
41.870448,77,1245,38,4.224000,0
41.874672,78,1260,39,3.856000,0
41.878528,79,1275,39,4.224000,0
41.882752,80,1290,40,4.096000,0
41.886848,81,1305,40,3.968000,0
41.890816,82,1320,41,4.224000,0
41.895040,83,1335,41,3.712000,0
41.898752,84,1350,42,0,1910.912000
43.809664,84,1365,42,4.272000,0
43.813936,85,1380,42,3.712000,0
43.817648,86,1395,43,3.936000,0
43.821584,87,1410,43,4.224000,0
43.825808,88,1425,44,3.952000,0
43.829760,89,1440,44,4.224000,0
43.833984,90,1455,45,4.352000,0
43.838336,91,1470,45,4.224000,0
43.842560,92,1485,46,4.176000,0
43.846736,93,1500,46,4.224000,0
43.850960,94,1515,47,4.272000,0
43.855232,95,1530,47,4.224000,0
43.859456,96,1545,48,4.144000,0
43.863600,97,1560,48,0,1912.144000
45.775744,97,1575,48,3.712000,0
45.779456,98,1590,49,4.320000,0
45.783776,99,1605,49,3.904000,0
45.787680,100,1620,50,3.616000,0
45.791296,101,1635,50,4.160000,0
45.795456,102,1650,51,3.616000,0
45.799072,103,1665,51,3.648000,0
45.802720,104,1680,52,3.872000,0
45.806592,105,1695,52,3.712000,0
45.810304,106,1710,53,4.272000,0
45.814576,107,1725,53,3.968000,0
45.818544,108,1740,54,4.352000,0
45.822896,109,1755,54,3.712000,0
45.826608,110,1770,55,3.968000,0
45.830576,111,1785,55,0,1911.248000
47.741824,111,1800,55,3.712000,0
47.745536,112,1815,56,3.856000,0
47.749392,113,1830,56,3.728000,0
47.753120,114,1845,57,4.160000,0
47.757280,115,1860,57,3.712000,0
47.760992,116,1875,58,4.336000,0
47.765328,117,1890,58,4.224000,0
47.769552,118,1905,59,3.632000,0
47.773184,119,1920,59,4.224000,0
47.777408,120,1935,60,4.176000,0
47.781584,121,1950,60,4.224000,0
47.785808,122,1965,61,3.632000,0
47.789440,123,1980,61,3.712000,0
47.793152,124,1995,62,4.112000,0
47.797264,125,2010,62,0,1910.640000
49.707904,125,2025,62,3.648000,0
49.711552,126,2040,63,4.128000,0
49.715680,127,2055,63,4.224000,0
49.719904,128,2070,64,3.920000,0
49.723824,129,2085,64,4.224000,0
49.728048,130,2100,65,4.368000,0
49.732416,131,2115,65,3.968000,0
49.736384,132,2130,66,4.352000,0
49.740736,133,2145,66,4.224000,0
49.744960,134,2160,67,3.712000,0
49.748672,135,2175,67,3.968000,0
49.752640,136,2190,68,4.016000,0
49.756656,137,2205,68,4.224000,0
49.760880,138,2220,69,3.936000,0
49.764816,139,2235,69,0,1909.168000
51.673984,139,2250,69,4.224000,0
51.678208,140,2265,70,3.696000,0
51.681904,141,2280,70,4.224000,0
51.686128,142,2295,71,3.840000,0
51.689968,143,2310,71,4.224000,0
51.694192,144,2325,72,4.176000,0
51.698368,145,2340,72,3.712000,0
51.702080,146,2355,73,4.016000,0
51.706096,147,2370,73,4.224000,0
51.710320,148,2385,74,3.888000,0
51.714208,149,2400,74,3.968000,0
51.718176,150,2415,75,4.064000,0
51.722240,151,2430,75,3.648000,0
51.725888,152,2445,76,4.128000,0
51.730016,153,2460,76,0,1910.048000
53.640064,153,2475,76,3.904000,0
53.643968,154,2490,77,3.616000,0
53.647584,155,2505,77,3.904000,0
53.651488,156,2520,78,3.616000,0
53.655104,157,2535,78,3.712000,0
53.658816,158,2550,79,4.272000,0
53.663088,159,2565,79,4.224000,0
53.667312,160,2580,80,3.840000,0
53.671152,161,2595,80,3.712000,0
53.674864,162,2610,81,4.224000,0
53.679088,163,2625,81,3.712000,0
53.682800,164,2640,82,4.112000,0
53.686912,165,2655,82,3.984000,0
53.690896,166,2670,83,3.904000,0
53.694800,167,2685,83,0,1911.344000
55.606144,167,2700,83,4.224000,0
55.610368,168,2715,84,3.824000,0
55.614192,169,2730,84,3.712000,0
55.617904,170,2745,85,3.632000,0
55.621536,171,2760,85,3.712000,0
55.625248,172,2775,86,3.664000,0
55.628912,173,2790,86,3.968000,0
55.632880,174,2805,87,3.632000,0
55.636512,175,2820,87,3.968000,0
55.640480,176,2835,88,3.856000,0
55.644336,177,2850,88,3.904000,0
55.648240,178,2865,89,4.128000,0
55.652368,179,2880,89,3.968000,0
55.656336,180,2895,90,3.920000,0
55.660256,181,2910,90,0,1911.968000
57.572224,181,2925,90,3.968000,0
57.576192,182,2940,91,3.856000,0
57.580048,183,2955,91,4.224000,0
57.584272,184,2970,92,4.096000,0
57.588368,185,2985,92,3.712000,0
57.592080,186,3000,93,4.224000,0
57.596304,187,3015,93,3.712000,0
57.600016,188,3030,94,4.016000,0
57.604032,189,3045,94,3.712000,0
57.607744,190,3060,95,3.680000,0
57.611424,191,3075,95,4.224000,0
57.615648,192,3090,96,3.952000,0
57.619600,193,3105,96,3.968000,0
57.623568,194,3120,97,3.840000,0
57.627408,195,3135,97,0,1910.896000
59.538304,195,3150,97,4.224000,0
59.542528,196,3165,98,3.920000,0
59.546448,197,3180,98,3.968000,0
59.550416,198,3195,99,3.760000,0
59.554176,199,3210,99,4.224000,0
59.558400,200,3225,100,3.888000,0
59.562288,201,3240,100,4.224000,0
59.566512,202,3255,101,3.808000,0
59.570320,203,3270,101,3.648000,0
59.573968,204,3285,102,3.872000,0
59.577840,205,3300,102,3.648000,0
59.581488,206,3315,103,3.616000,0
59.585104,207,3330,103,3.904000,0
59.589008,208,3345,104,3.872000,0
59.592880,209,3360,104,0,1911.504000
61.504384,209,3375,104,3.712000,0
61.508096,210,3390,105,4.016000,0
61.512112,211,3405,105,3.712000,0
61.515824,212,3420,106,4.352000,0
61.520176,213,3435,106,3.968000,0
61.524144,214,3450,107,3.712000,0
61.527856,215,3465,107,4.224000,0
61.532080,216,3480,108,4.112000,0
61.536192,217,3495,108,3.984000,0
61.540176,218,3510,109,3.904000,0
61.544080,219,3525,109,4.224000,0
61.548304,220,3540,110,3.824000,0
61.552128,221,3555,110,4.224000,0
61.556352,222,3570,111,3.888000,0
61.560240,223,3585,111,0,1910.224000
63.470464,223,3600,111,3.968000,0
63.474432,224,3615,112,4.176000,0
63.478608,225,3630,112,3.712000,0
63.482320,226,3645,113,4.144000,0
63.486464,227,3660,113,3.712000,0
63.490176,228,3675,114,3.856000,0
63.494032,229,3690,114,4.160000,0
63.498192,230,3705,115,4.128000,0
63.502320,231,3720,115,4.224000,0
63.506544,232,3735,116,3.920000,0
63.510464,233,3750,116,3.968000,0
63.514432,234,3765,117,4.368000,0
63.518800,235,3780,117,4.224000,0
63.523024,236,3795,118,3.840000,0
63.526864,237,3810,118,0,1909.680000
65.436544,237,3825,118,3.968000,0
65.440512,238,3840,119,3.712000,0
65.444224,239,3855,119,4.224000,0
65.448448,240,3870,120,4.016000,0
65.452464,241,3885,120,4.224000,0
65.456688,242,3900,121,4.192000,0
65.460880,243,3915,121,3.968000,0
65.464848,244,3930,122,3.696000,0
65.468544,245,3945,122,4.224000,0
65.472768,246,3960,123,4.096000,0
65.476864,247,3975,123,3.968000,0
65.480832,248,3990,124,3.920000,0
65.484752,249,4005,124,4.224000,0
65.488976,250,4020,125,4.016000,0
65.492992,251,4035,125,0,1909.632000
67.402624,251,4050,125,3.712000,0
67.406336,252,4065,126,4.144000,0
67.410480,253,4080,126,3.712000,0
67.414192,254,4095,127,4.064000,0
67.418256,255,4110,127,4.160000,0
67.422416,256,4125,128,3.872000,0
67.426288,257,4140,128,3.904000,0
67.430192,258,4155,129,3.872000,0
67.434064,259,4170,129,3.648000,0
67.437712,260,4185,130,3.872000,0
67.441584,261,4200,130,3.712000,0
67.445296,262,4215,131,4.272000,0
67.449568,263,4230,131,3.712000,0
67.453280,264,4245,132,4.352000,0
67.457632,265,4260,132,0,1911.072000
69.368704,265,4275,132,3.712000,0
69.372416,266,4290,133,3.712000,0
69.376128,267,4305,133,3.712000,0
69.379840,268,4320,134,4.112000,0
69.383952,269,4335,134,4.240000,0
69.388192,270,4350,135,4.160000,0
69.392352,271,4365,135,4.224000,0
69.396576,272,4380,136,3.824000,0
69.400400,273,4395,136,3.712000,0
69.404112,274,4410,137,3.888000,0
69.408000,275,4425,137,3.968000,0
69.411968,276,4440,138,3.920000,0
69.415888,277,4455,138,3.712000,0
69.419600,278,4470,139,4.144000,0
69.423744,279,4485,139,0,1911.040000
71.334784,279,4500,139,3.968000,0
71.338752,280,4515,140,4.112000,0
71.342864,281,4530,140,3.648000,0
71.346512,282,4545,141,3.872000,0
71.350384,283,4560,141,3.712000,0
71.354096,284,4575,142,4.176000,0
71.358272,285,4590,142,3.968000,0
71.362240,286,4605,143,4.112000,0
71.366352,287,4620,143,3.712000,0
71.370064,288,4635,144,4.096000,0
71.374160,289,4650,144,3.968000,0
71.378128,290,4665,145,3.712000,0
71.381840,291,4680,145,4.224000,0
71.386064,292,4695,146,0,1914.800000
73.300864,292,4710,146,4.016000,0
73.304880,293,4725,146,3.968000,0
73.308848,294,4740,147,3.680000,0
73.312528,295,4755,147,4.224000,0
73.316752,296,4770,148,3.696000,0
73.320448,297,4785,148,4.224000,0
73.324672,298,4800,149,3.840000,0
73.328512,299,4815,149,3.968000,0
73.332480,300,4830,150,4.176000,0
73.336656,301,4845,150,3.968000,0
73.340624,302,4860,151,3.760000,0
73.344384,303,4875,151,3.712000,0
73.348096,304,4890,152,3.888000,0
73.351984,305,4905,152,3.712000,0
73.355696,306,4920,153,0,1911.248000
75.266944,306,4935,153,4.064000,0
75.271008,307,4950,153,3.904000,0
75.274912,308,4965,154,3.616000,0
75.278528,309,4980,154,3.904000,0
75.282432,310,4995,155,3.872000,0
75.286304,311,5010,155,3.648000,0
75.289952,312,5025,156,4.128000,0
75.294080,313,5040,156,4.224000,0
75.298304,314,5055,157,3.760000,0
75.302064,315,5070,157,3.712000,0
75.305776,316,5085,158,4.352000,0
75.310128,317,5100,158,4.224000,0
75.314352,318,5115,159,3.968000,0
75.318320,319,5130,159,3.712000,0
75.322032,320,5145,160,0,1910.992000
77.233024,320,5160,160,4.368000,0
77.237392,321,5175,160,3.728000,0
77.241120,322,5190,161,3.904000,0
77.245024,323,5205,161,3.712000,0
77.248736,324,5220,162,4.080000,0
77.252816,325,5235,162,3.712000,0
77.256528,326,5250,163,4.144000,0
77.260672,327,5265,163,4.224000,0
77.264896,328,5280,164,3.664000,0
77.268560,329,5295,164,4.224000,0
77.272784,330,5310,165,3.632000,0
77.276416,331,5325,165,3.712000,0
77.280128,332,5340,166,3.856000,0
77.283984,333,5355,166,3.904000,0
77.287888,334,5370,167,0,1911.216000
79.199104,334,5385,167,3.616000,0
79.202720,335,5400,167,4.224000,0
79.206944,336,5415,168,3.920000,0
79.210864,337,5430,168,4.224000,0
79.215088,338,5445,169,4.368000,0
79.219456,339,5460,169,4.224000,0
79.223680,340,5475,170,4.352000,0
79.228032,341,5490,170,4.224000,0
79.232256,342,5505,171,3.968000,0
79.236224,343,5520,171,3.968000,0
79.240192,344,5535,172,3.760000,0
79.243952,345,5550,172,4.224000,0
79.248176,346,5565,173,4.192000,0
79.252368,347,5580,173,3.712000,0
79.256080,348,5595,174,0,1909.104000
81.165184,348,5610,174,4.208000,0
81.169392,349,5625,174,3.712000,0
81.173104,350,5640,175,3.840000,0
81.176944,351,5655,175,3.712000,0
81.180656,352,5670,176,3.920000,0
81.184576,353,5685,176,3.968000,0
81.188544,354,5700,177,4.016000,0
81.192560,355,5715,177,4.224000,0
81.196784,356,5730,178,4.144000,0
81.200928,357,5745,178,4.224000,0
81.205152,358,5760,179,3.808000,0
81.208960,359,5775,179,3.648000,0
81.212608,360,5790,180,3.616000,0
81.216224,361,5805,180,3.648000,0
81.219872,362,5820,181,0,1911.392000
83.131264,362,5835,181,3.616000,0
83.134880,363,5850,181,3.904000,0
83.138784,364,5865,182,3.616000,0
83.142400,365,5880,182,3.712000,0
83.146112,366,5895,183,4.016000,0
83.150128,367,5910,183,3.712000,0
83.153840,368,5925,184,3.840000,0
83.157680,369,5940,184,3.968000,0
83.161648,370,5955,185,3.712000,0
83.165360,371,5970,185,3.712000,0
83.169072,372,5985,186,3.856000,0
83.172928,373,6000,186,3.984000,0
83.176912,374,6015,187,3.904000,0
83.180816,375,6030,187,3.712000,0
83.184528,376,6045,188,0,1912.816000
85.097344,376,6060,188,3.824000,0
85.101168,377,6075,188,3.968000,0
85.105136,378,6090,189,3.632000,0
85.108768,379,6105,189,3.968000,0
85.112736,380,6120,190,3.664000,0
85.116400,381,6135,190,4.224000,0
85.120624,382,6150,191,4.144000,0
85.124768,383,6165,191,3.968000,0
85.128736,384,6180,192,4.112000,0
85.132848,385,6195,192,4.160000,0
85.137008,386,6210,193,3.616000,0
85.140624,387,6225,193,4.224000,0
85.144848,388,6240,194,4.176000,0
85.149024,389,6255,194,4.224000,0
85.153248,390,6270,195,0,1910.176000
87.063424,390,6285,195,4.112000,0
87.067536,391,6300,195,3.968000,0
87.071504,392,6315,196,3.840000,0
87.075344,393,6330,196,3.712000,0
87.079056,394,6345,197,3.712000,0
87.082768,395,6360,197,3.968000,0
87.086736,396,6375,198,4.272000,0
87.091008,397,6390,198,4.224000,0
87.095232,398,6405,199,4.192000,0
87.099424,399,6420,199,3.712000,0
87.103136,400,6435,200,3.696000,0
87.106832,401,6450,200,4.224000,0
87.111056,402,6465,201,3.840000,0
87.114896,403,6480,201,4.224000,0
87.119120,404,6495,202,0,1910.384000
89.029504,404,6510,202,3.920000,0
89.033424,405,6525,202,3.968000,0
89.037392,406,6540,203,4.272000,0
89.041664,407,6555,203,4.224000,0
89.045888,408,6570,204,4.144000,0
89.050032,409,6585,204,3.968000,0
89.054000,410,6600,205,3.808000,0
89.057808,411,6615,205,3.648000,0
89.061456,412,6630,206,3.616000,0
89.065072,413,6645,206,3.648000,0
89.068720,414,6660,207,4.128000,0
89.072848,415,6675,207,3.904000,0
89.076752,416,6690,208,3.872000,0
89.080624,417,6705,208,3.968000,0
89.084592,418,6720,209,0,1910.992000
90.995584,418,6735,209,4.016000,0
90.999600,419,6750,209,3.968000,0
91.003568,420,6765,210,4.352000,0
91.007920,421,6780,210,3.712000,0
91.011632,422,6795,211,4.224000,0
91.015856,423,6810,211,4.224000,0
91.020080,424,6825,212,4.368000,0
91.024448,425,6840,212,4.240000,0
91.028688,426,6855,213,3.904000,0
91.032592,427,6870,213,4.224000,0
91.036816,428,6885,214,4.336000,0
91.041152,429,6900,214,3.712000,0
91.044864,430,6915,215,3.888000,0
91.048752,431,6930,215,0,1912.912000
92.961664,431,6945,215,4.224000,0
92.965888,432,6960,216,3.920000,0
92.969808,433,6975,216,3.968000,0
92.973776,434,6990,217,4.144000,0
92.977920,435,7005,217,4.224000,0
92.982144,436,7020,218,4.368000,0
92.986512,437,7035,218,4.160000,0
92.990672,438,7050,219,3.616000,0
92.994288,439,7065,219,4.224000,0
92.998512,440,7080,220,4.176000,0
93.002688,441,7095,220,4.224000,0
93.006912,442,7110,221,3.856000,0
93.010768,443,7125,221,4.224000,0
93.014992,444,7140,222,3.840000,0
93.018832,445,7155,222,0,1908.912000
94.927744,445,7170,222,4.224000,0
94.931968,446,7185,223,3.968000,0
94.935936,447,7200,223,3.968000,0
94.939904,448,7215,224,4.272000,0
94.944176,449,7230,224,3.712000,0
94.947888,450,7245,225,4.192000,0
94.952080,451,7260,225,3.968000,0
94.956048,452,7275,226,3.696000,0
94.959744,453,7290,226,4.224000,0
94.963968,454,7305,227,3.840000,0
94.967808,455,7320,227,3.968000,0
94.971776,456,7335,228,3.920000,0
94.975696,457,7350,228,3.712000,0
94.979408,458,7365,229,3.760000,0
94.983168,459,7380,229,0,1910.656000
96.893824,459,7395,229,3.968000,0
96.897792,460,7410,230,4.144000,0
96.901936,461,7425,230,3.712000,0
96.905648,462,7440,231,4.320000,0
96.909968,463,7455,231,3.904000,0
96.913872,464,7470,232,4.128000,0
96.918000,465,7485,232,3.648000,0
96.921648,466,7500,233,3.872000,0
96.925520,467,7515,233,3.648000,0
96.929168,468,7530,234,3.872000,0
96.933040,469,7545,234,3.712000,0
96.936752,470,7560,235,4.272000,0
96.941024,471,7575,235,3.968000,0
96.944992,472,7590,236,4.352000,0
96.949344,473,7605,236,0,1910.560000
98.859904,473,7620,236,3.968000,0
98.863872,474,7635,237,3.712000,0
98.867584,475,7650,237,3.968000,0
98.871552,476,7665,238,4.368000,0
98.875920,477,7680,238,3.984000,0
98.879904,478,7695,239,4.160000,0
98.884064,479,7710,239,3.968000,0
98.888032,480,7725,240,3.824000,0
98.891856,481,7740,240,4.224000,0
98.896080,482,7755,241,3.632000,0
98.899712,483,7770,241,3.712000,0
98.903424,484,7785,242,3.664000,0
98.907088,485,7800,242,4.224000,0
98.911312,486,7815,243,3.888000,0
98.915200,487,7830,243,0,1910.784000
100.825984,487,7845,243,3.712000,0
100.829696,488,7860,244,4.368000,0
100.834064,489,7875,244,3.904000,0
100.837968,490,7890,245,3.872000,0
100.841840,491,7905,245,4.224000,0
100.846064,492,7920,246,4.176000,0
100.850240,493,7935,246,3.712000,0
100.853952,494,7950,247,4.112000,0
100.858064,495,7965,247,3.712000,0
100.861776,496,7980,248,4.352000,0
100.866128,497,7995,248,4.224000,0
100.870352,498,8010,249,3.712000,0
100.874064,499,8025,249,3.968000,0
100.878032,500,8040,250,3.760000,0
100.881792,501,8055,250,0,1910.272000
102.792064,501,8070,250,4.224000,0
102.796288,502,8085,251,3.936000,0
102.800224,503,8100,251,3.712000,0
102.803936,504,8115,252,3.952000,0
102.807888,505,8130,252,3.712000,0
102.811600,506,8145,253,3.840000,0
102.815440,507,8160,253,3.712000,0
102.819152,508,8175,254,4.176000,0
102.823328,509,8190,254,4.224000,0
102.827552,510,8205,255,4.272000,0
102.831824,511,8220,255,4.224000,0
102.836048,512,8235,256,3.888000,0
102.839936,513,8250,256,3.968000,0
102.843904,514,8265,257,4.320000,0
102.848224,515,8280,257,0,1909.920000
104.758144,515,8295,257,3.648000,0
104.761792,516,8310,258,4.128000,0
104.765920,517,8325,258,3.648000,0
104.769568,518,8340,259,3.616000,0
104.773184,519,8355,259,3.904000,0
104.777088,520,8370,260,3.872000,0
104.780960,521,8385,260,3.712000,0
104.784672,522,8400,261,3.760000,0
104.788432,523,8415,261,3.712000,0
104.792144,524,8430,262,4.352000,0
104.796496,525,8445,262,3.968000,0
104.800464,526,8460,263,3.712000,0
104.804176,527,8475,263,3.968000,0
104.808144,528,8490,264,4.368000,0
104.812512,529,8505,264,0,1911.712000
106.724224,529,8520,264,4.240000,0
106.728464,530,8535,265,4.160000,0
106.732624,531,8550,265,3.712000,0
106.736336,532,8565,266,4.080000,0
106.740416,533,8580,266,4.224000,0
106.744640,534,8595,267,4.144000,0
106.748784,535,8610,267,3.968000,0
106.752752,536,8625,268,3.664000,0
106.756416,537,8640,268,3.968000,0
106.760384,538,8655,269,3.888000,0
106.764272,539,8670,269,4.224000,0
106.768496,540,8685,270,4.368000,0
106.772864,541,8700,270,3.904000,0
106.776768,542,8715,271,3.616000,0
106.780384,543,8730,271,0,1909.920000
108.690304,543,8745,271,3.712000,0
108.694016,544,8760,272,4.176000,0
108.698192,545,8775,272,3.968000,0
108.702160,546,8790,273,3.856000,0
108.706016,547,8805,273,3.968000,0
108.709984,548,8820,274,4.352000,0
108.714336,549,8835,274,4.224000,0
108.718560,550,8850,275,3.712000,0
108.722272,551,8865,275,4.224000,0
108.726496,552,8880,276,4.272000,0
108.730768,553,8895,276,4.224000,0
108.734992,554,8910,277,3.680000,0
108.738672,555,8925,277,3.968000,0
108.742640,556,8940,278,3.952000,0
108.746592,557,8955,278,0,1909.792000
110.656384,557,8970,278,4.224000,0
110.660608,558,8985,279,4.096000,0
110.664704,559,9000,279,3.712000,0
110.668416,560,9015,280,3.920000,0
110.672336,561,9030,280,3.968000,0
110.676304,562,9045,281,4.016000,0
110.680320,563,9060,281,3.712000,0
110.684032,564,9075,282,3.632000,0
110.687664,565,9090,282,4.224000,0
110.691888,566,9105,283,4.320000,0
110.696208,567,9120,283,3.648000,0
110.699856,568,9135,284,3.872000,0
110.703728,569,9150,284,3.904000,0
110.707632,570,9165,285,3.872000,0
110.711504,571,9180,285,0,1910.960000
112.622464,571,9195,285,4.160000,0
112.626624,572,9210,286,3.616000,0
112.630240,573,9225,286,4.224000,0
112.634464,574,9240,287,4.016000,0
112.638480,575,9255,287,3.712000,0
112.642192,576,9270,288,4.096000,0
112.646288,577,9285,288,3.968000,0
112.650256,578,9300,289,3.968000,0
112.654224,579,9315,289,3.968000,0
112.658192,580,9330,290,4.112000,0
112.662304,581,9345,290,3.728000,0
112.666032,582,9360,291,3.648000,0
112.669680,583,9375,291,4.224000,0
112.673904,584,9390,292,4.080000,0
112.677984,585,9405,292,0,1910.560000
114.588544,585,9420,292,3.968000,0
114.592512,586,9435,293,4.144000,0
114.596656,587,9450,293,3.712000,0
114.600368,588,9465,294,3.920000,0
114.604288,589,9480,294,3.712000,0
114.608000,590,9495,295,4.144000,0
114.612144,591,9510,295,3.968000,0
114.616112,592,9525,296,4.368000,0
114.620480,593,9540,296,4.160000,0
114.624640,594,9555,297,3.872000,0
114.628512,595,9570,297,4.224000,0
114.632736,596,9585,298,3.920000,0
114.636656,597,9600,298,3.712000,0
114.640368,598,9615,299,4.368000,0
114.644736,599,9630,299,0,1909.888000
116.554624,599,9645,299,4.224000,0
116.558848,600,9660,300,4.352000,0
116.563200,601,9675,300,4.224000,0
116.567424,602,9690,301,4.224000,0
116.571648,603,9705,301,3.968000,0
116.575616,604,9720,302,4.016000,0
116.579632,605,9735,302,4.224000,0
116.583856,606,9750,303,3.680000,0
116.587536,607,9765,303,3.712000,0
116.591248,608,9780,304,3.952000,0
116.595200,609,9795,304,3.968000,0
116.599168,610,9810,305,3.840000,0
116.603008,611,9825,305,4.224000,0
116.607232,612,9840,306,3.664000,0
116.610896,613,9855,306,0,1909.808000
118.520704,613,9870,306,4.224000,0
118.524928,614,9885,307,4.016000,0
118.528944,615,9900,307,3.968000,0
118.532912,616,9915,308,3.632000,0
118.536544,617,9930,308,3.712000,0
118.540256,618,9945,309,4.064000,0
118.544320,619,9960,309,4.160000,0
118.548480,620,9975,310,3.872000,0
118.552352,621,9990,310,3.904000,0
118.556256,622,10005,311,4.128000,0
118.560384,623,10020,311,4.160000,0
118.564544,624,10035,312,3.872000,0
118.568416,625,10050,312,4.224000,0
118.572640,626,10065,313,3.760000,0
118.576400,627,10080,313,0,1910.384000
120.486784,627,10095,313,3.712000,0
120.490496,628,10110,314,3.840000,0
120.494336,629,10125,314,3.712000,0
120.498048,630,10140,315,3.968000,0
120.502016,631,10155,315,4.224000,0
120.506240,632,10170,316,3.856000,0
120.510096,633,10185,316,3.984000,0
120.514080,634,10200,317,3.904000,0
120.517984,635,10215,317,3.968000,0
120.521952,636,10230,318,4.336000,0
120.526288,637,10245,318,3.968000,0
120.530256,638,10260,319,3.632000,0
120.533888,639,10275,319,3.968000,0
120.537856,640,10290,320,3.664000,0
120.541520,641,10305,320,0,1911.344000
122.452864,641,10320,320,3.712000,0
122.456576,642,10335,321,3.888000,0
122.460464,643,10350,321,4.224000,0
122.464688,644,10365,322,3.856000,0
122.468544,645,10380,322,3.904000,0
122.472448,646,10395,323,4.128000,0
122.476576,647,10410,323,3.712000,0
122.480288,648,10425,324,4.176000,0
122.484464,649,10440,324,3.968000,0
122.488432,650,10455,325,3.856000,0
122.492288,651,10470,325,3.968000,0
122.496256,652,10485,326,4.096000,0
122.500352,653,10500,326,3.968000,0
122.504320,654,10515,327,4.224000,0
122.508544,655,10530,327,0,1910.400000
124.418944,655,10545,327,3.712000,0
124.422656,656,10560,328,3.760000,0
124.426416,657,10575,328,3.712000,0
124.430128,658,10590,329,4.192000,0
124.434320,659,10605,329,3.968000,0
124.438288,660,10620,330,3.696000,0
124.441984,661,10635,330,3.968000,0
124.445952,662,10650,331,4.096000,0
124.450048,663,10665,331,4.224000,0
124.454272,664,10680,332,4.176000,0
124.458448,665,10695,332,3.712000,0
124.462160,666,10710,333,3.760000,0
124.465920,667,10725,333,3.968000,0
124.469888,668,10740,334,3.888000,0
124.473776,669,10755,334,0,1911.248000
126.385024,669,10770,334,3.712000,0
126.388736,670,10785,335,4.320000,0
126.393056,671,10800,335,4.160000,0
126.397216,672,10815,336,4.128000,0
126.401344,673,10830,336,4.160000,0
126.405504,674,10845,337,3.872000,0
126.409376,675,10860,337,3.648000,0
126.413024,676,10875,338,4.128000,0
126.417152,677,10890,338,3.968000,0
126.421120,678,10905,339,4.272000,0
126.425392,679,10920,339,4.224000,0
126.429616,680,10935,340,4.352000,0
126.433968,681,10950,340,4.224000,0
126.438192,682,10965,341,3.968000,0
126.442160,683,10980,341,0,1908.944000
128.351104,683,10995,341,3.968000,0
128.355072,684,11010,342,4.112000,0
128.359184,685,11025,342,3.728000,0
128.362912,686,11040,343,3.648000,0
128.366560,687,11055,343,3.712000,0
128.370272,688,11070,344,3.824000,0
128.374096,689,11085,344,3.712000,0
128.377808,690,11100,345,3.632000,0
128.381440,691,11115,345,3.968000,0
128.385408,692,11130,346,3.664000,0
128.389072,693,11145,346,4.224000,0
128.393296,694,11160,347,4.144000,0
128.397440,695,11175,347,4.224000,0
128.401664,696,11190,348,4.112000,0
128.405776,697,11205,348,0,1911.408000
130.317184,697,11220,348,4.160000,0
130.321344,698,11235,349,4.128000,0
130.325472,699,11250,349,3.968000,0
130.329440,700,11265,350,3.920000,0
130.333360,701,11280,350,3.712000,0
130.337072,702,11295,351,4.112000,0
130.341184,703,11310,351,3.712000,0
130.344896,704,11325,352,4.352000,0
130.349248,705,11340,352,3.968000,0
130.353216,706,11355,353,3.968000,0
130.357184,707,11370,353,3.968000,0
130.361152,708,11385,354,4.272000,0
130.365424,709,11400,354,4.224000,0
130.369648,710,11415,355,4.192000,0
130.373840,711,11430,355,0,1909.424000
132.283264,711,11445,355,3.968000,0
132.287232,712,11460,356,3.952000,0
132.291184,713,11475,356,3.712000,0
132.294896,714,11490,357,4.096000,0
132.298992,715,11505,357,3.712000,0
132.302704,716,11520,358,3.920000,0
132.306624,717,11535,358,3.712000,0
132.310336,718,11550,359,3.760000,0
132.314096,719,11565,359,3.712000,0
132.317808,720,11580,360,3.888000,0
132.321696,721,11595,360,3.968000,0
132.325664,722,11610,361,4.320000,0
132.329984,723,11625,361,3.904000,0
132.333888,724,11640,362,4.128000,0
132.338016,725,11655,362,0,1911.328000
134.249344,725,11670,362,3.648000,0
134.252992,726,11685,363,3.872000,0
134.256864,727,11700,363,4.160000,0
134.261024,728,11715,364,4.128000,0
134.265152,729,11730,364,3.712000,0
134.268864,730,11745,365,4.272000,0
134.273136,731,11760,365,3.968000,0
134.277104,732,11775,366,4.352000,0
134.281456,733,11790,366,3.968000,0
134.285424,734,11805,367,3.712000,0
134.289136,735,11820,367,4.224000,0
134.293360,736,11835,368,4.368000,0
134.297728,737,11850,368,3.728000,0
134.301456,738,11865,369,3.648000,0
134.305104,739,11880,369,0,1910.320000
136.215424,739,11895,369,3.968000,0
136.219392,740,11910,370,3.824000,0
136.223216,741,11925,370,4.224000,0
136.227440,742,11940,371,3.888000,0
136.231328,743,11955,371,3.968000,0
136.235296,744,11970,372,4.176000,0
136.239472,745,11985,372,3.968000,0
136.243440,746,12000,373,3.888000,0
136.247328,747,12015,373,4.224000,0
136.251552,748,12030,374,4.112000,0
136.255664,749,12045,374,4.160000,0
136.259824,750,12060,375,3.872000,0
136.263696,751,12075,375,3.712000,0
136.267408,752,12090,376,0,1914.096000
138.181504,752,12105,376,3.920000,0
138.185424,753,12120,376,3.968000,0
138.189392,754,12135,377,3.856000,0
138.193248,755,12150,377,3.712000,0
138.196960,756,12165,378,3.840000,0
138.200800,757,12180,378,3.968000,0
138.204768,758,12195,379,4.224000,0
138.208992,759,12210,379,3.968000,0
138.212960,760,12225,380,4.016000,0
138.216976,761,12240,380,4.224000,0
138.221200,762,12255,381,4.192000,0
138.225392,763,12270,381,3.968000,0
138.229360,764,12285,382,3.696000,0
138.233056,765,12300,382,0,1914.528000
140.147584,765,12315,382,3.968000,0
140.151552,766,12330,383,4.352000,0
140.155904,767,12345,383,3.968000,0
140.159872,768,12360,384,3.920000,0
140.163792,769,12375,384,3.712000,0
140.167504,770,12390,385,4.016000,0
140.171520,771,12405,385,3.712000,0
140.175232,772,12420,386,3.632000,0
140.178864,773,12435,386,4.224000,0
140.183088,774,12450,387,4.320000,0
140.187408,775,12465,387,3.904000,0
140.191312,776,12480,388,0,1922.352000
142.113664,776,12495,388,3.616000,0
142.117280,777,12510,388,3.648000,0
142.120928,778,12525,389,3.872000,0
142.124800,779,12540,389,3.648000,0
142.128448,780,12555,390,4.128000,0
142.132576,781,12570,390,3.968000,0
142.136544,782,12585,391,4.272000,0
142.140816,783,12600,391,4.224000,0
142.145040,784,12615,392,4.352000,0
142.149392,785,12630,392,4.224000,0
142.153616,786,12645,393,3.968000,0
142.157584,787,12660,393,3.712000,0
142.161296,788,12675,394,3.856000,0
142.165152,789,12690,394,3.728000,0
142.168880,790,12705,395,0,1910.864000
144.079744,790,12720,395,3.648000,0
144.083392,791,12735,395,4.224000,0
144.087616,792,12750,396,3.824000,0
144.091440,793,12765,396,3.712000,0
144.095152,794,12780,397,4.144000,0
144.099296,795,12795,397,3.712000,0
144.103008,796,12810,398,3.920000,0
144.106928,797,12825,398,3.968000,0
144.110896,798,12840,399,3.632000,0
144.114528,799,12855,399,3.712000,0
144.118240,800,12870,400,4.368000,0
144.122608,801,12885,400,3.904000,0
144.126512,802,12900,401,4.128000,0
144.130640,803,12915,401,4.224000,0
144.134864,804,12930,402,0,1910.960000
146.045824,804,12945,402,3.664000,0
146.049488,805,12960,402,4.224000,0
146.053712,806,12975,403,3.856000,0
146.057568,807,12990,403,3.712000,0
146.061280,808,13005,404,4.096000,0
146.065376,809,13020,404,3.712000,0
146.069088,810,13035,405,3.712000,0
146.072800,811,13050,405,3.712000,0
146.076512,812,13065,406,3.760000,0
146.080272,813,13080,406,3.968000,0
146.084240,814,13095,407,3.936000,0
146.088176,815,13110,407,3.712000,0
146.091888,816,13125,408,3.952000,0
146.095840,817,13140,408,4.224000,0
146.100064,818,13155,409,0,1911.840000
148.011904,818,13170,409,4.352000,0
148.016256,819,13185,409,4.224000,0
148.020480,820,13200,410,3.664000,0
148.024144,821,13215,410,3.968000,0
148.028112,822,13230,411,4.016000,0
148.032128,823,13245,411,4.224000,0
148.036352,824,13260,412,3.888000,0
148.040240,825,13275,412,4.224000,0
148.044464,826,13290,413,4.320000,0
148.048784,827,13305,413,3.904000,0
148.052688,828,13320,414,3.872000,0
148.056560,829,13335,414,3.648000,0
148.060208,830,13350,415,4.128000,0
148.064336,831,13365,415,4.160000,0
148.068496,832,13380,416,0,1909.488000
149.977984,832,13395,416,3.648000,0
149.981632,833,13410,416,4.128000,0
149.985760,834,13425,417,3.712000,0
149.989472,835,13440,417,3.760000,0
149.993232,836,13455,418,4.224000,0
149.997456,837,13470,418,4.096000,0
150.001552,838,13485,419,3.712000,0
150.005264,839,13500,419,4.224000,0
150.009488,840,13515,420,4.224000,0
150.013712,841,13530,420,4.112000,0
150.017824,842,13545,421,3.984000,0
150.021808,843,13560,421,4.160000,0
150.025968,844,13575,422,3.712000,0
150.029680,845,13590,422,4.080000,0
150.033760,846,13605,423,0,1910.304000
151.944064,846,13620,423,3.968000,0
151.948032,847,13635,423,4.144000,0
151.952176,848,13650,424,4.224000,0
151.956400,849,13665,424,4.176000,0
151.960576,850,13680,425,3.968000,0
151.964544,851,13695,425,3.632000,0
151.968176,852,13710,426,3.968000,0
151.972144,853,13725,426,3.856000,0
151.976000,854,13740,427,3.904000,0
151.979904,855,13755,427,3.616000,0
151.983520,856,13770,428,4.224000,0
151.987744,857,13785,428,3.920000,0
151.991664,858,13800,429,4.224000,0
151.995888,859,13815,429,3.856000,0
151.999744,860,13830,430,0,1910.400000
153.910144,860,13845,430,4.224000,0
153.914368,861,13860,430,3.840000,0
153.918208,862,13875,431,3.712000,0
153.921920,863,13890,431,3.712000,0
153.925632,864,13905,432,3.968000,0
153.929600,865,13920,432,4.272000,0
153.933872,866,13935,433,4.224000,0
153.938096,867,13950,433,3.680000,0
153.941776,868,13965,434,3.968000,0
153.945744,869,13980,434,4.208000,0
153.949952,870,13995,435,3.712000,0
153.953664,871,14010,435,3.840000,0
153.957504,872,14025,436,3.968000,0
153.961472,873,14040,436,3.920000,0
153.965392,874,14055,437,0,1910.832000
155.876224,874,14070,437,3.712000,0
155.879936,875,14085,437,3.760000,0
155.883696,876,14100,438,3.968000,0
155.887664,877,14115,438,4.144000,0
155.891808,878,14130,439,4.224000,0
155.896032,879,14145,439,3.808000,0
155.899840,880,14160,440,3.648000,0
155.903488,881,14175,440,3.616000,0
155.907104,882,14190,441,3.648000,0
155.910752,883,14205,441,3.616000,0
155.914368,884,14220,442,4.160000,0
155.918528,885,14235,442,3.872000,0
155.922400,886,14250,443,4.224000,0
155.926624,887,14265,443,4.016000,0
155.930640,888,14280,444,0,1911.664000
157.842304,888,14295,444,4.224000,0
157.846528,889,14310,444,4.352000,0
157.850880,890,14325,445,3.712000,0
157.854592,891,14340,445,3.712000,0
157.858304,892,14355,446,3.712000,0
157.862016,893,14370,446,3.856000,0
157.865872,894,14385,447,3.984000,0
157.869856,895,14400,447,4.160000,0
157.874016,896,14415,448,3.968000,0
157.877984,897,14430,448,3.824000,0
157.881808,898,14445,449,4.224000,0
157.886032,899,14460,449,3.632000,0
157.889664,900,14475,450,4.224000,0
157.893888,901,14490,450,3.664000,0
157.897552,902,14505,451,0,1910.832000
159.808384,902,14520,451,3.968000,0
159.812352,903,14535,451,3.632000,0
159.815984,904,14550,452,4.224000,0
159.820208,905,14565,452,4.112000,0
159.824320,906,14580,453,4.160000,0
159.828480,907,14595,453,4.128000,0
159.832608,908,14610,454,3.712000,0
159.836320,909,14625,454,3.664000,0
159.839984,910,14640,455,3.968000,0
159.843952,911,14655,455,4.368000,0
159.848320,912,14670,456,3.712000,0
159.852032,913,14685,456,3.840000,0
159.855872,914,14700,457,3.712000,0
159.859584,915,14715,457,3.712000,0
159.863296,916,14730,458,0,1911.168000
161.774464,916,14745,458,4.224000,0
161.778688,917,14760,458,4.272000,0
161.782960,918,14775,459,3.968000,0
161.786928,919,14790,459,4.192000,0
161.791120,920,14805,460,4.224000,0
161.795344,921,14820,460,3.696000,0
161.799040,922,14835,461,3.968000,0
161.803008,923,14850,461,4.096000,0
161.807104,924,14865,462,3.712000,0
161.810816,925,14880,462,4.176000,0
161.814992,926,14895,463,3.712000,0
161.818704,927,14910,463,3.760000,0
161.822464,928,14925,464,3.712000,0
161.826176,929,14940,464,4.144000,0
161.830320,930,14955,465,0,1910.224000
163.740544,930,14970,465,3.712000,0
163.744256,931,14985,465,4.320000,0
163.748576,932,15000,466,3.648000,0
163.752224,933,15015,466,3.616000,0
163.755840,934,15030,467,3.648000,0
163.759488,935,15045,467,3.872000,0
163.763360,936,15060,468,4.160000,0
163.767520,937,15075,468,4.128000,0
163.771648,938,15090,469,4.224000,0
163.775872,939,15105,469,3.760000,0
163.779632,940,15120,470,3.712000,0
163.783344,941,15135,470,4.352000,0
163.787696,942,15150,471,3.968000,0
163.791664,943,15165,471,3.712000,0
163.795376,944,15180,472,0,1911.248000
165.706624,944,15195,472,4.224000,0
165.710848,945,15210,472,3.856000,0
165.714704,946,15225,473,3.984000,0
165.718688,947,15240,473,3.904000,0
165.722592,948,15255,474,3.712000,0
165.726304,949,15270,474,4.080000,0
165.730384,950,15285,475,4.224000,0
165.734608,951,15300,475,3.888000,0
165.738496,952,15315,476,3.968000,0
165.742464,953,15330,476,4.176000,0
165.746640,954,15345,477,4.224000,0
165.750864,955,15360,477,3.632000,0
165.754496,956,15375,478,4.224000,0
165.758720,957,15390,478,3.856000,0
165.762576,958,15405,479,0,1910.128000
167.672704,958,15420,479,3.648000,0
167.676352,959,15435,479,3.872000,0
167.680224,960,15450,480,4.224000,0
167.684448,961,15465,480,3.664000,0
167.688112,962,15480,481,4.224000,0
167.692336,963,15495,481,3.856000,0
167.696192,964,15510,482,3.968000,0
167.700160,965,15525,482,4.352000,0
167.704512,966,15540,483,4.224000,0
167.708736,967,15555,483,4.224000,0
167.712960,968,15570,484,4.224000,0
167.717184,969,15585,484,4.272000,0
167.721456,970,15600,485,4.224000,0
167.725680,971,15615,485,3.680000,0
167.729360,972,15630,486,0,1909.424000
169.638784,972,15645,486,3.712000,0
169.642496,973,15660,486,3.952000,0
169.646448,974,15675,487,3.968000,0
169.650416,975,15690,487,4.352000,0
169.654768,976,15705,488,3.712000,0
169.658480,977,15720,488,3.664000,0
169.662144,978,15735,489,4.224000,0
169.666368,979,15750,489,4.272000,0
169.670640,980,15765,490,3.712000,0
169.674352,981,15780,490,3.632000,0
169.677984,982,15795,491,3.968000,0
169.681952,983,15810,491,3.808000,0
169.685760,984,15825,492,4.160000,0
169.689920,985,15840,492,4.128000,0
169.694048,986,15855,493,0,1910.816000
171.604864,986,15870,493,3.648000,0
171.608512,987,15885,493,3.872000,0
171.612384,988,15900,494,3.904000,0
171.616288,989,15915,494,3.872000,0
171.620160,990,15930,495,3.712000,0
171.623872,991,15945,495,3.760000,0
171.627632,992,15960,496,4.224000,0
171.631856,993,15975,496,4.096000,0
171.635952,994,15990,497,3.712000,0
171.639664,995,16005,497,3.712000,0
171.643376,996,16020,498,4.224000,0
171.647600,997,16035,498,4.112000,0
171.651712,998,16050,499,3.984000,0
171.655696,999,16065,499,3.904000,0
171.659600,1000,16080,500,0,1911.344000
173.570944,1000,16095,500,4.224000,0
173.575168,1001,16110,500,4.080000,0
173.579248,1002,16125,501,3.968000,0
173.583216,1003,16140,501,4.144000,0
173.587360,1004,16155,502,3.968000,0
173.591328,1005,16170,502,3.664000,0
173.594992,1006,16185,503,3.968000,0
173.598960,1007,16200,503,3.632000,0
173.602592,1008,16215,504,3.968000,0
173.606560,1009,16230,504,3.856000,0
173.610416,1010,16245,505,4.160000,0
173.614576,1011,16260,505,3.872000,0
173.618448,1012,16275,506,4.224000,0
173.622672,1013,16290,506,0,1914.352000
175.537024,1013,16305,506,3.664000,0
175.540688,1014,16320,507,3.968000,0
175.544656,1015,16335,507,3.856000,0
175.548512,1016,16350,508,4.224000,0
175.552736,1017,16365,508,4.096000,0
175.556832,1018,16380,509,3.712000,0
175.560544,1019,16395,509,3.712000,0
175.564256,1020,16410,510,3.712000,0
175.567968,1021,16425,510,4.016000,0
175.571984,1022,16440,511,3.712000,0
175.575696,1023,16455,511,3.936000,0
175.579632,1024,16470,512,3.712000,0
175.583344,1025,16485,512,3.696000,0
175.587040,1026,16500,513,3.968000,0
175.591008,1027,16515,513,0,1912.096000
177.503104,1027,16530,513,4.096000,0
177.507200,1028,16545,514,4.224000,0
177.511424,1029,16560,514,3.920000,0
177.515344,1030,16575,515,3.712000,0
177.519056,1031,16590,515,4.272000,0
177.523328,1032,16605,516,4.224000,0
177.527552,1033,16620,516,4.144000,0
177.531696,1034,16635,517,4.224000,0
177.535920,1035,16650,517,3.808000,0
177.539728,1036,16665,518,3.904000,0
177.543632,1037,16680,518,3.616000,0
177.547248,1038,16695,519,3.648000,0
177.550896,1039,16710,519,3.872000,0
177.554768,1040,16725,520,4.160000,0
177.558928,1041,16740,520,0,1910.256000
179.469184,1041,16755,520,3.904000,0
179.473088,1042,16770,521,4.128000,0
179.477216,1043,16785,521,4.224000,0
179.481440,1044,16800,522,3.760000,0
179.485200,1045,16815,522,3.968000,0
179.489168,1046,16830,523,4.096000,0
179.493264,1047,16845,523,3.968000,0
179.497232,1048,16860,524,3.968000,0
179.501200,1049,16875,524,3.968000,0
179.505168,1050,16890,525,4.368000,0
179.509536,1051,16905,525,3.728000,0
179.513264,1052,16920,526,3.904000,0
179.517168,1053,16935,526,4.224000,0
179.521392,1054,16950,527,3.824000,0
179.525216,1055,16965,527,0,1910.048000
181.435264,1055,16980,527,3.968000,0
181.439232,1056,16995,528,3.632000,0
181.442864,1057,17010,528,3.968000,0
181.446832,1058,17025,529,4.176000,0
181.451008,1059,17040,529,4.224000,0
181.455232,1060,17055,530,3.632000,0
181.458864,1061,17070,530,3.712000,0
181.462576,1062,17085,531,4.112000,0
181.466688,1063,17100,531,3.648000,0
181.470336,1064,17115,532,3.616000,0
181.473952,1065,17130,532,3.968000,0
181.477920,1066,17145,533,3.664000,0
181.481584,1067,17160,533,3.712000,0
181.485296,1068,17175,534,0,1916.048000
183.401344,1068,17190,534,4.368000,0
183.405712,1069,17205,534,3.712000,0
183.409424,1070,17220,535,4.096000,0
183.413520,1071,17235,535,3.712000,0
183.417232,1072,17250,536,4.224000,0
183.421456,1073,17265,536,3.712000,0
183.425168,1074,17280,537,3.760000,0
183.428928,1075,17295,537,3.968000,0
183.432896,1076,17310,538,3.680000,0
183.436576,1077,17325,538,4.224000,0
183.440800,1078,17340,539,3.952000,0
183.444752,1079,17355,539,3.968000,0
183.448720,1080,17370,540,4.352000,0
183.453072,1081,17385,540,3.968000,0
183.457040,1082,17400,541,0,1910.384000
185.367424,1082,17415,541,3.920000,0
185.371344,1083,17430,541,3.712000,0
185.375056,1084,17445,542,4.272000,0
185.379328,1085,17460,542,3.712000,0
185.383040,1086,17475,543,3.632000,0
185.386672,1087,17490,543,4.224000,0
185.390896,1088,17505,544,3.808000,0
185.394704,1089,17520,544,4.160000,0
185.398864,1090,17535,545,3.872000,0
185.402736,1091,17550,545,3.904000,0
185.406640,1092,17565,546,4.128000,0
185.410768,1093,17580,546,3.648000,0
185.414416,1094,17595,547,3.872000,0
185.418288,1095,17610,547,3.712000,0
185.422000,1096,17625,548,0,1911.504000
187.333504,1096,17640,548,3.760000,0
187.337264,1097,17655,548,4.224000,0
187.341488,1098,17670,549,4.096000,0
187.345584,1099,17685,549,4.224000,0
187.349808,1100,17700,550,3.712000,0
187.353520,1101,17715,550,3.968000,0
187.357488,1102,17730,551,4.112000,0
187.361600,1103,17745,551,3.984000,0
187.365584,1104,17760,552,3.904000,0
187.369488,1105,17775,552,3.712000,0
187.373200,1106,17790,553,4.080000,0
187.377280,1107,17805,553,3.712000,0
187.380992,1108,17820,554,3.888000,0
187.384880,1109,17835,554,4.224000,0
187.389104,1110,17850,555,0,1910.480000
189.299584,1110,17865,555,4.176000,0
189.303760,1111,17880,555,3.712000,0
189.307472,1112,17895,556,3.632000,0
189.311104,1113,17910,556,3.968000,0
189.315072,1114,17925,557,4.112000,0
189.319184,1115,17940,557,4.160000,0
189.323344,1116,17955,558,4.128000,0
189.327472,1117,17970,558,3.712000,0
189.331184,1118,17985,559,3.920000,0
189.335104,1119,18000,559,3.712000,0
189.338816,1120,18015,560,3.856000,0
189.342672,1121,18030,560,3.712000,0
189.346384,1122,18045,561,4.352000,0
189.350736,1123,18060,561,3.712000,0
189.354448,1124,18075,562,0,1911.216000
191.265664,1124,18090,562,4.224000,0
191.269888,1125,18105,562,3.968000,0
191.273856,1126,18120,563,4.016000,0
191.277872,1127,18135,563,4.224000,0
191.282096,1128,18150,564,4.192000,0
191.286288,1129,18165,564,3.968000,0
191.290256,1130,18180,565,3.952000,0
191.294208,1131,18195,565,3.968000,0
191.298176,1132,18210,566,4.096000,0
191.302272,1133,18225,566,3.968000,0
191.306240,1134,18240,567,3.664000,0
191.309904,1135,18255,567,3.712000,0
191.313616,1136,18270,568,3.760000,0
191.317376,1137,18285,568,3.968000,0
191.321344,1138,18300,569,0,1910.400000
193.231744,1138,18315,569,3.888000,0
193.235632,1139,18330,569,3.968000,0
193.239600,1140,18345,570,4.320000,0
193.243920,1141,18360,570,3.648000,0
193.247568,1142,18375,571,3.616000,0
193.251184,1143,18390,571,4.160000,0
193.255344,1144,18405,572,3.872000,0
193.259216,1145,18420,572,4.160000,0
193.263376,1146,18435,573,3.872000,0
193.267248,1147,18450,573,3.712000,0
193.270960,1148,18465,574,3.760000,0
193.274720,1149,18480,574,4.224000,0
193.278944,1150,18495,575,4.352000,0
193.283296,1151,18510,575,3.968000,0
193.287264,1152,18525,576,0,1910.560000
195.197824,1152,18540,576,3.968000,0
195.201792,1153,18555,576,4.224000,0
195.206016,1154,18570,577,4.112000,0
195.210128,1155,18585,577,3.728000,0
195.213856,1156,18600,578,3.648000,0
195.217504,1157,18615,578,3.968000,0
195.221472,1158,18630,579,4.080000,0
195.225552,1159,18645,579,3.968000,0
195.229520,1160,18660,580,4.144000,0
195.233664,1161,18675,580,3.968000,0
195.237632,1162,18690,581,3.920000,0
195.241552,1163,18705,581,3.968000,0
195.245520,1164,18720,582,4.144000,0
195.249664,1165,18735,582,3.712000,0
195.253376,1166,18750,583,0,1910.528000
197.163904,1166,18765,583,3.856000,0
197.167760,1167,18780,583,3.648000,0
197.171408,1168,18795,584,3.872000,0
197.175280,1169,18810,584,4.224000,0
197.179504,1170,18825,585,3.664000,0
197.183168,1171,18840,585,4.224000,0
197.187392,1172,18855,586,3.856000,0
197.191248,1173,18870,586,3.712000,0
197.194960,1174,18885,587,3.840000,0
197.198800,1175,18900,587,4.224000,0
197.203024,1176,18915,588,4.224000,0
197.207248,1177,18930,588,3.968000,0
197.211216,1178,18945,589,3.760000,0
197.214976,1179,18960,589,3.712000,0
197.218688,1180,18975,590,0,1911.296000
199.129984,1180,18990,590,4.192000,0
199.134176,1181,19005,590,4.224000,0
199.138400,1182,19020,591,4.208000,0
199.142608,1183,19035,591,3.712000,0
199.146320,1184,19050,592,4.352000,0
199.150672,1185,19065,592,4.224000,0
199.154896,1186,19080,593,3.664000,0
199.158560,1187,19095,593,4.224000,0
199.162784,1188,19110,594,4.016000,0
199.166800,1189,19125,594,3.712000,0
199.170512,1190,19140,595,4.144000,0
199.174656,1191,19155,595,3.712000,0
199.178368,1192,19170,596,4.320000,0
199.182688,1193,19185,596,3.648000,0
199.186336,1194,19200,597,0,1909.728000
201.096064,1194,19215,597,4.128000,0
201.100192,1195,19230,597,4.160000,0
201.104352,1196,19245,598,3.872000,0
201.108224,1197,19260,598,4.160000,0
201.112384,1198,19275,599,3.872000,0
201.116256,1199,19290,599,3.712000,0
201.119968,1200,19305,600,3.760000,0
201.123728,1201,19320,600,3.968000,0
201.127696,1202,19335,601,4.096000,0
201.131792,1203,19350,601,3.712000,0
201.135504,1204,19365,602,3.712000,0
201.139216,1205,19380,602,3.712000,0
201.142928,1206,19395,603,4.368000,0
201.147296,1207,19410,603,3.984000,0
201.151280,1208,19425,604,0,1910.864000
203.062144,1208,19440,604,4.160000,0
203.066304,1209,19455,604,4.224000,0
203.070528,1210,19470,605,4.336000,0
203.074864,1211,19485,605,3.968000,0
203.078832,1212,19500,606,3.632000,0
203.082464,1213,19515,606,3.712000,0
203.086176,1214,19530,607,4.176000,0
203.090352,1215,19545,607,3.712000,0
203.094064,1216,19560,608,3.632000,0
203.097696,1217,19575,608,3.712000,0
203.101408,1218,19590,609,4.368000,0
203.105776,1219,19605,609,3.648000,0
203.109424,1220,19620,610,0,1918.800000
205.028224,1220,19635,610,3.616000,0
205.031840,1221,19650,610,3.968000,0
205.035808,1222,19665,611,3.920000,0
205.039728,1223,19680,611,3.712000,0
205.043440,1224,19695,612,4.112000,0
205.047552,1225,19710,612,3.968000,0
205.051520,1226,19725,613,3.840000,0
205.055360,1227,19740,613,4.224000,0
205.059584,1228,19755,614,3.968000,0
205.063552,1229,19770,614,3.712000,0
205.067264,1230,19785,615,3.760000,0
205.071024,1231,19800,615,3.968000,0
205.074992,1232,19815,616,4.192000,0
205.079184,1233,19830,616,3.712000,0
205.082896,1234,19845,617,0,1911.408000
206.994304,1234,19860,617,4.208000,0
206.998512,1235,19875,617,3.712000,0
207.002224,1236,19890,618,4.096000,0
207.006320,1237,19905,618,3.712000,0
207.010032,1238,19920,619,3.920000,0
207.013952,1239,19935,619,3.968000,0
207.017920,1240,19950,620,3.760000,0
207.021680,1241,19965,620,3.712000,0
207.025392,1242,19980,621,3.888000,0
207.029280,1243,19995,621,4.224000,0
207.033504,1244,20010,622,4.064000,0
207.037568,1245,20025,622,3.904000,0
207.041472,1246,20040,623,3.872000,0
207.045344,1247,20055,623,4.160000,0
207.049504,1248,20070,624,0,1910.880000
208.960384,1248,20085,624,3.616000,0
208.964000,1249,20100,624,4.160000,0
208.968160,1250,20115,625,3.616000,0
208.971776,1251,20130,625,3.712000,0
208.975488,1252,20145,626,4.272000,0
208.979760,1253,20160,626,3.712000,0
208.983472,1254,20175,627,4.096000,0
208.987568,1255,20190,627,3.968000,0
208.991536,1256,20205,628,3.712000,0
208.995248,1257,20220,628,3.712000,0
208.998960,1258,20235,629,4.368000,0
209.003328,1259,20250,629,3.728000,0
209.007056,1260,20265,630,3.904000,0
209.010960,1261,20280,630,3.968000,0
209.014928,1262,20295,631,0,1911.536000
210.926464,1262,20310,631,4.080000,0
210.930544,1263,20325,631,3.968000,0
210.934512,1264,20340,632,4.144000,0
210.938656,1265,20355,632,3.712000,0
210.942368,1266,20370,633,4.176000,0
210.946544,1267,20385,633,4.224000,0
210.950768,1268,20400,634,3.888000,0
210.954656,1269,20415,634,3.968000,0
210.958624,1270,20430,635,4.112000,0
210.962736,1271,20445,635,3.904000,0
210.966640,1272,20460,636,3.872000,0
210.970512,1273,20475,636,3.712000,0
210.974224,1274,20490,637,3.920000,0
210.978144,1275,20505,637,0,1914.400000
212.892544,1275,20520,637,4.224000,0
212.896768,1276,20535,638,3.856000,0
212.900624,1277,20550,638,3.712000,0
212.904336,1278,20565,639,3.840000,0
212.908176,1279,20580,639,3.968000,0
212.912144,1280,20595,640,3.968000,0
212.916112,1281,20610,640,4.224000,0
212.920336,1282,20625,641,4.272000,0
212.924608,1283,20640,641,3.968000,0
212.928576,1284,20655,642,4.192000,0
212.932768,1285,20670,642,3.712000,0
212.936480,1286,20685,643,4.208000,0
212.940688,1287,20700,643,4.224000,0
212.944912,1288,20715,644,3.840000,0
212.948752,1289,20730,644,0,1909.872000
214.858624,1289,20745,644,4.224000,0
214.862848,1290,20760,645,3.664000,0
214.866512,1291,20775,645,3.712000,0
214.870224,1292,20790,646,4.016000,0
214.874240,1293,20805,646,3.712000,0
214.877952,1294,20820,647,3.632000,0
214.881584,1295,20835,647,4.224000,0
214.885808,1296,20850,648,4.064000,0
214.889872,1297,20865,648,3.648000,0
214.893520,1298,20880,649,3.872000,0
214.897392,1299,20895,649,4.160000,0
214.901552,1300,20910,650,4.128000,0
214.905680,1301,20925,650,4.160000,0
214.909840,1302,20940,651,4.128000,0
214.913968,1303,20955,651,0,1910.736000
216.824704,1303,20970,651,3.712000,0
216.828416,1304,20985,652,3.760000,0
216.832176,1305,21000,652,3.712000,0
216.835888,1306,21015,653,4.352000,0
216.840240,1307,21030,653,3.968000,0
216.844208,1308,21045,654,3.712000,0
216.847920,1309,21060,654,4.224000,0
216.852144,1310,21075,655,4.112000,0
216.856256,1311,21090,655,3.984000,0
216.860240,1312,21105,656,3.904000,0
216.864144,1313,21120,656,3.968000,0
216.868112,1314,21135,657,4.336000,0
216.872448,1315,21150,657,3.968000,0
216.876416,1316,21165,658,3.888000,0
216.880304,1317,21180,658,0,1910.480000
218.790784,1317,21195,658,3.968000,0
218.794752,1318,21210,659,3.664000,0
218.798416,1319,21225,659,3.968000,0
218.802384,1320,21240,660,3.632000,0
218.806016,1321,21255,660,4.224000,0
218.810240,1322,21270,661,4.368000,0
218.814608,1323,21285,661,3.648000,0
218.818256,1324,21300,662,3.616000,0
218.821872,1325,21315,662,3.968000,0
218.825840,1326,21330,663,3.920000,0
218.829760,1327,21345,663,3.712000,0
218.833472,1328,21360,664,4.112000,0
218.837584,1329,21375,664,3.968000,0
218.841552,1330,21390,665,4.096000,0
218.845648,1331,21405,665,0,1911.216000
220.756864,1331,21420,665,3.968000,0
220.760832,1332,21435,666,4.224000,0
220.765056,1333,21450,666,4.224000,0
220.769280,1334,21465,667,4.016000,0
220.773296,1335,21480,667,4.224000,0
220.777520,1336,21495,668,4.192000,0
220.781712,1337,21510,668,3.968000,0
220.785680,1338,21525,669,4.208000,0
220.789888,1339,21540,669,3.712000,0
220.793600,1340,21555,670,3.840000,0
220.797440,1341,21570,670,3.712000,0
220.801152,1342,21585,671,4.176000,0
220.805328,1343,21600,671,4.224000,0
220.809552,1344,21615,672,4.272000,0
220.813824,1345,21630,672,0,1909.120000
222.722944,1345,21645,672,3.712000,0
222.726656,1346,21660,673,4.144000,0
222.730800,1347,21675,673,3.712000,0
222.734512,1348,21690,674,4.320000,0
222.738832,1349,21705,674,4.160000,0
222.742992,1350,21720,675,4.128000,0
222.747120,1351,21735,675,4.160000,0
222.751280,1352,21750,676,4.128000,0
222.755408,1353,21765,676,3.648000,0
222.759056,1354,21780,677,3.872000,0
222.762928,1355,21795,677,3.968000,0
222.766896,1356,21810,678,4.016000,0
222.770912,1357,21825,678,3.968000,0
222.774880,1358,21840,679,4.096000,0
222.778976,1359,21855,679,0,1910.048000
224.689024,1359,21870,679,3.968000,0
224.692992,1360,21885,680,3.712000,0
224.696704,1361,21900,680,3.968000,0
224.700672,1362,21915,681,4.112000,0
224.704784,1363,21930,681,4.240000,0
224.709024,1364,21945,682,4.160000,0
224.713184,1365,21960,682,3.968000,0
224.717152,1366,21975,683,3.824000,0
224.720976,1367,21990,683,4.224000,0
224.725200,1368,22005,684,3.888000,0
224.729088,1369,22020,684,3.968000,0
224.733056,1370,22035,685,3.664000,0
224.736720,1371,22050,685,3.712000,0
224.740432,1372,22065,686,3.888000,0
224.744320,1373,22080,686,0,1910.784000
226.655104,1373,22095,686,4.224000,0
226.659328,1374,22110,687,4.112000,0
226.663440,1375,22125,687,3.904000,0
226.667344,1376,22140,688,4.128000,0
226.671472,1377,22155,688,3.712000,0
226.675184,1378,22170,689,4.176000,0
226.679360,1379,22185,689,3.712000,0
226.683072,1380,22200,690,4.368000,0
226.687440,1381,22215,690,3.968000,0
226.691408,1382,22230,691,4.352000,0
226.695760,1383,22245,691,3.968000,0
226.699728,1384,22260,692,4.224000,0
226.703952,1385,22275,692,4.224000,0
226.708176,1386,22290,693,3.760000,0
226.711936,1387,22305,693,0,1909.248000
228.621184,1387,22320,693,3.968000,0
228.625152,1388,22335,694,4.192000,0
228.629344,1389,22350,694,3.712000,0
228.633056,1390,22365,695,3.952000,0
228.637008,1391,22380,695,3.968000,0
228.640976,1392,22395,696,4.096000,0
228.645072,1393,22410,696,3.968000,0
228.649040,1394,22425,697,4.176000,0
228.653216,1395,22440,697,4.224000,0
228.657440,1396,22455,698,3.760000,0
228.661200,1397,22470,698,3.712000,0
228.664912,1398,22485,699,3.632000,0
228.668544,1399,22500,699,4.224000,0
228.672768,1400,22515,700,4.064000,0
228.676832,1401,22530,700,0,1910.432000
230.587264,1401,22545,700,3.904000,0
230.591168,1402,22560,701,3.616000,0
230.594784,1403,22575,701,3.648000,0
230.598432,1404,22590,702,4.128000,0
230.602560,1405,22605,702,3.904000,0
230.606464,1406,22620,703,4.128000,0
230.610592,1407,22635,703,3.712000,0
230.614304,1408,22650,704,4.272000,0
230.618576,1409,22665,704,3.968000,0
230.622544,1410,22680,705,4.352000,0
230.626896,1411,22695,705,3.968000,0
230.630864,1412,22710,706,3.712000,0
230.634576,1413,22725,706,3.968000,0
230.638544,1414,22740,707,3.856000,0
230.642400,1415,22755,707,0,1910.944000
232.553344,1415,22770,707,4.240000,0
232.557584,1416,22785,708,3.904000,0
232.561488,1417,22800,708,4.224000,0
232.565712,1418,22815,709,4.080000,0
232.569792,1419,22830,709,3.968000,0
232.573760,1420,22845,710,4.144000,0
232.577904,1421,22860,710,3.712000,0
232.581616,1422,22875,711,3.664000,0
232.585280,1423,22890,711,4.224000,0
232.589504,1424,22905,712,3.632000,0
232.593136,1425,22920,712,4.224000,0
232.597360,1426,22935,713,3.856000,0
232.601216,1427,22950,713,4.160000,0
232.605376,1428,22965,714,3.872000,0
232.609248,1429,22980,714,