Time,CovertPackets,AllPackets,BitsSent,PacketInterval;GTSInterval
30.616384,0,90,0,4.608000,0
30.620992,1,135,0,4.576000,0
30.625568,2,180,1,0,482.336000
31.107904,2,225,1,5.184000,0
31.113088,3,270,1,4.976000,0
31.118064,4,315,2,0,481.360000
31.599424,4,360,2,4.672000,0
31.604096,5,405,2,0,486.848000
32.090944,5,450,2,5.056000,0
32.096000,6,495,3,0,486.464000
32.582464,6,540,3,4.928000,0
32.587392,7,585,3,4.928000,0
32.592320,8,630,4,0,481.664000
33.073984,8,675,4,5.184000,0
33.079168,9,720,4,0,486.336000
33.565504,9,765,4,4.816000,0
33.570320,10,810,5,0,486.704000
34.057024,10,855,5,4.688000,0
34.061712,11,900,5,4.864000,0
34.066576,12,945,6,0,481.968000
34.548544,12,990,6,4.928000,0
34.553472,13,1035,6,0,486.592000
35.040064,13,1080,6,5.040000,0
35.045104,14,1125,7,4.928000,0
35.050032,15,1170,7,0,481.552000
35.531584,15,1215,7,4.848000,0
35.536432,16,1260,8,4.928000,0
35.541360,17,1305,8,0,481.744000
36.023104,17,1350,8,4.624000,0
36.027728,18,1395,9,4.672000,0
36.032400,19,1440,9,0,482.224000
36.514624,19,1485,9,0,491.520000
37.006144,19,1530,9,4.592000,0
37.010736,20,1575,10,4.928000,0
37.015664,21,1620,10,0,482.000000
37.497664,21,1665,10,4.816000,0
37.502480,22,1710,11,0,486.704000
37.989184,22,1755,11,4.608000,0
37.993792,23,1800,11,5.088000,0
37.998880,24,1845,12,0,481.824000
38.480704,24,1890,12,5.184000,0
38.485888,25,1935,12,0,486.336000
38.972224,25,1980,12,5.136000,0
38.977360,26,2025,13,0,486.384000
39.463744,26,2070,13,4.672000,0
39.468416,27,2115,13,5.072000,0
39.473488,28,2160,14,0,481.776000
39.955264,28,2205,14,0,491.520000
40.446784,28,2250,14,5.184000,0
40.451968,29,2295,14,4.800000,0
40.456768,30,2340,15,0,481.536000
40.938304,30,2385,15,5.184000,0
40.943488,31,2430,15,0,486.336000
41.429824,31,2475,15,0,491.520000
41.921344,31,2520,15,5.184000,0
41.926528,32,2565,16,0,486.336000
42.412864,32,2610,16,4.672000,0
42.417536,33,2655,16,5.232000,0
42.422768,34,2700,17,0,481.616000
42.904384,34,2745,17,4.928000,0
42.909312,35,2790,17,0,486.592000
43.395904,35,2835,17,5.152000,0
43.401056,36,2880,18,0,486.368000
43.887424,36,2925,18,0,491.520000
44.378944,36,2970,18,5.184000,0
44.384128,37,3015,18,0,486.336000
44.870464,37,3060,18,4.912000,0
44.875376,38,3105,19,0,486.608000
45.361984,38,3150,19,4.672000,0
45.366656,39,3195,19,0,486.848000
45.853504,39,3240,19,0,491.520000
46.345024,39,3285,19,4.800000,0
46.349824,40,3330,20,4.928000,0
46.354752,41,3375,20,0,481.792000
46.836544,41,3420,20,4.880000,0
46.841424,42,3465,21,4.928000,0
46.846352,43,3510,21,0,481.712000
47.328064,43,3555,21,4.976000,0
47.333040,44,3600,22,0,486.544000
47.819584,44,3645,22,4.672000,0
47.824256,45,3690,22,0,486.848000
48.311104,45,3735,22,5.104000,0
48.316208,46,3780,23,4.928000,0
48.321136,47,3825,23,0,481.488000
48.802624,47,3870,23,5.280000,0
48.807904,48,3915,24,0,486.240000
49.294144,48,3960,24,4.608000,0
49.298752,49,4005,24,5.088000,0
49.303840,50,4050,25,0,481.824000
49.785664,50,4095,25,5.120000,0
49.790784,51,4140,25,0,486.400000
50.277184,51,4185,25,4.576000,0
50.281760,52,4230,26,5.120000,0
50.286880,53,4275,26,0,481.824000
50.768704,53,4320,26,4.864000,0
50.773568,54,4365,27,4.576000,0
50.778144,55,4410,27,0,482.080000
51.260224,55,4455,27,4.928000,0
51.265152,56,4500,28,0,486.592000
51.751744,56,4545,28,4.720000,0
51.756464,57,4590,28,4.672000,0
51.761136,58,4635,29,0,482.128000
52.243264,58,4680,29,5.056000,0
52.248320,59,4725,29,5.184000,0
52.253504,60,4770,30,0,481.280000
52.734784,60,4815,30,4.672000,0
52.739456,61,4860,30,5.184000,0
52.744640,62,4905,31,0,481.664000
53.226304,62,4950,31,5.328000,0
53.231632,63,4995,31,4.688000,0
53.236320,64,5040,32,0,481.504000
53.717824,64,5085,32,5.120000,0
53.722944,65,5130,32,4.928000,0
53.727872,66,5175,33,0,481.472000
54.209344,66,5220,33,5.040000,0
54.214384,67,5265,33,5.184000,0
54.219568,68,5310,34,0,481.296000
54.700864,68,5355,34,0,491.520000
55.192384,68,5400,34,4.592000,0
55.196976,69,5445,34,4.672000,0
55.201648,70,5490,35,0,482.256000
55.683904,70,5535,35,5.136000,0
55.689040,71,5580,35,4.672000,0
55.693712,72,5625,36,0,481.712000
56.175424,72,5670,36,4.848000,0
56.180272,73,5715,36,5.184000,0
56.185456,74,5760,37,0,481.488000
56.666944,74,5805,37,5.072000,0
56.672016,75,5850,37,0,486.448000
57.158464,75,5895,37,4.864000,0
57.163328,76,5940,38,4.832000,0
57.168160,77,5985,38,0,481.824000
57.649984,77,6030,38,4.672000,0
57.654656,78,6075,39,5.136000,0
57.659792,79,6120,39,0,481.712000
58.141504,79,6165,39,5.184000,0
58.146688,80,6210,40,5.072000,0
58.151760,81,6255,40,0,481.264000
58.633024,81,6300,40,4.928000,0
58.637952,82,6345,41,4.800000,0
58.642752,83,6390,41,0,481.792000
59.124544,83,6435,41,5.184000,0
59.129728,84,6480,42,0,486.336000
59.616064,84,6525,42,4.928000,0
59.620992,85,6570,42,4.928000,0
59.625920,86,6615,43,0,481.664000
60.107584,86,6660,43,5.232000,0
60.112816,87,6705,43,4.672000,0
60.117488,88,6750,44,0,481.616000
60.599104,88,6795,44,4.640000,0
60.603744,89,6840,44,4.672000,0
60.608416,90,6885,45,0,482.208000
61.090624,90,6930,45,4.912000,0
61.095536,91,6975,45,4.672000,0
61.100208,92,7020,46,0,481.936000
61.582144,92,7065,46,4.800000,0
61.586944,93,7110,46,5.184000,0
61.592128,94,7155,47,0,481.536000
62.073664,94,7200,47,5.136000,0
62.078800,95,7245,47,0,486.384000
62.565184,95,7290,47,4.672000,0
62.569856,96,7335,48,4.976000,0
62.574832,97,7380,48,0,481.872000
63.056704,97,7425,48,4.928000,0
63.061632,98,7470,49,4.592000,0
63.066224,99,7515,49,0,482.000000
63.548224,99,7560,49,4.928000,0
63.553152,100,7605,50,5.024000,0
63.558176,101,7650,50,0,481.568000
64.039744,101,7695,50,5.120000,0
64.044864,102,7740,51,0,486.400000
64.531264,102,7785,51,0,491.520000
65.022784,102,7830,51,5.088000,0
65.027872,103,7875,51,5.120000,0
65.032992,104,7920,52,0,481.312000
65.514304,104,7965,52,4.576000,0
65.518880,105,8010,52,0,486.944000
66.005824,105,8055,52,5.120000,0
66.010944,106,8100,53,4.832000,0
66.015776,107,8145,53,0,481.568000
66.497344,107,8190,53,4.928000,0
66.502272,108,8235,54,0,486.592000
66.988864,108,8280,54,5.232000,0
66.994096,109,8325,54,0,486.288000
67.480384,109,8370,54,5.184000,0
67.485568,110,8415,55,4.800000,0
67.490368,111,8460,55,0,481.536000
67.971904,111,8505,55,4.928000,0
67.976832,112,8550,56,0,486.592000
68.463424,112,8595,56,4.672000,0
68.468096,113,8640,56,0,486.848000
68.954944,113,8685,56,5.184000,0
68.960128,114,8730,57,5.072000,0
68.965200,115,8775,57,0,481.264000
69.446464,115,8820,57,4.944000,0
69.451408,116,8865,58,5.120000,0
69.456528,117,8910,58,0,481.456000
69.937984,117,8955,58,4.928000,0
69.942912,118,9000,59,0,486.592000
70.429504,118,9045,59,4.784000,0
70.434288,119,9090,59,4.672000,0
70.438960,120,9135,60,0,482.064000
70.921024,120,9180,60,4.848000,0
70.925872,121,9225,60,4.928000,0
70.930800,122,9270,61,0,481.744000
71.412544,122,9315,61,5.136000,0
71.417680,123,9360,61,4.672000,0
71.422352,124,9405,62,0,481.712000
71.904064,124,9450,62,0,491.520000
72.395584,124,9495,62,4.592000,0
72.400176,125,9540,62,4.672000,0
72.404848,126,9585,63,0,482.256000
72.887104,126,9630,63,4.816000,0
72.891920,127,9675,63,4.608000,0
72.896528,128,9720,64,0,482.096000
73.378624,128,9765,64,5.088000,0
73.383712,129,9810,64,4.928000,0
73.388640,130,9855,65,0,481.504000
73.870144,130,9900,65,5.136000,0
73.875280,131,9945,65,0,486.384000
74.361664,131,9990,65,4.928000,0
74.366592,132,10035,66,5.072000,0
74.371664,133,10080,66,0,481.520000
74.853184,133,10125,66,4.672000,0
74.857856,134,10170,67,4.800000,0
74.862656,135,10215,67,0,482.048000
75.344704,135,10260,67,4.672000,0
75.349376,136,10305,68,5.184000,0
75.354560,137,10350,68,0,481.664000
75.836224,137,10395,68,4.928000,0
75.841152,138,10440,69,4.976000,0
75.846128,139,10485,69,0,481.616000
76.327744,139,10530,69,4.672000,0
76.332416,140,10575,70,4.640000,0
76.337056,141,10620,70,0,482.208000
76.819264,141,10665,70,4.672000,0
76.823936,142,10710,71,4.656000,0
76.828592,143,10755,71,0,482.192000
77.310784,143,10800,71,4.928000,0
77.315712,144,10845,72,5.056000,0
77.320768,145,10890,72,0,481.536000
77.802304,145,10935,72,4.928000,0
77.807232,146,10980,73,0,486.592000
78.293824,146,11025,73,0,491.520000
78.785344,146,11070,73,4.624000,0
78.789968,147,11115,73,5.184000,0
78.795152,148,11160,74,0,481.712000
79.276864,148,11205,74,4.976000,0
79.281840,149,11250,74,5.184000,0
79.287024,150,11295,75,0,481.360000
79.768384,150,11340,75,5.104000,0
79.773488,151,11385,75,4.672000,0
79.778160,152,11430,76,0,481.744000
80.259904,152,11475,76,5.024000,0
80.264928,153,11520,76,4.608000,0
80.269536,154,11565,77,0,481.888000
80.751424,154,11610,77,4.832000,0
80.756256,155,11655,77,5.120000,0
80.761376,156,11700,78,0,481.568000
81.242944,156,11745,78,5.088000,0
81.248032,157,11790,78,5.120000,0
81.253152,158,11835,79,0,481.312000
81.734464,158,11880,79,5.120000,0
81.739584,159,11925,79,5.088000,0
81.744672,160,11970,80,0,481.312000
82.225984,160,12015,80,4.672000,0
82.230656,161,12060,80,5.232000,0
82.235888,162,12105,81,0,481.616000
82.717504,162,12150,81,4.928000,0
82.722432,163,12195,81,4.800000,0
82.727232,164,12240,82,0,481.792000
83.209024,164,12285,82,4.672000,0
83.213696,165,12330,82,5.184000,0
83.218880,166,12375,83,0,481.664000
83.700544,166,12420,83,0,491.520000
84.192064,166,12465,83,4.928000,0
84.196992,167,12510,83,5.328000,0
84.202320,168,12555,84,0,481.264000
84.683584,168,12600,84,4.688000,0
84.688272,169,12645,84,4.864000,0
84.693136,170,12690,85,0,481.968000
85.175104,170,12735,85,4.672000,0
85.179776,171,12780,85,4.784000,0
85.184560,172,12825,86,0,482.064000
85.666624,172,12870,86,4.672000,0
85.671296,173,12915,86,4.848000,0
85.676144,174,12960,87,0,482.000000
86.158144,174,13005,87,4.928000,0
86.163072,175,13050,87,4.880000,0
86.167952,176,13095,88,0,481.712000
86.649664,176,13140,88,5.184000,0
86.654848,177,13185,88,5.104000,0
86.659952,178,13230,89,0,481.232000
87.141184,178,13275,89,4.672000,0
87.145856,179,13320,89,0,486.848000
87.632704,179,13365,89,0,491.520000
88.124224,179,13410,89,4.816000,0
88.129040,180,13455,90,4.608000,0
88.133648,181,13500,90,0,482.096000
88.615744,181,13545,90,0,491.520000
89.107264,181,13590,90,5.088000,0
89.112352,182,13635,91,5.184000,0
89.117536,183,13680,91,0,481.248000
89.598784,183,13725,91,5.136000,0
89.603920,184,13770,92,4.672000,0
89.608592,185,13815,92,0,481.712000
90.090304,185,13860,92,5.328000,0
90.095632,186,13905,93,0,486.192000
90.581824,186,13950,93,4.928000,0
90.586752,187,13995,93,5.056000,0
90.591808,188,14040,94,0,481.536000
91.073344,188,14085,94,4.928000,0
91.078272,189,14130,94,0,486.592000
91.564864,189,14175,94,4.928000,0
91.569792,190,14220,95,4.928000,0
91.574720,191,14265,95,0,481.664000
92.056384,191,14310,95,0,491.520000
92.547904,191,14355,95,5.232000,0
92.553136,192,14400,96,0,486.288000
93.039424,192,14445,96,4.672000,0
93.044096,193,14490,96,0,486.848000
93.530944,193,14535,96,4.640000,0
93.535584,194,14580,97,0,486.880000
94.022464,194,14625,97,4.672000,0
94.027136,195,14670,97,5.168000,0
94.032304,196,14715,98,0,481.680000
94.513984,196,14760,98,5.184000,0
94.519168,197,14805,98,5.056000,0
94.524224,198,14850,99,0,481.280000
95.005504,198,14895,99,4.672000,0
95.010176,199,14940,99,5.136000,0
95.015312,200,14985,100,0,481.712000
95.497024,200,15030,100,5.184000,0
95.502208,201,15075,100,4.720000,0
95.506928,202,15120,101,0,481.616000
95.988544,202,15165,101,4.672000,0
95.993216,203,15210,101,0,486.848000
96.480064,203,15255,101,4.848000,0
96.484912,204,15300,102,0,486.672000
96.971584,204,15345,102,4.672000,0
96.976256,205,15390,102,0,486.848000
97.463104,205,15435,102,0,491.520000
97.954624,205,15480,102,5.280000,0
97.959904,206,15525,103,4.608000,0
97.964512,207,15570,103,0,481.632000
98.446144,207,15615,103,4.832000,0
98.450976,208,15660,104,4.864000,0
98.455840,209,15705,104,0,481.824000
98.937664,209,15750,104,4.832000,0
98.942496,210,15795,105,0,486.688000
99.429184,210,15840,105,5.120000,0
99.434304,211,15885,105,0,486.400000
99.920704,211,15930,105,4.608000,0
99.925312,212,15975,106,0,486.912000
100.412224,212,16020,106,5.120000,0
100.417344,213,16065,106,0,486.400000
100.903744,213,16110,106,5.120000,0
100.908864,214,16155,107,4.832000,0
100.913696,215,16200,107,0,481.568000
101.395264,215,16245,107,4.928000,0
101.400192,216,16290,108,5.232000,0
101.405424,217,16335,108,0,481.360000
101.886784,217,16380,108,4.672000,0
101.891456,218,16425,109,0,486.848000
102.378304,218,16470,109,5.312000,0
102.383616,219,16515,109,4.672000,0
102.388288,220,16560,110,0,481.536000
102.869824,220,16605,110,5.184000,0
102.875008,221,16650,110,0,486.336000
103.361344,221,16695,110,4.928000,0
103.366272,222,16740,111,0,486.592000
103.852864,222,16785,111,5.072000,0
103.857936,223,16830,111,4.944000,0
103.862880,224,16875,112,0,481.504000
104.344384,224,16920,112,4.608000,0
104.348992,225,16965,112,4.672000,0
104.353664,226,17010,113,0,482.240000
104.835904,226,17055,113,5.040000,0
104.840944,227,17100,113,4.672000,0
104.845616,228,17145,114,0,481.808000
105.327424,228,17190,114,4.848000,0
105.332272,229,17235,114,0,486.672000
105.818944,229,17280,114,0,491.520000
106.310464,229,17325,114,5.184000,0
106.315648,230,17370,115,0,486.336000
106.801984,230,17415,115,5.136000,0
106.807120,231,17460,115,0,486.384000
107.293504,231,17505,115,4.672000,0
107.298176,232,17550,116,0,486.848000
107.785024,232,17595,116,4.848000,0
107.789872,233,17640,116,4.672000,0
107.794544,234,17685,117,0,482.000000
108.276544,234,17730,117,4.816000,0
108.281360,235,17775,117,4.864000,0
108.286224,236,17820,118,0,481.840000
108.768064,236,17865,118,4.832000,0
108.772896,237,17910,118,0,486.688000
109.259584,237,17955,118,4.928000,0
109.264512,238,18000,119,4.624000,0
109.269136,239,18045,119,0,481.968000
109.751104,239,18090,119,4.928000,0
109.756032,240,18135,120,0,486.592000
110.242624,240,18180,120,5.072000,0
110.247696,241,18225,120,5.184000,0
110.252880,242,18270,121,0,481.264000
110.734144,242,18315,121,5.312000,0
110.739456,243,18360,121,4.928000,0
110.744384,244,18405,122,0,481.280000
111.225664,244,18450,122,0,491.520000
111.717184,244,18495,122,4.672000,0
111.721856,245,18540,122,4.672000,0
111.726528,246,18585,123,0,482.176000
112.208704,246,18630,123,4.720000,0
112.213424,247,18675,123,0,486.800000
112.700224,247,18720,123,4.928000,0
112.705152,248,18765,124,0,486.592000
113.191744,248,18810,124,4.640000,0
113.196384,249,18855,124,0,486.880000
113.683264,249,18900,124,4.672000,0
113.687936,250,18945,125,5.168000,0
113.693104,251,18990,125,0,481.680000
114.174784,251,19035,125,5.184000,0
114.179968,252,19080,126,4.800000,0
114.184768,253,19125,126,0,481.536000
114.666304,253,19170,126,4.928000,0
114.671232,254,19215,127,5.136000,0
114.676368,255,19260,127,0,481.456000
115.157824,255,19305,127,4.928000,0
115.162752,256,19350,128,5.232000,0
115.167984,257,19395,128,0,481.360000
115.649344,257,19440,128,4.672000,0
115.654016,258,19485,129,0,486.848000
116.140864,258,19530,129,4.592000,0
116.145456,259,19575,129,4.672000,0
116.150128,260,19620,130,0,482.256000
116.632384,260,19665,130,5.024000,0
116.637408,261,19710,130,4.608000,0
116.642016,262,19755,131,0,481.888000
117.123904,262,19800,131,5.088000,0
117.128992,263,19845,131,4.864000,0
117.133856,264,19890,132,0,481.568000
117.615424,264,19935,132,5.088000,0
117.620512,265,19980,132,0,486.432000
118.106944,265,20025,132,4.864000,0
118.111808,266,20070,133,0,486.656000
118.598464,266,20115,133,5.120000,0
118.603584,267,20160,133,0,486.400000
119.089984,267,20205,133,0,491.520000
119.581504,267,20250,133,4.864000,0
119.586368,268,20295,134,5.088000,0
119.591456,269,20340,134,0,481.568000
120.073024,269,20385,134,4.672000,0
120.077696,270,20430,135,4.720000,0
120.082416,271,20475,135,0,482.128000
120.564544,271,20520,135,5.184000,0
120.569728,272,20565,136,0,486.336000
121.056064,272,20610,136,4.800000,0
121.060864,273,20655,136,5.184000,0
121.066048,274,20700,137,0,481.536000
121.547584,274,20745,137,4.672000,0
121.552256,275,20790,137,0,486.848000
122.039104,275,20835,137,0,491.520000
122.530624,275,20880,137,4.672000,0
122.535296,276,20925,138,4.816000,0
122.540112,277,20970,138,0,482.032000
123.022144,277,21015,138,5.200000,0
123.027344,278,21060,139,0,486.320000
123.513664,278,21105,139,5.120000,0
123.518784,279,21150,139,4.672000,0
123.523456,280,21195,140,0,481.728000
124.005184,280,21240,140,4.784000,0
124.009968,281,21285,140,4.672000,0
124.014640,282,21330,141,0,482.064000
124.496704,282,21375,141,0,491.520000
124.988224,282,21420,141,5.104000,0
124.993328,283,21465,141,5.184000,0
124.998512,284,21510,142,0,481.232000
125.479744,284,21555,142,5.136000,0
125.484880,285,21600,142,0,486.384000
125.971264,285,21645,142,4.928000,0
125.976192,286,21690,143,4.848000,0
125.981040,287,21735,143,0,481.744000
126.462784,287,21780,143,5.184000,0
126.467968,288,21825,144,0,486.336000
126.954304,288,21870,144,5.328000,0
126.959632,289,21915,144,4.864000,0
126.964496,290,21960,145,0,481.328000
127.445824,290,22005,145,4.576000,0
127.450400,291,22050,145,0,486.944000
127.937344,291,22095,145,5.184000,0
127.942528,292,22140,146,4.624000,0
127.947152,293,22185,146,0,481.712000
128.428864,293,22230,146,5.184000,0
128.434048,294,22275,147,0,486.336000
128.920384,294,22320,147,4.816000,0
128.925200,295,22365,147,0,486.704000
129.411904,295,22410,147,0,491.520000
129.903424,295,22455,147,4.928000,0
129.908352,296,22500,148,5.312000,0
129.913664,297,22545,148,0,481.280000
130.394944,297,22590,148,4.672000,0
130.399616,298,22635,149,4.928000,0
130.404544,299,22680,149,0,481.920000
130.886464,299,22725,149,4.928000,0
130.891392,300,22770,150,5.232000,0
130.896624,301,22815,150,0,481.360000
131.377984,301,22860,150,4.672000,0
131.382656,302,22905,151,0,486.848000
131.869504,302,22950,151,4.640000,0
131.874144,303,22995,151,0,486.880000
132.361024,303,23040,151,4.672000,0
132.365696,304,23085,152,5.168000,0
132.370864,305,23130,152,0,481.680000
132.852544,305,23175,152,4.928000,0
132.857472,306,23220,153,0,486.592000
133.344064,306,23265,153,5.056000,0
133.349120,307,23310,153,0,486.464000
133.835584,307,23355,153,5.184000,0
133.840768,308,23400,154,0,486.336000
134.327104,308,23445,154,4.624000,0
134.331728,309,23490,154,5.184000,0
134.336912,310,23535,155,0,481.712000
134.818624,310,23580,155,4.976000,0
134.823600,311,23625,155,4.928000,0
134.828528,312,23670,156,0,481.616000
135.310144,312,23715,156,4.848000,0
135.314992,313,23760,156,4.928000,0
135.319920,314,23805,157,0,481.744000
135.801664,314,23850,157,4.768000,0
135.806432,315,23895,157,0,486.752000
136.293184,315,23940,157,4.864000,0
136.298048,316,23985,158,0,486.656000
136.784704,316,24030,158,4.576000,0
136.789280,317,24075,158,4.608000,0
136.793888,318,24120,159,0,482.336000
137.276224,318,24165,159,4.832000,0
137.281056,319,24210,159,0,486.688000
137.767744,319,24255,159,4.864000,0
137.772608,320,24300,160,0,486.656000
138.259264,320,24345,160,4.864000,0
138.264128,321,24390,160,5.088000,0
138.269216,322,24435,161,0,481.568000
138.750784,322,24480,161,5.184000,0
138.755968,323,24525,161,0,486.336000
139.242304,323,24570,161,4.976000,0
139.247280,324,24615,162,4.672000,0
139.251952,325,24660,162,0,481.872000
139.733824,325,24705,162,4.800000,0
139.738624,326,24750,163,4.672000,0
139.743296,327,24795,163,0,482.048000
140.225344,327,24840,163,4.928000,0
140.230272,328,24885,164,4.928000,0
140.235200,329,24930,164,0,481.664000
140.716864,329,24975,164,5.328000,0
140.722192,330,25020,165,4.688000,0
140.726880,331,25065,165,0,481.504000
141.208384,331,25110,165,0,491.520000
141.699904,331,25155,165,5.120000,0
141.705024,332,25200,166,4.672000,0
141.709696,333,25245,166,0,481.728000
142.191424,333,25290,166,0,491.520000
142.682944,333,25335,166,4.784000,0
142.687728,334,25380,167,4.672000,0
142.692400,335,25425,167,0,482.064000
143.174464,335,25470,167,4.848000,0
143.179312,336,25515,168,4.928000,0
143.184240,337,25560,168,0,481.744000
143.665984,337,25605,168,4.880000,0
143.670864,338,25650,169,0,486.640000
144.157504,338,25695,169,4.672000,0
144.162176,339,25740,169,0,486.848000
144.649024,339,25785,169,0,491.520000
145.140544,339,25830,169,4.592000,0
145.145136,340,25875,170,4.672000,0
145.149808,341,25920,170,0,482.256000
145.632064,341,25965,170,4.816000,0
145.636880,342,26010,171,0,486.704000
146.123584,342,26055,171,4.608000,0
146.128192,343,26100,171,0,486.912000
146.615104,343,26145,171,0,491.520000
147.106624,343,26190,171,5.088000,0
147.111712,344,26235,172,0,486.432000
147.598144,344,26280,172,4.928000,0
147.603072,345,26325,172,4.624000,0
147.607696,346,26370,173,0,481.968000
148.089664,346,26415,173,5.184000,0
148.094848,347,26460,173,4.816000,0
148.099664,348,26505,174,0,481.520000
148.581184,348,26550,174,4.672000,0
148.585856,349,26595,174,0,978.368000
149.564224,349,26640,174,5.056000,0
149.569280,350,26685,175,4.672000,0
149.573952,351,26730,175,0,481.792000
150.055744,351,26775,175,4.672000,0
150.060416,352,26820,176,0,486.848000
150.547264,352,26865,176,0,491.520000
151.038784,352,26910,176,5.184000,0
151.043968,353,26955,176,0,486.336000
151.530304,353,27000,176,0,491.520000
152.021824,353,27045,176,4.720000,0
152.026544,354,27090,177,4.928000,0
152.031472,355,27135,177,0,481.872000
152.513344,355,27180,177,4.640000,0
152.517984,356,27225,178,0,486.880000
153.004864,356,27270,178,5.184000,0
153.010048,357,27315,178,0,486.336000
153.496384,357,27360,178,4.656000,0
153.501040,358,27405,179,4.672000,0
153.505712,359,27450,179,0,482.192000
153.987904,359,27495,179,5.056000,0
153.992960,360,27540,180,4.672000,0
153.997632,361,27585,180,0,481.792000
154.479424,361,27630,180,4.624000,0
154.484048,362,27675,181,4.928000,0
154.488976,363,27720,181,0,481.968000
154.970944,363,27765,181,4.976000,0
154.975920,364,27810,182,4.672000,0
154.980592,365,27855,182,0,481.872000
155.462464,365,27900,182,5.104000,0
155.467568,366,27945,183,4.672000,0
155.472240,367,27990,183,0,481.744000
155.953984,367,28035,183,4.768000,0
155.958752,368,28080,184,4.608000,0
155.963360,369,28125,184,0,482.144000
156.445504,369,28170,184,4.576000,0
156.450080,370,28215,185,5.120000,0
156.455200,371,28260,185,0,481.824000
156.937024,371,28305,185,4.576000,0
156.941600,372,28350,186,4.864000,0
156.946464,373,28395,186,0,482.080000
157.428544,373,28440,186,4.864000,0
157.433408,374,28485,187,4.832000,0
157.438240,375,28530,187,0,481.824000
157.920064,375,28575,187,4.672000,0
157.924736,376,28620,188,5.232000,0
157.929968,377,28665,188,0,481.616000
158.411584,377,28710,188,4.672000,0
158.416256,378,28755,189,5.312000,0
158.421568,379,28800,189,0,481.536000
158.903104,379,28845,189,4.672000,0
158.907776,380,28890,190,0,486.848000
159.394624,380,28935,190,4.672000,0
159.399296,381,28980,190,0,486.848000
159.886144,381,29025,190,4.672000,0
159.890816,382,29070,191,4.816000,0
159.895632,383,29115,191,0,482.032000
160.377664,383,29160,191,0,491.520000
160.869184,383,29205,191,4.944000,0
160.874128,384,29250,192,5.120000,0
160.879248,385,29295,192,0,481.456000
161.360704,385,29340,192,5.184000,0
161.365888,386,29385,193,0,486.336000
161.852224,386,29430,193,5.040000,0
161.857264,387,29475,193,5.184000,0
161.862448,388,29520,194,0,481.296000
162.343744,388,29565,194,5.104000,0
162.348848,389,29610,194,4.672000,0
162.353520,390,29655,195,0,481.744000
162.835264,390,29700,195,5.136000,0
162.840400,391,29745,195,0,486.384000
163.326784,391,29790,195,5.184000,0
163.331968,392,29835,196,0,486.336000
163.818304,392,29880,196,4.592000,0
163.822896,393,29925,196,5.184000,0
163.828080,394,29970,197,0,481.744000
164.309824,394,30015,197,0,491.520000
164.801344,394,30060,197,5.072000,0
164.806416,395,30105,197,5.120000,0
164.811536,396,30150,198,0,481.328000
165.292864,396,30195,198,5.088000,0
165.297952,397,30240,198,0,486.432000
165.784384,397,30285,198,4.672000,0
165.789056,398,30330,199,0,486.848000
166.275904,398,30375,199,4.880000,0
166.280784,399,30420,199,0,486.640000
166.767424,399,30465,199,5.184000,0
166.772608,400,30510,200,0,486.336000
167.258944,400,30555,200,5.072000,0
167.264016,401,30600,200,0,486.448000
167.750464,401,30645,200,5.184000,0
167.755648,402,30690,201,5.056000,0
167.760704,403,30735,201,0,481.280000
168.241984,403,30780,201,5.184000,0
168.247168,404,30825,202,0,486.336000
168.733504,404,30870,202,0,491.520000
169.225024,404,30915,202,0,491.520000
169.716544,404,30960,202,5.184000,0
169.721728,405,31005,202,0,486.336000
170.208064,405,31050,202,4.672000,0
170.212736,406,31095,203,4.976000,0
170.217712,407,31140,203,0,481.872000
170.699584,407,31185,203,5.184000,0
170.704768,408,31230,204,4.640000,0
170.709408,409,31275,204,0,481.696000
171.191104,409,31320,204,5.184000,0
171.196288,410,31365,205,4.656000,0
171.200944,411,31410,205,0,481.680000
171.682624,411,31455,205,4.672000,0
171.687296,412,31500,206,0,486.848000
172.174144,412,31545,206,5.056000,0
172.179200,413,31590,206,4.928000,0
172.184128,414,31635,207,0,481.536000
172.665664,414,31680,207,5.136000,0
172.670800,415,31725,207,0,486.384000
173.157184,415,31770,207,4.672000,0
173.161856,416,31815,208,0,486.848000
173.648704,416,31860,208,4.976000,0
173.653680,417,31905,208,0,486.544000
174.140224,417,31950,208,4.928000,0
174.145152,418,31995,209,0,486.592000
174.631744,418,32040,209,5.104000,0
174.636848,419,32085,209,4.672000,0
174.641520,420,32130,210,0,481.744000
175.123264,420,32175,210,4.768000,0
175.128032,421,32220,210,4.864000,0
175.132896,422,32265,211,0,481.888000
175.614784,422,32310,211,4.576000,0
175.619360,423,32355,211,4.864000,0
175.624224,424,32400,212,0,482.080000
176.106304,424,32445,212,4.576000,0
176.110880,425,32490,212,0,486.944000
176.597824,425,32535,212,5.120000,0
176.602944,426,32580,213,5.088000,0
176.608032,427,32625,213,0,481.312000
177.089344,427,32670,213,4.928000,0
177.094272,428,32715,214,5.232000,0
177.099504,429,32760,214,0,481.360000
177.580864,429,32805,214,4.672000,0
177.585536,430,32850,215,4.800000,0
177.590336,431,32895,215,0,482.048000
178.072384,431,32940,215,4.928000,0
178.077312,432,32985,216,4.672000,0
178.081984,433,33030,216,0,481.920000
178.563904,433,33075,216,5.184000,0
178.569088,434,33120,217,5.072000,0
178.574160,435,33165,217,0,481.264000
179.055424,435,33210,217,4.688000,0
179.060112,436,33255,218,0,486.832000
179.546944,436,33300,218,0,491.520000
180.038464,436,33345,218,4.608000,0
180.043072,437,33390,218,5.184000,0
180.048256,438,33435,219,0,481.728000
180.529984,438,33480,219,5.296000,0
180.535280,439,33525,219,4.928000,0
180.540208,440,33570,220,0,481.296000
181.021504,440,33615,220,5.104000,0
181.026608,441,33660,220,5.184000,0
181.031792,442,33705,221,0,481.232000
181.513024,442,33750,221,0,491.520000
182.004544,442,33795,221,4.624000,0
182.009168,443,33840,221,0,486.896000
182.496064,443,33885,221,5.184000,0
182.501248,444,33930,222,0,486.336000
182.987584,444,33975,222,4.592000,0
182.992176,445,34020,222,0,486.928000
183.479104,445,34065,222,5.184000,0
183.484288,446,34110,223,0,486.336000
183.970624,446,34155,223,5.072000,0
183.975696,447,34200,223,4.608000,0
183.980304,448,34245,224,0,481.840000
184.462144,448,34290,224,4.576000,0
184.466720,449,34335,224,0,486.944000
184.953664,449,34380,224,5.184000,0
184.958848,450,34425,225,4.624000,0
184.963472,451,34470,225,0,481.712000
185.445184,451,34515,225,4.672000,0
185.449856,452,34560,226,5.072000,0
185.454928,453,34605,226,0,481.776000
185.936704,453,34650,226,5.184000,0
185.941888,454,34695,227,0,486.336000
186.428224,454,34740,227,5.056000,0
186.433280,455,34785,227,5.184000,0
186.438464,456,34830,228,0,481.280000
186.919744,456,34875,228,5.184000,0
186.924928,457,34920,228,4.672000,0
186.929600,458,34965,229,0,481.664000
187.411264,458,35010,229,4.976000,0
187.416240,459,35055,229,0,486.544000
187.902784,459,35100,229,4.928000,0
187.907712,460,35145,230,0,486.592000
188.394304,460,35190,230,5.152000,0
188.399456,461,35235,230,0,486.368000
188.885824,461,35280,230,4.672000,0
188.890496,462,35325,231,4.912000,0
188.895408,463,35370,231,0,481.936000
189.377344,463,35415,231,4.672000,0
189.382016,464,35460,232,4.800000,0
189.386816,465,35505,232,0,482.048000
189.868864,465,35550,232,5.184000,0
189.874048,466,35595,233,4.624000,0
189.878672,467,35640,233,0,481.712000
190.360384,467,35685,233,4.928000,0
190.365312,468,35730,234,5.232000,0
190.370544,469,35775,234,0,481.360000
190.851904,469,35820,234,4.672000,0
190.856576,470,35865,235,4.848000,0
190.861424,471,35910,235,0,482.000000
191.343424,471,35955,235,5.184000,0
191.348608,472,36000,236,0,486.336000
191.834944,472,36045,236,5.280000,0
191.840224,473,36090,236,4.608000,0
191.844832,474,36135,237,0,481.632000
192.326464,474,36180,237,4.576000,0
192.331040,475,36225,237,0,486.944000
192.817984,475,36270,237,4.864000,0
192.822848,476,36315,238,4.576000,0
192.827424,477,36360,238,0,482.080000
193.309504,477,36405,238,4.608000,0
193.314112,478,36450,239,0,486.912000
193.801024,478,36495,239,5.120000,0
193.806144,479,36540,239,0,486.400000
194.292544,479,36585,239,4.608000,0
194.297152,480,36630,240,5.088000,0
194.302240,481,36675,240,0,481.824000
194.784064,481,36720,240,4.672000,0
194.788736,482,36765,241,0,486.848000
195.275584,482,36810,241,0,491.520000
195.767104,482,36855,241,5.232000,0
195.772336,483,36900,241,0,486.288000
196.258624,483,36945,241,4.672000,0
196.263296,484,36990,242,0,486.848000
196.750144,484,37035,242,5.312000,0
196.755456,485,37080,242,0,486.208000
197.241664,485,37125,242,4.672000,0
197.246336,486,37170,243,5.184000,0
197.251520,487,37215,243,0,481.664000
197.733184,487,37260,243,5.184000,0
197.738368,488,37305,244,0,486.336000
198.224704,488,37350,244,4.816000,0
198.229520,489,37395,244,5.200000,0
198.234720,490,37440,245,0,481.504000
198.716224,490,37485,245,4.608000,0
198.720832,491,37530,245,5.184000,0
198.726016,492,37575,246,0,481.728000
199.207744,492,37620,246,5.040000,0
199.212784,493,37665,246,4.928000,0
199.217712,494,37710,247,0,481.552000
199.699264,494,37755,247,4.848000,0
199.704112,495,37800,247,5.184000,0
199.709296,496,37845,248,0,481.488000
200.190784,496,37890,248,5.136000,0
200.195920,497,37935,248,0,486.384000
200.682304,497,37980,248,5.184000,0
200.687488,498,38025,249,4.592000,0
200.692080,499,38070,249,0,481.744000
201.173824,499,38115,249,5.184000,0
201.179008,500,38160,250,4.816000,0
201.183824,501,38205,250,0,481.520000
201.665344,501,38250,250,4.608000,0
201.669952,502,38295,251,0,486.912000
202.156864,502,38340,251,4.832000,0
202.161696,503,38385,251,5.184000,0
202.166880,504,38430,252,0,481.504000
202.648384,504,38475,252,5.136000,0
202.653520,505,38520,252,0,486.384000
203.139904,505,38565,252,4.928000,0
203.144832,506,38610,253,5.072000,0
203.149904,507,38655,253,0,481.520000
203.631424,507,38700,253,4.672000,0
203.636096,508,38745,254,5.056000,0
203.641152,509,38790,254,0,481.792000
204.122944,509,38835,254,4.928000,0
204.127872,510,38880,255,4.672000,0
204.132544,511,38925,255,0,481.920000
204.614464,511,38970,255,5.184000,0
204.619648,512,39015,256,0,486.336000
205.105984,512,39060,256,5.232000,0
205.111216,513,39105,256,4.928000,0
205.116144,514,39150,257,0,481.360000
205.597504,514,39195,257,4.640000,0
205.602144,515,39240,257,4.928000,0
205.607072,516,39285,258,0,481.952000
206.089024,516,39330,258,4.912000,0
206.093936,517,39375,258,5.184000,0
206.099120,518,39420,259,0,481.424000
206.580544,518,39465,259,5.056000,0
206.585600,519,39510,259,4.672000,0
206.590272,520,39555,260,0,481.792000
207.072064,520,39600,260,4.880000,0
207.076944,521,39645,260,4.928000,0
207.081872,522,39690,261,0,481.712000
207.563584,522,39735,261,4.976000,0
207.568560,523,39780,261,5.184000,0
207.573744,524,39825,262,0,481.360000
208.055104,524,39870,262,4.592000,0
208.059696,525,39915,262,4.928000,0
208.064624,526,39960,263,0,482.000000
208.546624,526,40005,263,5.024000,0
208.551648,527,40050,263,4.864000,0
208.556512,528,40095,264,0,481.632000
209.038144,528,40140,264,5.088000,0
209.043232,529,40185,264,4.608000,0
209.047840,530,40230,265,0,481.824000
209.529664,530,40275,265,4.832000,0
209.534496,531,40320,265,5.120000,0
209.539616,532,40365,266,0,481.568000
210.021184,532,40410,266,4.864000,0
210.026048,533,40455,266,4.576000,0
210.030624,534,40500,267,0,482.080000
210.512704,534,40545,267,4.928000,0
210.517632,535,40590,267,5.232000,0
210.522864,536,40635,268,0,481.360000
211.004224,536,40680,268,4.928000,0
211.009152,537,40725,268,0,486.592000
211.495744,537,40770,268,4.800000,0
211.500544,538,40815,269,4.672000,0
211.505216,539,40860,269,0,482.048000
211.987264,539,40905,269,0,491.520000
212.478784,539,40950,269,0,491.520000
212.970304,539,40995,269,0,491.520000
213.461824,539,41040,269,4.928000,0
213.466752,540,41085,270,4.928000,0
213.471680,541,41130,270,0,481.664000
213.953344,541,41175,270,5.072000,0
213.958416,542,41220,271,5.200000,0
213.963616,543,41265,271,0,481.248000
214.444864,543,41310,271,4.864000,0
214.449728,544,41355,272,4.928000,0
214.454656,545,41400,272,0,481.728000
214.936384,545,41445,272,5.296000,0
214.941680,546,41490,273,4.928000,0
214.946608,547,41535,273,0,481.296000
215.427904,547,41580,273,4.592000,0
215.432496,548,41625,274,4.928000,0
215.437424,549,41670,274,0,482.000000
215.919424,549,41715,274,4.880000,0
215.924304,550,41760,275,5.184000,0
215.929488,551,41805,275,0,481.456000
216.410944,551,41850,275,5.104000,0
216.416048,552,41895,276,5.184000,0
216.421232,553,41940,276,0,481.232000
216.902464,553,41985,276,5.072000,0
216.907536,554,42030,277,0,486.448000
217.393984,554,42075,277,4.608000,0
217.398592,555,42120,277,4.576000,0
217.403168,556,42165,278,0,482.336000
217.885504,556,42210,278,4.928000,0
217.890432,557,42255,278,0,486.592000
218.377024,557,42300,278,4.880000,0
218.381904,558,42345,279,4.928000,0
218.386832,559,42390,279,0,481.712000
218.868544,559,42435,279,5.328000,0
218.873872,560,42480,280,0,486.192000
219.360064,560,42525,280,4.672000,0
219.364736,561,42570,280,5.312000,0
219.370048,562,42615,281,0,481.536000
219.851584,562,42660,281,5.184000,0
219.856768,563,42705,281,4.928000,0
219.861696,564,42750,282,0,481.408000
220.343104,564,42795,282,4.928000,0
220.348032,565,42840,282,4.976000,0
220.353008,566,42885,283,0,481.616000
220.834624,566,42930,283,5.184000,0
220.839808,567,42975,283,4.640000,0
220.844448,568,43020,284,0,481.696000
221.326144,568,43065,284,4.928000,0
221.331072,569,43110,284,5.168000,0
221.336240,570,43155,285,0,481.424000
221.817664,570,43200,285,4.928000,0
221.822592,571,43245,285,5.056000,0
221.827648,572,43290,286,0,481.536000
222.309184,572,43335,286,4.928000,0
222.314112,573,43380,286,4.624000,0
222.318736,574,43425,287,0,481.968000
222.800704,574,43470,287,5.184000,0
222.805888,575,43515,287,4.720000,0
222.810608,576,43560,288,0,481.616000
223.292224,576,43605,288,4.672000,0
223.296896,577,43650,288,5.104000,0
223.302000,578,43695,289,0,481.744000
223.783744,578,43740,289,4.928000,0
223.788672,579,43785,289,5.280000,0
223.793952,580,43830,290,0,481.312000
224.275264,580,43875,290,5.120000,0
224.280384,581,43920,290,4.576000,0
224.284960,582,43965,291,0,481.824000
224.766784,582,44010,291,5.120000,0
224.771904,583,44055,291,5.088000,0
224.776992,584,44100,292,0,481.312000
225.258304,584,44145,292,4.864000,0
225.263168,585,44190,292,4.576000,0
225.267744,586,44235,293,0,482.080000
225.749824,586,44280,293,4.928000,0
225.754752,587,44325,293,4.976000,0
225.759728,588,44370,294,0,481.616000
226.241344,588,44415,294,4.672000,0
226.246016,589,44460,294,4.800000,0
226.250816,590,44505,295,0,482.048000
226.732864,590,44550,295,4.672000,0
226.737536,591,44595,295,4.672000,0
226.742208,592,44640,296,0,482.176000
227.224384,592,44685,296,4.928000,0
227.229312,593,44730,296,0,486.592000
227.715904,593,44775,296,4.816000,0
227.720720,594,44820,297,4.944000,0
227.725664,595,44865,297,0,481.760000
228.207424,595,44910,297,4.864000,0
228.212288,596,44955,298,4.928000,0
228.217216,597,45000,298,0,481.728000
228.698944,597,45045,298,5.040000,0
228.703984,598,45090,299,0,486.480000
229.190464,598,45135,299,4.928000,0
229.195392,599,45180,299,0,486.592000
229.681984,599,45225,299,5.104000,0
229.687088,600,45270,300,5.184000,0
229.692272,601,45315,300,0,481.232000
230.173504,601,45360,300,4.624000,0
230.178128,602,45405,301,0,486.896000
230.665024,602,45450,301,4.672000,0
230.669696,603,45495,301,0,486.848000
231.156544,603,45540,301,4.848000,0
231.161392,604,45585,302,5.184000,0
231.166576,605,45630,302,0,481.488000
231.648064,605,45675,302,0,491.520000
232.139584,605,45720,302,5.072000,0
232.144656,606,45765,303,4.864000,0
232.149520,607,45810,303,