Time,CovertPackets,AllPackets,BitsSent,PacketInterval;GTSInterval
32.018704,1,90,0,5.184000,0
32.023888,2,135,1,4.720000,0
32.028608,3,180,1,4.928000,0
32.033536,4,225,2,5.312000,0
32.038848,5,270,2,4.672000,0
32.043520,6,315,3,4.928000,0
32.048448,7,360,3,4.672000,0
32.053120,8,405,4,5.328000,0
32.058448,9,450,4,4.944000,0
32.063392,10,495,5,4.608000,0
32.068000,11,540,5,0,1912.224000
33.980224,11,585,5,4.672000,0
33.984896,12,630,6,5.040000,0
33.989936,13,675,6,5.184000,0
33.995120,14,720,7,4.848000,0
33.999968,15,765,7,4.672000,0
34.004640,16,810,8,4.880000,0
34.009520,17,855,8,5.184000,0
34.014704,18,900,9,4.592000,0
34.019296,19,945,9,5.184000,0
34.024480,20,990,10,0,1921.824000
35.946304,20,1035,10,5.072000,0
35.951376,21,1080,10,5.120000,0
35.956496,22,1125,11,5.088000,0
35.961584,23,1170,11,4.928000,0
35.966512,24,1215,12,5.136000,0
35.971648,25,1260,12,5.184000,0
35.976832,26,1305,13,5.328000,0
35.982160,27,1350,13,5.184000,0
35.987344,28,1395,14,4.800000,0
35.992144,29,1440,14,5.184000,0
35.997328,30,1485,15,4.928000,0
36.002256,31,1530,15,0,1910.128000
37.912384,31,1575,15,5.184000,0
37.917568,32,1620,16,4.976000,0
37.922544,33,1665,16,4.928000,0
37.927472,34,1710,17,5.152000,0
37.932624,35,1755,17,4.928000,0
37.937552,36,1800,18,4.656000,0
37.942208,37,1845,18,5.184000,0
37.947392,38,1890,19,4.800000,0
37.952192,39,1935,19,5.184000,0
37.957376,40,1980,20,4.624000,0
37.962000,41,2025,20,0,1916.464000
39.878464,41,2070,20,5.184000,0
39.883648,42,2115,21,5.232000,0
39.888880,43,2160,21,5.184000,0
39.894064,44,2205,22,4.592000,0
39.898656,45,2250,22,4.672000,0
39.903328,46,2295,23,4.768000,0
39.908096,47,2340,23,4.864000,0
39.912960,48,2385,24,0,1931.584000
41.844544,48,2430,24,4.576000,0
41.849120,49,2475,24,5.120000,0
41.854240,50,2520,25,4.832000,0
41.859072,51,2565,25,4.864000,0
41.863936,52,2610,26,5.088000,0
41.869024,53,2655,26,4.672000,0
41.873696,54,2700,27,4.976000,0
41.878672,55,2745,27,5.184000,0
41.883856,56,2790,28,5.056000,0
41.888912,57,2835,28,0,1921.712000
43.810624,57,2880,28,4.672000,0
43.815296,58,2925,29,4.672000,0
43.819968,59,2970,29,4.672000,0
43.824640,60,3015,30,4.816000,0
43.829456,61,3060,30,4.944000,0
43.834400,62,3105,31,4.608000,0
43.839008,63,3150,31,4.672000,0
43.843680,64,3195,32,5.040000,0
43.848720,65,3240,32,4.672000,0
43.853392,66,3285,33,0,1923.312000
45.776704,66,3330,33,4.592000,0
45.781296,67,3375,33,4.928000,0
45.786224,68,3420,34,5.136000,0
45.791360,69,3465,34,4.928000,0
45.796288,70,3510,35,4.848000,0
45.801136,71,3555,35,5.184000,0
45.806320,72,3600,36,5.328000,0
45.811648,73,3645,36,4.608000,0
45.816256,74,3690,37,5.088000,0
45.821344,75,3735,37,0,1921.440000
47.742784,75,3780,37,4.672000,0
47.747456,76,3825,38,4.880000,0
47.752336,77,3870,38,4.928000,0
47.757264,78,3915,39,4.816000,0
47.762080,79,3960,39,5.184000,0
47.767264,80,4005,40,5.312000,0
47.772576,81,4050,40,4.672000,0
47.777248,82,4095,41,4.672000,0
47.781920,83,4140,41,4.928000,0
47.786848,84,4185,42,5.232000,0
47.792080,85,4230,42,0,1916.784000
49.708864,85,4275,42,4.672000,0
49.713536,86,4320,43,4.640000,0
49.718176,87,4365,43,4.928000,0
49.723104,88,4410,44,4.656000,0
49.727760,89,4455,44,4.928000,0
49.732688,90,4500,45,5.056000,0
49.737744,91,4545,45,4.928000,0
49.742672,92,4590,46,4.880000,0
49.747552,93,4635,46,0,1927.392000
51.674944,93,4680,46,4.672000,0
51.679616,94,4725,47,5.232000,0
51.684848,95,4770,47,5.184000,0
51.690032,96,4815,48,4.592000,0
51.694624,97,4860,48,5.184000,0
51.699808,98,4905,49,5.024000,0
51.704832,99,4950,49,4.864000,0
51.709696,100,4995,50,4.576000,0
51.714272,101,5040,50,4.608000,0
51.718880,102,5085,51,0,1922.144000
53.641024,102,5130,51,4.576000,0
53.645600,103,5175,51,4.608000,0
53.650208,104,5220,52,4.832000,0
53.655040,105,5265,52,5.184000,0
53.660224,106,5310,53,5.232000,0
53.665456,107,5355,53,4.672000,0
53.670128,108,5400,54,5.312000,0
53.675440,109,5445,54,4.672000,0
53.680112,110,5490,55,5.184000,0
53.685296,111,5535,55,4.928000,0
53.690224,112,5580,56,5.328000,0
53.695552,113,5625,56,0,1911.552000
55.607104,113,5670,56,4.688000,0
55.611792,114,5715,57,4.608000,0
55.616400,115,5760,57,4.928000,0
55.621328,116,5805,58,4.784000,0
55.626112,117,5850,58,5.184000,0
55.631296,118,5895,59,4.592000,0
55.635888,119,5940,59,4.672000,0
55.640560,120,5985,60,4.624000,0
55.645184,121,6030,60,0,1928.000000
57.573184,121,6075,60,5.184000,0
57.578368,122,6120,61,4.848000,0
57.583216,123,6165,61,4.672000,0
57.587888,124,6210,62,4.816000,0
57.592704,125,6255,62,4.608000,0
57.597312,126,6300,63,5.088000,0
57.602400,127,6345,63,5.184000,0
57.607584,128,6390,64,5.136000,0
57.612720,129,6435,64,4.672000,0
57.617392,130,6480,65,4.816000,0
57.622208,131,6525,65,4.928000,0
57.627136,132,6570,66,0,1912.128000
59.539264,132,6615,66,4.800000,0
59.544064,133,6660,66,4.672000,0
59.548736,134,6705,67,4.672000,0
59.553408,135,6750,67,4.928000,0
59.558336,136,6795,68,4.720000,0
59.563056,137,6840,68,4.928000,0
59.567984,138,6885,69,4.896000,0
59.572880,139,6930,69,4.672000,0
59.577552,140,6975,70,4.656000,0
59.582208,141,7020,70,5.184000,0
59.587392,142,7065,71,5.056000,0
59.592448,143,7110,71,0,1912.896000
61.505344,143,7155,71,5.184000,0
61.510528,144,7200,72,5.136000,0
61.515664,145,7245,72,4.928000,0
61.520592,146,7290,73,4.976000,0
61.525568,147,7335,73,5.184000,0
61.530752,148,7380,74,4.592000,0
61.535344,149,7425,74,4.672000,0
61.540016,150,7470,75,5.280000,0
61.545296,151,7515,75,4.864000,0
61.550160,152,7560,76,0,1921.264000
63.471424,152,7605,76,4.576000,0
63.476000,153,7650,76,4.864000,0
63.480864,154,7695,77,5.088000,0
63.485952,155,7740,77,5.120000,0
63.491072,156,7785,78,4.832000,0
63.495904,157,7830,78,4.928000,0
63.500832,158,7875,79,4.976000,0
63.505808,159,7920,79,5.184000,0
63.510992,160,7965,80,5.056000,0
63.516048,161,8010,80,0,1921.456000
65.437504,161,8055,80,5.184000,0
65.442688,162,8100,81,5.184000,0
65.447872,163,8145,81,4.928000,0
65.452800,164,8190,82,4.816000,0
65.457616,165,8235,82,4.688000,0
65.462304,166,8280,83,5.120000,0
65.467424,167,8325,83,4.672000,0
65.472096,168,8370,84,5.296000,0
65.477392,169,8415,84,0,1926.192000
67.403584,169,8460,84,4.672000,0
67.408256,170,8505,85,4.592000,0
67.412848,171,8550,85,4.672000,0
67.417520,172,8595,86,4.624000,0
67.422144,173,8640,86,4.672000,0
67.426816,174,8685,87,4.848000,0
67.431664,175,8730,87,4.672000,0
67.436336,176,8775,88,4.816000,0
67.441152,177,8820,88,4.864000,0
67.446016,178,8865,89,4.576000,0
67.450592,179,8910,89,5.184000,0
67.455776,180,8955,90,0,1913.888000
69.369664,180,9000,90,5.136000,0
69.374800,181,9045,90,4.672000,0
69.379472,182,9090,91,5.072000,0
69.384544,183,9135,91,5.184000,0
69.389728,184,9180,92,5.056000,0
69.394784,185,9225,92,4.672000,0
69.399456,186,9270,93,0,1936.288000
71.335744,186,9315,93,4.672000,0
71.340416,187,9360,93,4.928000,0
71.345344,188,9405,94,4.720000,0
71.350064,189,9450,94,4.928000,0
71.354992,190,9495,95,4.896000,0
71.359888,191,9540,95,4.928000,0
71.364816,192,9585,96,5.168000,0
71.369984,193,9630,96,5.184000,0
71.375168,194,9675,97,5.056000,0
71.380224,195,9720,97,0,1921.600000
73.301824,195,9765,97,5.184000,0
73.307008,196,9810,98,4.880000,0
73.311888,197,9855,98,4.928000,0
73.316816,198,9900,99,4.720000,0
73.321536,199,9945,99,5.184000,0
73.326720,200,9990,100,4.592000,0
73.331312,201,10035,100,5.184000,0
73.336496,202,10080,101,5.280000,0
73.341776,203,10125,101,5.120000,0
73.346896,204,10170,102,0,1921.008000
75.267904,204,10215,102,4.576000,0
75.272480,205,10260,102,4.864000,0
75.277344,206,10305,103,4.576000,0
75.281920,207,10350,103,5.120000,0
75.287040,208,10395,104,4.832000,0
75.291872,209,10440,104,4.672000,0
75.296544,210,10485,105,5.232000,0
75.301776,211,10530,105,4.672000,0
75.306448,212,10575,106,5.056000,0
75.311504,213,10620,106,0,1922.480000
77.233984,213,10665,106,4.672000,0
77.238656,214,10710,107,5.184000,0
77.243840,215,10755,107,4.672000,0
77.248512,216,10800,108,5.328000,0
77.253840,217,10845,108,4.944000,0
77.258784,218,10890,109,4.608000,0
77.263392,219,10935,109,4.928000,0
77.268320,220,10980,110,5.296000,0
77.273616,221,11025,110,4.672000,0
77.278288,222,11070,111,4.592000,0
77.282880,223,11115,111,0,1917.184000
79.200064,223,11160,111,5.184000,0
79.205248,224,11205,112,4.624000,0
79.209872,225,11250,112,4.928000,0
79.214800,226,11295,113,4.592000,0
79.219392,227,11340,113,4.672000,0
79.224064,228,11385,114,5.328000,0
79.229392,229,11430,114,5.120000,0
79.234512,230,11475,115,5.088000,0
79.239600,231,11520,115,4.672000,0
79.244272,232,11565,116,0,1921.872000
81.166144,232,11610,116,4.624000,0
81.170768,233,11655,116,5.184000,0
81.175952,234,11700,117,5.328000,0
81.181280,235,11745,117,4.928000,0
81.186208,236,11790,118,5.056000,0
81.191264,237,11835,118,5.184000,0
81.196448,238,11880,119,4.928000,0
81.201376,239,11925,119,4.928000,0
81.206304,240,11970,120,4.976000,0
81.211280,241,12015,120,0,1920.944000
83.132224,241,12060,120,5.184000,0
83.137408,242,12105,121,5.152000,0
83.142560,243,12150,121,4.928000,0
83.147488,244,12195,122,4.656000,0
83.152144,245,12240,122,4.672000,0
83.156816,246,12285,123,5.312000,0
83.162128,247,12330,123,5.184000,0
83.167312,248,12375,124,0,1930.992000
85.098304,248,12420,124,4.624000,0
85.102928,249,12465,124,4.672000,0
85.107600,250,12510,125,4.720000,0
85.112320,251,12555,125,4.672000,0
85.116992,252,12600,126,4.592000,0
85.121584,253,12645,126,5.184000,0
85.126768,254,12690,127,5.280000,0
85.132048,255,12735,127,4.608000,0
85.136656,256,12780,128,4.832000,0
85.141488,257,12825,128,4.864000,0
85.146352,258,12870,129,0,1918.032000
87.064384,258,12915,129,5.088000,0
87.069472,259,12960,129,4.864000,0
87.074336,260,13005,130,4.832000,0
87.079168,261,13050,130,4.672000,0
87.083840,262,13095,131,4.720000,0
87.088560,263,13140,131,4.672000,0
87.093232,264,13185,132,5.312000,0
87.098544,265,13230,132,0,1931.920000
89.030464,265,13275,132,4.928000,0
89.035392,266,13320,133,4.672000,0
89.040064,267,13365,133,4.928000,0
89.044992,268,13410,134,5.328000,0
89.050320,269,13455,134,4.688000,0
89.055008,270,13500,135,5.120000,0
89.060128,271,13545,135,0,1936.416000
90.996544,271,13590,135,4.672000,0
91.001216,272,13635,136,5.296000,0
91.006512,273,13680,136,5.184000,0
91.011696,274,13725,137,5.104000,0
91.016800,275,13770,137,5.184000,0
91.021984,276,13815,138,5.136000,0
91.027120,277,13860,138,4.672000,0
91.031792,278,13905,139,0,1930.832000
92.962624,278,13950,139,4.848000,0
92.967472,279,13995,139,4.672000,0
92.972144,280,14040,140,5.328000,0
92.977472,281,14085,140,4.864000,0
92.982336,282,14130,141,4.576000,0
92.986912,283,14175,141,4.928000,0
92.991840,284,14220,142,4.880000,0
92.996720,285,14265,142,5.184000,0
93.001904,286,14310,143,4.816000,0
93.006720,287,14355,143,4.928000,0
93.011648,288,14400,144,0,1917.056000
94.928704,288,14445,144,5.312000,0
94.934016,289,14490,144,4.672000,0
94.938688,290,14535,145,5.184000,0
94.943872,291,14580,145,4.928000,0
94.948800,292,14625,146,4.720000,0
94.953520,293,14670,146,4.672000,0
94.958192,294,14715,147,4.640000,0
94.962832,295,14760,147,4.672000,0
94.967504,296,14805,148,0,1927.280000
96.894784,296,14850,148,4.912000,0
96.899696,297,14895,148,4.672000,0
96.904368,298,14940,149,4.800000,0
96.909168,299,14985,149,4.672000,0
96.913840,300,15030,150,4.624000,0
96.918464,301,15075,150,4.928000,0
96.923392,302,15120,151,4.976000,0
96.928368,303,15165,151,4.672000,0
96.933040,304,15210,152,0,1927.824000
98.860864,304,15255,152,4.848000,0
98.865712,305,15300,152,4.928000,0
98.870640,306,15345,153,5.280000,0
98.875920,307,15390,153,5.120000,0
98.881040,308,15435,154,4.576000,0
98.885616,309,15480,154,4.864000,0
98.890480,310,15525,155,4.576000,0
98.895056,311,15570,155,4.864000,0
98.899920,312,15615,156,5.088000,0
98.905008,313,15660,156,5.184000,0
98.910192,314,15705,157,0,1916.752000
100.826944,314,15750,157,4.976000,0
100.831920,315,15795,157,4.672000,0
100.836592,316,15840,158,5.312000,0
100.841904,317,15885,158,4.672000,0
100.846576,318,15930,159,4.928000,0
100.851504,319,15975,159,4.672000,0
100.856176,320,16020,160,5.072000,0
100.861248,321,16065,160,4.688000,0
100.865936,322,16110,161,5.120000,0
100.871056,323,16155,161,5.184000,0
100.876240,324,16200,162,5.296000,0
100.881536,325,16245,162,0,1911.488000
102.793024,325,16290,162,5.184000,0
102.798208,326,16335,163,4.592000,0
102.802800,327,16380,163,5.184000,0
102.807984,328,16425,164,5.136000,0
102.813120,329,16470,164,4.928000,0
102.818048,330,16515,165,4.592000,0
102.822640,331,16560,165,4.928000,0
102.827568,332,16605,166,4.816000,0
102.832384,333,16650,166,0,1926.720000
104.759104,333,16695,166,4.864000,0
104.763968,334,16740,167,5.088000,0
104.769056,335,16785,167,5.184000,0
104.774240,336,16830,168,4.624000,0
104.778864,337,16875,168,5.184000,0
104.784048,338,16920,169,4.816000,0
104.788864,339,16965,169,4.672000,0
104.793536,340,17010,170,5.056000,0
104.798592,341,17055,170,5.184000,0
104.803776,342,17100,171,4.928000,0
104.808704,343,17145,171,0,1916.480000
106.725184,343,17190,171,5.184000,0
106.730368,344,17235,172,4.976000,0
106.735344,345,17280,172,4.928000,0
106.740272,346,17325,173,4.896000,0
106.745168,347,17370,173,4.672000,0
106.749840,348,17415,174,4.912000,0
106.754752,349,17460,174,4.672000,0
106.759424,350,17505,175,0,1931.840000
108.691264,350,17550,175,4.800000,0
108.696064,351,17595,175,4.672000,0
108.700736,352,17640,176,5.136000,0
108.705872,353,17685,176,5.184000,0
108.711056,354,17730,177,4.720000,0
108.715776,355,17775,177,4.672000,0
108.720448,356,17820,178,4.592000,0
108.725040,357,17865,178,4.928000,0
108.729968,358,17910,179,5.024000,0
108.734992,359,17955,179,4.608000,0
108.739600,360,18000,180,0,1917.744000
110.657344,360,18045,180,4.576000,0
110.661920,361,18090,180,4.864000,0
110.666784,362,18135,181,4.576000,0
110.671360,363,18180,181,5.120000,0
110.676480,364,18225,182,4.832000,0
110.681312,365,18270,182,4.672000,0
110.685984,366,18315,183,5.232000,0
110.691216,367,18360,183,5.184000,0
110.696400,368,18405,184,5.312000,0
110.701712,369,18450,184,5.184000,0
110.706896,370,18495,185,0,1916.528000
112.623424,370,18540,185,4.928000,0
112.628352,371,18585,185,4.672000,0
112.633024,372,18630,186,5.328000,0
112.638352,373,18675,186,4.944000,0
112.643296,374,18720,187,5.120000,0
112.648416,375,18765,187,5.184000,0
112.653600,376,18810,188,5.040000,0
112.658640,377,18855,188,5.184000,0
112.663824,378,18900,189,4.848000,0
112.668672,379,18945,189,0,1920.832000
114.589504,379,18990,189,5.184000,0
114.594688,380,19035,190,4.880000,0
114.599568,381,19080,190,5.184000,0
114.604752,382,19125,191,5.104000,0
114.609856,383,19170,191,5.184000,0
114.615040,384,19215,192,5.072000,0
114.620112,385,19260,192,4.864000,0
114.624976,386,19305,193,5.088000,0
114.630064,387,19350,193,4.672000,0
114.634736,388,19395,194,0,1920.848000
116.555584,388,19440,194,5.136000,0
116.560720,389,19485,194,4.928000,0
116.565648,390,19530,195,5.072000,0
116.570720,391,19575,195,4.672000,0
116.575392,392,19620,196,5.056000,0
116.580448,393,19665,196,5.184000,0
116.585632,394,19710,197,4.928000,0
116.590560,395,19755,197,4.672000,0
116.595232,396,19800,198,5.232000,0
116.600464,397,19845,198,4.928000,0
116.605392,398,19890,199,5.152000,0
116.610544,399,19935,199,0,1911.120000
118.521664,399,19980,199,5.184000,0
118.526848,400,20025,200,4.656000,0
118.531504,401,20070,200,5.184000,0
118.536688,402,20115,201,5.312000,0
118.542000,403,20160,201,4.672000,0
118.546672,404,20205,202,4.880000,0
118.551552,405,20250,202,4.928000,0
118.556480,406,20295,203,4.720000,0
118.561200,407,20340,203,4.672000,0
118.565872,408,20385,204,5.104000,0
118.570976,409,20430,204,0,1916.768000
120.487744,409,20475,204,5.184000,0
120.492928,410,20520,205,5.024000,0
120.497952,411,20565,205,4.864000,0
120.502816,412,20610,206,4.576000,0
120.507392,413,20655,206,4.864000,0
120.512256,414,20700,207,4.832000,0
120.517088,415,20745,207,5.120000,0
120.522208,416,20790,208,4.832000,0
120.527040,417,20835,208,5.184000,0
120.532224,418,20880,209,4.720000,0
120.536944,419,20925,209,4.928000,0
120.541872,420,20970,210,0,1911.952000
122.453824,420,21015,210,5.312000,0
122.459136,421,21060,210,4.928000,0
122.464064,422,21105,211,5.184000,0
122.469248,423,21150,211,5.184000,0
122.474432,424,21195,212,5.328000,0
122.479760,425,21240,212,4.688000,0
122.484448,426,21285,213,0,1935.456000
124.419904,426,21330,213,5.120000,0
124.425024,427,21375,213,4.672000,0
124.429696,428,21420,214,4.784000,0
124.434480,429,21465,214,4.928000,0
124.439408,430,21510,215,5.104000,0
124.444512,431,21555,215,5.184000,0
124.449696,432,21600,216,5.136000,0
124.454832,433,21645,216,5.184000,0
124.460016,434,21690,217,4.848000,0
124.464864,435,21735,217,0,1921.120000
126.385984,435,21780,217,4.928000,0
126.390912,436,21825,218,5.328000,0
126.396240,437,21870,218,4.864000,0
126.401104,438,21915,219,4.832000,0
126.405936,439,21960,219,5.184000,0
126.411120,440,22005,220,4.880000,0
126.416000,441,22050,220,5.184000,0
126.421184,442,22095,221,5.328000,0
126.426512,443,22140,221,4.928000,0
126.431440,444,22185,222,4.800000,0
126.436240,445,22230,222,0,1915.824000
128.352064,445,22275,222,4.928000,0
128.356992,446,22320,223,4.928000,0
128.361920,447,22365,223,4.928000,0
128.366848,448,22410,224,5.232000,0
128.372080,449,22455,224,5.184000,0
128.377264,450,22500,225,4.640000,0
128.381904,451,22545,225,4.672000,0
128.386576,452,22590,226,4.656000,0
128.391232,453,22635,226,5.184000,0
128.396416,454,22680,227,0,1921.728000
130.318144,454,22725,227,5.056000,0
130.323200,455,22770,227,4.928000,0
130.328128,456,22815,228,4.624000,0
130.332752,457,22860,228,4.672000,0
130.337424,458,22905,229,4.720000,0
130.342144,459,22950,229,4.928000,0
130.347072,460,22995,230,4.848000,0
130.351920,461,23040,230,4.672000,0
130.356592,462,23085,231,5.280000,0
130.361872,463,23130,231,4.864000,0
130.366736,464,23175,232,0,1917.488000
132.284224,464,23220,232,5.088000,0
132.289312,465,23265,232,5.120000,0
132.294432,466,23310,233,5.088000,0
132.299520,467,23355,233,4.608000,0
132.304128,468,23400,234,4.832000,0
132.308960,469,23445,234,5.184000,0
132.314144,470,23490,235,5.232000,0
132.319376,471,23535,235,5.184000,0
132.324560,472,23580,236,5.056000,0
132.329616,473,23625,236,0,1920.688000
134.250304,473,23670,236,4.672000,0
134.254976,474,23715,237,5.184000,0
134.260160,475,23760,237,5.184000,0
134.265344,476,23805,238,5.328000,0
134.270672,477,23850,238,4.688000,0
134.275360,478,23895,239,4.864000,0
134.280224,479,23940,239,4.672000,0
134.284896,480,23985,240,4.784000,0
134.289680,481,24030,240,5.184000,0
134.294864,482,24075,241,0,1921.520000
136.216384,482,24120,241,4.592000,0
136.220976,483,24165,241,5.184000,0
136.226160,484,24210,242,4.624000,0
136.230784,485,24255,242,4.672000,0
136.235456,486,24300,243,5.104000,0
136.240560,487,24345,243,0,1941.904000
138.182464,487,24390,243,4.928000,0
138.187392,488,24435,244,5.328000,0
138.192720,489,24480,244,4.864000,0
138.197584,490,24525,245,4.832000,0
138.202416,491,24570,245,5.184000,0
138.207600,492,24615,246,4.624000,0
138.212224,493,24660,246,4.928000,0
138.217152,494,24705,247,5.328000,0
138.222480,495,24750,247,0,1926.064000
140.148544,495,24795,247,5.184000,0
140.153728,496,24840,248,4.800000,0
140.158528,497,24885,248,4.928000,0
140.163456,498,24930,249,5.184000,0
140.168640,499,24975,249,5.184000,0
140.173824,500,25020,250,4.720000,0
140.178544,501,25065,250,4.672000,0
140.183216,502,25110,251,0,1931.408000
142.114624,502,25155,251,5.152000,0
142.119776,503,25200,251,4.928000,0
142.124704,504,25245,252,4.912000,0
142.129616,505,25290,252,5.184000,0
142.134800,506,25335,253,4.800000,0
142.139600,507,25380,253,4.672000,0
142.144272,508,25425,254,4.880000,0
142.149152,509,25470,254,5.184000,0
142.154336,510,25515,255,4.720000,0
142.159056,511,25560,255,4.672000,0
142.163728,512,25605,256,0,1916.976000
144.080704,512,25650,256,5.104000,0
144.085808,513,25695,256,5.184000,0
144.090992,514,25740,257,5.024000,0
144.096016,515,25785,257,4.608000,0
144.100624,516,25830,258,4.832000,0
144.105456,517,25875,258,4.864000,0
144.110320,518,25920,259,5.088000,0
144.115408,519,25965,259,4.608000,0
144.120016,520,26010,260,4.576000,0
144.124592,521,26055,260,4.672000,0
144.129264,522,26100,261,0,1917.520000
146.046784,522,26145,261,4.720000,0
146.051504,523,26190,261,5.184000,0
146.056688,524,26235,262,5.056000,0
146.061744,525,26280,262,4.672000,0
146.066416,526,26325,263,4.672000,0
146.071088,527,26370,263,4.672000,0
146.075760,528,26415,264,0,1937.104000
148.012864,528,26460,264,5.328000,0
148.018192,529,26505,264,4.944000,0
148.023136,530,26550,265,4.608000,0
148.027744,531,26595,265,4.672000,0
148.032416,532,26640,266,4.784000,0
148.037200,533,26685,266,4.928000,0
148.042128,534,26730,267,4.592000,0
148.046720,535,26775,267,5.184000,0
148.051904,536,26820,268,0,1927.040000
149.978944,536,26865,268,5.136000,0
149.984080,537,26910,268,4.928000,0
149.989008,538,26955,269,4.592000,0
149.993600,539,27000,269,4.672000,0
149.998272,540,27045,270,5.072000,0
150.003344,541,27090,270,4.608000,0
150.007952,542,27135,271,4.832000,0
150.012784,543,27180,271,4.928000,0
150.017712,544,27225,272,4.880000,0
150.022592,545,27270,272,4.928000,0
150.027520,546,27315,273,0,1917.504000
151.945024,546,27360,273,5.328000,0
151.950352,547,27405,273,4.672000,0
151.955024,548,27450,274,5.056000,0
151.960080,549,27495,274,4.928000,0
151.965008,550,27540,275,5.184000,0
151.970192,551,27585,275,4.928000,0
151.975120,552,27630,276,0,1935.984000
153.911104,552,27675,276,4.976000,0
153.916080,553,27720,276,4.672000,0
153.920752,554,27765,277,4.640000,0
153.925392,555,27810,277,5.184000,0
153.930576,556,27855,278,4.912000,0
153.935488,557,27900,278,4.672000,0
153.940160,558,27945,279,5.312000,0
153.945472,559,27990,279,4.928000,0
153.950400,560,28035,280,0,1926.784000
155.877184,560,28080,280,4.880000,0
155.882064,561,28125,280,4.672000,0
155.886736,562,28170,281,4.720000,0
155.891456,563,28215,281,4.672000,0
155.896128,564,28260,282,5.104000,0
155.901232,565,28305,282,4.928000,0
155.906160,566,28350,283,5.280000,0
155.911440,567,28395,283,0,1931.824000
157.843264,567,28440,283,5.120000,0
157.848384,568,28485,284,5.088000,0
157.853472,569,28530,284,4.608000,0
157.858080,570,28575,285,4.832000,0
157.862912,571,28620,285,4.608000,0
157.867520,572,28665,286,4.832000,0
157.872352,573,28710,286,4.672000,0
157.877024,574,28755,287,4.720000,0
157.881744,575,28800,287,5.184000,0
157.886928,576,28845,288,0,1922.416000
159.809344,576,28890,288,5.056000,0
159.814400,577,28935,288,5.184000,0
159.819584,578,28980,289,5.184000,0
159.824768,579,29025,289,4.928000,0
159.829696,580,29070,290,5.072000,0
159.834768,581,29115,290,4.688000,0
159.839456,582,29160,291,5.120000,0
159.844576,583,29205,291,5.184000,0
159.849760,584,29250,292,5.040000,0
159.854800,585,29295,292,4.928000,0
159.859728,586,29340,293,0,1915.696000
161.775424,586,29385,293,5.104000,0
161.780528,587,29430,293,5.184000,0
161.785712,588,29475,294,4.880000,0
161.790592,589,29520,294,4.928000,0
161.795520,590,29565,295,4.592000,0
161.800112,591,29610,295,5.184000,0
161.805296,592,29655,296,5.072000,0
161.810368,593,29700,296,5.120000,0
161.815488,594,29745,297,0,1926.016000
163.741504,594,29790,297,5.088000,0
163.746592,595,29835,297,5.184000,0
163.751776,596,29880,298,4.880000,0
163.756656,597,29925,298,5.184000,0
163.761840,598,29970,299,5.072000,0
163.766912,599,30015,299,4.928000,0
163.771840,600,30060,300,5.056000,0
163.776896,601,30105,300,5.184000,0
163.782080,602,30150,301,0,1925.504000
165.707584,602,30195,301,5.184000,0
165.712768,603,30240,301,4.672000,0
165.717440,604,30285,302,5.232000,0
165.722672,605,30330,302,4.928000,0
165.727600,606,30375,303,4.640000,0
165.732240,607,30420,303,5.184000,0
165.737424,608,30465,304,4.656000,0
165.742080,609,30510,304,4.928000,0
165.747008,610,30555,305,0,1926.656000
167.673664,610,30600,305,4.800000,0
167.678464,611,30645,305,4.672000,0
167.683136,612,30690,306,4.880000,0
167.688016,613,30735,306,5.184000,0
167.693200,614,30780,307,4.720000,0
167.697920,615,30825,307,4.928000,0
167.702848,616,30870,308,0,1936.896000
169.639744,616,30915,308,4.848000,0
169.644592,617,30960,308,4.672000,0
169.649264,618,31005,309,5.280000,0
169.654544,619,31050,309,5.120000,0
169.659664,620,31095,310,4.832000,0
169.664496,621,31140,310,4.864000,0
169.669360,622,31185,311,5.088000,0
169.674448,623,31230,311,4.864000,0
169.679312,624,31275,312,4.832000,0
169.684144,625,31320,312,4.928000,0
169.689072,626,31365,313,5.232000,0
169.694304,627,31410,313,0,1911.520000
171.605824,627,31455,313,4.928000,0
171.610752,628,31500,314,5.312000,0
171.616064,629,31545,314,4.928000,0
171.620992,630,31590,315,4.672000,0
171.625664,631,31635,315,4.928000,0
171.630592,632,31680,316,5.072000,0
171.635664,633,31725,316,0,1936.240000
173.571904,633,31770,316,4.688000,0
173.576592,634,31815,317,4.864000,0
173.581456,635,31860,317,4.928000,0
173.586384,636,31905,318,4.784000,0
173.591168,637,31950,318,5.184000,0
173.596352,638,31995,319,0,1941.632000
175.537984,638,32040,319,4.848000,0
175.542832,639,32085,319,4.928000,0
175.547760,640,32130,320,5.136000,0
175.552896,641,32175,320,4.672000,0
175.557568,642,32220,321,4.592000,0
175.562160,643,32265,321,4.928000,0
175.567088,644,32310,322,0,1936.976000
177.504064,644,32355,322,5.328000,0
177.509392,645,32400,322,5.120000,0
177.514512,646,32445,323,4.832000,0
177.519344,647,32490,323,4.928000,0
177.524272,648,32535,324,5.136000,0
177.529408,649,32580,324,5.184000,0
177.534592,650,32625,325,5.072000,0
177.539664,651,32670,325,0,1930.480000
179.470144,651,32715,325,5.184000,0
179.475328,652,32760,326,4.800000,0
179.480128,653,32805,326,5.184000,0
179.485312,654,32850,327,4.672000,0
179.489984,655,32895,327,5.184000,0
179.495168,656,32940,328,4.976000,0
179.500144,657,32985,328,5.184000,0
179.505328,658,33030,329,4.640000,0
179.509968,659,33075,329,4.928000,0
179.514896,660,33120,330,0,1921.328000
181.436224,660,33165,330,4.656000,0
181.440880,661,33210,330,4.928000,0
181.445808,662,33255,331,5.056000,0
181.450864,663,33300,331,4.928000,0
181.455792,664,33345,332,4.624000,0
181.460416,665,33390,332,4.672000,0
181.465088,666,33435,333,0,1937.216000
183.402304,666,33480,333,4.976000,0
183.407280,667,33525,333,5.184000,0
183.412464,668,33570,334,4.592000,0
183.417056,669,33615,334,5.184000,0
183.422240,670,33660,335,5.024000,0
183.427264,671,33705,335,4.608000,0
183.431872,672,33750,336,5.088000,0
183.436960,673,33795,336,4.608000,0
183.441568,674,33840,337,0,1926.816000
185.368384,674,33885,337,4.576000,0
185.372960,675,33930,337,5.120000,0
185.378080,676,33975,338,5.088000,0
185.383168,677,34020,338,4.672000,0
185.387840,678,34065,339,4.720000,0
185.392560,679,34110,339,4.672000,0
185.397232,680,34155,340,5.312000,0
185.402544,681,34200,340,0,1931.920000
187.334464,681,34245,340,4.672000,0
187.339136,682,34290,341,5.184000,0
187.344320,683,34335,341,4.672000,0
187.348992,684,34380,342,5.072000,0
187.354064,685,34425,342,4.688000,0
187.358752,686,34470,343,4.864000,0
187.363616,687,34515,343,4.672000,0
187.368288,688,34560,344,5.296000,0
187.373584,689,34605,344,4.928000,0
187.378512,690,34650,345,0,1922.032000
189.300544,690,34695,345,4.592000,0
189.305136,691,34740,345,5.184000,0
189.310320,692,34785,346,4.624000,0
189.314944,693,34830,346,4.672000,0
189.319616,694,34875,347,4.592000,0
189.324208,695,34920,347,4.672000,0
189.328880,696,34965,348,4.816000,0
189.333696,697,35010,348,5.120000,0
189.338816,698,35055,349,4.576000,0
189.343392,699,35100,349,0,1923.232000
191.266624,699,35145,349,4.672000,0
191.271296,700,35190,350,5.136000,0
191.276432,701,35235,350,5.184000,0
191.281616,702,35280,351,5.072000,0
191.286688,703,35325,351,5.184000,0
191.291872,704,35370,352,5.056000,0
191.296928,705,35415,352,4.672000,0
191.301600,706,35460,353,4.928000,0
191.306528,707,35505,353,0,1926.176000
193.232704,707,35550,353,5.184000,0
193.237888,708,35595,354,4.720000,0
193.242608,709,35640,354,4.672000,0
193.247280,710,35685,355,4.896000,0
193.252176,711,35730,355,5.184000,0
193.257360,712,35775,356,4.656000,0
193.262016,713,35820,356,4.928000,0
193.266944,714,35865,357,4.800000,0
193.271744,715,35910,357,4.672000,0
193.276416,716,35955,358,0,1922.368000
195.198784,716,36000,358,4.624000,0
195.203408,717,36045,358,5.184000,0
195.208592,718,36090,359,4.976000,0
195.213568,719,36135,359,4.928000,0
195.218496,720,36180,360,4.592000,0
195.223088,721,36225,360,0,1941.776000
197.164864,721,36270,360,4.928000,0
197.169792,722,36315,361,5.280000,0
197.175072,723,36360,361,4.864000,0
197.179936,724,36405,362,5.088000,0
197.185024,725,36450,362,4.608000,0
197.189632,726,36495,363,5.088000,0
197.194720,727,36540,363,5.120000,0
197.199840,728,36585,364,4.832000,0
197.204672,729,36630,364,0,1926.272000
199.130944,729,36675,364,4.672000,0
199.135616,730,36720,365,5.232000,0
199.140848,731,36765,365,5.184000,0
199.146032,732,36810,366,4.800000,0
199.150832,733,36855,366,4.672000,0
199.155504,734,36900,367,5.184000,0
199.160688,735,36945,367,4.672000,0
199.165360,736,36990,368,5.328000,0
199.170688,737,37035,368,4.688000,0
199.175376,738,37080,369,0,1921.648000
201.097024,738,37125,369,5.120000,0
201.102144,739,37170,369,4.672000,0
201.106816,740,37215,370,5.296000,0
201.112112,741,37260,370,4.928000,0
201.117040,742,37305,371,4.848000,0
201.121888,743,37350,371,5.184000,0
201.127072,744,37395,372,4.880000,0
201.131952,745,37440,372,4.672000,0
201.136624,746,37485,373,0,1926.480000
203.063104,746,37530,373,4.592000,0
203.067696,747,37575,373,4.672000,0
203.072368,748,37620,374,5.328000,0
203.077696,749,37665,374,4.864000,0
203.082560,750,37710,375,5.088000,0
203.087648,751,37755,375,0,1941.536000
205.029184,751,37800,375,4.672000,0
205.033856,752,37845,376,4.880000,0
205.038736,753,37890,376,4.672000,0
205.043408,754,37935,377,4.816000,0
205.048224,755,37980,377,5.184000,0
205.053408,756,38025,378,5.056000,0
205.058464,757,38070,378,4.672000,0
205.063136,758,38115,379,5.184000,0
205.068320,759,38160,379,0,1926.944000
206.995264,759,38205,379,4.672000,0
206.999936,760,38250,380,4.976000,0
207.004912,761,38295,380,4.928000,0
207.009840,762,38340,381,4.640000,0
207.014480,763,38385,381,5.184000,0
207.019664,764,38430,382,4.912000,0
207.024576,765,38475,382,5.184000,0
207.029760,766,38520,383,5.312000,0
207.035072,767,38565,383,4.928000,0
207.040000,768,38610,384,0,1921.344000
208.961344,768,38655,384,4.880000,0
208.966224,769,38700,384,4.928000,0
208.971152,770,38745,385,5.232000,0
208.976384,771,38790,385,5.184000,0
208.981568,772,38835,386,4.848000,0
208.986416,773,38880,386,4.672000,0
208.991088,774,38925,387,5.280000,0
208.996368,775,38970,387,5.120000,0
209.001488,776,39015,388,0,1925.936000
210.927424,776,39060,388,4.576000,0
210.932000,777,39105,388,4.864000,0
210.936864,778,39150,389,4.576000,0
210.941440,779,39195,389,4.864000,0
210.946304,780,39240,390,4.832000,0
210.951136,781,39285,390,4.928000,0
210.956064,782,39330,391,4.720000,0
210.960784,783,39375,391,0,1932.720000
212.893504,783,39420,391,4.672000,0
212.898176,784,39465,392,4.800000,0
212.902976,785,39510,392,4.672000,0
212.907648,786,39555,393,4.928000,0
212.912576,787,39600,393,4.928000,0
212.917504,788,39645,394,5.072000,0
212.922576,789,39690,394,4.688000,0
212.927264,790,39735,395,4.608000,0
212.931872,791,39780,395,5.184000,0
212.937056,792,39825,396,5.296000,0
212.942352,793,39870,396,0,1917.232000
214.859584,793,39915,396,4.928000,0
214.864512,794,39960,397,5.104000,0
214.869616,795,40005,397,4.672000,0
214.874288,796,40050,398,4.880000,0
214.879168,797,40095,398,5.184000,0
214.884352,798,40140,399,4.848000,0
214.889200,799,40185,399,0,1936.464000
216.825664,799,40230,399,4.928000,0
216.830592,800,40275,400,5.328000,0
216.835920,801,40320,400,5.120000,0
216.841040,802,40365,401,5.088000,0
216.846128,803,40410,401,5.184000,0
216.851312,804,40455,402,4.880000,0
216.856192,805,40500,402,5.184000,0
216.861376,806,40545,403,4.816000,0
216.866192,807,40590,403,4.928000,0
216.871120,808,40635,404,5.056000,0
216.876176,809,40680,404,0,1915.568000
218.791744,809,40725,404,4.672000,0
218.796416,810,40770,405,5.184000,0
218.801600,811,40815,405,5.184000,0
218.806784,812,40860,406,4.720000,0
218.811504,813,40905,406,4.928000,0
218.816432,814,40950,407,5.152000,0
218.821584,815,40995,407,4.928000,0
218.826512,816,41040,408,0,1931.312000
220.757824,816,41085,408,4.656000,0
220.762480,817,41130,408,4.672000,0
220.767152,818,41175,409,5.312000,0
220.772464,819,41220,409,4.928000,0
220.777392,820,41265,410,4.880000,0
220.782272,821,41310,410,5.184000,0
220.787456,822,41355,411,5.232000,0
220.792688,823,41400,411,5.184000,0
220.797872,824,41445,412,5.104000,0
220.802976,825,41490,412,4.672000,0
220.807648,826,41535,413,5.024000,0
220.812672,827,41580,413,0,1911.232000
222.723904,827,41625,413,5.120000,0
222.729024,828,41670,414,4.832000,0
222.733856,829,41715,414,4.608000,0
222.738464,830,41760,415,5.088000,0
222.743552,831,41805,415,4.864000,0
222.748416,832,41850,416,4.576000,0
222.752992,833,41895,416,4.672000,0
222.757664,834,41940,417,4.720000,0
222.762384,835,41985,417,5.184000,0
222.767568,836,42030,418,5.312000,0
222.772880,837,42075,418,4.672000,0
222.777552,838,42120,419,0,1912.432000
224.689984,838,42165,419,4.928000,0
224.694912,839,42210,419,4.928000,0
224.699840,840,42255,420,5.072000,0
224.704912,841,42300,420,4.688000,0
224.709600,842,42345,421,4.864000,0
224.714464,843,42390,421,4.928000,0
224.719392,844,42435,422,5.040000,0
224.724432,845,42480,422,5.184000,0
224.729616,846,42525,423,4.592000,0
224.734208,847,42570,423,4.672000,0
224.738880,848,42615,424,0,1917.184000
226.656064,848,42660,424,4.624000,0
226.660688,849,42705,424,5.184000,0
226.665872,850,42750,425,4.592000,0
226.670464,851,42795,425,4.672000,0
226.675136,852,42840,426,5.072000,0
226.680208,853,42885,426,4.864000,0
226.685072,854,42930,427,5.088000,0
226.690160,855,42975,427,4.672000,0
226.694832,856,43020,428,4.880000,0
226.699712,857,43065,428,0,1922.432000
228.622144,857,43110,428,4.672000,0
228.626816,858,43155,429,5.328000,0
228.632144,859,43200,429,5.184000,0
228.637328,860,43245,430,4.800000,0
228.642128,861,43290,430,4.672000,0
228.646800,862,43335,431,4.672000,0
228.651472,863,43380,431,4.928000,0
228.656400,864,43425,432,4.720000,0
228.661120,865,43470,432,4.672000,0
228.665792,866,43515,433,4.640000,0
228.670432,867,43560,433,4.928000,0
228.675360,868,43605,434,0,1912.864000
230.588224,868,43650,434,5.168000,0
230.593392,869,43695,434,4.928000,0
230.598320,870,43740,435,5.056000,0
230.603376,871,43785,435,5.184000,0
230.608560,872,43830,436,4.624000,0
230.613184,873,43875,436,4.928000,0
230.618112,874,43920,437,5.232000,0
230.623344,875,43965,437,0,1930.960000
232.554304,875,44010,437,5.184000,0
232.559488,876,44055,438,4.848000,0
232.564336,877,44100,438,4.672000,0
232.569008,878,44145,439,4.768000,0
232.573776,879,44190,439,5.120000,0
232.578896,880,44235,440,4.832000,0
232.583728,881,44280,440,4.864000,0
232.588592,882,44325,441,4.576000,0
232.593168,883,44370,441,4.608000,0
232.597776,884,44415,442,4.832000,0
232.602608,885,44460,442,4.672000,0
232.607280,886,44505,443,