Time,CovertPackets,AllPackets,BitsSent,PacketInterval;GTSInterval
32.017744,1,60,0,4.448000,0
32.022192,2,90,1,0,1957.552000
33.979744,2,120,1,4.240000,0
33.983984,3,150,1,0,1961.840000
35.945824,3,180,1,4.704000,0
35.950528,4,210,2,4.320000,0
35.954848,5,240,2,0,1957.056000
37.911904,5,270,2,4.704000,0
37.916608,6,300,3,0,1961.376000
39.877984,6,330,3,4.704000,0
39.882688,7,360,3,4.192000,0
39.886880,8,390,4,0,1957.184000
41.844064,8,420,4,4.592000,0
41.848656,9,450,4,0,1961.488000
43.810144,9,480,4,4.464000,0
43.814608,10,510,5,4.640000,0
43.819248,11,540,5,0,1956.976000
45.776224,11,570,5,4.448000,0
45.780672,12,600,6,0,1961.632000
47.742304,12,630,6,4.560000,0
47.746864,13,660,6,0,1961.520000
49.708384,13,690,6,4.192000,0
49.712576,14,720,7,0,1961.888000
51.674464,14,750,7,4.368000,0
51.678832,15,780,7,4.192000,0
51.683024,16,810,8,0,1957.520000
53.640544,16,840,8,4.656000,0
53.645200,17,870,8,0,1961.424000
55.606624,17,900,8,4.192000,0
55.610816,18,930,9,4.112000,0
55.614928,19,960,9,0,1957.776000
57.572704,19,990,9,4.448000,0
57.577152,20,1020,10,0,1961.632000
59.538784,20,1050,10,4.336000,0
59.543120,21,1080,10,0,1961.744000
61.504864,21,1110,10,4.640000,0
61.509504,22,1140,11,4.608000,0
61.514112,23,1170,11,0,1956.832000
63.470944,23,1200,11,4.448000,0
63.475392,24,1230,12,4.656000,0
63.480048,25,1260,12,0,1956.976000
65.437024,25,1290,12,4.704000,0
65.441728,26,1320,13,0,1961.376000
67.403104,26,1350,13,4.592000,0
67.407696,27,1380,13,4.448000,0
67.412144,28,1410,14,0,1957.040000
69.369184,28,1440,14,4.832000,0
69.374016,29,1470,14,4.192000,0
69.378208,30,1500,15,0,1957.056000
71.335264,30,1530,15,4.192000,0
71.339456,31,1560,15,0,1961.888000
73.301344,31,1590,15,4.192000,0
73.305536,32,1620,16,0,1961.888000
75.267424,32,1650,16,4.496000,0
75.271920,33,1680,16,0,1961.584000
77.233504,33,1710,16,4.704000,0
77.238208,34,1740,17,4.672000,0
77.242880,35,1770,17,0,1956.704000
79.199584,35,1800,17,4.448000,0
79.204032,36,1830,18,4.176000,0
79.208208,37,1860,18,0,1957.456000
81.165664,37,1890,18,4.704000,0
81.170368,38,1920,19,0,1961.376000
83.131744,38,1950,19,4.320000,0
83.136064,39,1980,19,0,1961.760000
85.097824,39,2010,19,4.448000,0
85.102272,40,2040,20,4.400000,0
85.106672,41,2070,20,0,1957.232000
87.063904,41,2100,20,4.704000,0
87.068608,42,2130,21,0,1961.376000
89.029984,42,2160,21,4.240000,0
89.034224,43,2190,21,0,1961.840000
90.996064,43,2220,21,4.192000,0
91.000256,44,2250,22,4.112000,0
91.004368,45,2280,22,0,1957.776000
92.962144,45,2310,22,4.704000,0
92.966848,46,2340,23,0,1961.376000
94.928224,46,2370,23,4.800000,0
94.933024,47,2400,23,4.384000,0
94.937408,48,2430,24,0,1956.896000
96.894304,48,2460,24,4.608000,0
96.898912,49,2490,24,4.384000,0
96.903296,50,2520,25,0,1957.088000
98.860384,50,2550,25,4.608000,0
98.864992,51,2580,25,0,1961.472000
100.826464,51,2610,25,4.640000,0
100.831104,52,2640,26,4.608000,0
100.835712,53,2670,26,0,1956.832000
102.792544,53,2700,26,4.192000,0
102.796736,54,2730,27,0,1961.888000
104.758624,54,2760,27,4.752000,0
104.763376,55,2790,27,4.192000,0
104.767568,56,2820,28,0,1957.136000
106.724704,56,2850,28,4.832000,0
106.729536,57,2880,28,0,1961.248000
108.690784,57,2910,28,4.448000,0
108.695232,58,2940,29,0,1961.632000
110.656864,58,2970,29,4.704000,0
110.661568,59,3000,29,4.704000,0
110.666272,60,3030,30,0,1956.672000
112.622944,60,3060,30,4.848000,0
112.627792,61,3090,30,4.464000,0
112.632256,62,3120,31,0,1956.768000
114.589024,62,3150,31,4.640000,0
114.593664,63,3180,31,0,1961.440000
116.555104,63,3210,31,4.704000,0
116.559808,64,3240,32,4.816000,0
116.564624,65,3270,32,0,1956.560000
118.521184,65,3300,32,4.704000,0
118.525888,66,3330,33,0,1961.376000
120.487264,66,3360,33,4.624000,0
120.491888,67,3390,33,4.448000,0
120.496336,68,3420,34,0,1957.008000
122.453344,68,3450,34,4.400000,0
122.457744,69,3480,34,0,1961.680000
124.419424,69,3510,34,4.448000,0
124.423872,70,3540,35,0,1961.632000
126.385504,70,3570,35,4.368000,0
126.389872,71,3600,35,4.448000,0
126.394320,72,3630,36,0,1957.264000
128.351584,72,3660,36,4.592000,0
128.356176,73,3690,36,0,1961.488000
130.317664,73,3720,36,4.128000,0
130.321792,74,3750,37,4.352000,0
130.326144,75,3780,37,0,1957.600000
132.283744,75,3810,37,4.448000,0
132.288192,76,3840,38,0,1961.632000
134.249824,76,3870,38,4.656000,0
134.254480,77,3900,38,4.448000,0
134.258928,78,3930,39,0,1956.976000
136.215904,78,3960,39,4.848000,0
136.220752,79,3990,39,4.704000,0
136.225456,80,4020,40,0,1956.528000
138.181984,80,4050,40,4.832000,0
138.186816,81,4080,40,0,1961.248000
140.148064,81,4110,40,4.704000,0
140.152768,82,4140,41,0,1961.376000
142.114144,82,4170,41,4.192000,0
142.118336,83,4200,41,4.704000,0
142.123040,84,4230,42,0,1957.184000
144.080224,84,4260,42,4.240000,0
144.084464,85,4290,42,0,1961.840000
146.046304,85,4320,42,4.192000,0
146.050496,86,4350,43,4.160000,0
146.054656,87,4380,43,0,1957.728000
148.012384,87,4410,43,4.192000,0
148.016576,88,4440,44,4.432000,0
148.021008,89,4470,44,0,1957.456000
149.978464,89,4500,44,4.448000,0
149.982912,90,4530,45,0,1961.632000
151.944544,90,4560,45,4.320000,0
151.948864,91,4590,45,4.192000,0
151.953056,92,4620,46,0,1957.568000
153.910624,92,4650,46,4.400000,0
153.915024,93,4680,46,0,1961.680000
155.876704,93,4710,46,4.704000,0
155.881408,94,4740,47,4.496000,0
155.885904,95,4770,47,0,1956.880000
157.842784,95,4800,47,4.192000,0
157.846976,96,4830,48,0,1961.888000
159.808864,96,4860,48,4.368000,0
159.813232,97,4890,48,0,1961.712000
161.774944,97,4920,48,4.192000,0
161.779136,98,4950,49,4.544000,0
161.783680,99,4980,49,0,1957.344000
163.741024,99,5010,49,4.640000,0
163.745664,100,5040,50,0,1961.440000
165.707104,100,5070,50,4.096000,0
165.711200,101,5100,50,4.640000,0
165.715840,102,5130,51,0,1957.344000
167.673184,102,5160,51,4.096000,0
167.677280,103,5190,51,0,1961.984000
169.639264,103,5220,51,4.640000,0
169.643904,104,5250,52,0,1961.440000
171.605344,104,5280,52,4.128000,0
171.609472,105,5310,52,0,1961.952000
173.571424,105,5340,52,4.640000,0
173.576064,106,5370,53,4.096000,0
173.580160,107,5400,53,0,1957.344000
175.537504,107,5430,53,4.192000,0
175.541696,108,5460,54,4.496000,0
175.546192,109,5490,54,0,1957.392000
177.503584,109,5520,54,4.448000,0
177.508032,110,5550,55,0,1961.632000
179.469664,110,5580,55,4.832000,0
179.474496,111,5610,55,4.448000,0
179.478944,112,5640,56,0,1956.800000
181.435744,112,5670,56,4.704000,0
181.440448,113,5700,56,0,1961.376000
183.401824,113,5730,56,4.704000,0
183.406528,114,5760,57,0,1961.376000
185.367904,114,5790,57,4.336000,0
185.372240,115,5820,57,4.208000,0
185.376448,116,5850,58,0,1957.536000
187.333984,116,5880,58,4.640000,0
187.338624,117,5910,58,0,1961.440000
189.300064,117,5940,58,4.448000,0
189.304512,118,5970,59,4.304000,0
189.308816,119,6000,59,0,1957.328000
191.266144,119,6030,59,4.704000,0
191.270848,120,6060,60,0,1961.376000
193.232224,120,6090,60,4.112000,0
193.236336,121,6120,60,0,1961.968000
195.198304,121,6150,60,4.192000,0
195.202496,122,6180,61,0,1961.888000
197.164384,122,6210,61,4.144000,0
197.168528,123,6240,61,4.448000,0
197.172976,124,6270,62,0,1957.488000
199.130464,124,6300,62,4.624000,0
199.135088,125,6330,62,4.704000,0
199.139792,126,6360,63,0,1956.752000
201.096544,126,6390,63,4.592000,0
201.101136,127,6420,63,0,1961.488000
203.062624,127,6450,63,4.128000,0
203.066752,128,6480,64,0,1961.952000
205.028704,128,6510,64,4.096000,0
205.032800,129,6540,64,4.448000,0
205.037248,130,6570,65,0,1957.536000
206.994784,130,6600,65,4.400000,0
206.999184,131,6630,65,0,1961.680000
208.960864,131,6660,65,4.704000,0
208.965568,132,6690,66,4.592000,0
208.970160,133,6720,66,0,1956.784000
210.926944,133,6750,66,4.192000,0
210.931136,134,6780,67,0,1961.888000
212.893024,134,6810,67,4.320000,0
212.897344,135,6840,67,4.192000,0
212.901536,136,6870,68,0,1957.568000
214.859104,136,6900,68,4.448000,0
214.863552,137,6930,68,4.192000,0
214.867744,138,6960,69,0,1957.440000
216.825184,138,6990,69,4.496000,0
216.829680,139,7020,69,0,1961.584000
218.791264,139,7050,69,4.192000,0
218.795456,140,7080,70,4.160000,0
218.799616,141,7110,70,0,1957.728000
220.757344,141,7140,70,4.192000,0
220.761536,142,7170,71,0,1961.888000
222.723424,142,7200,71,4.176000,0
222.727600,143,7230,71,0,1961.904000
224.689504,143,7260,71,4.448000,0
224.693952,144,7290,72,4.320000,0
224.698272,145,7320,72,0,1957.312000
226.655584,145,7350,72,4.448000,0
226.660032,146,7380,73,0,1961.632000
228.621664,146,7410,73,4.400000,0
228.626064,147,7440,73,4.704000,0
228.630768,148,7470,74,0,1956.976000
230.587744,148,7500,74,4.496000,0
230.592240,149,7530,74,0,1961.584000
232.553824,149,7560,74,4.192000,0
232.558016,150,7590,75,4.624000,0
232.562640,151,7620,75,0,1957.264000
234.519904,151,7650,75,4.192000,0
234.524096,152,7680,76,4.544000,0
234.528640,153,7710,76,