Time,CovertPackets,AllPackets,BitsSent,PacketInterval;GTSInterval
417.797648,1,2,0,3.264000,0
417.800912,2,3,1,3.568000,0
417.804480,3,4,1,0,31447.296000
449.251776,3,5,1,3.520000,0
449.255296,4,6,2,3.904000,0
449.259200,5,7,2,3.520000,0
449.262720,6,8,3,3.520000,0
449.266240,7,9,3,3.264000,0
449.269504,8,10,4,3.408000,0
449.272912,9,11,4,3.280000,0
449.276192,10,12,5,3.456000,0
449.279648,11,13,5,3.520000,0
449.283168,12,14,6,3.632000,0
449.286800,13,15,6,3.264000,0
449.290064,14,16,7,3.184000,0
449.293248,15,17,7,3.776000,0
449.297024,16,18,8,3.216000,0
449.300240,17,19,8,0,31408.816000
480.709056,17,20,8,3.776000,0
480.712832,18,21,9,3.440000,0
480.716272,19,22,9,3.264000,0
480.719536,20,23,10,3.664000,0
480.723200,21,24,10,3.712000,0
480.726912,22,25,11,3.168000,0
480.730080,23,26,11,3.520000,0
480.733600,24,27,12,3.216000,0
480.736816,25,28,12,3.776000,0
480.740592,26,29,13,3.920000,0
480.744512,27,30,13,3.776000,0
480.748288,28,31,14,3.904000,0
480.752192,29,32,14,3.520000,0
480.755712,30,33,15,3.520000,0
480.759232,31,34,15,0,31407.104000
512.166336,31,35,15,3.520000,0
512.169856,32,36,16,3.824000,0
512.173680,33,37,16,3.776000,0
512.177456,34,38,17,3.744000,0
512.181200,35,39,17,3.520000,0
512.184720,36,40,18,3.760000,0
512.188480,37,41,18,3.776000,0
512.192256,38,42,19,3.392000,0
512.195648,39,43,19,3.520000,0
512.199168,40,44,20,3.472000,0
512.202640,41,45,20,3.520000,0
512.206160,42,46,21,3.824000,0
512.209984,43,47,21,3.264000,0
512.213248,44,48,22,3.440000,0
512.216688,45,49,22,0,31406.928000
543.623616,45,50,22,3.264000,0
543.626880,46,51,23,3.360000,0
543.630240,47,52,23,3.456000,0
543.633696,48,53,24,3.168000,0
543.636864,49,54,24,3.200000,0
543.640064,50,55,25,3.168000,0
543.643232,51,56,25,3.456000,0
543.646688,52,57,26,3.680000,0
543.650368,53,58,26,3.264000,0
543.653632,54,59,27,3.824000,0
543.657456,55,60,27,3.520000,0
543.660976,56,61,28,3.392000,0
543.664368,57,62,28,3.264000,0
543.667632,58,63,29,3.776000,0
543.671408,59,64,29,0,31409.488000
575.080896,59,65,29,3.520000,0
575.084416,60,66,30,3.408000,0
575.087824,61,67,30,3.536000,0
575.091360,62,68,31,3.712000,0
575.095072,63,69,31,3.264000,0
575.098336,64,70,32,3.888000,0
575.102224,65,71,32,3.776000,0
575.106000,66,72,33,3.696000,0
575.109696,67,73,33,3.520000,0
575.113216,68,74,34,3.728000,0
575.116944,69,75,34,3.520000,0
575.120464,70,76,35,3.696000,0
575.124160,71,77,35,3.264000,0
575.127424,72,78,36,3.408000,0
575.130832,73,79,36,0,31407.344000
606.538176,73,80,36,3.712000,0
606.541888,74,81,37,3.680000,0
606.545568,75,82,37,3.520000,0
606.549088,76,83,38,3.728000,0
606.552816,77,84,38,3.264000,0
606.556080,78,85,39,3.664000,0
606.559744,79,86,39,3.264000,0
606.563008,80,87,40,3.648000,0
606.566656,81,88,40,3.264000,0
606.569920,82,89,41,3.264000,0
606.573184,83,90,41,3.776000,0
606.576960,84,91,42,3.824000,0
606.580784,85,92,42,3.520000,0
606.584304,86,93,43,3.744000,0
606.588048,87,94,43,