Time,CovertPackets,AllPackets,BitsSent,PacketInterval;GTSInterval
260.511248,1,2,0,3.264000,0
260.514512,2,3,1,3.824000,0
260.518336,3,4,1,3.264000,0
260.521600,4,5,2,3.904000,0
260.525504,5,6,2,3.264000,0
260.528768,6,7,3,3.776000,0
260.532544,7,8,3,3.264000,0
260.535808,8,9,4,3.664000,0
260.539472,9,10,4,3.280000,0
260.542752,10,11,5,3.456000,0
260.546208,11,12,5,3.264000,0
260.549472,12,13,6,3.376000,0
260.552848,13,14,6,3.520000,0
260.556368,14,15,7,3.184000,0
260.559552,15,16,7,0,31405.824000
291.965376,15,17,7,3.264000,0
291.968640,16,18,8,3.216000,0
291.971856,17,19,8,3.264000,0
291.975120,18,20,9,3.440000,0
291.978560,19,21,9,3.776000,0
291.982336,20,22,10,3.408000,0
291.985744,21,23,10,3.456000,0
291.989200,22,24,11,3.424000,0
291.992624,23,25,11,3.520000,0
291.996144,24,26,12,3.728000,0
291.999872,25,27,12,3.520000,0
292.003392,26,28,13,3.408000,0
292.006800,27,29,13,3.776000,0
292.010576,28,30,14,3.648000,0
292.014224,29,31,14,3.264000,0
292.017488,30,32,15,3.520000,0
292.021008,31,33,15,3.520000,0
292.024528,32,34,16,3.568000,0
292.028096,33,35,16,3.264000,0
292.031360,34,36,17,3.232000,0
292.034592,35,37,17,3.776000,0
292.038368,36,38,18,0,31384.288000
323.422656,36,39,18,3.760000,0
323.426416,37,40,18,3.776000,0
323.430192,38,41,19,3.392000,0
323.433584,39,42,19,3.776000,0
323.437360,40,43,20,3.216000,0
323.440576,41,44,20,3.520000,0
323.444096,42,45,21,3.568000,0
323.447664,43,46,21,3.520000,0
323.451184,44,47,22,3.696000,0
323.454880,45,48,22,3.776000,0
323.458656,46,49,23,3.872000,0
323.462528,47,50,23,3.200000,0
323.465728,48,51,24,3.424000,0
323.469152,49,52,24,3.712000,0
323.472864,50,53,25,3.168000,0
323.476032,51,54,25,3.712000,0
323.479744,52,55,26,3.424000,0
323.483168,53,56,26,3.264000,0
323.486432,54,57,27,3.312000,0
323.489744,55,58,27,3.776000,0
323.493520,56,59,28,3.648000,0
323.497168,57,60,28,0,31382.768000
354.879936,57,61,28,3.264000,0
354.883200,58,62,29,3.264000,0
354.886464,59,63,29,3.776000,0
354.890240,60,64,30,3.664000,0
354.893904,61,65,30,3.536000,0
354.897440,62,66,31,3.712000,0
354.901152,63,67,31,3.520000,0
354.904672,64,68,32,3.632000,0
354.908304,65,69,32,3.520000,0
354.911824,66,70,33,3.184000,0
354.915008,67,71,33,3.264000,0
354.918272,68,72,34,3.728000,0
354.922000,69,73,34,3.264000,0
354.925264,70,74,35,3.184000,0
354.928448,71,75,35,3.776000,0
354.932224,72,76,36,3.408000,0
354.935632,73,77,36,3.200000,0
354.938832,74,78,37,3.424000,0
354.942256,75,79,37,3.264000,0
354.945520,76,80,38,3.216000,0
354.948736,77,81,38,3.776000,0
354.952512,78,82,39,0,31384.704000
386.337216,78,83,39,3.408000,0
386.340624,79,84,39,3.264000,0
386.343888,80,85,40,3.392000,0
386.347280,81,86,40,3.264000,0
386.350544,82,87,41,3.264000,0
386.353808,83,88,41,3.776000,0
386.357584,84,89,42,3.312000,0
386.360896,85,90,42,3.264000,0
386.364160,86,91,43,3.488000,0
386.367648,87,92,43,3.520000,0
386.371168,88,93,44,3.248000,0
386.374416,89,94,44,3.264000,0
386.377680,90,95,45,3.648000,0
386.381328,91,96,45,3.520000,0
386.384848,92,97,46,3.216000,0
386.388064,93,98,46,3.776000,0
386.391840,94,99,47,3.568000,0
386.395408,95,100,47,3.776000,0
386.399184,96,101,48,3.184000,0
386.402368,97,102,48,3.520000,0
386.405888,98,103,49,3.360000,0
386.409248,99,104,49,0,31385.248000
417.794496,99,105,49,3.712000,0
417.798208,100,106,50,3.680000,0
417.801888,101,107,50,3.456000,0
417.805344,102,108,51,3.424000,0
417.808768,103,109,51,3.456000,0
417.812224,104,110,52,3.424000,0
417.815648,105,111,52,3.776000,0
417.819424,106,112,53,3.568000,0
417.822992,107,113,53,3.776000,0
417.826768,108,114,54,3.648000,0
417.830416,109,115,54,3.264000,0
417.833680,110,116,55,3.264000,0
417.836944,111,117,55,3.520000,0
417.840464,112,118,56,3.408000,0
417.843872,113,119,56,3.280000,0
417.847152,114,120,57,3.200000,0
417.850352,115,121,57,3.264000,0
417.853616,116,122,58,3.632000,0
417.857248,117,123,58,3.520000,0
417.860768,118,124,59,3.696000,0
417.864464,119,125,59,3.520000,0
417.867984,120,126,60,0,31383.792000
449.251776,120,127,60,3.728000,0
449.255504,121,128,60,3.264000,0
449.258768,122,129,61,3.184000,0
449.261952,123,130,61,3.520000,0
449.265472,124,131,62,3.408000,0
449.268880,125,132,62,3.456000,0
449.272336,126,133,63,3.168000,0
449.275504,127,134,63,3.520000,0
449.279024,128,135,64,3.472000,0
449.282496,129,136,64,3.264000,0
449.285760,130,137,65,3.408000,0
449.289168,131,138,65,3.264000,0
449.292432,132,139,66,3.648000,0
449.296080,133,140,66,3.520000,0
449.299600,134,141,67,3.776000,0
449.303376,135,142,67,3.264000,0
449.306640,136,143,68,3.312000,0
449.309952,137,144,68,3.520000,0
449.313472,138,145,69,3.232000,0
449.316704,139,146,69,3.520000,0
449.320224,140,147,70,3.504000,0
449.323728,141,148,70,