Time,CovertPackets,AllPackets,BitsSent,PacketInterval,GTSInterval
31.738624,0,150,0,6.080000,0
31.744704,1,225,0,0,976.960000
32.721664,1,300,0,0,983.040000
33.704704,1,375,0,0,983.040000
34.687744,1,450,0,0,983.040000
35.670784,1,525,0,5.824000,0
35.676608,2,600,1,0,977.216000
36.653824,2,675,1,0,983.040000
37.636864,2,750,1,0,983.040000
38.619904,2,825,1,6.080000,0
38.625984,3,900,1,0,976.960000
39.602944,3,975,1,0,983.040000
40.585984,3,1050,1,0,983.040000
41.569024,3,1125,1,6.080000,0
41.575104,4,1200,2,0,976.960000
42.552064,4,1275,2,0,983.040000
43.535104,4,1350,2,0,983.040000
44.518144,4,1425,2,0,983.040000
45.501184,4,1500,2,6.080000,0
45.507264,5,1575,2,0,976.960000
46.484224,5,1650,2,0,983.040000
47.467264,5,1725,2,0,983.040000
48.450304,5,1800,2,0,983.040000
49.433344,5,1875,2,6.080000,0
49.439424,6,1950,3,0,976.960000
50.416384,6,2025,3,0,983.040000
51.399424,6,2100,3,0,983.040000
52.382464,6,2175,3,6.080000,0
52.388544,7,2250,3,0,976.960000
53.365504,7,2325,3,0,983.040000
54.348544,7,2400,3,0,983.040000
55.331584,7,2475,3,0,983.040000
56.314624,7,2550,3,0,983.040000
57.297664,7,2625,3,0,983.040000
58.280704,7,2700,3,6.080000,0
58.286784,8,2775,4,0,976.960000
59.263744,8,2850,4,0,983.040000
60.246784,8,2925,4,0,983.040000
61.229824,8,3000,4,5.568000,0
61.235392,9,3075,4,0,977.472000
62.212864,9,3150,4,0,983.040000
63.195904,9,3225,4,0,983.040000
64.178944,9,3300,4,6.080000,0
64.185024,10,3375,5,0,976.960000
65.161984,10,3450,5,0,983.040000
66.145024,10,3525,5,0,983.040000
67.128064,10,3600,5,6.080000,0
67.134144,11,3675,5,0,976.960000
68.111104,11,3750,5,0,983.040000
69.094144,11,3825,5,0,983.040000
70.077184,11,3900,5,5.568000,0
70.082752,12,3975,6,0,977.472000
71.060224,12,4050,6,0,983.040000
72.043264,12,4125,6,0,983.040000
73.026304,12,4200,6,0,983.040000
74.009344,12,4275,6,0,983.040000
74.992384,12,4350,6,6.080000,0
74.998464,13,4425,6,0,976.960000
75.975424,13,4500,6,0,983.040000
76.958464,13,4575,6,0,983.040000
77.941504,13,4650,6,0,983.040000
78.924544,13,4725,6,5.568000,0
78.930112,14,4800,7,0,977.472000
79.907584,14,4875,7,0,983.040000
80.890624,14,4950,7,0,983.040000
81.873664,14,5025,7,0,983.040000
82.856704,14,5100,7,5.568000,0
82.862272,15,5175,7,0,977.472000
83.839744,15,5250,7,0,983.040000
84.822784,15,5325,7,0,983.040000
85.805824,15,5400,7,0,983.040000
86.788864,15,5475,7,0,983.040000
87.771904,15,5550,7,0,983.040000
88.754944,15,5625,7,0,983.040000
89.737984,15,5700,7,5.568000,0
89.743552,16,5775,8,0,977.472000
90.721024,16,5850,8,0,983.040000
91.704064,16,5925,8,0,983.040000
92.687104,16,6000,8,0,983.040000
93.670144,16,6075,8,0,983.040000
94.653184,16,6150,8,5.824000,0
94.659008,17,6225,8,0,977.216000
95.636224,17,6300,8,0,983.040000
96.619264,17,6375,8,0,983.040000
97.602304,17,6450,8,0,983.040000
98.585344,17,6525,8,0,983.040000
99.568384,17,6600,8,5.568000,0
99.573952,18,6675,9,0,977.472000
100.551424,18,6750,9,0,983.040000
101.534464,18,6825,9,0,983.040000
102.517504,18,6900,9,6.080000,0
102.523584,19,6975,9,0,976.960000
103.500544,19,7050,9,0,983.040000
104.483584,19,7125,9,0,983.040000
105.466624,19,7200,9,0,983.040000
106.449664,19,7275,9,0,983.040000
107.432704,19,7350,9,5.568000,0
107.438272,20,7425,10,0,977.472000
108.415744,20,7500,10,0,983.040000
109.398784,20,7575,10,0,983.040000
110.381824,20,7650,10,0,983.040000
111.364864,20,7725,10,0,983.040000
112.347904,20,7800,10,6.080000,0
112.353984,21,7875,10,0,976.960000
113.330944,21,7950,10,0,983.040000
114.313984,21,8025,10,0,983.040000
115.297024,21,8100,10,0,983.040000
116.280064,21,8175,10,5.568000,0
116.285632,22,8250,11,0,977.472000
117.263104,22,8325,11,0,983.040000
118.246144,22,8400,11,0,983.040000
119.229184,22,8475,11,5.568000,0
119.234752,23,8550,11,0,977.472000
120.212224,23,8625,11,0,983.040000
121.195264,23,8700,11,0,983.040000
122.178304,23,8775,11,0,983.040000
123.161344,23,8850,11,0,983.040000
124.144384,23,8925,11,6.080000,0
124.150464,24,9000,12,0,976.960000
125.127424,24,9075,12,0,983.040000
126.110464,24,9150,12,0,983.040000
127.093504,24,9225,12,0,983.040000
128.076544,24,9300,12,5.824000,0
128.082368,25,9375,12,0,977.216000
129.059584,25,9450,12,0,983.040000
130.042624,25,9525,12,0,983.040000
131.025664,25,9600,12,0,983.040000
132.008704,25,9675,12,0,983.040000
132.991744,25,9750,12,5.568000,0
132.997312,26,9825,13,0,977.472000
133.974784,26,9900,13,0,983.040000
134.957824,26,9975,13,0,983.040000
135.940864,26,10050,13,0,983.040000
136.923904,26,10125,13,6.080000,0
136.929984,27,10200,13,0,976.960000
137.906944,27,10275,13,0,983.040000
138.889984,27,10350,13,0,983.040000
139.873024,27,10425,13,0,983.040000
140.856064,27,10500,13,5.824000,0
140.861888,28,10575,14,0,977.216000
141.839104,28,10650,14,0,983.040000
142.822144,28,10725,14,0,983.040000
143.805184,28,10800,14,5.824000,0
143.811008,29,10875,14,0,977.216000
144.788224,29,10950,14,0,983.040000
145.771264,29,11025,14,0,983.040000
146.754304,29,11100,14,0,983.040000
147.737344,29,11175,14,5.568000,0
147.742912,30,11250,15,0,977.472000
148.720384,30,11325,15,0,983.040000
149.703424,30,11400,15,0,983.040000
150.686464,30,11475,15,5.824000,0
150.692288,31,11550,15,0,977.216000
151.669504,31,11625,15,0,983.040000
152.652544,31,11700,15,0,983.040000
153.635584,31,11775,15,0,983.040000
154.618624,31,11850,15,6.080000,0
154.624704,32,11925,16,0,976.960000
155.601664,32,12000,16,0,983.040000
156.584704,32,12075,16,0,983.040000
157.567744,32,12150,16,0,983.040000
158.550784,32,12225,16,0,983.040000
159.533824,32,12300,16,5.824000,0
159.539648,33,12375,16,0,977.216000
160.516864,33,12450,16,0,983.040000
161.499904,33,12525,16,0,983.040000
162.482944,33,12600,16,0,983.040000
163.465984,33,12675,16,0,983.040000
164.449024,33,12750,16,0,983.040000
165.432064,33,12825,16,5.824000,0
165.437888,34,12900,17,0,977.216000
166.415104,34,12975,17,0,983.040000
167.398144,34,13050,17,0,983.040000
168.381184,34,13125,17,0,983.040000
169.364224,34,13200,17,0,983.040000
170.347264,34,13275,17,0,983.040000
171.330304,34,13350,17,5.824000,0
171.336128,35,13425,17,0,977.216000
172.313344,35,13500,17,0,983.040000
173.296384,35,13575,17,0,983.040000
174.279424,35,13650,17,0,983.040000
175.262464,35,13725,17,5.824000,0
175.268288,36,13800,18,0,977.216000
176.245504,36,13875,18,0,983.040000
177.228544,36,13950,18,0,983.040000
178.211584,36,14025,18,0,983.040000
179.194624,36,14100,18,0,983.040000
180.177664,36,14175,18,5.824000,0
180.183488,37,14250,18,0,977.216000
181.160704,37,14325,18,0,983.040000
182.143744,37,14400,18,0,983.040000
183.126784,37,14475,18,0,983.040000
184.109824,37,14550,18,0,983.040000
185.092864,37,14625,18,0,983.040000
186.075904,37,14700,18,6.080000,0
186.081984,38,14775,19,0,976.960000
187.058944,38,14850,19,0,983.040000
188.041984,38,14925,19,0,983.040000
189.025024,38,15000,19,6.080000,0
189.031104,39,15075,19,0,976.960000
190.008064,39,15150,19,0,983.040000
190.991104,39,15225,19,0,983.040000
191.974144,39,15300,19,0,983.040000
192.957184,39,15375,19,0,983.040000
193.940224,39,15450,19,5.568000,0
193.945792,40,15525,20,0,977.472000
194.923264,40,15600,20,0,983.040000
195.906304,40,15675,20,0,983.040000
196.889344,40,15750,20,0,983.040000
197.872384,40,15825,20,0,983.040000
198.855424,40,15900,20,0,983.040000
199.838464,40,15975,20,0,983.040000
200.821504,40,16050,20,5.824000,0
200.827328,41,16125,20,0,977.216000
201.804544,41,16200,20,0,983.040000
202.787584,41,16275,20,0,983.040000
203.770624,41,16350,20,6.080000,0
203.776704,42,16425,21,0,976.960000
204.753664,42,16500,21,0,983.040000
205.736704,42,16575,21,0,983.040000
206.719744,42,16650,21,0,983.040000
207.702784,42,16725,21,0,983.040000
208.685824,42,16800,21,0,983.040000
209.668864,42,16875,21,6.080000,0
209.674944,43,16950,21,0,976.960000
210.651904,43,17025,21,0,983.040000
211.634944,43,17100,21,0,983.040000
212.617984,43,17175,21,0,983.040000
213.601024,43,17250,21,0,983.040000
214.584064,43,17325,21,6.080000,0
214.590144,44,17400,22,0,976.960000
215.567104,44,17475,22,0,983.040000
216.550144,44,17550,22,0,983.040000
217.533184,44,17625,22,0,983.040000
218.516224,44,17700,22,0,983.040000
219.499264,44,17775,22,5.824000,0
219.505088,45,17850,22,0,977.216000
220.482304,45,17925,22,0,983.040000
221.465344,45,18000,22,0,983.040000
222.448384,45,18075,22,0,983.040000
223.431424,45,18150,22,0,983.040000
224.414464,45,18225,22,5.568000,0
224.420032,46,18300,23,0,977.472000
225.397504,46,18375,23,0,983.040000
226.380544,46,18450,23,0,983.040000
227.363584,46,18525,23,0,983.040000
228.346624,46,18600,23,0,983.040000
229.329664,46,18675,23,6.080000,0
229.335744,47,18750,23,0,976.960000
230.312704,47,18825,23,0,983.040000
231.295744,47,18900,23,0,983.040000
232.278784,47,18975,23,0,983.040000
233.261824,47,19050,23,5.824000,0
233.267648,48,19125,24,