Time,CovertPackets,AllPackets,BitsSent,PacketInterval;GTSInterval
260.513104,1,60,0,4.448000,0
260.517552,2,90,1,4.752000,0
260.522304,3,120,1,4.448000,0
260.526752,4,150,2,4.832000,0
260.531584,5,180,2,4.192000,0
260.535776,6,210,3,0,31430.528000
291.966304,6,240,3,4.704000,0
291.971008,7,270,3,4.448000,0
291.975456,8,300,4,4.848000,0
291.980304,9,330,4,4.720000,0
291.985024,10,360,5,4.384000,0
291.989408,11,390,5,4.704000,0
291.994112,12,420,6,4.560000,0
291.998672,13,450,6,4.192000,0
292.002864,14,480,7,4.624000,0
292.007488,15,510,7,4.448000,0
292.011936,16,540,8,4.144000,0
292.016080,17,570,8,4.192000,0
292.020272,18,600,9,4.112000,0
292.024384,19,630,9,4.192000,0
292.028576,20,660,10,4.848000,0
292.033424,21,690,10,4.384000,0
292.037808,22,720,11,4.096000,0
292.041904,23,750,11,4.448000,0
292.046352,24,780,12,4.400000,0
292.050752,25,810,12,4.448000,0
292.055200,26,840,13,4.848000,0
292.060048,27,870,13,0,31363.536000
323.423584,27,900,13,4.448000,0
323.428032,28,930,14,4.320000,0
323.432352,29,960,14,4.448000,0
323.436800,30,990,15,4.448000,0
323.441248,31,1020,15,4.192000,0
323.445440,32,1050,16,4.752000,0
323.450192,33,1080,16,4.448000,0
323.454640,34,1110,17,4.160000,0
323.458800,35,1140,17,4.704000,0
323.463504,36,1170,18,4.688000,0
323.468192,37,1200,18,4.704000,0
323.472896,38,1230,19,4.320000,0
323.477216,39,1260,19,4.704000,0
323.481920,40,1290,20,4.144000,0
323.486064,41,1320,20,4.192000,0
323.490256,42,1350,21,4.496000,0
323.494752,43,1380,21,4.192000,0
323.498944,44,1410,22,4.112000,0
323.503056,45,1440,22,4.704000,0
323.507760,46,1470,23,4.800000,0
323.512560,47,1500,23,4.384000,0
323.516944,48,1530,24,0,31363.920000
354.880864,48,1560,24,4.352000,0
354.885216,49,1590,24,4.640000,0
354.889856,50,1620,25,4.352000,0
354.894208,51,1650,25,4.128000,0
354.898336,52,1680,26,4.352000,0
354.902688,53,1710,26,4.448000,0
354.907136,54,1740,27,4.496000,0
354.911632,55,1770,27,4.192000,0
354.915824,56,1800,28,4.576000,0
354.920400,57,1830,28,4.448000,0
354.924848,58,1860,29,4.192000,0
354.929040,59,1890,29,4.704000,0
354.933744,60,1920,30,4.592000,0
354.938336,61,1950,30,4.720000,0
354.943056,62,1980,31,4.384000,0
354.947440,63,2010,31,4.192000,0
354.951632,64,2040,32,4.560000,0
354.956192,65,2070,32,4.192000,0
354.960384,66,2100,33,4.112000,0
354.964496,67,2130,33,4.448000,0
354.968944,68,2160,34,4.144000,0
354.973088,69,2190,34,0,31365.056000
386.338144,69,2220,34,4.448000,0
386.342592,70,2250,35,4.112000,0
386.346704,71,2280,35,4.448000,0
386.351152,72,2310,36,4.848000,0
386.356000,73,2340,36,4.128000,0
386.360128,74,2370,37,4.352000,0
386.364480,75,2400,37,4.704000,0
386.369184,76,2430,38,4.144000,0
386.373328,77,2460,38,4.704000,0
386.378032,78,2490,39,4.848000,0
386.382880,79,2520,39,4.192000,0
386.387072,80,2550,40,4.832000,0
386.391904,81,2580,40,4.704000,0
386.396608,82,2610,41,4.704000,0
386.401312,83,2640,41,4.192000,0
386.405504,84,2670,42,4.240000,0
386.409744,85,2700,42,4.448000,0
386.414192,86,2730,43,4.416000,0
386.418608,87,2760,43,4.448000,0
386.423056,88,2790,44,4.176000,0
386.427232,89,2820,44,4.704000,0
386.431936,90,2850,45,0,31363.488000
417.795424,90,2880,45,4.576000,0
417.800000,91,2910,45,4.192000,0
417.804192,92,2940,46,4.400000,0
417.808592,93,2970,46,4.192000,0
417.812784,94,3000,47,4.240000,0
417.817024,95,3030,47,4.192000,0
417.821216,96,3060,48,4.624000,0
417.825840,97,3090,48,4.448000,0
417.830288,98,3120,49,4.800000,0
417.835088,99,3150,49,4.128000,0
417.839216,100,3180,50,4.608000,0
417.843824,101,3210,50,4.384000,0
417.848208,102,3240,51,4.608000,0
417.852816,103,3270,51,4.384000,0
417.857200,104,3300,52,4.608000,0
417.861808,105,3330,52,4.448000,0
417.866256,106,3360,53,4.240000,0
417.870496,107,3390,53,4.704000,0
417.875200,108,3420,54,4.576000,0
417.879776,109,3450,54,4.192000,0
417.883968,110,3480,55,4.448000,0
417.888416,111,3510,55,0,31364.288000
449.252704,111,3540,55,4.448000,0
449.257152,112,3570,56,4.336000,0
449.261488,113,3600,56,4.208000,0
449.265696,114,3630,57,4.384000,0
449.270080,115,3660,57,4.192000,0
449.274272,116,3690,58,4.816000,0
449.279088,117,3720,58,4.192000,0
449.283280,118,3750,59,4.112000,0
449.287392,119,3780,59,4.448000,0
449.291840,120,3810,60,4.144000,0
449.295984,121,3840,60,4.192000,0
449.300176,122,3870,61,4.112000,0
449.304288,123,3900,61,4.704000,0
449.308992,124,3930,62,4.848000,0
449.313840,125,3960,62,4.128000,0
449.317968,126,3990,63,4.352000,0
449.322320,127,4020,63,4.704000,0
449.327024,128,4050,64,4.144000,0
449.331168,129,4080,64,4.704000,0
449.335872,130,4110,65,4.848000,0
449.340720,131,4140,65,4.448000,0
449.345168,132,4170,66,