Time,CovertPackets,AllPackets,BitsSent,PacketInterval;GTSInterval
260.515984,1,150,0,6.144000,0
260.522128,2,225,1,5.680000,0
260.527808,3,300,1,5.632000,0
260.533440,4,375,2,6.016000,0
260.539456,5,450,2,6.144000,0
260.545600,6,525,3,5.888000,0
260.551488,7,600,3,5.632000,0
260.557120,8,675,4,6.288000,0
260.563408,9,750,4,6.160000,0
260.569568,10,825,5,5.568000,0
260.575136,11,900,5,5.632000,0
260.580768,12,975,6,6.000000,0
260.586768,13,1050,6,5.632000,0
260.592400,14,1125,7,5.552000,0
260.597952,15,1200,7,5.632000,0
260.603584,16,1275,8,0,31364.160000
291.967744,16,1350,8,6.096000,0
291.973840,17,1425,8,6.144000,0
291.979984,18,1500,9,5.552000,0
291.985536,19,1575,9,6.144000,0
291.991680,20,1650,10,5.776000,0
291.997456,21,1725,10,5.568000,0
292.003024,22,1800,11,5.536000,0
292.008560,23,1875,11,5.888000,0
292.014448,24,1950,12,5.584000,0
292.020032,25,2025,12,5.888000,0
292.025920,26,2100,13,6.032000,0
292.031952,27,2175,13,6.144000,0
292.038096,28,2250,14,6.272000,0
292.044368,29,2325,14,5.888000,0
292.050256,30,2400,15,5.888000,0
292.056144,31,2475,15,5.888000,0
292.062032,32,2550,16,5.680000,0
292.067712,33,2625,16,6.144000,0
292.073856,34,2700,17,5.856000,0
292.079712,35,2775,17,5.888000,0
292.085600,36,2850,18,6.128000,0
292.091728,37,2925,18,0,31333.296000
323.425024,37,3000,18,5.632000,0
323.430656,38,3075,19,6.272000,0
323.436928,39,3150,19,6.144000,0
323.443072,40,3225,20,5.584000,0
323.448656,41,3300,20,6.144000,0
323.454800,42,3375,21,5.680000,0
323.460480,43,3450,21,6.144000,0
323.466624,44,3525,22,6.064000,0
323.472688,45,3600,22,5.632000,0
323.478320,46,3675,23,5.728000,0
323.484048,47,3750,23,5.824000,0
323.489872,48,3825,24,5.792000,0
323.495664,49,3900,24,5.824000,0
323.501488,50,3975,25,5.792000,0
323.507280,51,4050,25,6.080000,0
323.513360,52,4125,26,5.536000,0
323.518896,53,4200,26,5.888000,0
323.524784,54,4275,27,6.192000,0
323.530976,55,4350,27,5.888000,0
323.536864,56,4425,28,6.272000,0
323.543136,57,4500,28,5.888000,0
323.549024,58,4575,29,0,31333.280000
354.882304,58,4650,29,5.632000,0
354.887936,59,4725,29,5.888000,0
354.893824,60,4800,30,5.776000,0
354.899600,61,4875,30,5.904000,0
354.905504,62,4950,31,5.568000,0
354.911072,63,5025,31,5.632000,0
354.916704,64,5100,32,5.744000,0
354.922448,65,5175,32,6.144000,0
354.928592,66,5250,33,6.064000,0
354.934656,67,5325,33,5.888000,0
354.940544,68,5400,34,5.840000,0
354.946384,69,5475,34,5.888000,0
354.952272,70,5550,35,5.808000,0
354.958080,71,5625,35,5.888000,0
354.963968,72,5700,36,5.776000,0
354.969744,73,5775,36,6.080000,0
354.975824,74,5850,37,5.792000,0
354.981616,75,5925,37,5.888000,0
354.987504,76,6000,38,5.840000,0
354.993344,77,6075,38,5.888000,0
354.999232,78,6150,39,6.032000,0
355.005264,79,6225,39,0,31334.320000
386.339584,79,6300,39,5.888000,0
386.345472,80,6375,40,6.272000,0
386.351744,81,6450,40,6.144000,0
386.357888,82,6525,41,5.632000,0
386.363520,83,6600,41,6.144000,0
386.369664,84,6675,42,5.936000,0
386.375600,85,6750,42,5.632000,0
386.381232,86,6825,43,6.112000,0
386.387344,87,6900,43,5.888000,0
386.393232,88,6975,44,6.128000,0
386.399360,89,7050,44,6.144000,0
386.405504,90,7125,45,6.016000,0
386.411520,91,7200,45,5.888000,0
386.417408,92,7275,46,5.840000,0
386.423248,93,7350,46,5.632000,0
386.428880,94,7425,47,5.936000,0
386.434816,95,7500,47,5.632000,0
386.440448,96,7575,48,6.064000,0
386.446512,97,7650,48,5.632000,0
386.452144,98,7725,49,6.240000,0
386.458384,99,7800,49,6.080000,0
386.464464,100,7875,50,5.536000,0
386.470000,101,7950,50,0,31326.864000
417.796864,101,8025,50,5.568000,0
417.802432,102,8100,51,5.792000,0
417.808224,103,8175,51,5.568000,0
417.813792,104,8250,52,6.048000,0
417.819840,105,8325,52,5.632000,0
417.825472,106,8400,53,6.192000,0
417.831664,107,8475,53,5.632000,0
417.837296,108,8550,54,6.272000,0
417.843568,109,8625,54,5.632000,0
417.849200,110,8700,55,6.144000,0
417.855344,111,8775,55,6.144000,0
417.861488,112,8850,56,5.776000,0
417.867264,113,8925,56,5.904000,0
417.873168,114,9000,57,5.568000,0
417.878736,115,9075,57,6.144000,0
417.884880,116,9150,58,5.744000,0
417.890624,117,9225,58,5.888000,0
417.896512,118,9300,59,6.064000,0
417.902576,119,9375,59,5.632000,0
417.908208,120,9450,60,6.096000,0
417.914304,121,9525,60,6.144000,0
417.920448,122,9600,61,0,31333.696000
449.254144,122,9675,61,5.552000,0
449.259696,123,9750,61,5.632000,0
449.265328,124,9825,62,6.288000,0
449.271616,125,9900,62,5.568000,0
449.277184,126,9975,63,5.792000,0
449.282976,127,10050,63,5.888000,0
449.288864,128,10125,64,5.584000,0
449.294448,129,10200,64,5.888000,0
449.300336,130,10275,65,6.032000,0
449.306368,131,10350,65,5.632000,0
449.312000,132,10425,66,6.016000,0
449.318016,133,10500,66,5.632000,0
449.323648,134,10575,67,6.144000,0
449.329792,135,10650,67,5.888000,0
449.335680,136,10725,68,5.936000,0
449.341616,137,10800,68,5.888000,0
449.347504,138,10875,69,5.856000,0
449.353360,139,10950,69,6.144000,0
449.359504,140,11025,70,5.616000,0
449.365120,141,11100,70,5.632000,0
449.370752,142,11175,71,6.016000,0
449.376768,143,11250,71,