Time,CovertPackets,AllPackets,BitsSent,PacketInterval,GTSInterval
32.017744,1,60,0,4.192000,0
32.021936,2,90,1,4.752000,0
32.026688,3,120,1,0,1953.056000
33.979744,3,150,1,4.192000,0
33.983936,4,180,2,4.320000,0
33.988256,5,210,2,4.704000,0
33.992960,6,240,3,0,1952.864000
35.945824,6,270,3,4.192000,0
35.950016,7,300,3,4.192000,0
35.954208,8,330,4,4.592000,0
35.958800,9,360,4,0,1953.104000
37.911904,9,390,4,4.464000,0
37.916368,10,420,5,4.640000,0
37.921008,11,450,5,4.704000,0
37.925712,12,480,6,0,1952.272000
39.877984,12,510,6,4.560000,0
39.882544,13,540,6,4.704000,0
39.887248,14,570,7,4.368000,0
39.891616,15,600,7,0,1952.448000
41.844064,15,630,7,4.448000,0
41.848512,16,660,8,4.656000,0
41.853168,17,690,8,0,1956.976000
43.810144,17,720,8,4.192000,0
43.814336,18,750,9,4.368000,0
43.818704,19,780,9,4.192000,0
43.822896,20,810,10,4.336000,0
43.827232,21,840,10,0,1948.992000
45.776224,21,870,10,4.128000,0
45.780352,22,900,11,4.608000,0
45.784960,23,930,11,4.192000,0
45.789152,24,960,12,0,1953.152000
47.742304,24,990,12,4.400000,0
47.746704,25,1020,12,4.704000,0
47.751408,26,1050,13,4.592000,0
47.756000,27,1080,13,0,1952.384000
49.708384,27,1110,13,4.704000,0
49.713088,28,1140,14,4.832000,0
49.717920,29,1170,14,4.704000,0
49.722624,30,1200,15,0,1951.840000
51.674464,30,1230,15,4.704000,0
51.679168,31,1260,15,4.448000,0
51.683616,32,1290,16,4.752000,0
51.688368,33,1320,16,0,1952.176000
53.640544,33,1350,16,4.448000,0
53.644992,34,1380,17,4.160000,0
53.649152,35,1410,17,4.448000,0
53.653600,36,1440,18,4.688000,0
53.658288,37,1470,18,0,1948.336000
55.606624,37,1500,18,4.448000,0
55.611072,38,1530,19,4.320000,0
55.615392,39,1560,19,4.192000,0
55.619584,40,1590,20,0,1953.120000
57.572704,40,1620,20,4.400000,0
57.577104,41,1650,20,4.448000,0
57.581552,42,1680,21,4.240000,0
57.585792,43,1710,21,0,1952.992000
59.538784,43,1740,21,4.448000,0
59.543232,44,1770,22,4.624000,0
59.547856,45,1800,22,4.448000,0
59.552304,46,1830,23,0,1952.560000
61.504864,46,1860,23,4.288000,0
61.509152,47,1890,23,4.128000,0
61.513280,48,1920,24,4.096000,0
61.517376,49,1950,24,0,1953.568000
63.470944,49,1980,24,4.640000,0
63.475584,50,2010,25,4.096000,0
63.479680,51,2040,25,4.128000,0
63.483808,52,2070,26,0,1953.216000
65.437024,52,2100,26,4.384000,0
65.441408,53,2130,26,4.096000,0
65.445504,54,2160,27,4.192000,0
65.449696,55,2190,27,4.240000,0
65.453936,56,2220,28,0,1949.168000
67.403104,56,2250,28,4.192000,0
67.407296,57,2280,28,4.832000,0
67.412128,58,2310,29,4.448000,0
67.416576,59,2340,29,0,1952.608000
69.369184,59,2370,29,4.448000,0
69.373632,60,2400,30,4.192000,0
69.377824,61,2430,30,4.336000,0
69.382160,62,2460,31,0,1953.104000
71.335264,62,2490,31,4.208000,0
71.339472,63,2520,31,4.128000,0
71.343600,64,2550,32,4.448000,0
71.348048,65,2580,32,0,1953.296000
73.301344,65,2610,32,4.560000,0
73.305904,66,2640,33,4.192000,0
73.310096,67,2670,33,0,1957.328000
75.267424,67,2700,33,4.624000,0
75.272048,68,2730,34,4.192000,0
75.276240,69,2760,34,4.400000,0
75.280640,70,2790,35,0,1952.864000
77.233504,70,2820,35,4.704000,0
77.238208,71,2850,35,4.112000,0
77.242320,72,2880,36,4.192000,0
77.246512,73,2910,36,0,1953.072000
79.199584,73,2940,36,4.336000,0
79.203920,74,2970,37,4.384000,0
79.208304,75,3000,37,4.096000,0
79.212400,76,3030,38,4.192000,0
79.216592,77,3060,38,0,1949.072000
81.165664,77,3090,38,4.400000,0
81.170064,78,3120,39,4.704000,0
81.174768,79,3150,39,4.336000,0
81.179104,80,3180,40,0,1952.640000
83.131744,80,3210,40,4.704000,0
83.136448,81,3240,40,4.320000,0
83.140768,82,3270,41,4.192000,0
83.144960,83,3300,41,0,1952.864000
85.097824,83,3330,41,4.704000,0
85.102528,84,3360,42,4.448000,0
85.106976,85,3390,42,4.240000,0
85.111216,86,3420,43,0,1952.688000
87.063904,86,3450,43,4.704000,0
87.068608,87,3480,43,4.672000,0
87.073280,88,3510,44,0,1956.704000
89.029984,88,3540,44,4.704000,0
89.034688,89,3570,44,4.176000,0
89.038864,90,3600,45,4.448000,0
89.043312,91,3630,45,0,1952.752000
90.996064,91,3660,45,4.320000,0
91.000384,92,3690,46,4.192000,0
91.004576,93,3720,46,0,1957.568000
92.962144,93,3750,46,4.400000,0
92.966544,94,3780,47,4.704000,0
92.971248,95,3810,47,4.240000,0
92.975488,96,3840,48,0,1952.736000
94.928224,96,3870,48,4.704000,0
94.932928,97,3900,48,4.368000,0
94.937296,98,3930,49,4.448000,0
94.941744,99,3960,49,0,1952.560000
96.894304,99,3990,49,4.800000,0
96.899104,100,4020,50,4.384000,0
96.903488,101,4050,50,0,1956.896000
98.860384,101,4080,50,4.352000,0
98.864736,102,4110,51,4.384000,0
98.869120,103,4140,51,4.096000,0
98.873216,104,4170,52,0,1953.248000
100.826464,104,4200,52,4.384000,0
100.830848,105,4230,52,4.608000,0
100.835456,106,4260,53,4.704000,0
100.840160,107,4290,53,0,1952.384000
102.792544,107,4320,53,4.752000,0
102.797296,108,4350,54,4.704000,0
102.802000,109,4380,54,4.576000,0
102.806576,110,4410,55,0,1952.048000
104.758624,110,4440,55,4.192000,0
104.762816,111,4470,55,4.192000,0
104.767008,112,4500,56,4.192000,0
104.771200,113,4530,56,0,1953.504000
106.724704,113,4560,56,4.336000,0
106.729040,114,4590,57,4.464000,0
106.733504,115,4620,57,4.640000,0
106.738144,116,4650,58,0,1952.640000
108.690784,116,4680,58,4.192000,0
108.694976,117,4710,58,4.304000,0
108.699280,118,4740,59,4.448000,0
108.703728,119,4770,59,0,1953.136000
110.656864,119,4800,59,4.624000,0
110.661488,120,4830,60,4.448000,0
110.665936,121,4860,60,0,1957.008000
112.622944,121,4890,60,4.400000,0
112.627344,122,4920,61,4.704000,0
112.632048,123,4950,61,4.624000,0
112.636672,124,4980,62,4.192000,0
112.640864,125,5010,62,0,1948.160000
114.589024,125,5040,62,4.592000,0
114.593616,126,5070,63,4.128000,0
114.597744,127,5100,63,0,1957.360000
116.555104,127,5130,63,4.352000,0
116.559456,128,5160,64,4.192000,0
116.563648,129,5190,64,4.656000,0
116.568304,130,5220,65,0,1952.880000
118.521184,130,5250,65,4.448000,0
118.525632,131,5280,65,4.336000,0
118.529968,132,5310,66,4.448000,0
118.534416,133,5340,66,4.832000,0
118.539248,134,5370,67,0,1948.016000
120.487264,134,5400,67,4.448000,0
120.491712,135,5430,67,4.448000,0
120.496160,136,5460,68,4.192000,0
120.500352,137,5490,68,0,1952.992000
122.453344,137,5520,68,4.496000,0
122.457840,138,5550,69,4.704000,0
122.462544,139,5580,69,4.416000,0
122.466960,140,5610,70,0,1952.464000
124.419424,140,5640,70,4.448000,0
124.423872,141,5670,70,4.176000,0
124.428048,142,5700,71,4.448000,0
124.432496,143,5730,71,0,1953.008000
126.385504,143,5760,71,4.576000,0
126.390080,144,5790,72,4.704000,0
126.394784,145,5820,72,4.144000,0
126.398928,146,5850,73,4.192000,0
126.403120,147,5880,73,0,1948.464000
128.351584,147,5910,73,4.496000,0
128.356080,148,5940,74,4.192000,0
128.360272,149,5970,74,0,1957.392000
130.317664,149,6000,74,4.624000,0
130.322288,150,6030,75,4.192000,0
130.326480,151,6060,75,0,1957.264000
132.283744,151,6090,75,4.288000,0
132.288032,152,6120,76,4.384000,0
132.292416,153,6150,76,4.608000,0
132.297024,154,6180,77,0,1952.800000
134.249824,154,6210,77,4.384000,0
134.254208,155,6240,77,4.608000,0
134.258816,156,6270,78,4.128000,0
134.262944,157,6300,78,0,1952.960000
136.215904,157,6330,78,4.128000,0
136.220032,158,6360,79,4.096000,0
136.224128,159,6390,79,4.704000,0
136.228832,160,6420,80,0,1953.152000
138.181984,160,6450,80,4.240000,0
138.186224,161,6480,80,4.704000,0
138.190928,162,6510,81,4.832000,0
138.195760,163,6540,81,0,1952.304000
140.148064,163,6570,81,4.192000,0
140.152256,164,6600,82,4.704000,0
140.156960,165,6630,82,0,1957.184000
142.114144,165,6660,82,4.448000,0
142.118592,166,6690,83,4.848000,0
142.123440,167,6720,83,4.208000,0
142.127648,168,6750,84,4.128000,0
142.131776,169,6780,84,0,1948.448000
144.080224,169,6810,84,4.704000,0
144.084928,170,6840,85,4.560000,0
144.089488,171,6870,85,4.448000,0
144.093936,172,6900,86,0,1952.368000
146.046304,172,6930,86,4.624000,0
146.050928,173,6960,86,4.448000,0
146.055376,174,6990,87,4.144000,0
146.059520,175,7020,87,0,1952.864000
148.012384,175,7050,87,4.192000,0
148.016576,176,7080,88,4.112000,0
148.020688,177,7110,88,0,1957.776000
149.978464,177,7140,88,4.704000,0
149.983168,178,7170,89,4.848000,0
149.988016,179,7200,89,4.640000,0
149.992656,180,7230,90,4.352000,0
149.997008,181,7260,90,0,1947.536000
151.944544,181,7290,90,4.448000,0
151.948992,182,7320,91,4.656000,0
151.953648,183,7350,91,4.448000,0
151.958096,184,7380,92,0,1952.528000
153.910624,184,7410,92,4.336000,0
153.914960,185,7440,92,4.704000,0
153.919664,186,7470,93,4.320000,0
153.923984,187,7500,93,0,1952.720000
155.876704,187,7530,93,4.448000,0
155.881152,188,7560,94,4.704000,0
155.885856,189,7590,94,4.704000,0
155.890560,190,7620,95,0,1952.224000
157.842784,190,7650,95,4.496000,0
157.847280,191,7680,95,4.704000,0
157.851984,192,7710,96,0,1956.880000
159.808864,192,7740,96,4.160000,0
159.813024,193,7770,96,4.192000,0
159.817216,194,7800,97,4.688000,0
159.821904,195,7830,97,4.448000,0
159.826352,196,7860,98,0,1948.592000
161.774944,196,7890,98,4.320000,0
161.779264,197,7920,98,4.448000,0
161.783712,198,7950,99,0,1957.312000
163.741024,198,7980,99,4.400000,0
163.745424,199,8010,99,4.704000,0
163.750128,200,8040,100,4.496000,0
163.754624,201,8070,100,4.448000,0
163.759072,202,8100,101,0,1948.032000
165.707104,202,8130,101,4.368000,0
165.711472,203,8160,101,4.704000,0
165.716176,204,8190,102,0,1957.008000
167.673184,204,8220,102,4.800000,0
167.677984,205,8250,102,4.128000,0
167.682112,206,8280,103,4.608000,0
167.686720,207,8310,103,0,1952.544000
169.639264,207,8340,103,4.128000,0
169.643392,208,8370,104,4.608000,0
169.648000,209,8400,104,4.128000,0
169.652128,210,8430,105,0,1953.216000
171.605344,210,8460,105,4.384000,0
171.609728,211,8490,105,4.352000,0
171.614080,212,8520,106,4.192000,0
171.618272,213,8550,106,0,1953.152000
173.571424,213,8580,106,4.496000,0
173.575920,214,8610,107,4.448000,0
173.580368,215,8640,107,4.832000,0
173.585200,216,8670,108,0,1952.304000
175.537504,216,8700,108,4.448000,0
175.541952,217,8730,108,4.192000,0
175.546144,218,8760,109,4.704000,0
175.550848,219,8790,109,0,1952.736000
177.503584,219,8820,109,4.848000,0
177.508432,220,8850,110,4.464000,0
177.512896,221,8880,110,0,1956.768000
179.469664,221,8910,110,4.128000,0
179.473792,222,8940,111,4.448000,0
179.478240,223,8970,111,4.560000,0
179.482800,224,9000,112,0,1952.944000
181.435744,224,9030,112,4.448000,0
181.440192,225,9060,112,4.624000,0
181.444816,226,9090,113,4.704000,0
181.449520,227,9120,113,0,1952.304000
183.401824,227,9150,113,4.400000,0
183.406224,228,9180,114,4.192000,0
183.410416,229,9210,114,4.624000,0
183.415040,230,9240,115,0,1952.864000
185.367904,230,9270,115,4.192000,0
185.372096,231,9300,115,4.592000,0
185.376688,232,9330,116,0,1957.296000
187.333984,232,9360,116,4.640000,0
187.338624,233,9390,116,4.096000,0
187.342720,234,9420,117,4.192000,0
187.346912,235,9450,117,0,1953.152000
189.300064,235,9480,117,4.144000,0
189.304208,236,9510,118,4.192000,0
189.308400,237,9540,118,4.848000,0
189.313248,238,9570,119,0,1952.896000
191.266144,238,9600,119,4.704000,0
191.270848,239,9630,119,4.832000,0
191.275680,240,9660,120,4.448000,0
191.280128,241,9690,120,0,1952.096000
193.232224,241,9720,120,4.448000,0
193.236672,242,9750,121,4.448000,0
193.241120,243,9780,121,4.496000,0
193.245616,244,9810,122,0,1952.688000
195.198304,244,9840,122,4.192000,0
195.202496,245,9870,122,4.672000,0
195.207168,246,9900,123,4.192000,0
195.211360,247,9930,123,0,1953.024000
197.164384,247,9960,123,4.432000,0
197.168816,248,9990,124,4.448000,0
197.173264,249,10020,124,0,1957.200000
199.130464,249,10050,124,4.320000,0
199.134784,250,10080,125,4.192000,0
199.138976,251,10110,125,4.656000,0
199.143632,252,10140,126,4.704000,0
199.148336,253,10170,126,0,1948.208000
201.096544,253,10200,126,4.240000,0
201.100784,254,10230,127,4.448000,0
201.105232,255,10260,127,4.624000,0
201.109856,256,10290,128,0,1952.768000
203.062624,256,10320,128,4.704000,0
203.067328,257,10350,128,4.800000,0
203.072128,258,10380,129,4.128000,0
203.076256,259,10410,129,0,1952.448000
205.028704,259,10440,129,4.608000,0
205.033312,260,10470,130,4.384000,0
205.037696,261,10500,130,0,1957.088000
206.994784,261,10530,130,4.608000,0
206.999392,262,10560,131,4.640000,0
207.004032,263,10590,131,4.608000,0
207.008640,264,10620,132,0,1952.224000
208.960864,264,10650,132,4.704000,0
208.965568,265,10680,132,4.752000,0
208.970320,266,10710,133,4.192000,0
208.974512,267,10740,133,0,1952.432000
210.926944,267,10770,133,4.320000,0
210.931264,268,10800,134,4.448000,0
210.935712,269,10830,134,4.192000,0
210.939904,270,10860,135,0,1953.120000
212.893024,270,10890,135,4.704000,0
212.897728,271,10920,135,4.848000,0
212.902576,272,10950,136,4.208000,0
212.906784,273,10980,136,4.384000,0
212.911168,274,11010,137,0,1947.936000
214.859104,274,11040,137,4.192000,0
214.863296,275,11070,137,4.560000,0
214.867856,276,11100,138,4.192000,0
214.872048,277,11130,138,4.112000,0
214.876160,278,11160,139,0,1949.024000
216.825184,278,11190,139,4.192000,0
216.829376,279,11220,139,4.656000,0
216.834032,280,11250,140,0,1957.232000
218.791264,280,11280,140,4.448000,0
218.795712,281,11310,140,4.624000,0
218.800336,282,11340,141,4.448000,0
218.804784,283,11370,141,4.336000,0
218.809120,284,11400,142,0,1948.224000
220.757344,284,11430,142,4.640000,0
220.761984,285,11460,142,4.352000,0
220.766336,286,11490,143,4.192000,0
220.770528,287,11520,143,0,1952.896000
222.723424,287,11550,143,4.144000,0
222.727568,288,11580,144,4.448000,0
222.732016,289,11610,144,0,1957.488000
224.689504,289,11640,144,4.336000,0
224.693840,290,11670,145,4.192000,0
224.698032,291,11700,145,4.832000,0
224.702864,292,11730,146,4.704000,0
224.707568,293,11760,146,0,1948.016000
226.655584,293,11790,146,4.192000,0
226.659776,294,11820,147,4.704000,0
226.664480,295,11850,147,4.240000,0
226.668720,296,11880,148,0,1952.944000
228.621664,296,11910,148,4.192000,0
228.625856,297,11940,148,4.672000,0
228.630528,298,11970,149,4.192000,0
228.634720,299,12000,149,0,1953.024000
230.587744,299,12030,149,4.688000,0
230.592432,300,12060,150,4.192000,0
230.596624,301,12090,150,4.576000,0
230.601200,302,12120,151,0,1952.624000
232.553824,302,12150,151,4.448000,0
232.558272,303,12180,151,4.400000,0
232.562672,304,12210,152,4.704000,0
232.567376,305,12240,152,0,1952.528000
