Time,CovertPackets,AllPackets,BitsSent,PacketInterval,GTSInterval
65.134864,1,90,0,0,7859.760000
72.994624,1,135,0,4.672000,0
72.999296,2,180,1,5.232000,0
73.004528,3,225,1,4.672000,0
73.009200,4,270,2,4.800000,0
73.014000,5,315,2,4.672000,0
73.018672,6,360,3,4.672000,0
73.023344,7,405,3,5.184000,0
73.028528,8,450,4,5.072000,0
73.033600,9,495,4,4.688000,0
73.038288,10,540,5,0,7820.656000
80.858944,10,585,5,4.608000,0
80.863552,11,630,5,5.184000,0
80.868736,12,675,6,5.040000,0
80.873776,13,720,6,4.672000,0
80.878448,14,765,7,4.848000,0
80.883296,15,810,7,5.184000,0
80.888480,16,855,8,4.624000,0
80.893104,17,900,8,4.928000,0
80.898032,18,945,9,5.104000,0
80.903136,19,990,9,4.928000,0
80.908064,20,1035,10,0,7815.200000
88.723264,20,1080,10,5.328000,0
88.728592,21,1125,10,4.864000,0
88.733456,22,1170,11,5.088000,0
88.738544,23,1215,11,4.928000,0
88.743472,24,1260,12,4.880000,0
88.748352,25,1305,12,4.928000,0
88.753280,26,1350,13,5.328000,0
88.758608,27,1395,13,4.672000,0
88.763280,28,1440,14,0,7824.304000
96.587584,28,1485,14,5.312000,0
96.592896,29,1530,14,4.672000,0
96.597568,30,1575,15,5.184000,0
96.602752,31,1620,15,4.928000,0
96.607680,32,1665,16,4.976000,0
96.612656,33,1710,16,4.928000,0
96.617584,34,1755,17,5.152000,0
96.622736,35,1800,17,4.928000,0
96.627664,36,1845,18,4.656000,0
96.632320,37,1890,18,4.928000,0
96.637248,38,1935,19,0,7814.656000
104.451904,38,1980,19,5.056000,0
104.456960,39,2025,19,4.928000,0
104.461888,40,2070,20,4.624000,0
104.466512,41,2115,20,5.184000,0
104.471696,42,2160,21,5.232000,0
104.476928,43,2205,21,4.672000,0
104.481600,44,2250,22,4.592000,0
104.486192,45,2295,22,5.184000,0
104.491376,46,2340,23,5.280000,0
104.496656,47,2385,23,0,7819.568000
112.316224,47,2430,23,4.864000,0
112.321088,48,2475,24,4.576000,0
112.325664,49,2520,24,4.608000,0
112.330272,50,2565,25,5.088000,0
112.335360,51,2610,25,4.608000,0
112.339968,52,2655,26,5.088000,0
112.345056,53,2700,26,4.928000,0
112.349984,54,2745,27,5.232000,0
112.355216,55,2790,27,4.672000,0
112.359888,56,2835,28,0,7820.656000
120.180544,56,2880,28,5.056000,0
120.185600,57,2925,28,5.184000,0
120.190784,58,2970,29,4.928000,0
120.195712,59,3015,29,5.184000,0
120.200896,60,3060,30,5.072000,0
120.205968,61,3105,30,5.200000,0
120.211168,62,3150,31,5.120000,0
120.216288,63,3195,31,5.184000,0
120.221472,64,3240,32,4.784000,0
120.226256,65,3285,32,0,7818.608000
128.044864,65,3330,32,4.672000,0
128.049536,66,3375,33,5.104000,0
128.054640,67,3420,33,4.928000,0
128.059568,68,3465,34,5.136000,0
128.064704,69,3510,34,5.184000,0
128.069888,70,3555,35,4.848000,0
128.074736,71,3600,35,4.672000,0
128.079408,72,3645,36,5.328000,0
128.084736,73,3690,36,0,7824.448000
135.909184,73,3735,36,4.608000,0
135.913792,74,3780,37,4.832000,0
135.918624,75,3825,37,4.672000,0
135.923296,76,3870,38,5.136000,0
135.928432,77,3915,38,4.672000,0
135.933104,78,3960,39,5.328000,0
135.938432,79,4005,39,4.928000,0
135.943360,80,4050,40,5.312000,0
135.948672,81,4095,40,5.184000,0
135.953856,82,4140,41,0,7819.648000
143.773504,82,4185,41,5.184000,0
143.778688,83,4230,41,4.928000,0
143.783616,84,4275,42,4.720000,0
143.788336,85,4320,42,4.928000,0
143.793264,86,4365,43,4.640000,0
143.797904,87,4410,43,4.672000,0
143.802576,88,4455,44,4.912000,0
143.807488,89,4500,44,4.672000,0
143.812160,90,4545,45,4.800000,0
143.816960,91,4590,45,0,7820.864000
151.637824,91,4635,45,5.184000,0
151.643008,92,4680,46,5.136000,0
151.648144,93,4725,46,5.184000,0
151.653328,94,4770,47,4.720000,0
151.658048,95,4815,47,4.928000,0
151.662976,96,4860,48,4.848000,0
151.667824,97,4905,48,5.184000,0
151.673008,98,4950,49,5.280000,0
151.678288,99,4995,49,4.608000,0
151.682896,100,5040,50,0,7819.248000
159.502144,100,5085,50,5.088000,0
159.507232,101,5130,50,4.864000,0
159.512096,102,5175,51,4.576000,0
159.516672,103,5220,51,5.120000,0
159.521792,104,5265,52,4.576000,0
159.526368,105,5310,52,5.184000,0
159.531552,106,5355,53,4.976000,0
159.536528,107,5400,53,5.184000,0
159.541712,108,5445,54,5.056000,0
159.546768,109,5490,54,0,7819.696000
167.366464,109,5535,54,4.672000,0
167.371136,110,5580,55,4.672000,0
167.375808,111,5625,55,4.928000,0
167.380736,112,5670,56,5.328000,0
167.386064,113,5715,56,4.688000,0
167.390752,114,5760,57,4.864000,0
167.395616,115,5805,57,5.184000,0
167.400800,116,5850,58,4.784000,0
167.405584,117,5895,58,0,7825.200000
175.230784,117,5940,58,4.672000,0
175.235456,118,5985,59,4.592000,0
175.240048,119,6030,59,5.184000,0
175.245232,120,6075,60,4.624000,0
175.249856,121,6120,60,5.184000,0
175.255040,122,6165,61,4.848000,0
175.259888,123,6210,61,4.928000,0
175.264816,124,6255,62,5.072000,0
175.269888,125,6300,62,5.120000,0
175.275008,126,6345,63,0,7820.096000
183.095104,126,6390,63,5.088000,0
183.100192,127,6435,63,4.928000,0
183.105120,128,6480,64,5.136000,0
183.110256,129,6525,64,4.928000,0
183.115184,130,6570,65,4.816000,0
183.120000,131,6615,65,4.928000,0
183.124928,132,6660,66,4.800000,0
183.129728,133,6705,66,4.672000,0
183.134400,134,6750,67,4.672000,0
183.139072,135,6795,67,0,7820.352000
190.959424,135,6840,67,4.672000,0
190.964096,136,6885,68,5.232000,0
190.969328,137,6930,68,4.928000,0
190.974256,138,6975,69,4.896000,0
190.979152,139,7020,69,4.928000,0
190.984080,140,7065,70,5.168000,0
190.989248,141,7110,70,4.672000,0
190.993920,142,7155,71,4.800000,0
190.998720,143,7200,71,5.184000,0
191.003904,144,7245,72,0,7819.840000
198.823744,144,7290,72,4.624000,0
198.828368,145,7335,72,4.672000,0
198.833040,146,7380,73,4.720000,0
198.837760,147,7425,73,4.672000,0
198.842432,148,7470,74,4.848000,0
198.847280,149,7515,74,4.928000,0
198.852208,150,7560,75,5.024000,0
198.857232,151,7605,75,5.120000,0
198.862352,152,7650,76,0,7825.712000
206.688064,152,7695,76,5.088000,0
206.693152,153,7740,76,5.120000,0
206.698272,154,7785,77,4.576000,0
206.702848,155,7830,77,4.608000,0
206.707456,156,7875,78,4.576000,0
206.712032,157,7920,78,4.928000,0
206.716960,158,7965,79,4.720000,0
206.721680,159,8010,79,4.928000,0
206.726608,160,8055,80,5.312000,0
206.731920,161,8100,80,0,7820.464000
214.552384,161,8145,80,5.184000,0
214.557568,162,8190,81,5.184000,0
214.562752,163,8235,81,4.672000,0
214.567424,164,8280,82,5.072000,0
214.572496,165,8325,82,4.944000,0
214.577440,166,8370,83,5.120000,0
214.582560,167,8415,83,4.928000,0
214.587488,168,8460,84,5.296000,0
214.592784,169,8505,84,4.928000,0
214.597712,170,8550,85,0,7818.992000
222.416704,170,8595,85,4.592000,0
222.421296,171,8640,85,5.184000,0
222.426480,172,8685,86,5.136000,0
222.431616,173,8730,86,4.672000,0
222.436288,174,8775,87,4.848000,0
222.441136,175,8820,87,5.184000,0
222.446320,176,8865,88,5.328000,0
222.451648,177,8910,88,5.120000,0
222.456768,178,8955,89,4.832000,0
222.461600,179,9000,89,0,7819.424000
230.281024,179,9045,89,4.672000,0
230.285696,180,9090,90,4.624000,0
230.290320,181,9135,90,4.928000,0
230.295248,182,9180,91,4.816000,0
230.300064,183,9225,91,5.184000,0
230.305248,184,9270,92,5.056000,0
230.310304,185,9315,92,4.672000,0
230.314976,186,9360,93,4.928000,0
230.319904,187,9405,93,0,7825.440000
238.145344,187,9450,93,5.184000,0
238.150528,188,9495,94,5.232000,0
238.155760,189,9540,94,5.184000,0
238.160944,190,9585,95,4.896000,0
238.165840,191,9630,95,5.184000,0
238.171024,192,9675,96,5.168000,0
238.176192,193,9720,96,5.184000,0
238.181376,194,9765,97,5.056000,0
238.186432,195,9810,97,4.928000,0
238.191360,196,9855,98,0,7818.304000
246.009664,196,9900,98,4.624000,0
246.014288,197,9945,98,4.672000,0
246.018960,198,9990,99,4.720000,0
246.023680,199,10035,99,5.184000,0
246.028864,200,10080,100,4.592000,0
246.033456,201,10125,100,4.928000,0
246.038384,202,10170,101,5.024000,0
246.043408,203,10215,101,4.608000,0
246.048016,204,10260,102,4.832000,0
246.052848,205,10305,102,5.120000,0
246.057968,206,10350,103,0,7816.016000
253.873984,206,10395,103,4.832000,0
253.878816,207,10440,103,4.864000,0
253.883680,208,10485,104,5.088000,0
253.888768,209,10530,104,4.672000,0
253.893440,210,10575,105,4.720000,0
253.898160,211,10620,105,5.184000,0
253.903344,212,10665,106,4.800000,0
253.908144,213,10710,106,4.928000,0
253.913072,214,10755,107,4.672000,0
253.917744,215,10800,107,0,7820.560000
261.738304,215,10845,107,4.672000,0
261.742976,216,10890,108,5.328000,0
261.748304,217,10935,108,5.200000,0
261.753504,218,10980,109,5.120000,0
261.758624,219,11025,109,4.928000,0
261.763552,220,11070,110,5.040000,0
261.768592,221,11115,110,4.928000,0
261.773520,222,11160,111,4.848000,0
261.778368,223,11205,111,0,7824.256000
269.602624,223,11250,111,4.928000,0
269.607552,224,11295,112,5.136000,0
269.612688,225,11340,112,5.184000,0
269.617872,226,11385,113,4.592000,0
269.622464,227,11430,113,4.672000,0
269.627136,228,11475,114,5.328000,0
269.632464,229,11520,114,5.120000,0
269.637584,230,11565,115,5.088000,0
269.642672,231,11610,115,5.184000,0
269.647856,232,11655,116,4.624000,0
269.652480,233,11700,116,