Time,CovertPackets,AllPackets,BitsSent,PacketInterval;GTSInterval
32.019664,1,120,0,5.408000,0
32.025072,2,180,1,5.712000,0
32.030784,3,240,1,0,1949.920000
33.980704,3,300,1,5.408000,0
33.986112,4,360,2,5.536000,0
33.991648,5,420,2,5.408000,0
33.997056,6,480,3,0,1949.728000
35.946784,6,540,3,5.152000,0
35.951936,7,600,3,5.152000,0
35.957088,8,660,4,5.296000,0
35.962384,9,720,4,0,1950.480000
37.912864,9,780,4,5.680000,0
37.918544,10,840,5,5.088000,0
37.923632,11,900,5,5.408000,0
37.929040,12,960,6,0,1949.904000
39.878944,12,1020,6,5.520000,0
39.884464,13,1080,6,5.664000,0
39.890128,14,1140,7,5.328000,0
39.895456,15,1200,7,0,1949.568000
41.845024,15,1260,7,5.152000,0
41.850176,16,1320,8,5.104000,0
41.855280,17,1380,8,0,1955.824000
43.811104,17,1440,8,5.408000,0
43.816512,18,1500,9,5.072000,0
43.821584,19,1560,9,5.664000,0
43.827248,20,1620,10,5.552000,0
43.832800,21,1680,10,0,1944.384000
45.777184,21,1740,10,5.344000,0
45.782528,22,1800,11,5.056000,0
45.787584,23,1860,11,5.152000,0
45.792736,24,1920,12,0,1950.528000
47.743264,24,1980,12,5.104000,0
47.748368,25,2040,12,5.152000,0
47.753520,26,2100,13,5.552000,0
47.759072,27,2160,13,0,1950.272000
49.709344,27,2220,13,5.152000,0
49.714496,28,2280,14,5.536000,0
49.720032,29,2340,14,5.664000,0
49.725696,30,2400,15,0,1949.728000
51.675424,30,2460,15,5.152000,0
51.680576,31,2520,15,5.152000,0
51.685728,32,2580,16,5.712000,0
51.691440,33,2640,16,5.152000,0
51.696592,34,2700,17,0,1944.912000
53.641504,34,2760,17,5.120000,0
53.646624,35,2820,17,5.408000,0
53.652032,36,2880,18,5.136000,0
53.657168,37,2940,18,0,1950.416000
55.607584,37,3000,18,5.408000,0
55.612992,38,3060,19,5.280000,0
55.618272,39,3120,19,5.664000,0
55.623936,40,3180,20,0,1949.728000
57.573664,40,3240,20,5.360000,0
57.579024,41,3300,20,5.408000,0
57.584432,42,3360,21,5.200000,0
57.589632,43,3420,21,0,1950.112000
59.539744,43,3480,21,5.152000,0
59.544896,44,3540,22,5.584000,0
59.550480,45,3600,22,5.152000,0
59.555632,46,3660,23,0,1950.192000
61.505824,46,3720,23,5.248000,0
61.511072,47,3780,23,5.344000,0
61.516416,48,3840,24,5.056000,0
61.521472,49,3900,24,0,1950.432000
63.471904,49,3960,24,5.088000,0
63.476992,50,4020,25,5.568000,0
63.482560,51,4080,25,5.600000,0
63.488160,52,4140,26,0,1949.824000
65.437984,52,4200,26,5.600000,0
65.443584,53,4260,26,5.056000,0
65.448640,54,4320,27,5.152000,0
65.453792,55,4380,27,5.200000,0
65.458992,56,4440,28,0,1945.072000
67.404064,56,4500,28,5.152000,0
67.409216,57,4560,28,5.280000,0
67.414496,58,4620,29,5.152000,0
67.419648,59,4680,29,0,1950.496000
69.370144,59,4740,29,5.408000,0
69.375552,60,4800,30,5.152000,0
69.380704,61,4860,30,5.296000,0
69.386000,62,4920,31,0,1950.224000
71.336224,62,4980,31,5.424000,0
71.341648,63,5040,31,5.088000,0
71.346736,64,5100,32,5.664000,0
71.352400,65,5160,32,0,1949.904000
73.302304,65,5220,32,5.520000,0
73.307824,66,5280,33,5.664000,0
73.313488,67,5340,33,0,1954.896000
75.268384,67,5400,33,5.328000,0
75.273712,68,5460,34,5.152000,0
75.278864,69,5520,34,5.104000,0
75.283968,70,5580,35,0,1950.496000
77.234464,70,5640,35,5.152000,0
77.239616,71,5700,35,5.072000,0
77.244688,72,5760,36,5.408000,0
77.250096,73,5820,36,0,1950.448000
79.200544,73,5880,36,5.552000,0
79.206096,74,5940,37,5.088000,0
79.211184,75,6000,37,5.312000,0
79.216496,76,6060,38,5.152000,0
79.221648,77,6120,38,0,1944.976000
81.166624,77,6180,38,5.616000,0
81.172240,78,6240,39,5.408000,0
81.177648,79,6300,39,5.808000,0
81.183456,80,6360,40,0,1949.248000
83.132704,80,6420,40,5.152000,0
83.137856,81,6480,40,5.536000,0
83.143392,82,6540,41,5.408000,0
83.148800,83,6600,41,0,1949.984000
85.098784,83,6660,41,5.152000,0
85.103936,84,6720,42,5.408000,0
85.109344,85,6780,42,5.456000,0
85.114800,86,6840,43,0,1950.064000
87.064864,86,6900,43,5.408000,0
87.070272,87,6960,43,5.632000,0
87.075904,88,7020,44,0,1955.040000
89.030944,88,7080,44,5.664000,0
89.036608,89,7140,44,5.392000,0
89.042000,90,7200,45,5.152000,0
89.047152,91,7260,45,0,1949.872000
90.997024,91,7320,45,5.536000,0
91.002560,92,7380,46,5.408000,0
91.007968,93,7440,46,0,1955.136000
92.963104,93,7500,46,5.360000,0
92.968464,94,7560,47,5.664000,0
92.974128,95,7620,47,5.200000,0
92.979328,96,7680,48,0,1949.856000
94.929184,96,7740,48,5.408000,0
94.934592,97,7800,48,5.072000,0
94.939664,98,7860,49,5.152000,0
94.944816,99,7920,49,0,1950.448000
96.895264,99,7980,49,5.504000,0
96.900768,100,8040,50,5.344000,0
96.906112,101,8100,50,0,1955.232000
98.861344,101,8160,50,5.568000,0
98.866912,102,8220,51,5.088000,0
98.872000,103,8280,51,5.312000,0
98.877312,104,8340,52,0,1950.112000
100.827424,104,8400,52,5.344000,0
100.832768,105,8460,52,5.568000,0
100.838336,106,8520,53,5.664000,0
100.844000,107,8580,53,0,1949.504000
102.793504,107,8640,53,5.456000,0
102.798960,108,8700,54,5.152000,0
102.804112,109,8760,54,5.792000,0
102.809904,110,8820,55,0,1949.680000
104.759584,110,8880,55,5.408000,0
104.764992,111,8940,55,5.664000,0
104.770656,112,9000,56,5.152000,0
104.775808,113,9060,56,0,1949.856000
106.725664,113,9120,56,5.808000,0
106.731472,114,9180,57,5.168000,0
106.736640,115,9240,57,5.344000,0
106.741984,116,9300,58,0,1949.760000
108.691744,116,9360,58,5.152000,0
108.696896,117,9420,58,5.520000,0
108.702416,118,9480,59,5.152000,0
108.707568,119,9540,59,0,1950.256000
110.657824,119,9600,59,5.072000,0
110.662896,120,9660,60,5.664000,0
110.668560,121,9720,60,0,1955.344000
112.623904,121,9780,60,5.360000,0
112.629264,122,9840,61,5.152000,0
112.634416,123,9900,61,5.328000,0
112.639744,124,9960,62,5.664000,0
112.645408,125,10020,62,0,1944.576000
114.589984,125,10080,62,5.552000,0
114.595536,126,10140,63,5.344000,0
114.600880,127,10200,63,0,1955.184000
116.556064,127,10260,63,5.056000,0
116.561120,128,10320,64,5.664000,0
116.566784,129,10380,64,5.360000,0
116.572144,130,10440,65,0,1950.000000
118.522144,130,10500,65,5.152000,0
118.527296,131,10560,65,5.552000,0
118.532848,132,10620,66,5.152000,0
118.538000,133,10680,66,5.280000,0
118.543280,134,10740,67,0,1944.944000
120.488224,134,10800,67,5.664000,0
120.493888,135,10860,67,5.408000,0
120.499296,136,10920,68,5.408000,0
120.504704,137,10980,68,0,1949.600000
122.454304,137,11040,68,5.200000,0
122.459504,138,11100,69,5.152000,0
122.464656,139,11160,69,5.632000,0
122.470288,140,11220,70,0,1950.096000
124.420384,140,11280,70,5.408000,0
124.425792,141,11340,70,5.392000,0
124.431184,142,11400,71,5.664000,0
124.436848,143,11460,71,0,1949.616000
126.386464,143,11520,71,5.536000,0
126.392000,144,11580,72,5.664000,0
126.397664,145,11640,72,5.616000,0
126.403280,146,11700,73,5.152000,0
126.408432,147,11760,73,0,1944.112000
128.352544,147,11820,73,5.712000,0
128.358256,148,11880,74,5.408000,0
128.363664,149,11940,74,0,1954.960000
130.318624,149,12000,74,5.584000,0
130.324208,150,12060,75,5.152000,0
130.329360,151,12120,75,0,1955.344000
132.284704,151,12180,75,5.504000,0
132.290208,152,12240,76,5.344000,0
132.295552,153,12300,76,5.568000,0
132.301120,154,12360,77,0,1949.664000
134.250784,154,12420,77,5.088000,0
134.255872,155,12480,77,5.056000,0
134.260928,156,12540,78,5.344000,0
134.266272,157,12600,78,0,1950.592000
136.216864,157,12660,78,5.600000,0
136.222464,158,12720,79,5.568000,0
136.228032,159,12780,79,5.664000,0
136.233696,160,12840,80,0,1949.248000
138.182944,160,12900,80,5.712000,0
138.188656,161,12960,80,5.664000,0
138.194320,162,13020,81,5.792000,0
138.200112,163,13080,81,0,1948.912000
140.149024,163,13140,81,5.664000,0
140.154688,164,13200,82,5.152000,0
140.159840,165,13260,82,0,1955.264000
142.115104,165,13320,82,5.664000,0
142.120768,166,13380,83,5.808000,0
142.126576,167,13440,83,5.680000,0
142.132256,168,13500,84,5.088000,0
142.137344,169,13560,84,0,1943.840000
144.081184,169,13620,84,5.408000,0
144.086592,170,13680,85,5.776000,0
144.092368,171,13740,85,5.664000,0
144.098032,172,13800,86,0,1949.232000
146.047264,172,13860,86,5.328000,0
146.052592,173,13920,86,5.408000,0
146.058000,174,13980,87,5.360000,0
146.063360,175,14040,87,0,1949.984000
148.013344,175,14100,87,5.408000,0
148.018752,176,14160,88,5.072000,0
148.023824,177,14220,88,0,1955.600000
149.979424,177,14280,88,5.152000,0
149.984576,178,14340,89,5.296000,0
149.989872,179,14400,89,5.600000,0
149.995472,180,14460,90,5.568000,0
150.001040,181,14520,90,0,1944.464000
151.945504,181,14580,90,5.408000,0
151.950912,182,14640,91,5.360000,0
151.956272,183,14700,91,5.408000,0
151.961680,184,14760,92,0,1949.904000
153.911584,184,14820,92,5.552000,0
153.917136,185,14880,92,5.152000,0
153.922288,186,14940,93,5.792000,0
153.928080,187,15000,93,0,1949.584000
155.877664,187,15060,93,5.152000,0
155.882816,188,15120,94,5.408000,0
155.888224,189,15180,94,5.152000,0
155.893376,190,15240,95,0,1950.368000
157.843744,190,15300,95,5.200000,0
157.848944,191,15360,95,5.152000,0
157.854096,192,15420,96,0,1955.728000
159.809824,192,15480,96,5.632000,0
159.815456,193,15540,96,5.152000,0
159.820608,194,15600,97,5.648000,0
159.826256,195,15660,97,5.664000,0
159.831920,196,15720,98,0,1943.984000
161.775904,196,15780,98,5.536000,0
161.781440,197,15840,98,5.152000,0
161.786592,198,15900,99,0,1955.392000
163.741984,198,15960,99,5.104000,0
163.747088,199,16020,99,5.664000,0
163.752752,200,16080,100,5.712000,0
163.758464,201,16140,100,5.152000,0
163.763616,202,16200,101,0,1944.448000
165.708064,202,16260,101,5.584000,0
165.713648,203,16320,101,5.152000,0
165.718800,204,16380,102,0,1955.344000
167.674144,204,16440,102,5.504000,0
167.679648,205,16500,102,5.344000,0
167.684992,206,16560,103,5.568000,0
167.690560,207,16620,103,0,1949.664000
169.640224,207,16680,103,5.344000,0
169.645568,208,16740,104,5.056000,0
169.650624,209,16800,104,5.344000,0
169.655968,210,16860,105,0,1950.336000
171.606304,210,16920,105,5.344000,0
171.611648,211,16980,105,5.056000,0
171.616704,212,17040,106,5.408000,0
171.622112,213,17100,106,0,1950.272000
173.572384,213,17160,106,5.712000,0
173.578096,214,17220,107,5.408000,0
173.583504,215,17280,107,5.280000,0
173.588784,216,17340,108,0,1949.680000
175.538464,216,17400,108,5.152000,0
175.543616,217,17460,108,5.408000,0
175.549024,218,17520,109,5.664000,0
175.554688,219,17580,109,0,1949.856000
177.504544,219,17640,109,5.808000,0
177.510352,220,17700,110,5.168000,0
177.515520,221,17760,110,0,1955.104000
179.470624,221,17820,110,5.344000,0
179.475968,222,17880,111,5.152000,0
179.481120,223,17940,111,5.776000,0
179.486896,224,18000,112,0,1949.808000
181.436704,224,18060,112,5.152000,0
181.441856,225,18120,112,5.328000,0
181.447184,226,18180,113,5.152000,0
181.452336,227,18240,113,0,1950.448000
183.402784,227,18300,113,5.360000,0
183.408144,228,18360,114,5.664000,0
183.413808,229,18420,114,5.584000,0
183.419392,230,18480,115,0,1949.472000
185.368864,230,18540,115,5.408000,0
185.374272,231,18600,115,5.552000,0
185.379824,232,18660,116,0,1955.120000
187.334944,232,18720,116,5.600000,0
187.340544,233,18780,116,5.056000,0
187.345600,234,18840,117,5.408000,0
187.351008,235,18900,117,0,1950.016000
189.301024,235,18960,117,5.104000,0
189.306128,236,19020,118,5.664000,0
189.311792,237,19080,118,5.808000,0
189.317600,238,19140,119,0,1949.504000
191.267104,238,19200,119,5.664000,0
191.272768,239,19260,119,5.792000,0
191.278560,240,19320,120,5.408000,0
191.283968,241,19380,120,0,1949.216000
193.233184,241,19440,120,5.408000,0
193.238592,242,19500,121,5.664000,0
193.244256,243,19560,121,5.456000,0
193.249712,244,19620,122,0,1949.552000
195.199264,244,19680,122,5.408000,0
195.204672,245,19740,122,5.120000,0
195.209792,246,19800,123,5.664000,0
195.215456,247,19860,123,0,1949.888000
197.165344,247,19920,123,5.136000,0
197.170480,248,19980,124,5.152000,0
197.175632,249,20040,124,0,1955.792000
199.131424,249,20100,124,5.536000,0
199.136960,250,20160,125,5.152000,0
199.142112,251,20220,125,5.360000,0
199.147472,252,20280,126,5.408000,0
199.152880,253,20340,126,0,1944.624000
201.097504,253,20400,126,5.712000,0
201.103216,254,20460,127,5.408000,0
201.108624,255,20520,127,5.328000,0
201.113952,256,20580,128,0,1949.632000
203.063584,256,20640,128,5.408000,0
203.068992,257,20700,128,5.248000,0
203.074240,258,20760,129,5.088000,0
203.079328,259,20820,129,0,1950.336000
205.029664,259,20880,129,5.312000,0
205.034976,260,20940,130,5.344000,0
205.040320,261,21000,130,0,1955.424000
206.995744,261,21060,130,5.568000,0
207.001312,262,21120,131,5.088000,0
207.006400,263,21180,131,5.312000,0
207.011712,264,21240,132,0,1950.112000
208.961824,264,21300,132,5.664000,0
208.967488,265,21360,132,5.712000,0
208.973200,266,21420,133,5.152000,0
208.978352,267,21480,133,0,1949.552000
210.927904,267,21540,133,5.536000,0
210.933440,268,21600,134,5.408000,0
210.938848,269,21660,134,5.408000,0
210.944256,270,21720,135,0,1949.728000
212.893984,270,21780,135,5.152000,0
212.899136,271,21840,135,5.808000,0
212.904944,272,21900,136,5.680000,0
212.910624,273,21960,136,5.088000,0
212.915712,274,22020,137,0,1944.352000
214.860064,274,22080,137,5.408000,0
214.865472,275,22140,137,5.776000,0
214.871248,276,22200,138,5.408000,0
214.876656,277,22260,138,5.072000,0
214.881728,278,22320,139,0,1944.416000
216.826144,278,22380,139,5.408000,0
216.831552,279,22440,139,5.104000,0
216.836656,280,22500,140,0,1955.568000
218.792224,280,22560,140,5.408000,0
218.797632,281,22620,140,5.584000,0
218.803216,282,22680,141,5.152000,0
218.808368,283,22740,141,5.808000,0
218.814176,284,22800,142,0,1944.128000
220.758304,284,22860,142,5.344000,0
220.763648,285,22920,142,5.312000,0
220.768960,286,22980,143,5.152000,0
220.774112,287,23040,143,0,1950.272000
222.724384,287,23100,143,5.360000,0
222.729744,288,23160,144,5.152000,0
222.734896,289,23220,144,0,1955.568000
224.690464,289,23280,144,5.808000,0
224.696272,290,23340,145,5.664000,0
224.701936,291,23400,145,5.280000,0
224.707216,292,23460,146,5.408000,0
224.712624,293,23520,146,0,1943.920000
226.656544,293,23580,146,5.664000,0
226.662208,294,23640,147,5.664000,0
226.667872,295,23700,147,5.200000,0
226.673072,296,23760,148,0,1949.552000
228.622624,296,23820,148,5.664000,0
228.628288,297,23880,148,5.120000,0
228.633408,298,23940,149,5.664000,0
228.639072,299,24000,149,0,1949.632000
230.588704,299,24060,149,5.648000,0
230.594352,300,24120,150,5.152000,0
230.599504,301,24180,150,5.536000,0
230.605040,302,24240,151,0,1949.744000
232.554784,302,24300,151,5.664000,0
232.560448,303,24360,151,5.616000,0
232.566064,304,24420,152,5.408000,0
232.571472,305,24480,152,0,1949.392000
