Time,CovertPackets,AllPackets,BitsSent,PacketInterval;GTSInterval
31.108384,0,120,0,0,1474.560000
32.582944,0,180,0,0,983.040000
33.565984,0,240,0,0,983.040000
34.549024,0,300,0,0,983.040000
35.532064,0,360,0,0,1474.560000
37.006624,0,420,0,0,1474.560000
38.481184,0,480,0,0,983.040000
39.464224,0,540,0,0,983.040000
40.447264,0,600,0,0,983.040000
41.430304,0,660,0,0,983.040000
42.413344,0,720,0,0,983.040000
43.396384,0,780,0,0,983.040000
44.379424,0,840,0,0,1474.560000
45.853984,0,900,0,0,983.040000
46.837024,0,960,0,0,1474.560000
48.311584,0,1020,0,0,983.040000
49.294624,0,1080,0,0,1474.560000
50.769184,0,1140,0,0,983.040000
51.752224,0,1200,0,0,983.040000
52.735264,0,1260,0,0,1474.560000
54.209824,0,1320,0,0,983.040000
55.192864,0,1380,0,0,983.040000
56.175904,0,1440,0,0,983.040000
57.158944,0,1500,0,0,983.040000
58.141984,0,1560,0,0,1474.560000
59.616544,0,1620,0,0,983.040000
60.599584,0,1680,0,0,983.040000
61.582624,0,1740,0,0,983.040000
62.565664,0,1800,0,0,983.040000
63.548704,0,1860,0,0,983.040000
64.531744,0,1920,0,0,1474.560000
66.006304,0,1980,0,0,1474.560000
67.480864,0,2040,0,0,983.040000
68.463904,0,2100,0,0,983.040000
69.446944,0,2160,0,0,1474.560000
70.921504,0,2220,0,0,983.040000
71.904544,0,2280,0,0,983.040000
72.887584,0,2340,0,0,983.040000
73.870624,0,2400,0,0,983.040000
74.853664,0,2460,0,0,1474.560000
76.328224,0,2520,0,0,983.040000
77.311264,0,2580,0,0,983.040000
78.294304,0,2640,0,0,983.040000
79.277344,0,2700,0,0,1474.560000
80.751904,0,2760,0,0,983.040000
81.734944,0,2820,0,0,983.040000
82.717984,0,2880,0,0,1474.560000
84.192544,0,2940,0,0,983.040000
85.175584,0,3000,0,0,983.040000
86.158624,0,3060,0,0,983.040000
87.141664,0,3120,0,0,983.040000
88.124704,0,3180,0,0,983.040000
89.107744,0,3240,0,0,1474.560000
90.582304,0,3300,0,0,983.040000
91.565344,0,3360,0,0,983.040000
92.548384,0,3420,0,0,983.040000
93.531424,0,3480,0,0,983.040000
94.514464,0,3540,0,0,983.040000
95.497504,0,3600,0,0,983.040000
96.480544,0,3660,0,0,1474.560000
97.955104,0,3720,0,0,983.040000
98.938144,0,3780,0,0,983.040000
99.921184,0,3840,0,0,983.040000
100.904224,0,3900,0,0,983.040000
101.887264,0,3960,0,0,983.040000
102.870304,0,4020,0,0,983.040000
103.853344,0,4080,0,0,1474.560000
105.327904,0,4140,0,0,983.040000
106.310944,0,4200,0,0,983.040000
107.293984,0,4260,0,0,983.040000
108.277024,0,4320,0,0,1474.560000
109.751584,0,4380,0,0,1474.560000
111.226144,0,4440,0,0,983.040000
112.209184,0,4500,0,0,1474.560000
113.683744,0,4560,0,0,983.040000
114.666784,0,4620,0,0,983.040000
115.649824,0,4680,0,0,1474.560000
117.124384,0,4740,0,0,983.040000
118.107424,0,4800,0,0,983.040000
119.090464,0,4860,0,0,983.040000
120.073504,0,4920,0,0,1474.560000
121.548064,0,4980,0,0,983.040000
122.531104,0,5040,0,0,983.040000
123.514144,0,5100,0,0,983.040000
124.497184,0,5160,0,0,1474.560000
125.971744,0,5220,0,0,983.040000
126.954784,0,5280,0,0,983.040000
127.937824,0,5340,0,0,983.040000
128.920864,0,5400,0,0,983.040000
129.903904,0,5460,0,0,983.040000
130.886944,0,5520,0,0,1474.560000
132.361504,0,5580,0,0,983.040000
133.344544,0,5640,0,0,983.040000
134.327584,0,5700,0,0,983.040000
135.310624,0,5760,0,0,983.040000
136.293664,0,5820,0,0,1474.560000
137.768224,0,5880,0,0,983.040000
138.751264,0,5940,0,0,983.040000
139.734304,0,6000,0,0,983.040000
140.717344,0,6060,0,0,1474.560000
142.191904,0,6120,0,0,983.040000
143.174944,0,6180,0,0,983.040000
144.157984,0,6240,0,0,983.040000
145.141024,0,6300,0,0,983.040000
146.124064,0,6360,0,0,1474.560000
147.598624,0,6420,0,0,983.040000
148.581664,0,6480,0,0,1474.560000
150.056224,0,6540,0,0,983.040000
151.039264,0,6600,0,0,983.040000
152.022304,0,6660,0,0,1966.080000
153.988384,0,6720,0,0,983.040000
154.971424,0,6780,0,0,1474.560000
156.445984,0,6840,0,0,983.040000
157.429024,0,6900,0,0,1474.560000
158.903584,0,6960,0,0,983.040000
159.886624,0,7020,0,0,983.040000
160.869664,0,7080,0,0,983.040000
161.852704,0,7140,0,0,1474.560000
163.327264,0,7200,0,0,983.040000
164.310304,0,7260,0,0,983.040000
165.293344,0,7320,0,0,983.040000
166.276384,0,7380,0,0,983.040000
167.259424,0,7440,0,0,1474.560000
168.733984,0,7500,0,0,983.040000
169.717024,0,7560,0,0,983.040000
170.700064,0,7620,0,0,983.040000
171.683104,0,7680,0,0,983.040000
172.666144,0,7740,0,0,983.040000
173.649184,0,7800,0,0,983.040000
174.632224,0,7860,0,0,1474.560000
176.106784,0,7920,0,0,983.040000
177.089824,0,7980,0,0,983.040000
178.072864,0,8040,0,0,983.040000
179.055904,0,8100,0,0,1474.560000
180.530464,0,8160,0,0,1474.560000
182.005024,0,8220,0,0,983.040000
182.988064,0,8280,0,0,983.040000
183.971104,0,8340,0,0,983.040000
184.954144,0,8400,0,0,983.040000
185.937184,0,8460,0,0,983.040000
186.920224,0,8520,0,0,983.040000
187.903264,0,8580,0,0,983.040000
188.886304,0,8640,0,0,983.040000
189.869344,0,8700,0,0,1474.560000
191.343904,0,8760,0,0,983.040000
192.326944,0,8820,0,0,983.040000
193.309984,0,8880,0,0,983.040000
194.293024,0,8940,0,0,1474.560000
195.767584,0,9000,0,0,983.040000
196.750624,0,9060,0,0,983.040000
197.733664,0,9120,0,0,983.040000
198.716704,0,9180,0,0,983.040000
199.699744,0,9240,0,0,1474.560000
201.174304,0,9300,0,0,983.040000
202.157344,0,9360,0,0,983.040000
203.140384,0,9420,0,0,983.040000
204.123424,0,9480,0,0,983.040000
205.106464,0,9540,0,0,983.040000
206.089504,0,9600,0,0,1474.560000
207.564064,0,9660,0,0,983.040000
208.547104,0,9720,0,0,983.040000
209.530144,0,9780,0,0,983.040000
210.513184,0,9840,0,0,1474.560000
211.987744,0,9900,0,0,983.040000
212.970784,0,9960,0,0,983.040000
213.953824,0,10020,0,0,983.040000
214.936864,0,10080,0,0,1474.560000
216.411424,0,10140,0,0,983.040000
217.394464,0,10200,0,0,983.040000
218.377504,0,10260,0,0,983.040000
219.360544,0,10320,0,0,1474.560000
220.835104,0,10380,0,0,983.040000
221.818144,0,10440,0,0,983.040000
222.801184,0,10500,0,0,983.040000
223.784224,0,10560,0,0,1474.560000
225.258784,0,10620,0,0,983.040000
226.241824,0,10680,0,0,1474.560000
227.716384,0,10740,0,0,983.040000
228.699424,0,10800,0,0,983.040000
229.682464,0,10860,0,0,983.040000
230.665504,0,10920,0,0,1474.560000
232.140064,0,10980,0,0,983.040000
233.123104,0,11040,0,