Time,CovertPackets,AllPackets,BitsSent,PacketInterval;GTSInterval
260.515984,1,150,0,5.632000,0
260.521616,2,225,1,5.936000,0
260.527552,3,300,1,5.888000,0
260.533440,4,375,2,6.016000,0
260.539456,5,450,2,5.632000,0
260.545088,6,525,3,5.888000,0
260.550976,7,600,3,5.632000,0
260.556608,8,675,4,5.776000,0
260.562384,9,750,4,5.904000,0
260.568288,10,825,5,5.568000,0
260.573856,11,900,5,5.632000,0
260.579488,12,975,6,6.000000,0
260.585488,13,1050,6,6.144000,0
260.591632,14,1125,7,5.552000,0
260.597184,15,1200,7,6.144000,0
260.603328,16,1275,8,5.840000,0
260.609168,17,1350,8,6.144000,0
260.615312,18,1425,9,5.808000,0
260.621120,19,1500,9,6.144000,0
260.627264,20,1575,10,6.288000,0
260.633552,21,1650,10,0,31334.192000
291.967744,21,1725,10,5.568000,0
291.973312,22,1800,11,6.048000,0
291.979360,23,1875,11,6.144000,0
291.985504,24,1950,12,5.584000,0
291.991088,25,2025,12,5.888000,0
291.996976,26,2100,13,5.776000,0
292.002752,27,2175,13,5.632000,0
292.008384,28,2250,14,5.760000,0
292.014144,29,2325,14,5.632000,0
292.019776,30,2400,15,6.144000,0
292.025920,31,2475,15,5.632000,0
292.031552,32,2550,16,5.936000,0
292.037488,33,2625,16,6.144000,0
292.043632,34,2700,17,5.856000,0
292.049488,35,2775,17,5.632000,0
292.055120,36,2850,18,5.616000,0
292.060736,37,2925,18,5.888000,0
292.066624,38,3000,19,6.272000,0
292.072896,39,3075,19,6.144000,0
292.079040,40,3150,20,5.584000,0
292.084624,41,3225,20,5.632000,0
292.090256,42,3300,21,0,31334.768000
323.425024,42,3375,21,5.680000,0
323.430704,43,3450,21,6.144000,0
323.436848,44,3525,22,5.552000,0
323.442400,45,3600,22,5.888000,0
323.448288,46,3675,23,5.984000,0
323.454272,47,3750,23,6.080000,0
323.460352,48,3825,24,5.536000,0
323.465888,49,3900,24,5.568000,0
323.471456,50,3975,25,5.536000,0
323.476992,51,4050,25,6.080000,0
323.483072,52,4125,26,6.048000,0
323.489120,53,4200,26,5.632000,0
323.494752,54,4275,27,6.192000,0
323.500944,55,4350,27,6.144000,0
323.507088,56,4425,28,6.272000,0
323.513360,57,4500,28,5.632000,0
323.518992,58,4575,29,5.632000,0
323.524624,59,4650,29,5.888000,0
323.530512,60,4725,30,5.776000,0
323.536288,61,4800,30,5.904000,0
323.542192,62,4875,31,5.568000,0
323.547760,63,4950,31,0,31334.544000
354.882304,63,5025,31,6.144000,0
354.888448,64,5100,32,5.744000,0
354.894192,65,5175,32,5.888000,0
354.900080,66,5250,33,6.064000,0
354.906144,67,5325,33,6.144000,0
354.912288,68,5400,34,5.840000,0
354.918128,69,5475,34,6.144000,0
354.924272,70,5550,35,5.552000,0
354.929824,71,5625,35,5.632000,0
354.935456,72,5700,36,6.288000,0
354.941744,73,5775,36,6.080000,0
354.947824,74,5850,37,5.792000,0
354.953616,75,5925,37,6.144000,0
354.959760,76,6000,38,5.584000,0
354.965344,77,6075,38,5.888000,0
354.971232,78,6150,39,6.032000,0
354.977264,79,6225,39,6.144000,0
354.983408,80,6300,40,6.272000,0
354.989680,81,6375,40,5.888000,0
354.995568,82,6450,41,6.144000,0
355.001712,83,6525,41,5.632000,0
355.007344,84,6600,42,0,31332.240000
386.339584,84,6675,42,5.680000,0
386.345264,85,6750,42,5.632000,0
386.350896,86,6825,43,6.112000,0
386.357008,87,6900,43,6.144000,0
386.363152,88,6975,44,5.872000,0
386.369024,89,7050,44,5.632000,0
386.374656,90,7125,45,6.272000,0
386.380928,91,7200,45,5.632000,0
386.386560,92,7275,46,5.840000,0
386.392400,93,7350,46,6.144000,0
386.398544,94,7425,47,6.192000,0
386.404736,95,7500,47,5.888000,0
386.410624,96,7575,48,5.808000,0
386.416432,97,7650,48,5.632000,0
386.422064,98,7725,49,5.984000,0
386.428048,99,7800,49,5.824000,0
386.433872,100,7875,50,5.536000,0
386.439408,101,7950,50,6.080000,0
386.445488,102,8025,51,5.792000,0
386.451280,103,8100,51,6.080000,0
386.457360,104,8175,52,5.792000,0
386.463152,105,8250,52,6.144000,0
386.469296,106,8325,53,5.680000,0
386.474976,107,8400,53,5.888000,0
386.480864,108,8475,54,0,31316.000000
417.796864,108,8550,54,6.272000,0
417.803136,109,8625,54,5.632000,0
417.808768,110,8700,55,5.888000,0
417.814656,111,8775,55,5.632000,0
417.820288,112,8850,56,5.776000,0
417.826064,113,8925,56,5.904000,0
417.831968,114,9000,57,5.824000,0
417.837792,115,9075,57,5.632000,0
417.843424,116,9150,58,6.000000,0
417.849424,117,9225,58,5.888000,0
417.855312,118,9300,59,5.808000,0
417.861120,119,9375,59,5.632000,0
417.866752,120,9450,60,5.840000,0
417.872592,121,9525,60,5.888000,0
417.878480,122,9600,61,5.552000,0
417.884032,123,9675,61,6.144000,0
417.890176,124,9750,62,6.288000,0
417.896464,125,9825,62,5.568000,0
417.902032,126,9900,63,5.792000,0
417.907824,127,9975,63,5.888000,0
417.913712,128,10050,64,6.096000,0
417.919808,129,10125,64,5.632000,0
417.925440,130,10200,65,0,31328.704000
449.254144,130,10275,65,6.288000,0
449.260432,131,10350,65,6.144000,0
449.266576,132,10425,66,5.760000,0
449.272336,133,10500,66,5.888000,0
449.278224,134,10575,67,5.632000,0
449.283856,135,10650,67,5.632000,0
449.289488,136,10725,68,5.936000,0
449.295424,137,10800,68,6.144000,0
449.301568,138,10875,69,5.600000,0
449.307168,139,10950,69,5.632000,0
449.312800,140,11025,70,5.616000,0
449.318416,141,11100,70,6.144000,0
449.324560,142,11175,71,6.272000,0
449.330832,143,11250,71,5.888000,0
449.336720,144,11325,72,5.584000,0
449.342304,145,11400,72,5.888000,0
449.348192,146,11475,73,6.192000,0
449.354384,147,11550,73,6.144000,0
449.360528,148,11625,74,5.808000,0
449.366336,149,11700,74,5.632000,0
449.371968,150,11775,75,5.984000,0
449.377952,151,11850,75,5.568000,0
449.383520,152,11925,76,5.792000,0
449.389312,153,12000,76,