Time,CovertPackets,AllPackets,BitsSent,PacketInterval;GTSInterval
30.131344,1,150,0,0,486.000000
30.617344,1,225,0,5.888000,0
30.623232,2,300,1,0,485.632000
31.108864,2,375,1,6.192000,0
31.115056,3,450,1,0,485.328000
31.600384,3,525,1,5.632000,0
31.606016,4,600,2,0,485.888000
32.091904,4,675,2,6.016000,0
32.097920,5,750,2,0,485.504000
32.583424,5,825,2,6.144000,0
32.589568,6,900,3,0,485.376000
33.074944,6,975,3,6.144000,0
33.081088,7,1050,3,0,485.376000
33.566464,7,1125,3,5.888000,0
33.572352,8,1200,4,0,485.632000
34.057984,8,1275,4,6.032000,0
34.064016,9,1350,4,0,485.488000
34.549504,9,1425,4,5.904000,0
34.555408,10,1500,5,0,485.616000
35.041024,10,1575,5,6.080000,0
35.047104,11,1650,5,0,485.440000
35.532544,11,1725,5,5.888000,0
35.538432,12,1800,6,0,485.632000
36.024064,12,1875,6,6.256000,0
36.030320,13,1950,6,0,485.264000
36.515584,13,2025,6,6.144000,0
36.521728,14,2100,7,0,485.376000
37.007104,14,2175,7,5.552000,0
37.012656,15,2250,7,0,485.968000
37.498624,15,2325,7,5.632000,0
37.504256,16,2400,8,0,485.888000
37.990144,16,2475,8,6.096000,0
37.996240,17,2550,8,0,485.424000
38.481664,17,2625,8,5.632000,0
38.487296,18,2700,9,0,485.888000
38.973184,18,2775,9,5.552000,0
38.978736,19,2850,9,0,485.968000
39.464704,19,2925,9,6.144000,0
39.470848,20,3000,10,0,485.376000
39.956224,20,3075,10,6.288000,0
39.962512,21,3150,10,0,485.232000
40.447744,21,3225,10,5.568000,0
40.453312,22,3300,11,0,485.952000
40.939264,22,3375,11,5.792000,0
40.945056,23,3450,11,0,485.728000
41.430784,23,3525,11,5.888000,0
41.436672,24,3600,12,0,485.632000
41.922304,24,3675,12,5.840000,0
41.928144,25,3750,12,0,485.680000
42.413824,25,3825,12,6.144000,0
42.419968,26,3900,13,0,485.376000
42.905344,26,3975,13,6.288000,0
42.911632,27,4050,13,0,485.232000
43.396864,27,4125,13,5.888000,0
43.402752,28,4200,14,0,485.632000
43.888384,28,4275,14,6.016000,0
43.894400,29,4350,14,0,485.504000
44.379904,29,4425,14,5.632000,0
44.385536,30,4500,15,0,485.888000
44.871424,30,4575,15,6.144000,0
44.877568,31,4650,15,0,485.376000
45.362944,31,4725,15,6.144000,0
45.369088,32,4800,16,0,485.376000
45.854464,32,4875,16,5.936000,0
45.860400,33,4950,16,0,485.584000
46.345984,33,5025,16,5.632000,0
46.351616,34,5100,17,0,485.888000
46.837504,34,5175,17,6.112000,0
46.843616,35,5250,17,0,485.408000
47.329024,35,5325,17,6.144000,0
47.335168,36,5400,18,0,485.376000
47.820544,36,5475,18,5.872000,0
47.826416,37,5550,18,0,485.648000
48.312064,37,5625,18,6.144000,0
48.318208,38,5700,19,0,485.376000
48.803584,38,5775,19,6.016000,0
48.809600,39,5850,19,0,485.504000
49.295104,39,5925,19,5.632000,0
49.300736,40,6000,20,0,485.888000
49.786624,40,6075,20,5.840000,0
49.792464,41,6150,20,0,485.680000
50.278144,41,6225,20,6.144000,0
50.284288,42,6300,21,0,485.376000
50.769664,42,6375,21,6.192000,0
50.775856,43,6450,21,0,485.328000
51.261184,43,6525,21,5.888000,0
51.267072,44,6600,22,0,485.632000
51.752704,44,6675,22,5.808000,0
51.758512,45,6750,22,0,485.712000
52.244224,45,6825,22,5.632000,0
52.249856,46,6900,23,0,485.888000
52.735744,46,6975,23,5.728000,0
52.741472,47,7050,23,0,485.792000
53.227264,47,7125,23,6.080000,0
53.233344,48,7200,24,0,485.440000
53.718784,48,7275,24,5.792000,0
53.724576,49,7350,24,0,485.728000
54.210304,49,7425,24,5.824000,0
54.216128,50,7500,25,0,485.696000
54.701824,50,7575,25,5.792000,0
54.707616,51,7650,25,0,485.728000
55.193344,51,7725,25,6.080000,0
55.199424,52,7800,26,0,485.440000
55.684864,52,7875,26,5.568000,0
55.690432,53,7950,26,0,485.952000
56.176384,53,8025,26,5.568000,0
56.181952,54,8100,27,0,485.952000
56.667904,54,8175,27,6.080000,0
56.673984,55,8250,27,0,485.440000
57.159424,55,8325,27,6.080000,0
57.165504,56,8400,28,0,485.440000
57.650944,56,8475,28,6.080000,0
57.657024,57,8550,28,0,485.440000
58.142464,57,8625,28,5.824000,0
58.148288,58,8700,29,0,485.696000
58.633984,58,8775,29,5.824000,0
58.639808,59,8850,29,0,485.696000
59.125504,59,8925,29,5.824000,0
59.131328,60,9000,30,0,485.696000
59.617024,60,9075,30,5.824000,0
59.622848,61,9150,30,0,485.696000
60.108544,61,9225,30,5.824000,0
60.114368,62,9300,31,0,485.696000
60.600064,62,9375,31,5.568000,0
60.605632,63,9450,31,0,485.952000
61.091584,63,9525,31,5.824000,0
61.097408,64,9600,32,0,485.696000
61.583104,64,9675,32,5.568000,0
61.588672,65,9750,32,0,485.952000
62.074624,65,9825,32,6.080000,0
62.080704,66,9900,33,0,485.440000
62.566144,66,9975,33,6.080000,0
62.572224,67,10050,33,0,485.440000
63.057664,67,10125,33,6.080000,0
63.063744,68,10200,34,0,485.440000
63.549184,68,10275,34,5.824000,0
63.555008,69,10350,34,0,485.696000
64.040704,69,10425,34,5.568000,0
64.046272,70,10500,35,0,485.952000
64.532224,70,10575,35,5.568000,0
64.537792,71,10650,35,0,485.952000
65.023744,71,10725,35,6.080000,0
65.029824,72,10800,36,0,485.440000
65.515264,72,10875,36,5.568000,0
65.520832,73,10950,36,0,485.952000
66.006784,73,11025,36,6.080000,0
66.012864,74,11100,37,0,485.440000
66.498304,74,11175,37,5.568000,0
66.503872,75,11250,37,0,485.952000
66.989824,75,11325,37,5.824000,0
66.995648,76,11400,38,0,485.696000
67.481344,76,11475,38,6.080000,0
67.487424,77,11550,38,0,485.440000
67.972864,77,11625,38,5.568000,0
67.978432,78,11700,39,0,485.952000
68.464384,78,11775,39,5.824000,0
68.470208,79,11850,39,0,485.696000
68.955904,79,11925,39,6.080000,0
68.961984,80,12000,40,0,485.440000
69.447424,80,12075,40,5.824000,0
69.453248,81,12150,40,0,485.696000
69.938944,81,12225,40,6.080000,0
69.945024,82,12300,41,0,485.440000
70.430464,82,12375,41,6.080000,0
70.436544,83,12450,41,0,485.440000
70.921984,83,12525,41,5.824000,0
70.927808,84,12600,42,0,485.696000
71.413504,84,12675,42,6.080000,0
71.419584,85,12750,42,0,485.440000
71.905024,85,12825,42,5.824000,0
71.910848,86,12900,43,0,485.696000
72.396544,86,12975,43,6.080000,0
72.402624,87,13050,43,0,485.440000
72.888064,87,13125,43,5.568000,0
72.893632,88,13200,44,0,485.952000
73.379584,88,13275,44,5.568000,0
73.385152,89,13350,44,0,485.952000
73.871104,89,13425,44,6.080000,0
73.877184,90,13500,45,0,485.440000
74.362624,90,13575,45,5.824000,0
74.368448,91,13650,45,0,485.696000
74.854144,91,13725,45,5.568000,0
74.859712,92,13800,46,0,485.952000
75.345664,92,13875,46,6.080000,0
75.351744,93,13950,46,0,485.440000
75.837184,93,14025,46,6.080000,0
75.843264,94,14100,47,0,485.440000
76.328704,94,14175,47,5.568000,0
76.334272,95,14250,47,0,485.952000
76.820224,95,14325,47,5.824000,0
76.826048,96,14400,48,0,485.696000
77.311744,96,14475,48,6.080000,0
77.317824,97,14550,48,0,485.440000
77.803264,97,14625,48,5.824000,0
77.809088,98,14700,49,0,485.696000
78.294784,98,14775,49,5.824000,0
78.300608,99,14850,49,0,485.696000
78.786304,99,14925,49,5.824000,0
78.792128,100,15000,50,0,485.696000
79.277824,100,15075,50,5.824000,0
79.283648,101,15150,50,0,485.696000
79.769344,101,15225,50,6.080000,0
79.775424,102,15300,51,0,485.440000
80.260864,102,15375,51,5.824000,0
80.266688,103,15450,51,0,485.696000
80.752384,103,15525,51,6.080000,0
80.758464,104,15600,52,0,485.440000
81.243904,104,15675,52,6.080000,0
81.249984,105,15750,52,0,485.440000
81.735424,105,15825,52,5.568000,0
81.740992,106,15900,53,0,485.952000
82.226944,106,15975,53,5.568000,0
82.232512,107,16050,53,0,485.952000
82.718464,107,16125,53,6.080000,0
82.724544,108,16200,54,0,485.440000
83.209984,108,16275,54,5.568000,0
83.215552,109,16350,54,0,485.952000
83.701504,109,16425,54,5.568000,0
83.707072,110,16500,55,0,485.952000
84.193024,110,16575,55,5.824000,0
84.198848,111,16650,55,0,485.696000
84.684544,111,16725,55,5.568000,0
84.690112,112,16800,56,0,485.952000
85.176064,112,16875,56,6.080000,0
85.182144,113,16950,56,0,485.440000
85.667584,113,17025,56,6.080000,0
85.673664,114,17100,57,0,485.440000
86.159104,114,17175,57,5.568000,0
86.164672,115,17250,57,0,485.952000
86.650624,115,17325,57,5.824000,0
86.656448,116,17400,58,0,485.696000
87.142144,116,17475,58,5.824000,0
87.147968,117,17550,58,0,485.696000
87.633664,117,17625,58,6.080000,0
87.639744,118,17700,59,0,485.440000
88.125184,118,17775,59,6.080000,0
88.131264,119,17850,59,0,485.440000
88.616704,119,17925,59,5.824000,0
88.622528,120,18000,60,0,485.696000
89.108224,120,18075,60,5.824000,0
89.114048,121,18150,60,0,485.696000
89.599744,121,18225,60,6.080000,0
89.605824,122,18300,61,0,485.440000
90.091264,122,18375,61,5.824000,0
90.097088,123,18450,61,0,485.696000
90.582784,123,18525,61,5.568000,0
90.588352,124,18600,62,0,485.952000
91.074304,124,18675,62,6.080000,0
91.080384,125,18750,62,0,485.440000
91.565824,125,18825,62,6.080000,0
91.571904,126,18900,63,0,485.440000
92.057344,126,18975,63,5.824000,0
92.063168,127,19050,63,0,485.696000
92.548864,127,19125,63,5.824000,0
92.554688,128,19200,64,0,485.696000
93.040384,128,19275,64,5.824000,0
93.046208,129,19350,64,0,485.696000
93.531904,129,19425,64,5.824000,0
93.537728,130,19500,65,0,485.696000
94.023424,130,19575,65,5.568000,0
94.028992,131,19650,65,0,485.952000
94.514944,131,19725,65,5.568000,0
94.520512,132,19800,66,0,485.952000
95.006464,132,19875,66,5.568000,0
95.012032,133,19950,66,0,485.952000
95.497984,133,20025,66,6.080000,0
95.504064,134,20100,67,0,485.440000
95.989504,134,20175,67,5.568000,0
95.995072,135,20250,67,0,485.952000
96.481024,135,20325,67,5.568000,0
96.486592,136,20400,68,0,485.952000
96.972544,136,20475,68,5.824000,0
96.978368,137,20550,68,0,485.696000
97.464064,137,20625,68,5.824000,0
97.469888,138,20700,69,0,485.696000
97.955584,138,20775,69,5.568000,0
97.961152,139,20850,69,0,485.952000
98.447104,139,20925,69,5.568000,0
98.452672,140,21000,70,0,485.952000
98.938624,140,21075,70,6.080000,0
98.944704,141,21150,70,0,485.440000
99.430144,141,21225,70,5.568000,0
99.435712,142,21300,71,0,485.952000
99.921664,142,21375,71,6.080000,0
99.927744,143,21450,71,0,485.440000
100.413184,143,21525,71,5.568000,0
100.418752,144,21600,72,0,485.952000
100.904704,144,21675,72,5.824000,0
100.910528,145,21750,72,0,485.696000
101.396224,145,21825,72,5.568000,0
101.401792,146,21900,73,0,485.952000
101.887744,146,21975,73,5.824000,0
101.893568,147,22050,73,0,485.696000
102.379264,147,22125,73,5.568000,0
102.384832,148,22200,74,0,485.952000
102.870784,148,22275,74,5.568000,0
102.876352,149,22350,74,0,485.952000
103.362304,149,22425,74,6.080000,0
103.368384,150,22500,75,0,485.440000
103.853824,150,22575,75,5.568000,0
103.859392,151,22650,75,0,485.952000
104.345344,151,22725,75,5.824000,0
104.351168,152,22800,76,0,485.696000
104.836864,152,22875,76,5.824000,0
104.842688,153,22950,76,0,485.696000
105.328384,153,23025,76,6.080000,0
105.334464,154,23100,77,0,485.440000
105.819904,154,23175,77,5.568000,0
105.825472,155,23250,77,0,485.952000
106.311424,155,23325,77,5.568000,0
106.316992,156,23400,78,0,485.952000
106.802944,156,23475,78,5.824000,0
106.808768,157,23550,78,0,485.696000
107.294464,157,23625,78,5.824000,0
107.300288,158,23700,79,0,485.696000
107.785984,158,23775,79,5.568000,0
107.791552,159,23850,79,0,485.952000
108.277504,159,23925,79,5.568000,0
108.283072,160,24000,80,0,485.952000
108.769024,160,24075,80,5.568000,0
108.774592,161,24150,80,0,485.952000
109.260544,161,24225,80,5.824000,0
109.266368,162,24300,81,0,485.696000
109.752064,162,24375,81,6.080000,0
109.758144,163,24450,81,0,485.440000
110.243584,163,24525,81,5.824000,0
110.249408,164,24600,82,0,485.696000
110.735104,164,24675,82,6.080000,0
110.741184,165,24750,82,0,485.440000
111.226624,165,24825,82,5.824000,0
111.232448,166,24900,83,0,485.696000
111.718144,166,24975,83,6.080000,0
111.724224,167,25050,83,0,485.440000
112.209664,167,25125,83,5.568000,0
112.215232,168,25200,84,0,485.952000
112.701184,168,25275,84,5.824000,0
112.707008,169,25350,84,0,485.696000
113.192704,169,25425,84,5.568000,0
113.198272,170,25500,85,0,485.952000
113.684224,170,25575,85,6.080000,0
113.690304,171,25650,85,0,485.440000
114.175744,171,25725,85,5.568000,0
114.181312,172,25800,86,0,485.952000
114.667264,172,25875,86,5.568000,0
114.672832,173,25950,86,0,485.952000
115.158784,173,26025,86,5.824000,0
115.164608,174,26100,87,0,485.696000
115.650304,174,26175,87,6.080000,0
115.656384,175,26250,87,0,485.440000
116.141824,175,26325,87,5.824000,0
116.147648,176,26400,88,0,485.696000
116.633344,176,26475,88,5.568000,0
116.638912,177,26550,88,0,485.952000
117.124864,177,26625,88,5.824000,0
117.130688,178,26700,89,0,485.696000
117.616384,178,26775,89,5.824000,0
117.622208,179,26850,89,0,485.696000
118.107904,179,26925,89,5.824000,0
118.113728,180,27000,90,0,485.696000
118.599424,180,27075,90,5.824000,0
118.605248,181,27150,90,0,485.696000
119.090944,181,27225,90,5.824000,0
119.096768,182,27300,91,0,485.696000
119.582464,182,27375,91,6.080000,0
119.588544,183,27450,91,0,485.440000
120.073984,183,27525,91,5.568000,0
120.079552,184,27600,92,0,485.952000
120.565504,184,27675,92,6.080000,0
120.571584,185,27750,92,0,485.440000
121.057024,185,27825,92,5.568000,0
121.062592,186,27900,93,0,485.952000
121.548544,186,27975,93,5.568000,0
121.554112,187,28050,93,0,485.952000
122.040064,187,28125,93,5.824000,0
122.045888,188,28200,94,0,485.696000
122.531584,188,28275,94,5.568000,0
122.537152,189,28350,94,0,485.952000
123.023104,189,28425,94,6.080000,0
123.029184,190,28500,95,0,485.440000
123.514624,190,28575,95,5.568000,0
123.520192,191,28650,95,0,485.952000
124.006144,191,28725,95,5.568000,0
124.011712,192,28800,96,0,485.952000
124.497664,192,28875,96,5.568000,0
124.503232,193,28950,96,0,485.952000
124.989184,193,29025,96,6.080000,0
124.995264,194,29100,97,0,485.440000
125.480704,194,29175,97,5.568000,0
125.486272,195,29250,97,0,485.952000
125.972224,195,29325,97,6.080000,0
125.978304,196,29400,98,0,485.440000
126.463744,196,29475,98,6.080000,0
126.469824,197,29550,98,0,485.440000
126.955264,197,29625,98,6.080000,0
126.961344,198,29700,99,0,485.440000
127.446784,198,29775,99,5.824000,0
127.452608,199,29850,99,0,485.696000
127.938304,199,29925,99,5.824000,0
127.944128,200,30000,100,0,485.696000
128.429824,200,30075,100,6.080000,0
128.435904,201,30150,100,0,485.440000
128.921344,201,30225,100,5.568000,0
128.926912,202,30300,101,0,485.952000
129.412864,202,30375,101,6.080000,0
129.418944,203,30450,101,0,485.440000
129.904384,203,30525,101,6.080000,0
129.910464,204,30600,102,0,485.440000
130.395904,204,30675,102,6.080000,0
130.401984,205,30750,102,0,485.440000
130.887424,205,30825,102,5.568000,0
130.892992,206,30900,103,0,485.952000
131.378944,206,30975,103,5.824000,0
131.384768,207,31050,103,0,485.696000
131.870464,207,31125,103,5.824000,0
131.876288,208,31200,104,0,485.696000
132.361984,208,31275,104,5.824000,0
132.367808,209,31350,104,0,485.696000
132.853504,209,31425,104,5.824000,0
132.859328,210,31500,105,0,485.696000
133.345024,210,31575,105,5.568000,0
133.350592,211,31650,105,0,485.952000
133.836544,211,31725,105,5.568000,0
133.842112,212,31800,106,0,485.952000
134.328064,212,31875,106,5.824000,0
134.333888,213,31950,106,0,485.696000
134.819584,213,32025,106,5.824000,0
134.825408,214,32100,107,0,485.696000
135.311104,214,32175,107,5.568000,0
135.316672,215,32250,107,0,485.952000
135.802624,215,32325,107,5.824000,0
135.808448,216,32400,108,0,485.696000
136.294144,216,32475,108,6.080000,0
136.300224,217,32550,108,0,485.440000
136.785664,217,32625,108,6.080000,0
136.791744,218,32700,109,0,485.440000
137.277184,218,32775,109,5.568000,0
137.282752,219,32850,109,0,485.952000
137.768704,219,32925,109,5.824000,0
137.774528,220,33000,110,0,485.696000
138.260224,220,33075,110,5.568000,0
138.265792,221,33150,110,0,485.952000
138.751744,221,33225,110,6.080000,0
138.757824,222,33300,111,0,485.440000
139.243264,222,33375,111,6.080000,0
139.249344,223,33450,111,0,485.440000
139.734784,223,33525,111,6.080000,0
139.740864,224,33600,112,0,485.440000
140.226304,224,33675,112,5.824000,0
140.232128,225,33750,112,0,485.696000
140.717824,225,33825,112,5.824000,0
140.723648,226,33900,113,0,485.696000
141.209344,226,33975,113,5.568000,0
141.214912,227,34050,113,0,485.952000
141.700864,227,34125,113,6.080000,0
141.706944,228,34200,114,0,485.440000
142.192384,228,34275,114,5.568000,0
142.197952,229,34350,114,0,485.952000
142.683904,229,34425,114,6.080000,0
142.689984,230,34500,115,0,485.440000
143.175424,230,34575,115,5.824000,0
143.181248,231,34650,115,0,485.696000
143.666944,231,34725,115,5.824000,0
143.672768,232,34800,116,0,485.696000
144.158464,232,34875,116,5.568000,0
144.164032,233,34950,116,0,485.952000
144.649984,233,35025,116,6.080000,0
144.656064,234,35100,117,0,485.440000
145.141504,234,35175,117,5.568000,0
145.147072,235,35250,117,0,485.952000
145.633024,235,35325,117,5.824000,0
145.638848,236,35400,118,0,485.696000
146.124544,236,35475,118,6.080000,0
146.130624,237,35550,118,0,485.440000
146.616064,237,35625,118,5.824000,0
146.621888,238,35700,119,0,485.696000
147.107584,238,35775,119,6.080000,0
147.113664,239,35850,119,0,485.440000
147.599104,239,35925,119,5.568000,0
147.604672,240,36000,120,0,485.952000
148.090624,240,36075,120,6.080000,0
148.096704,241,36150,120,0,485.440000
148.582144,241,36225,120,6.080000,0
148.588224,242,36300,121,0,485.440000
149.073664,242,36375,121,5.824000,0
149.079488,243,36450,121,0,485.696000
149.565184,243,36525,121,6.080000,0
149.571264,244,36600,122,0,485.440000
150.056704,244,36675,122,5.824000,0
150.062528,245,36750,122,0,485.696000
150.548224,245,36825,122,5.824000,0
150.554048,246,36900,123,0,485.696000
151.039744,246,36975,123,5.568000,0
151.045312,247,37050,123,0,485.952000
151.531264,247,37125,123,5.824000,0
151.537088,248,37200,124,0,485.696000
152.022784,248,37275,124,5.824000,0
152.028608,249,37350,124,0,485.696000
152.514304,249,37425,124,5.824000,0
152.520128,250,37500,125,0,485.696000
153.005824,250,37575,125,6.080000,0
153.011904,251,37650,125,0,485.440000
153.497344,251,37725,125,5.824000,0
153.503168,252,37800,126,0,485.696000
153.988864,252,37875,126,6.080000,0
153.994944,253,37950,126,0,485.440000
154.480384,253,38025,126,5.824000,0
154.486208,254,38100,127,0,485.696000
154.971904,254,38175,127,6.080000,0
154.977984,255,38250,127,0,485.440000
155.463424,255,38325,127,5.568000,0
155.468992,256,38400,128,0,485.952000
155.954944,256,38475,128,6.080000,0
155.961024,257,38550,128,0,485.440000
156.446464,257,38625,128,5.568000,0
156.452032,258,38700,129,0,485.952000
156.937984,258,38775,129,5.568000,0
156.943552,259,38850,129,0,485.952000
157.429504,259,38925,129,5.568000,0
157.435072,260,39000,130,0,485.952000
157.921024,260,39075,130,5.568000,0
157.926592,261,39150,130,0,485.952000
158.412544,261,39225,130,5.824000,0
158.418368,262,39300,131,0,485.696000
158.904064,262,39375,131,5.824000,0
158.909888,263,39450,131,0,485.696000
159.395584,263,39525,131,5.824000,0
159.401408,264,39600,132,0,485.696000
159.887104,264,39675,132,6.080000,0
159.893184,265,39750,132,0,485.440000
160.378624,265,39825,132,5.824000,0
160.384448,266,39900,133,0,485.696000
160.870144,266,39975,133,5.824000,0
160.875968,267,40050,133,0,485.696000
161.361664,267,40125,133,5.568000,0
161.367232,268,40200,134,0,485.952000
161.853184,268,40275,134,5.568000,0
161.858752,269,40350,134,0,485.952000
162.344704,269,40425,134,5.568000,0
162.350272,270,40500,135,0,485.952000
162.836224,270,40575,135,5.568000,0
162.841792,271,40650,135,0,485.952000
163.327744,271,40725,135,6.080000,0
163.333824,272,40800,136,0,485.440000
163.819264,272,40875,136,5.568000,0
163.824832,273,40950,136,0,485.952000
164.310784,273,41025,136,5.824000,0
164.316608,274,41100,137,0,485.696000
164.802304,274,41175,137,6.080000,0
164.808384,275,41250,137,0,485.440000
165.293824,275,41325,137,5.568000,0
165.299392,276,41400,138,0,485.952000
165.785344,276,41475,138,6.080000,0
165.791424,277,41550,138,0,485.440000
166.276864,277,41625,138,6.080000,0
166.282944,278,41700,139,0,485.440000
166.768384,278,41775,139,5.568000,0
166.773952,279,41850,139,0,485.952000
167.259904,279,41925,139,6.080000,0
167.265984,280,42000,140,0,485.440000
167.751424,280,42075,140,5.568000,0
167.756992,281,42150,140,0,485.952000
168.242944,281,42225,140,5.824000,0
168.248768,282,42300,141,0,485.696000
168.734464,282,42375,141,5.824000,0
168.740288,283,42450,141,0,485.696000
169.225984,283,42525,141,6.080000,0
169.232064,284,42600,142,0,485.440000
169.717504,284,42675,142,5.824000,0
169.723328,285,42750,142,0,485.696000
170.209024,285,42825,142,5.568000,0
170.214592,286,42900,143,0,485.952000
170.700544,286,42975,143,5.568000,0
170.706112,287,43050,143,0,485.952000
171.192064,287,43125,143,5.824000,0
171.197888,288,43200,144,0,485.696000
171.683584,288,43275,144,6.080000,0
171.689664,289,43350,144,0,485.440000
172.175104,289,43425,144,6.080000,0
172.181184,290,43500,145,0,485.440000
172.666624,290,43575,145,5.824000,0
172.672448,291,43650,145,0,485.696000
173.158144,291,43725,145,5.824000,0
173.163968,292,43800,146,0,485.696000
173.649664,292,43875,146,5.824000,0
173.655488,293,43950,146,0,485.696000
174.141184,293,44025,146,5.568000,0
174.146752,294,44100,147,0,485.952000
174.632704,294,44175,147,5.568000,0
174.638272,295,44250,147,0,485.952000
175.124224,295,44325,147,5.824000,0
175.130048,296,44400,148,0,485.696000
175.615744,296,44475,148,5.568000,0
175.621312,297,44550,148,0,485.952000
176.107264,297,44625,148,5.568000,0
176.112832,298,44700,149,0,485.952000
176.598784,298,44775,149,6.080000,0
176.604864,299,44850,149,0,485.440000
177.090304,299,44925,149,5.824000,0
177.096128,300,45000,150,0,485.696000
177.581824,300,45075,150,5.568000,0
177.587392,301,45150,150,0,485.952000
178.073344,301,45225,150,5.568000,0
178.078912,302,45300,151,0,485.952000
178.564864,302,45375,151,5.568000,0
178.570432,303,45450,151,0,485.952000
179.056384,303,45525,151,5.568000,0
179.061952,304,45600,152,0,485.952000
179.547904,304,45675,152,6.080000,0
179.553984,305,45750,152,0,485.440000
180.039424,305,45825,152,6.080000,0
180.045504,306,45900,153,0,485.440000
180.530944,306,45975,153,5.824000,0
180.536768,307,46050,153,0,485.696000
181.022464,307,46125,153,5.568000,0
181.028032,308,46200,154,0,485.952000
181.513984,308,46275,154,5.568000,0
181.519552,309,46350,154,0,485.952000
182.005504,309,46425,154,5.568000,0
182.011072,310,46500,155,0,485.952000
182.497024,310,46575,155,6.080000,0
182.503104,311,46650,155,0,485.440000
182.988544,311,46725,155,5.568000,0
182.994112,312,46800,156,0,485.952000
183.480064,312,46875,156,5.568000,0
183.485632,313,46950,156,0,485.952000
183.971584,313,47025,156,6.080000,0
183.977664,314,47100,157,0,485.440000
184.463104,314,47175,157,6.080000,0
184.469184,315,47250,157,0,485.440000
184.954624,315,47325,157,5.568000,0
184.960192,316,47400,158,0,485.952000
185.446144,316,47475,158,5.824000,0
185.451968,317,47550,158,0,485.696000
185.937664,317,47625,158,5.568000,0
185.943232,318,47700,159,0,485.952000
186.429184,318,47775,159,5.568000,0
186.434752,319,47850,159,0,485.952000
186.920704,319,47925,159,5.568000,0
186.926272,320,48000,160,0,485.952000
187.412224,320,48075,160,5.824000,0
187.418048,321,48150,160,0,485.696000
187.903744,321,48225,160,5.824000,0
187.909568,322,48300,161,0,485.696000
188.395264,322,48375,161,5.568000,0
188.400832,323,48450,161,0,485.952000
188.886784,323,48525,161,5.824000,0
188.892608,324,48600,162,0,485.696000
189.378304,324,48675,162,5.824000,0
189.384128,325,48750,162,0,485.696000
189.869824,325,48825,162,6.080000,0
189.875904,326,48900,163,0,485.440000
190.361344,326,48975,163,6.080000,0
190.367424,327,49050,163,0,485.440000
190.852864,327,49125,163,6.080000,0
190.858944,328,49200,164,0,485.440000
191.344384,328,49275,164,5.568000,0
191.349952,329,49350,164,0,485.952000
191.835904,329,49425,164,5.568000,0
191.841472,330,49500,165,0,485.952000
192.327424,330,49575,165,6.080000,0
192.333504,331,49650,165,0,485.440000
192.818944,331,49725,165,5.824000,0
192.824768,332,49800,166,0,485.696000
193.310464,332,49875,166,5.568000,0
193.316032,333,49950,166,0,485.952000
193.801984,333,50025,166,5.568000,0
193.807552,334,50100,167,0,485.952000
194.293504,334,50175,167,5.824000,0
194.299328,335,50250,167,0,485.696000
194.785024,335,50325,167,5.568000,0
194.790592,336,50400,168,0,485.952000
195.276544,336,50475,168,6.080000,0
195.282624,337,50550,168,0,485.440000
195.768064,337,50625,168,6.080000,0
195.774144,338,50700,169,0,485.440000
196.259584,338,50775,169,5.824000,0
196.265408,339,50850,169,0,485.696000
196.751104,339,50925,169,5.824000,0
196.756928,340,51000,170,0,485.696000
197.242624,340,51075,170,5.824000,0
197.248448,341,51150,170,0,485.696000
197.734144,341,51225,170,5.824000,0
197.739968,342,51300,171,0,485.696000
198.225664,342,51375,171,6.080000,0
198.231744,343,51450,171,0,485.440000
198.717184,343,51525,171,6.080000,0
198.723264,344,51600,172,0,485.440000
199.208704,344,51675,172,5.568000,0
199.214272,345,51750,172,0,485.952000
199.700224,345,51825,172,5.824000,0
199.706048,346,51900,173,0,485.696000
200.191744,346,51975,173,6.080000,0
200.197824,347,52050,173,0,485.440000
200.683264,347,52125,173,5.568000,0
200.688832,348,52200,174,0,485.952000
201.174784,348,52275,174,5.824000,0
201.180608,349,52350,174,0,485.696000
201.666304,349,52425,174,6.080000,0
201.672384,350,52500,175,0,485.440000
202.157824,350,52575,175,6.080000,0
202.163904,351,52650,175,0,485.440000
202.649344,351,52725,175,6.080000,0
202.655424,352,52800,176,0,485.440000
203.140864,352,52875,176,6.080000,0
203.146944,353,52950,176,0,485.440000
203.632384,353,53025,176,5.824000,0
203.638208,354,53100,177,0,485.696000
204.123904,354,53175,177,5.824000,0
204.129728,355,53250,177,0,485.696000
204.615424,355,53325,177,5.824000,0
204.621248,356,53400,178,0,485.696000
205.106944,356,53475,178,5.824000,0
205.112768,357,53550,178,0,485.696000
205.598464,357,53625,178,5.568000,0
205.604032,358,53700,179,0,485.952000
206.089984,358,53775,179,5.824000,0
206.095808,359,53850,179,0,485.696000
206.581504,359,53925,179,5.824000,0
206.587328,360,54000,180,0,485.696000
207.073024,360,54075,180,5.824000,0
207.078848,361,54150,180,0,485.696000
207.564544,361,54225,180,5.568000,0
207.570112,362,54300,181,0,485.952000
208.056064,362,54375,181,5.824000,0
208.061888,363,54450,181,0,485.696000
208.547584,363,54525,181,6.080000,0
208.553664,364,54600,182,0,485.440000
209.039104,364,54675,182,5.568000,0
209.044672,365,54750,182,0,485.952000
209.530624,365,54825,182,5.824000,0
209.536448,366,54900,183,0,485.696000
210.022144,366,54975,183,5.824000,0
210.027968,367,55050,183,0,485.696000
210.513664,367,55125,183,5.568000,0
210.519232,368,55200,184,0,485.952000
211.005184,368,55275,184,5.568000,0
211.010752,369,55350,184,0,485.952000
211.496704,369,55425,184,5.824000,0
211.502528,370,55500,185,0,485.696000
211.988224,370,55575,185,6.080000,0
211.994304,371,55650,185,0,485.440000
212.479744,371,55725,185,5.568000,0
212.485312,372,55800,186,0,485.952000
212.971264,372,55875,186,5.568000,0
212.976832,373,55950,186,0,485.952000
213.462784,373,56025,186,5.824000,0
213.468608,374,56100,187,0,485.696000
213.954304,374,56175,187,5.824000,0
213.960128,375,56250,187,0,485.696000
214.445824,375,56325,187,6.080000,0
214.451904,376,56400,188,0,485.440000
214.937344,376,56475,188,5.824000,0
214.943168,377,56550,188,0,485.696000
215.428864,377,56625,188,6.080000,0
215.434944,378,56700,189,0,485.440000
215.920384,378,56775,189,6.080000,0
215.926464,379,56850,189,0,485.440000
216.411904,379,56925,189,5.568000,0
216.417472,380,57000,190,0,485.952000
216.903424,380,57075,190,5.824000,0
216.909248,381,57150,190,0,485.696000
217.394944,381,57225,190,6.080000,0
217.401024,382,57300,191,0,485.440000
217.886464,382,57375,191,6.080000,0
217.892544,383,57450,191,0,485.440000
218.377984,383,57525,191,6.080000,0
218.384064,384,57600,192,0,485.440000
218.869504,384,57675,192,5.568000,0
218.875072,385,57750,192,0,485.952000
219.361024,385,57825,192,5.568000,0
219.366592,386,57900,193,0,485.952000
219.852544,386,57975,193,5.568000,0
219.858112,387,58050,193,0,485.952000
220.344064,387,58125,193,5.824000,0
220.349888,388,58200,194,0,485.696000
220.835584,388,58275,194,5.824000,0
220.841408,389,58350,194,0,485.696000
221.327104,389,58425,194,6.080000,0
221.333184,390,58500,195,0,485.440000
221.818624,390,58575,195,6.080000,0
221.824704,391,58650,195,0,485.440000
222.310144,391,58725,195,6.080000,0
222.316224,392,58800,196,0,485.440000
222.801664,392,58875,196,6.080000,0
222.807744,393,58950,196,0,485.440000
223.293184,393,59025,196,6.080000,0
223.299264,394,59100,197,0,485.440000
223.784704,394,59175,197,5.824000,0
223.790528,395,59250,197,0,485.696000
224.276224,395,59325,197,5.568000,0
224.281792,396,59400,198,0,485.952000
224.767744,396,59475,198,5.824000,0
224.773568,397,59550,198,0,485.696000
225.259264,397,59625,198,5.824000,0
225.265088,398,59700,199,0,485.696000
225.750784,398,59775,199,5.568000,0
225.756352,399,59850,199,0,485.952000
226.242304,399,59925,199,5.568000,0
226.247872,400,60000,200,0,485.952000
226.733824,400,60075,200,5.568000,0
226.739392,401,60150,200,0,485.952000
227.225344,401,60225,200,6.080000,0
227.231424,402,60300,201,0,485.440000
227.716864,402,60375,201,5.824000,0
227.722688,403,60450,201,0,485.696000
228.208384,403,60525,201,5.824000,0
228.214208,404,60600,202,0,485.696000
228.699904,404,60675,202,5.568000,0
228.705472,405,60750,202,0,485.952000
229.191424,405,60825,202,6.080000,0
229.197504,406,60900,203,0,485.440000
229.682944,406,60975,203,5.824000,0
229.688768,407,61050,203,0,485.696000
230.174464,407,61125,203,5.568000,0
230.180032,408,61200,204,0,485.952000
230.665984,408,61275,204,5.824000,0
230.671808,409,61350,204,0,485.696000
231.157504,409,61425,204,5.824000,0
231.163328,410,61500,205,0,485.696000
231.649024,410,61575,205,5.824000,0
231.654848,411,61650,205,0,485.696000
232.140544,411,61725,205,6.080000,0
232.146624,412,61800,206,0,485.440000
232.632064,412,61875,206,6.080000,0
232.638144,413,61950,206,0,485.440000
233.123584,413,62025,206,5.824000,0
233.129408,414,62100,207,