Time,CovertPackets,AllPackets,BitsSent,PacketInterval,GTSInterval
30.756992,1,2,1,4.416000,0
30.761408,2,3,2,5.056000,0
30.766464,3,4,3,5.696000,0
30.772160,4,5,4,4.416000,0
30.776576,5,6,5,0,959.680000
31.736256,5,7,5,5.056000,0
31.741312,6,8,6,5.696000,0
31.747008,7,9,7,4.416000,0
31.751424,8,10,8,5.056000,0
31.756480,9,11,9,0,962.816000
32.719296,9,12,9,5.696000,0
32.724992,10,13,10,4.416000,0
32.729408,11,14,11,5.056000,0
32.734464,12,15,12,5.696000,0
32.740160,13,16,13,0,962.176000
33.702336,13,17,13,4.416000,0
33.706752,14,18,14,5.056000,0
33.711808,15,19,15,5.696000,0
33.717504,16,20,16,4.416000,0
33.721920,17,21,17,5.056000,0
33.726976,18,22,18,0,958.400000
34.685376,18,23,18,5.696000,0
34.691072,19,24,19,4.416000,0
34.695488,20,25,20,5.056000,0
34.700544,21,26,21,5.696000,0
34.706240,22,27,22,0,962.176000
35.668416,22,28,22,4.416000,0
35.672832,23,29,23,5.056000,0
35.677888,24,30,24,5.696000,0
35.683584,25,31,25,4.416000,0
35.688000,26,32,26,5.056000,0
35.693056,27,33,27,0,958.400000
36.651456,27,34,27,5.696000,0
36.657152,28,35,28,4.416000,0
36.661568,29,36,29,5.056000,0
36.666624,30,37,30,5.696000,0
36.672320,31,38,31,0,962.176000
37.634496,31,39,31,4.416000,0
37.638912,32,40,32,5.056000,0
37.643968,33,41,33,5.696000,0
37.649664,34,42,34,4.416000,0
37.654080,35,43,35,5.056000,0
37.659136,36,44,36,0,958.400000
38.617536,36,45,36,5.696000,0
38.623232,37,46,37,4.416000,0
38.627648,38,47,38,5.056000,0
38.632704,39,48,39,5.696000,0
38.638400,40,49,40,0,962.176000
39.600576,40,50,40,4.416000,0
39.604992,41,51,41,5.056000,0
39.610048,42,52,42,5.696000,0
39.615744,43,53,43,4.416000,0
39.620160,44,54,44,5.056000,0
39.625216,45,55,45,0,958.400000
40.583616,45,56,45,5.696000,0
40.589312,46,57,46,4.416000,0
40.593728,47,58,47,5.056000,0
40.598784,48,59,48,5.696000,0
40.604480,49,60,49,0,962.176000
41.566656,49,61,49,4.416000,0
41.571072,50,62,50,5.056000,0
41.576128,51,63,51,5.696000,0
41.581824,52,64,52,4.416000,0
41.586240,53,65,53,5.056000,0
41.591296,54,66,54,0,958.400000
42.549696,54,67,54,5.696000,0
42.555392,55,68,55,4.416000,0
42.559808,56,69,56,5.056000,0
42.564864,57,70,57,5.696000,0
42.570560,58,71,58,0,962.176000
43.532736,58,72,58,4.416000,0
43.537152,59,73,59,5.056000,0
43.542208,60,74,60,5.696000,0
43.547904,61,75,61,0,3916.992000
47.464896,61,76,61,0,2949.120000
50.414016,61,77,61,0,2949.120000
53.363136,61,78,61,0,2949.120000
56.312256,61,79,61,0,2949.120000
59.261376,61,80,61,0,3932.160000
63.193536,61,81,61,0,2949.120000
66.142656,61,82,61,0,2949.120000
69.091776,61,83,61,0,2949.120000
72.040896,61,84,61,0,2949.120000
74.990016,61,85,61,0,2949.120000
77.939136,61,86,61,0,2949.120000
80.888256,61,87,61,0,2949.120000
83.837376,61,88,61,0,2949.120000
86.786496,61,89,61,0,3932.160000
90.718656,61,90,61,0,2949.120000
93.667776,61,91,61,0,2949.120000
96.616896,61,92,61,0,2949.120000
99.566016,61,93,61,0,2949.120000
102.515136,61,94,61,0,2949.120000
105.464256,61,95,61,0,3932.160000
109.396416,61,96,61,0,2949.120000
112.345536,61,97,61,0,2949.120000
115.294656,61,98,61,0,2949.120000
118.243776,61,99,61,0,3932.160000
122.175936,61,100,61,0,2949.120000
125.125056,61,101,61,0,2949.120000
128.074176,61,102,61,0,2949.120000
131.023296,61,103,61,0,2949.120000
133.972416,61,104,61,0,2949.120000
136.921536,61,105,61,0,2949.120000
139.870656,61,106,61,0,3932.160000
143.802816,61,107,61,0,2949.120000
146.751936,61,108,61,0,2949.120000
149.701056,61,109,61,0,2949.120000
152.650176,61,110,61,0,2949.120000
155.599296,61,111,61,0,3932.160000
159.531456,61,112,61,0,2949.120000
162.480576,61,113,61,0,2949.120000
165.429696,61,114,61,0,2949.120000
168.378816,61,115,61,0,3932.160000
172.310976,61,116,61,0,2949.120000
175.260096,61,117,61,0,2949.120000
178.209216,61,118,61,0,2949.120000
181.158336,61,119,61,0,2949.120000
184.107456,61,120,61,0,3932.160000
188.039616,61,121,61,0,2949.120000
190.988736,61,122,61,0,2949.120000
193.937856,61,123,61,0,2949.120000
196.886976,61,124,61,0,2949.120000
199.836096,61,125,61,0,3932.160000
203.768256,61,126,61,0,2949.120000
206.717376,61,127,61,0,2949.120000
209.666496,61,128,61,0,2949.120000
212.615616,61,129,61,0,2949.120000
215.564736,61,130,61,0,2949.120000
218.513856,61,131,61,0,3932.160000
222.446016,61,132,61,0,2949.120000
225.395136,61,133,61,0,2949.120000
228.344256,61,134,61,0,2949.120000
231.293376,61,135,61,0,2949.120000
