Time,CovertPackets,AllPackets,BitsSent,PacketInterval,GTSInterval
30.127232,1,2,1,0,487.744000
30.614976,1,3,1,4.416000,0
30.619392,2,4,2,5.056000,0
30.624448,3,5,3,0,482.048000
31.106496,3,6,3,5.696000,0
31.112192,4,7,4,0,485.824000
31.598016,4,8,4,4.416000,0
31.602432,5,9,5,5.056000,0
31.607488,6,10,6,0,482.048000
32.089536,6,11,6,5.696000,0
32.095232,7,12,7,0,485.824000
32.581056,7,13,7,4.416000,0
32.585472,8,14,8,5.056000,0
32.590528,9,15,9,0,482.048000
33.072576,9,16,9,5.696000,0
33.078272,10,17,10,0,485.824000
33.564096,10,18,10,4.416000,0
33.568512,11,19,11,5.056000,0
33.573568,12,20,12,0,482.048000
34.055616,12,21,12,5.696000,0
34.061312,13,22,13,0,485.824000
34.547136,13,23,13,4.416000,0
34.551552,14,24,14,5.056000,0
34.556608,15,25,15,0,482.048000
35.038656,15,26,15,5.696000,0
35.044352,16,27,16,0,485.824000
35.530176,16,28,16,4.416000,0
35.534592,17,29,17,5.056000,0
35.539648,18,30,18,0,482.048000
36.021696,18,31,18,5.696000,0
36.027392,19,32,19,0,485.824000
36.513216,19,33,19,4.416000,0
36.517632,20,34,20,5.056000,0
36.522688,21,35,21,0,482.048000
37.004736,21,36,21,5.696000,0
37.010432,22,37,22,0,485.824000
37.496256,22,38,22,4.416000,0
37.500672,23,39,23,5.056000,0
37.505728,24,40,24,0,482.048000
37.987776,24,41,24,5.696000,0
37.993472,25,42,25,0,485.824000
38.479296,25,43,25,4.416000,0
38.483712,26,44,26,5.056000,0
38.488768,27,45,27,0,482.048000
38.970816,27,46,27,5.696000,0
38.976512,28,47,28,0,485.824000
39.462336,28,48,28,4.416000,0
39.466752,29,49,29,5.056000,0
39.471808,30,50,30,0,482.048000
39.953856,30,51,30,5.696000,0
39.959552,31,52,31,0,485.824000
40.445376,31,53,31,4.416000,0
40.449792,32,54,32,5.056000,0
40.454848,33,55,33,0,482.048000
40.936896,33,56,33,5.696000,0
40.942592,34,57,34,0,485.824000
41.428416,34,58,34,4.416000,0
41.432832,35,59,35,5.056000,0
41.437888,36,60,36,0,482.048000
41.919936,36,61,36,5.696000,0
41.925632,37,62,37,0,485.824000
42.411456,37,63,37,4.416000,0
42.415872,38,64,38,5.056000,0
42.420928,39,65,39,0,482.048000
42.902976,39,66,39,5.696000,0
42.908672,40,67,40,0,485.824000
43.394496,40,68,40,4.416000,0
43.398912,41,69,41,5.056000,0
43.403968,42,70,42,0,482.048000
43.886016,42,71,42,5.696000,0
43.891712,43,72,43,0,485.824000
44.377536,43,73,43,4.416000,0
44.381952,44,74,44,5.056000,0
44.387008,45,75,45,0,482.048000
44.869056,45,76,45,5.696000,0
44.874752,46,77,46,0,485.824000
45.360576,46,78,46,4.416000,0
45.364992,47,79,47,5.056000,0
45.370048,48,80,48,0,482.048000
45.852096,48,81,48,5.696000,0
45.857792,49,82,49,0,485.824000
46.343616,49,83,49,4.416000,0
46.348032,50,84,50,5.056000,0
46.353088,51,85,51,0,482.048000
46.835136,51,86,51,5.696000,0
46.840832,52,87,52,0,485.824000
47.326656,52,88,52,4.416000,0
47.331072,53,89,53,5.056000,0
47.336128,54,90,54,0,482.048000
47.818176,54,91,54,5.696000,0
47.823872,55,92,55,0,485.824000
48.309696,55,93,55,4.416000,0
48.314112,56,94,56,5.056000,0
48.319168,57,95,57,0,482.048000
48.801216,57,96,57,5.696000,0
48.806912,58,97,58,0,485.824000
49.292736,58,98,58,4.416000,0
49.297152,59,99,59,5.056000,0
49.302208,60,100,60,0,482.048000
49.784256,60,101,60,5.696000,0
49.789952,61,102,61,0,485.824000
50.275776,61,103,61,4.416000,0
50.280192,62,104,62,5.056000,0
50.285248,63,105,63,0,482.048000
50.767296,63,106,63,5.696000,0
50.772992,64,107,64,0,485.824000
51.258816,64,108,64,4.416000,0
51.263232,65,109,65,5.056000,0
51.268288,66,110,66,0,482.048000
51.750336,66,111,66,5.696000,0
51.756032,67,112,67,0,485.824000
52.241856,67,113,67,4.416000,0
52.246272,68,114,68,5.056000,0
52.251328,69,115,69,0,482.048000
52.733376,69,116,69,5.696000,0
52.739072,70,117,70,0,485.824000
53.224896,70,118,70,4.416000,0
53.229312,71,119,71,5.056000,0
53.234368,72,120,72,0,482.048000
53.716416,72,121,72,5.696000,0
53.722112,73,122,73,0,485.824000
54.207936,73,123,73,4.416000,0
54.212352,74,124,74,5.056000,0
54.217408,75,125,75,0,482.048000
54.699456,75,126,75,5.696000,0
54.705152,76,127,76,0,485.824000
55.190976,76,128,76,4.416000,0
55.195392,77,129,77,5.056000,0
55.200448,78,130,78,0,482.048000
55.682496,78,131,78,5.696000,0
55.688192,79,132,79,0,485.824000
56.174016,79,133,79,4.416000,0
56.178432,80,134,80,5.056000,0
56.183488,81,135,81,0,482.048000
56.665536,81,136,81,5.696000,0
56.671232,82,137,82,0,485.824000
57.157056,82,138,82,4.416000,0
57.161472,83,139,83,5.056000,0
57.166528,84,140,84,0,482.048000
57.648576,84,141,84,5.696000,0
57.654272,85,142,85,0,485.824000
58.140096,85,143,85,4.416000,0
58.144512,86,144,86,5.056000,0
58.149568,87,145,87,0,482.048000
58.631616,87,146,87,5.696000,0
58.637312,88,147,88,0,485.824000
59.123136,88,148,88,4.416000,0
59.127552,89,149,89,5.056000,0
59.132608,90,150,90,0,482.048000
59.614656,90,151,90,5.696000,0
59.620352,91,152,91,0,485.824000
60.106176,91,153,91,4.416000,0
60.110592,92,154,92,5.056000,0
60.115648,93,155,93,0,482.048000
60.597696,93,156,93,5.696000,0
60.603392,94,157,94,0,485.824000
61.089216,94,158,94,4.416000,0
61.093632,95,159,95,5.056000,0
61.098688,96,160,96,0,482.048000
61.580736,96,161,96,5.696000,0
61.586432,97,162,97,0,485.824000
62.072256,97,163,97,4.416000,0
62.076672,98,164,98,5.056000,0
62.081728,99,165,99,0,482.048000
62.563776,99,166,99,5.696000,0
62.569472,100,167,100,0,485.824000
63.055296,100,168,100,4.416000,0
63.059712,101,169,101,5.056000,0
63.064768,102,170,102,0,482.048000
63.546816,102,171,102,5.696000,0
63.552512,103,172,103,0,485.824000
64.038336,103,173,103,4.416000,0
64.042752,104,174,104,5.056000,0
64.047808,105,175,105,0,482.048000
64.529856,105,176,105,5.696000,0
64.535552,106,177,106,0,485.824000
65.021376,106,178,106,4.416000,0
65.025792,107,179,107,5.056000,0
65.030848,108,180,108,0,482.048000
65.512896,108,181,108,5.696000,0
65.518592,109,182,109,0,485.824000
66.004416,109,183,109,4.416000,0
66.008832,110,184,110,5.056000,0
66.013888,111,185,111,0,482.048000
66.495936,111,186,111,5.696000,0
66.501632,112,187,112,0,485.824000
66.987456,112,188,112,4.416000,0
66.991872,113,189,113,5.056000,0
66.996928,114,190,114,0,482.048000
67.478976,114,191,114,5.696000,0
67.484672,115,192,115,0,485.824000
67.970496,115,193,115,4.416000,0
67.974912,116,194,116,5.056000,0
67.979968,117,195,117,0,482.048000
68.462016,117,196,117,5.696000,0
68.467712,118,197,118,0,485.824000
68.953536,118,198,118,4.416000,0
68.957952,119,199,119,5.056000,0
68.963008,120,200,120,0,482.048000
69.445056,120,201,120,5.696000,0
69.450752,121,202,121,0,485.824000
69.936576,121,203,121,4.416000,0
69.940992,122,204,122,5.056000,0
69.946048,123,205,123,0,482.048000
70.428096,123,206,123,5.696000,0
70.433792,124,207,124,0,485.824000
70.919616,124,208,124,4.416000,0
70.924032,125,209,125,5.056000,0
70.929088,126,210,126,0,482.048000
71.411136,126,211,126,5.696000,0
71.416832,127,212,127,0,485.824000
71.902656,127,213,127,4.416000,0
71.907072,128,214,128,5.056000,0
71.912128,129,215,129,0,482.048000
72.394176,129,216,129,5.696000,0
72.399872,130,217,130,0,485.824000
72.885696,130,218,130,4.416000,0
72.890112,131,219,131,5.056000,0
72.895168,132,220,132,0,482.048000
73.377216,132,221,132,5.696000,0
73.382912,133,222,133,0,485.824000
73.868736,133,223,133,4.416000,0
73.873152,134,224,134,5.056000,0
73.878208,135,225,135,0,482.048000
74.360256,135,226,135,5.696000,0
74.365952,136,227,136,0,485.824000
74.851776,136,228,136,4.416000,0
74.856192,137,229,137,5.056000,0
74.861248,138,230,138,0,482.048000
75.343296,138,231,138,5.696000,0
75.348992,139,232,139,0,485.824000
75.834816,139,233,139,4.416000,0
75.839232,140,234,140,5.056000,0
75.844288,141,235,141,0,482.048000
76.326336,141,236,141,5.696000,0
76.332032,142,237,142,0,485.824000
76.817856,142,238,142,4.416000,0
76.822272,143,239,143,5.056000,0
76.827328,144,240,144,0,482.048000
77.309376,144,241,144,5.696000,0
77.315072,145,242,145,0,485.824000
77.800896,145,243,145,4.416000,0
77.805312,146,244,146,5.056000,0
77.810368,147,245,147,0,482.048000
78.292416,147,246,147,5.696000,0
78.298112,148,247,148,0,485.824000
78.783936,148,248,148,4.416000,0
78.788352,149,249,149,5.056000,0
78.793408,150,250,150,0,482.048000
79.275456,150,251,150,5.696000,0
79.281152,151,252,151,0,485.824000
79.766976,151,253,151,4.416000,0
79.771392,152,254,152,5.056000,0
79.776448,153,255,153,0,482.048000
80.258496,153,256,153,5.696000,0
80.264192,154,257,154,0,485.824000
80.750016,154,258,154,4.416000,0
80.754432,155,259,155,5.056000,0
80.759488,156,260,156,0,482.048000
81.241536,156,261,156,5.696000,0
81.247232,157,262,157,0,485.824000
81.733056,157,263,157,4.416000,0
81.737472,158,264,158,5.056000,0
81.742528,159,265,159,0,482.048000
82.224576,159,266,159,5.696000,0
82.230272,160,267,160,0,485.824000
82.716096,160,268,160,4.416000,0
82.720512,161,269,161,5.056000,0
82.725568,162,270,162,0,482.048000
83.207616,162,271,162,5.696000,0
83.213312,163,272,163,0,485.824000
83.699136,163,273,163,4.416000,0
83.703552,164,274,164,5.056000,0
83.708608,165,275,165,0,482.048000
84.190656,165,276,165,5.696000,0
84.196352,166,277,166,0,485.824000
84.682176,166,278,166,4.416000,0
84.686592,167,279,167,5.056000,0
84.691648,168,280,168,0,482.048000
85.173696,168,281,168,5.696000,0
85.179392,169,282,169,0,485.824000
85.665216,169,283,169,4.416000,0
85.669632,170,284,170,5.056000,0
85.674688,171,285,171,0,482.048000
86.156736,171,286,171,5.696000,0
86.162432,172,287,172,0,485.824000
86.648256,172,288,172,4.416000,0
86.652672,173,289,173,5.056000,0
86.657728,174,290,174,0,482.048000
87.139776,174,291,174,5.696000,0
87.145472,175,292,175,0,485.824000
87.631296,175,293,175,4.416000,0
87.635712,176,294,176,5.056000,0
87.640768,177,295,177,0,482.048000
88.122816,177,296,177,5.696000,0
88.128512,178,297,178,0,485.824000
88.614336,178,298,178,4.416000,0
88.618752,179,299,179,5.056000,0
88.623808,180,300,180,0,482.048000
89.105856,180,301,180,5.696000,0
89.111552,181,302,181,0,485.824000
89.597376,181,303,181,4.416000,0
89.601792,182,304,182,5.056000,0
89.606848,183,305,183,0,482.048000
90.088896,183,306,183,5.696000,0
90.094592,184,307,184,0,485.824000
90.580416,184,308,184,4.416000,0
90.584832,185,309,185,5.056000,0
90.589888,186,310,186,0,482.048000
91.071936,186,311,186,5.696000,0
91.077632,187,312,187,0,485.824000
91.563456,187,313,187,4.416000,0
91.567872,188,314,188,5.056000,0
91.572928,189,315,189,0,482.048000
92.054976,189,316,189,5.696000,0
92.060672,190,317,190,0,485.824000
92.546496,190,318,190,4.416000,0
92.550912,191,319,191,5.056000,0
92.555968,192,320,192,0,482.048000
93.038016,192,321,192,5.696000,0
93.043712,193,322,193,0,485.824000
93.529536,193,323,193,4.416000,0
93.533952,194,324,194,5.056000,0
93.539008,195,325,195,0,482.048000
94.021056,195,326,195,5.696000,0
94.026752,196,327,196,0,485.824000
94.512576,196,328,196,4.416000,0
94.516992,197,329,197,5.056000,0
94.522048,198,330,198,0,482.048000
95.004096,198,331,198,5.696000,0
95.009792,199,332,199,0,485.824000
95.495616,199,333,199,4.416000,0
95.500032,200,334,200,5.056000,0
95.505088,201,335,201,0,482.048000
95.987136,201,336,201,5.696000,0
95.992832,202,337,202,0,485.824000
96.478656,202,338,202,4.416000,0
96.483072,203,339,203,5.056000,0
96.488128,204,340,204,0,482.048000
96.970176,204,341,204,5.696000,0
96.975872,205,342,205,0,485.824000
97.461696,205,343,205,4.416000,0
97.466112,206,344,206,5.056000,0
97.471168,207,345,207,0,482.048000
97.953216,207,346,207,5.696000,0
97.958912,208,347,208,0,485.824000
98.444736,208,348,208,4.416000,0
98.449152,209,349,209,5.056000,0
98.454208,210,350,210,0,482.048000
98.936256,210,351,210,5.696000,0
98.941952,211,352,211,0,485.824000
99.427776,211,353,211,4.416000,0
99.432192,212,354,212,5.056000,0
99.437248,213,355,213,0,482.048000
99.919296,213,356,213,5.696000,0
99.924992,214,357,214,0,485.824000
100.410816,214,358,214,4.416000,0
100.415232,215,359,215,5.056000,0
100.420288,216,360,216,0,482.048000
100.902336,216,361,216,5.696000,0
100.908032,217,362,217,0,485.824000
101.393856,217,363,217,4.416000,0
101.398272,218,364,218,5.056000,0
101.403328,219,365,219,0,482.048000
101.885376,219,366,219,5.696000,0
101.891072,220,367,220,0,485.824000
102.376896,220,368,220,4.416000,0
102.381312,221,369,221,5.056000,0
102.386368,222,370,222,0,482.048000
102.868416,222,371,222,5.696000,0
102.874112,223,372,223,0,485.824000
103.359936,223,373,223,4.416000,0
103.364352,224,374,224,5.056000,0
103.369408,225,375,225,0,482.048000
103.851456,225,376,225,5.696000,0
103.857152,226,377,226,0,485.824000
104.342976,226,378,226,4.416000,0
104.347392,227,379,227,5.056000,0
104.352448,228,380,228,0,482.048000
104.834496,228,381,228,5.696000,0
104.840192,229,382,229,0,485.824000
105.326016,229,383,229,4.416000,0
105.330432,230,384,230,5.056000,0
105.335488,231,385,231,0,482.048000
105.817536,231,386,231,5.696000,0
105.823232,232,387,232,0,485.824000
106.309056,232,388,232,4.416000,0
106.313472,233,389,233,5.056000,0
106.318528,234,390,234,0,482.048000
106.800576,234,391,234,5.696000,0
106.806272,235,392,235,0,485.824000
107.292096,235,393,235,4.416000,0
107.296512,236,394,236,5.056000,0
107.301568,237,395,237,0,482.048000
107.783616,237,396,237,5.696000,0
107.789312,238,397,238,0,485.824000
108.275136,238,398,238,4.416000,0
108.279552,239,399,239,5.056000,0
108.284608,240,400,240,0,482.048000
108.766656,240,401,240,5.696000,0
108.772352,241,402,241,0,485.824000
109.258176,241,403,241,4.416000,0
109.262592,242,404,242,5.056000,0
109.267648,243,405,243,0,482.048000
109.749696,243,406,243,5.696000,0
109.755392,244,407,244,0,485.824000
110.241216,244,408,244,4.416000,0
110.245632,245,409,245,5.056000,0
110.250688,246,410,246,0,482.048000
110.732736,246,411,246,5.696000,0
110.738432,247,412,247,0,485.824000
111.224256,247,413,247,4.416000,0
111.228672,248,414,248,5.056000,0
111.233728,249,415,249,0,482.048000
111.715776,249,416,249,5.696000,0
111.721472,250,417,250,0,485.824000
112.207296,250,418,250,4.416000,0
112.211712,251,419,251,5.056000,0
112.216768,252,420,252,0,482.048000
112.698816,252,421,252,5.696000,0
112.704512,253,422,253,0,485.824000
113.190336,253,423,253,4.416000,0
113.194752,254,424,254,5.056000,0
113.199808,255,425,255,0,482.048000
113.681856,255,426,255,5.696000,0
113.687552,256,427,256,0,485.824000
114.173376,256,428,256,4.416000,0
114.177792,257,429,257,5.056000,0
114.182848,258,430,258,0,482.048000
114.664896,258,431,258,5.696000,0
114.670592,259,432,259,0,485.824000
115.156416,259,433,259,4.416000,0
115.160832,260,434,260,5.056000,0
115.165888,261,435,261,0,482.048000
115.647936,261,436,261,5.696000,0
115.653632,262,437,262,0,485.824000
116.139456,262,438,262,4.416000,0
116.143872,263,439,263,5.056000,0
116.148928,264,440,264,0,482.048000
116.630976,264,441,264,5.696000,0
116.636672,265,442,265,0,485.824000
117.122496,265,443,265,4.416000,0
117.126912,266,444,266,5.056000,0
117.131968,267,445,267,0,482.048000
117.614016,267,446,267,5.696000,0
117.619712,268,447,268,0,485.824000
118.105536,268,448,268,4.416000,0
118.109952,269,449,269,5.056000,0
118.115008,270,450,270,0,482.048000
118.597056,270,451,270,5.696000,0
118.602752,271,452,271,0,485.824000
119.088576,271,453,271,4.416000,0
119.092992,272,454,272,5.056000,0
119.098048,273,455,273,0,482.048000
119.580096,273,456,273,5.696000,0
119.585792,274,457,274,0,485.824000
120.071616,274,458,274,4.416000,0
120.076032,275,459,275,5.056000,0
120.081088,276,460,276,0,482.048000
120.563136,276,461,276,5.696000,0
120.568832,277,462,277,0,485.824000
121.054656,277,463,277,4.416000,0
121.059072,278,464,278,5.056000,0
121.064128,279,465,279,0,482.048000
121.546176,279,466,279,5.696000,0
121.551872,280,467,280,0,485.824000
122.037696,280,468,280,4.416000,0
122.042112,281,469,281,5.056000,0
122.047168,282,470,282,0,482.048000
122.529216,282,471,282,5.696000,0
122.534912,283,472,283,0,485.824000
123.020736,283,473,283,4.416000,0
123.025152,284,474,284,5.056000,0
123.030208,285,475,285,0,482.048000
123.512256,285,476,285,5.696000,0
123.517952,286,477,286,0,485.824000
124.003776,286,478,286,4.416000,0
124.008192,287,479,287,5.056000,0
124.013248,288,480,288,0,482.048000
124.495296,288,481,288,5.696000,0
124.500992,289,482,289,0,485.824000
124.986816,289,483,289,4.416000,0
124.991232,290,484,290,5.056000,0
124.996288,291,485,291,0,482.048000
125.478336,291,486,291,5.696000,0
125.484032,292,487,292,0,485.824000
125.969856,292,488,292,4.416000,0
125.974272,293,489,293,5.056000,0
125.979328,294,490,294,0,482.048000
126.461376,294,491,294,5.696000,0
126.467072,295,492,295,0,485.824000
126.952896,295,493,295,4.416000,0
126.957312,296,494,296,5.056000,0
126.962368,297,495,297,0,482.048000
127.444416,297,496,297,5.696000,0
127.450112,298,497,298,0,485.824000
127.935936,298,498,298,4.416000,0
127.940352,299,499,299,5.056000,0
127.945408,300,500,300,0,482.048000
128.427456,300,501,300,5.696000,0
128.433152,301,502,301,0,485.824000
128.918976,301,503,301,4.416000,0
128.923392,302,504,302,5.056000,0
128.928448,303,505,303,0,482.048000
129.410496,303,506,303,5.696000,0
129.416192,304,507,304,0,485.824000
129.902016,304,508,304,4.416000,0
129.906432,305,509,305,5.056000,0
129.911488,306,510,306,0,482.048000
130.393536,306,511,306,5.696000,0
130.399232,307,512,307,0,485.824000
130.885056,307,513,307,4.416000,0
130.889472,308,514,308,5.056000,0
130.894528,309,515,309,0,482.048000
131.376576,309,516,309,5.696000,0
131.382272,310,517,310,0,485.824000
131.868096,310,518,310,4.416000,0
131.872512,311,519,311,5.056000,0
131.877568,312,520,312,0,482.048000
132.359616,312,521,312,5.696000,0
132.365312,313,522,313,0,485.824000
132.851136,313,523,313,4.416000,0
132.855552,314,524,314,5.056000,0
132.860608,315,525,315,0,482.048000
133.342656,315,526,315,5.696000,0
133.348352,316,527,316,0,485.824000
133.834176,316,528,316,4.416000,0
133.838592,317,529,317,5.056000,0
133.843648,318,530,318,0,482.048000
134.325696,318,531,318,5.696000,0
134.331392,319,532,319,0,485.824000
134.817216,319,533,319,4.416000,0
134.821632,320,534,320,5.056000,0
134.826688,321,535,321,0,482.048000
135.308736,321,536,321,5.696000,0
135.314432,322,537,322,0,485.824000
135.800256,322,538,322,4.416000,0
135.804672,323,539,323,5.056000,0
135.809728,324,540,324,0,482.048000
136.291776,324,541,324,5.696000,0
136.297472,325,542,325,0,485.824000
136.783296,325,543,325,4.416000,0
136.787712,326,544,326,5.056000,0
136.792768,327,545,327,0,482.048000
137.274816,327,546,327,5.696000,0
137.280512,328,547,328,0,485.824000
137.766336,328,548,328,4.416000,0
137.770752,329,549,329,5.056000,0
137.775808,330,550,330,0,482.048000
138.257856,330,551,330,5.696000,0
138.263552,331,552,331,0,485.824000
138.749376,331,553,331,4.416000,0
138.753792,332,554,332,5.056000,0
138.758848,333,555,333,0,482.048000
139.240896,333,556,333,5.696000,0
139.246592,334,557,334,0,485.824000
139.732416,334,558,334,4.416000,0
139.736832,335,559,335,5.056000,0
139.741888,336,560,336,0,482.048000
140.223936,336,561,336,5.696000,0
140.229632,337,562,337,0,485.824000
140.715456,337,563,337,4.416000,0
140.719872,338,564,338,5.056000,0
140.724928,339,565,339,0,482.048000
141.206976,339,566,339,5.696000,0
141.212672,340,567,340,0,485.824000
141.698496,340,568,340,4.416000,0
141.702912,341,569,341,5.056000,0
141.707968,342,570,342,0,482.048000
142.190016,342,571,342,5.696000,0
142.195712,343,572,343,0,485.824000
142.681536,343,573,343,4.416000,0
142.685952,344,574,344,5.056000,0
142.691008,345,575,345,0,482.048000
143.173056,345,576,345,5.696000,0
143.178752,346,577,346,0,485.824000
143.664576,346,578,346,4.416000,0
143.668992,347,579,347,5.056000,0
143.674048,348,580,348,0,482.048000
144.156096,348,581,348,5.696000,0
144.161792,349,582,349,0,485.824000
144.647616,349,583,349,4.416000,0
144.652032,350,584,350,5.056000,0
144.657088,351,585,351,0,482.048000
145.139136,351,586,351,5.696000,0
145.144832,352,587,352,0,485.824000
145.630656,352,588,352,4.416000,0
145.635072,353,589,353,5.056000,0
145.640128,354,590,354,0,482.048000
146.122176,354,591,354,5.696000,0
146.127872,355,592,355,0,485.824000
146.613696,355,593,355,4.416000,0
146.618112,356,594,356,5.056000,0
146.623168,357,595,357,0,482.048000
147.105216,357,596,357,5.696000,0
147.110912,358,597,358,0,485.824000
147.596736,358,598,358,4.416000,0
147.601152,359,599,359,5.056000,0
147.606208,360,600,360,0,482.048000
148.088256,360,601,360,5.696000,0
148.093952,361,602,361,0,485.824000
148.579776,361,603,361,4.416000,0
148.584192,362,604,362,5.056000,0
148.589248,363,605,363,0,482.048000
149.071296,363,606,363,5.696000,0
149.076992,364,607,364,0,485.824000
149.562816,364,608,364,4.416000,0
149.567232,365,609,365,0,487.104000
150.054336,365,610,365,5.056000,0
150.059392,366,611,366,0,486.464000
150.545856,366,612,366,0,491.520000
151.037376,366,613,366,5.696000,0
151.043072,367,614,367,0,485.824000
151.528896,367,615,367,0,491.520000
152.020416,367,616,367,4.416000,0
152.024832,368,617,368,5.056000,0
152.029888,369,618,369,0,482.048000
152.511936,369,619,369,5.696000,0
152.517632,370,620,370,0,485.824000
153.003456,370,621,370,4.416000,0
153.007872,371,622,371,5.056000,0
153.012928,372,623,372,0,482.048000
153.494976,372,624,372,5.696000,0
153.500672,373,625,373,0,485.824000
153.986496,373,626,373,4.416000,0
153.990912,374,627,374,5.056000,0
153.995968,375,628,375,0,482.048000
154.478016,375,629,375,5.696000,0
154.483712,376,630,376,0,485.824000
154.969536,376,631,376,4.416000,0
154.973952,377,632,377,5.056000,0
154.979008,378,633,378,0,482.048000
155.461056,378,634,378,5.696000,0
155.466752,379,635,379,0,485.824000
155.952576,379,636,379,4.416000,0
155.956992,380,637,380,5.056000,0
155.962048,381,638,381,0,482.048000
156.444096,381,639,381,5.696000,0
156.449792,382,640,382,0,485.824000
156.935616,382,641,382,4.416000,0
156.940032,383,642,383,5.056000,0
156.945088,384,643,384,0,482.048000
157.427136,384,644,384,5.696000,0
157.432832,385,645,385,0,485.824000
157.918656,385,646,385,4.416000,0
157.923072,386,647,386,5.056000,0
157.928128,387,648,387,0,482.048000
158.410176,387,649,387,5.696000,0
158.415872,388,650,388,0,485.824000
158.901696,388,651,388,4.416000,0
158.906112,389,652,389,5.056000,0
158.911168,390,653,390,0,482.048000
159.393216,390,654,390,5.696000,0
159.398912,391,655,391,0,485.824000
159.884736,391,656,391,4.416000,0
159.889152,392,657,392,5.056000,0
159.894208,393,658,393,0,482.048000
160.376256,393,659,393,5.696000,0
160.381952,394,660,394,0,485.824000
160.867776,394,661,394,4.416000,0
160.872192,395,662,395,5.056000,0
160.877248,396,663,396,0,482.048000
161.359296,396,664,396,5.696000,0
161.364992,397,665,397,0,485.824000
161.850816,397,666,397,4.416000,0
161.855232,398,667,398,5.056000,0
161.860288,399,668,399,0,482.048000
162.342336,399,669,399,5.696000,0
162.348032,400,670,400,0,485.824000
162.833856,400,671,400,4.416000,0
162.838272,401,672,401,5.056000,0
162.843328,402,673,402,0,482.048000
163.325376,402,674,402,5.696000,0
163.331072,403,675,403,0,485.824000
163.816896,403,676,403,4.416000,0
163.821312,404,677,404,5.056000,0
163.826368,405,678,405,0,482.048000
164.308416,405,679,405,5.696000,0
164.314112,406,680,406,0,485.824000
164.799936,406,681,406,4.416000,0
164.804352,407,682,407,5.056000,0
164.809408,408,683,408,0,482.048000
165.291456,408,684,408,5.696000,0
165.297152,409,685,409,0,485.824000
165.782976,409,686,409,4.416000,0
165.787392,410,687,410,5.056000,0
165.792448,411,688,411,0,482.048000
166.274496,411,689,411,5.696000,0
166.280192,412,690,412,0,485.824000
166.766016,412,691,412,4.416000,0
166.770432,413,692,413,5.056000,0
166.775488,414,693,414,0,482.048000
167.257536,414,694,414,5.696000,0
167.263232,415,695,415,0,485.824000
167.749056,415,696,415,4.416000,0
167.753472,416,697,416,5.056000,0
167.758528,417,698,417,0,482.048000
168.240576,417,699,417,5.696000,0
168.246272,418,700,418,0,485.824000
168.732096,418,701,418,0,491.520000
169.223616,418,702,418,0,491.520000
169.715136,418,703,418,4.416000,0
169.719552,419,704,419,0,487.104000
170.206656,419,705,419,5.056000,0
170.211712,420,706,420,0,486.464000
170.698176,420,707,420,5.696000,0
170.703872,421,708,421,0,485.824000
171.189696,421,709,421,4.416000,0
171.194112,422,710,422,5.056000,0
171.199168,423,711,423,0,482.048000
171.681216,423,712,423,5.696000,0
171.686912,424,713,424,0,485.824000
172.172736,424,714,424,4.416000,0
172.177152,425,715,425,5.056000,0
172.182208,426,716,426,0,482.048000
172.664256,426,717,426,5.696000,0
172.669952,427,718,427,0,485.824000
173.155776,427,719,427,4.416000,0
173.160192,428,720,428,5.056000,0
173.165248,429,721,429,0,482.048000
173.647296,429,722,429,5.696000,0
173.652992,430,723,430,0,485.824000
174.138816,430,724,430,4.416000,0
174.143232,431,725,431,5.056000,0
174.148288,432,726,432,0,482.048000
174.630336,432,727,432,5.696000,0
174.636032,433,728,433,0,485.824000
175.121856,433,729,433,4.416000,0
175.126272,434,730,434,5.056000,0
175.131328,435,731,435,0,482.048000
175.613376,435,732,435,5.696000,0
175.619072,436,733,436,0,485.824000
176.104896,436,734,436,4.416000,0
176.109312,437,735,437,5.056000,0
176.114368,438,736,438,0,482.048000
176.596416,438,737,438,5.696000,0
176.602112,439,738,439,0,485.824000
177.087936,439,739,439,4.416000,0
177.092352,440,740,440,5.056000,0
177.097408,441,741,441,0,482.048000
177.579456,441,742,441,5.696000,0
177.585152,442,743,442,0,485.824000
178.070976,442,744,442,4.416000,0
178.075392,443,745,443,5.056000,0
178.080448,444,746,444,0,482.048000
178.562496,444,747,444,5.696000,0
178.568192,445,748,445,0,485.824000
179.054016,445,749,445,4.416000,0
179.058432,446,750,446,5.056000,0
179.063488,447,751,447,0,482.048000
179.545536,447,752,447,5.696000,0
179.551232,448,753,448,0,485.824000
180.037056,448,754,448,4.416000,0
180.041472,449,755,449,5.056000,0
180.046528,450,756,450,0,482.048000
180.528576,450,757,450,5.696000,0
180.534272,451,758,451,0,485.824000
181.020096,451,759,451,4.416000,0
181.024512,452,760,452,5.056000,0
181.029568,453,761,453,0,482.048000
181.511616,453,762,453,5.696000,0
181.517312,454,763,454,0,485.824000
182.003136,454,764,454,4.416000,0
182.007552,455,765,455,5.056000,0
182.012608,456,766,456,0,482.048000
182.494656,456,767,456,5.696000,0
182.500352,457,768,457,0,485.824000
182.986176,457,769,457,4.416000,0
182.990592,458,770,458,5.056000,0
182.995648,459,771,459,0,482.048000
183.477696,459,772,459,5.696000,0
183.483392,460,773,460,0,485.824000
183.969216,460,774,460,4.416000,0
183.973632,461,775,461,5.056000,0
183.978688,462,776,462,0,482.048000
184.460736,462,777,462,5.696000,0
184.466432,463,778,463,0,485.824000
184.952256,463,779,463,4.416000,0
184.956672,464,780,464,5.056000,0
184.961728,465,781,465,0,482.048000
185.443776,465,782,465,5.696000,0
185.449472,466,783,466,0,485.824000
185.935296,466,784,466,4.416000,0
185.939712,467,785,467,5.056000,0
185.944768,468,786,468,0,482.048000
186.426816,468,787,468,5.696000,0
186.432512,469,788,469,0,485.824000
186.918336,469,789,469,4.416000,0
186.922752,470,790,470,5.056000,0
186.927808,471,791,471,0,482.048000
187.409856,471,792,471,5.696000,0
187.415552,472,793,472,0,485.824000
187.901376,472,794,472,4.416000,0
187.905792,473,795,473,5.056000,0
187.910848,474,796,474,0,482.048000
188.392896,474,797,474,5.696000,0
188.398592,475,798,475,0,485.824000
188.884416,475,799,475,4.416000,0
188.888832,476,800,476,5.056000,0
188.893888,477,801,477,0,482.048000
189.375936,477,802,477,5.696000,0
189.381632,478,803,478,0,485.824000
189.867456,478,804,478,4.416000,0
189.871872,479,805,479,5.056000,0
189.876928,480,806,480,0,482.048000
190.358976,480,807,480,5.696000,0
190.364672,481,808,481,0,485.824000
190.850496,481,809,481,4.416000,0
190.854912,482,810,482,5.056000,0
190.859968,483,811,483,0,482.048000
191.342016,483,812,483,5.696000,0
191.347712,484,813,484,0,485.824000
191.833536,484,814,484,4.416000,0
191.837952,485,815,485,5.056000,0
191.843008,486,816,486,0,482.048000
192.325056,486,817,486,5.696000,0
192.330752,487,818,487,0,485.824000
192.816576,487,819,487,4.416000,0
192.820992,488,820,488,5.056000,0
192.826048,489,821,489,0,482.048000
193.308096,489,822,489,5.696000,0
193.313792,490,823,490,0,485.824000
193.799616,490,824,490,4.416000,0
193.804032,491,825,491,5.056000,0
193.809088,492,826,492,0,482.048000
194.291136,492,827,492,5.696000,0
194.296832,493,828,493,0,485.824000
194.782656,493,829,493,4.416000,0
194.787072,494,830,494,5.056000,0
194.792128,495,831,495,0,482.048000
195.274176,495,832,495,5.696000,0
195.279872,496,833,496,0,485.824000
195.765696,496,834,496,4.416000,0
195.770112,497,835,497,0,487.104000
196.257216,497,836,497,5.056000,0
196.262272,498,837,498,0,486.464000
196.748736,498,838,498,5.696000,0
196.754432,499,839,499,0,485.824000
197.240256,499,840,499,4.416000,0
197.244672,500,841,500,5.056000,0
197.249728,501,842,501,0,482.048000
197.731776,501,843,501,5.696000,0
197.737472,502,844,502,0,485.824000
198.223296,502,845,502,4.416000,0
198.227712,503,846,503,5.056000,0
198.232768,504,847,504,0,482.048000
198.714816,504,848,504,5.696000,0
198.720512,505,849,505,0,485.824000
199.206336,505,850,505,4.416000,0
199.210752,506,851,506,5.056000,0
199.215808,507,852,507,0,482.048000
199.697856,507,853,507,5.696000,0
199.703552,508,854,508,0,485.824000
200.189376,508,855,508,4.416000,0
200.193792,509,856,509,5.056000,0
200.198848,510,857,510,0,482.048000
200.680896,510,858,510,5.696000,0
200.686592,511,859,511,0,485.824000
201.172416,511,860,511,4.416000,0
201.176832,512,861,512,5.056000,0
201.181888,513,862,513,0,482.048000
201.663936,513,863,513,5.696000,0
201.669632,514,864,514,0,485.824000
202.155456,514,865,514,4.416000,0
202.159872,515,866,515,5.056000,0
202.164928,516,867,516,0,482.048000
202.646976,516,868,516,5.696000,0
202.652672,517,869,517,0,485.824000
203.138496,517,870,517,4.416000,0
203.142912,518,871,518,5.056000,0
203.147968,519,872,519,0,482.048000
203.630016,519,873,519,5.696000,0
203.635712,520,874,520,0,485.824000
204.121536,520,875,520,4.416000,0
204.125952,521,876,521,5.056000,0
204.131008,522,877,522,0,482.048000
204.613056,522,878,522,5.696000,0
204.618752,523,879,523,0,485.824000
205.104576,523,880,523,4.416000,0
205.108992,524,881,524,5.056000,0
205.114048,525,882,525,0,482.048000
205.596096,525,883,525,5.696000,0
205.601792,526,884,526,0,485.824000
206.087616,526,885,526,4.416000,0
206.092032,527,886,527,5.056000,0
206.097088,528,887,528,0,482.048000
206.579136,528,888,528,5.696000,0
206.584832,529,889,529,0,485.824000
207.070656,529,890,529,4.416000,0
207.075072,530,891,530,5.056000,0
207.080128,531,892,531,0,482.048000
207.562176,531,893,531,5.696000,0
207.567872,532,894,532,0,485.824000
208.053696,532,895,532,4.416000,0
208.058112,533,896,533,5.056000,0
208.063168,534,897,534,0,482.048000
208.545216,534,898,534,5.696000,0
208.550912,535,899,535,0,485.824000
209.036736,535,900,535,4.416000,0
209.041152,536,901,536,5.056000,0
209.046208,537,902,537,0,482.048000
209.528256,537,903,537,5.696000,0
209.533952,538,904,538,0,485.824000
210.019776,538,905,538,4.416000,0
210.024192,539,906,539,5.056000,0
210.029248,540,907,540,0,482.048000
210.511296,540,908,540,5.696000,0
210.516992,541,909,541,0,485.824000
211.002816,541,910,541,4.416000,0
211.007232,542,911,542,5.056000,0
211.012288,543,912,543,0,482.048000
211.494336,543,913,543,5.696000,0
211.500032,544,914,544,0,485.824000
211.985856,544,915,544,4.416000,0
211.990272,545,916,545,5.056000,0
211.995328,546,917,546,0,482.048000
212.477376,546,918,546,5.696000,0
212.483072,547,919,547,0,485.824000
212.968896,547,920,547,4.416000,0
212.973312,548,921,548,5.056000,0
212.978368,549,922,549,0,482.048000
213.460416,549,923,549,5.696000,0
213.466112,550,924,550,0,485.824000
213.951936,550,925,550,4.416000,0
213.956352,551,926,551,5.056000,0
213.961408,552,927,552,0,482.048000
214.443456,552,928,552,5.696000,0
214.449152,553,929,553,0,485.824000
214.934976,553,930,553,4.416000,0
214.939392,554,931,554,5.056000,0
214.944448,555,932,555,0,482.048000
215.426496,555,933,555,5.696000,0
215.432192,556,934,556,0,485.824000
215.918016,556,935,556,4.416000,0
215.922432,557,936,557,5.056000,0
215.927488,558,937,558,0,482.048000
216.409536,558,938,558,5.696000,0
216.415232,559,939,559,0,485.824000
216.901056,559,940,559,4.416000,0
216.905472,560,941,560,5.056000,0
216.910528,561,942,561,0,482.048000
217.392576,561,943,561,5.696000,0
217.398272,562,944,562,0,485.824000
217.884096,562,945,562,4.416000,0
217.888512,563,946,563,5.056000,0
217.893568,564,947,564,0,482.048000
218.375616,564,948,564,5.696000,0
218.381312,565,949,565,0,485.824000
218.867136,565,950,565,4.416000,0
218.871552,566,951,566,5.056000,0
218.876608,567,952,567,0,482.048000
219.358656,567,953,567,5.696000,0
219.364352,568,954,568,0,485.824000
219.850176,568,955,568,4.416000,0
219.854592,569,956,569,5.056000,0
219.859648,570,957,570,0,482.048000
220.341696,570,958,570,5.696000,0
220.347392,571,959,571,0,485.824000
220.833216,571,960,571,4.416000,0
220.837632,572,961,572,5.056000,0
220.842688,573,962,573,0,482.048000
221.324736,573,963,573,5.696000,0
221.330432,574,964,574,0,485.824000
221.816256,574,965,574,4.416000,0
221.820672,575,966,575,5.056000,0
221.825728,576,967,576,0,482.048000
222.307776,576,968,576,5.696000,0
222.313472,577,969,577,0,485.824000
222.799296,577,970,577,4.416000,0
222.803712,578,971,578,5.056000,0
222.808768,579,972,579,0,482.048000
223.290816,579,973,579,5.696000,0
223.296512,580,974,580,0,485.824000
223.782336,580,975,580,4.416000,0
223.786752,581,976,581,5.056000,0
223.791808,582,977,582,0,482.048000
224.273856,582,978,582,5.696000,0
224.279552,583,979,583,0,485.824000
224.765376,583,980,583,4.416000,0
224.769792,584,981,584,5.056000,0
224.774848,585,982,585,0,482.048000
225.256896,585,983,585,5.696000,0
225.262592,586,984,586,0,485.824000
225.748416,586,985,586,4.416000,0
225.752832,587,986,587,5.056000,0
225.757888,588,987,588,0,482.048000
226.239936,588,988,588,5.696000,0
226.245632,589,989,589,0,485.824000
226.731456,589,990,589,4.416000,0
226.735872,590,991,590,5.056000,0
226.740928,591,992,591,0,482.048000
227.222976,591,993,591,5.696000,0
227.228672,592,994,592,0,485.824000
227.714496,592,995,592,4.416000,0
227.718912,593,996,593,5.056000,0
227.723968,594,997,594,0,482.048000
228.206016,594,998,594,5.696000,0
228.211712,595,999,595,0,485.824000
228.697536,595,1000,595,4.416000,0
228.701952,596,1001,596,5.056000,0
228.707008,597,1002,597,0,482.048000
229.189056,597,1003,597,5.696000,0
229.194752,598,1004,598,0,485.824000
229.680576,598,1005,598,4.416000,0
229.684992,599,1006,599,5.056000,0
229.690048,600,1007,600,0,482.048000
230.172096,600,1008,600,5.696000,0
230.177792,601,1009,601,0,485.824000
