Time,CovertPackets,AllPackets,BitsSent,PacketInterval,GTSInterval
32.569472,1,2,1,4.416000,0
32.573888,2,3,2,5.056000,0
32.578944,3,4,3,5.696000,0
32.584640,4,5,4,4.416000,0
32.589056,5,6,5,5.056000,0
32.594112,6,7,6,5.696000,0
32.599808,7,8,7,4.416000,0
32.604224,8,9,8,5.056000,0
32.609280,9,10,9,5.696000,0
32.614976,10,11,10,4.416000,0
32.619392,11,12,11,0,3878.464000
36.497856,11,13,11,5.056000,0
36.502912,12,14,12,5.696000,0
36.508608,13,15,13,4.416000,0
36.513024,14,16,14,5.056000,0
36.518080,15,17,15,5.696000,0
36.523776,16,18,16,4.416000,0
36.528192,17,19,17,5.056000,0
36.533248,18,20,18,5.696000,0
36.538944,19,21,19,4.416000,0
36.543360,20,22,20,5.056000,0
36.548416,21,23,21,5.696000,0
36.554112,22,24,22,4.416000,0
36.558528,23,25,23,5.056000,0
36.563584,24,26,24,5.696000,0
36.569280,25,27,25,4.416000,0
36.573696,26,28,26,5.056000,0
36.578752,27,29,27,5.696000,0
36.584448,28,30,28,4.416000,0
36.588864,29,31,29,5.056000,0
36.593920,30,32,30,5.696000,0
36.599616,31,33,31,4.416000,0
36.604032,32,34,32,5.056000,0
36.609088,33,35,33,5.696000,0
36.614784,34,36,34,0,3815.232000
40.430016,34,37,34,4.416000,0
40.434432,35,38,35,5.056000,0
40.439488,36,39,36,5.696000,0
40.445184,37,40,37,4.416000,0
40.449600,38,41,38,5.056000,0
40.454656,39,42,39,5.696000,0
40.460352,40,43,40,4.416000,0
40.464768,41,44,41,5.056000,0
40.469824,42,45,42,5.696000,0
40.475520,43,46,43,4.416000,0
40.479936,44,47,44,5.056000,0
40.484992,45,48,45,5.696000,0
40.490688,46,49,46,4.416000,0
40.495104,47,50,47,5.056000,0
40.500160,48,51,48,5.696000,0
40.505856,49,52,49,4.416000,0
40.510272,50,53,50,5.056000,0
40.515328,51,54,51,5.696000,0
40.521024,52,55,52,4.416000,0
40.525440,53,56,53,5.056000,0
40.530496,54,57,54,5.696000,0
40.536192,55,58,55,0,3825.984000
44.362176,55,59,55,4.416000,0
44.366592,56,60,56,0,3927.744000
48.294336,56,61,56,5.056000,0
48.299392,57,62,57,0,3927.104000
52.226496,57,63,57,0,3932.160000
56.158656,57,64,57,5.696000,0
56.164352,58,65,58,0,3926.464000
60.090816,58,66,58,4.416000,0
60.095232,59,67,59,0,3927.744000
64.022976,59,68,59,5.056000,0
64.028032,60,69,60,0,3927.104000
67.955136,60,70,60,5.696000,0
67.960832,61,71,61,0,3926.464000
71.887296,61,72,61,4.416000,0
71.891712,62,73,62,0,3927.744000
75.819456,62,74,62,5.056000,0
75.824512,63,75,63,0,3927.104000
79.751616,63,76,63,0,3932.160000
83.683776,63,77,63,5.696000,0
83.689472,64,78,64,0,3926.464000
87.615936,64,79,64,4.416000,0
87.620352,65,80,65,0,3927.744000
91.548096,65,81,65,5.056000,0
91.553152,66,82,66,0,3927.104000
95.480256,66,83,66,5.696000,0
95.485952,67,84,67,0,3926.464000
99.412416,67,85,67,4.416000,0
99.416832,68,86,68,0,3927.744000
103.344576,68,87,68,5.056000,0
103.349632,69,88,69,0,3927.104000
107.276736,69,89,69,0,3932.160000
111.208896,69,90,69,5.696000,0
111.214592,70,91,70,0,3926.464000
115.141056,70,92,70,4.416000,0
115.145472,71,93,71,0,3927.744000
119.073216,71,94,71,5.056000,0
119.078272,72,95,72,0,3927.104000
123.005376,72,96,72,5.696000,0
123.011072,73,97,73,0,3926.464000
126.937536,73,98,73,4.416000,0
126.941952,74,99,74,0,3927.744000
130.869696,74,100,74,5.056000,0
130.874752,75,101,75,0,3927.104000
134.801856,75,102,75,5.696000,0
134.807552,76,103,76,0,3926.464000
138.734016,76,104,76,0,3932.160000
142.666176,76,105,76,4.416000,0
142.670592,77,106,77,0,3927.744000
146.598336,77,107,77,5.056000,0
146.603392,78,108,78,0,3927.104000
150.530496,78,109,78,5.696000,0
150.536192,79,110,79,0,3926.464000
154.462656,79,111,79,4.416000,0
154.467072,80,112,80,0,3927.744000
158.394816,80,113,80,5.056000,0
158.399872,81,114,81,0,3927.104000
162.326976,81,115,81,5.696000,0
162.332672,82,116,82,0,3926.464000
166.259136,82,117,82,4.416000,0
166.263552,83,118,83,0,3927.744000
170.191296,83,119,83,5.056000,0
170.196352,84,120,84,0,3927.104000
174.123456,84,121,84,0,3932.160000
178.055616,84,122,84,5.696000,0
178.061312,85,123,85,0,3926.464000
181.987776,85,124,85,4.416000,0
181.992192,86,125,86,0,3927.744000
185.919936,86,126,86,5.056000,0
185.924992,87,127,87,0,3927.104000
189.852096,87,128,87,5.696000,0
189.857792,88,129,88,0,3926.464000
193.784256,88,130,88,4.416000,0
193.788672,89,131,89,0,3927.744000
197.716416,89,132,89,5.056000,0
197.721472,90,133,90,0,3927.104000
201.648576,90,134,90,5.696000,0
201.654272,91,135,91,0,3926.464000
205.580736,91,136,91,4.416000,0
205.585152,92,137,92,0,3927.744000
209.512896,92,138,92,0,3932.160000
213.445056,92,139,92,5.056000,0
213.450112,93,140,93,0,3927.104000
217.377216,93,141,93,5.696000,0
217.382912,94,142,94,0,3926.464000
221.309376,94,143,94,4.416000,0
221.313792,95,144,95,0,3927.744000
225.241536,95,145,95,5.056000,0
225.246592,96,146,96,0,3927.104000
229.173696,96,147,96,5.696000,0
229.179392,97,148,97,0,3926.464000
233.105856,97,149,97,4.416000,0
233.110272,98,150,98,0,3927.744000
