Time,CovertPackets,AllPackets,BitsSent,PacketInterval,GTSInterval
72.993216,0,2,0,5.696000,0
72.998912,1,3,1,4.416000,0
73.003328,2,4,2,5.056000,0
73.008384,3,5,3,0,7849.152000
80.857536,3,6,3,5.696000,0
80.863232,4,7,4,4.416000,0
80.867648,5,8,5,5.056000,0
80.872704,6,9,6,0,7849.152000
88.721856,6,10,6,5.696000,0
88.727552,7,11,7,4.416000,0
88.731968,8,12,8,5.056000,0
88.737024,9,13,9,0,7849.152000
96.586176,9,14,9,5.696000,0
96.591872,10,15,10,4.416000,0
96.596288,11,16,11,5.056000,0
96.601344,12,17,12,0,7849.152000
104.450496,12,18,12,5.696000,0
104.456192,13,19,13,4.416000,0
104.460608,14,20,14,0,7854.208000
112.314816,14,21,14,5.056000,0
112.319872,15,22,15,5.696000,0
112.325568,16,23,16,4.416000,0
112.329984,17,24,17,0,7849.152000
120.179136,17,25,17,5.056000,0
120.184192,18,26,18,5.696000,0
120.189888,19,27,19,4.416000,0
120.194304,20,28,20,0,7849.152000
128.043456,20,29,20,5.056000,0
128.048512,21,30,21,5.696000,0
128.054208,22,31,22,4.416000,0
128.058624,23,32,23,0,7849.152000
135.907776,23,33,23,5.056000,0
135.912832,24,34,24,5.696000,0
135.918528,25,35,25,0,7853.568000
143.772096,25,36,25,4.416000,0
143.776512,26,37,26,5.056000,0
143.781568,27,38,27,5.696000,0
143.787264,28,39,28,0,7849.152000
151.636416,28,40,28,4.416000,0
151.640832,29,41,29,5.056000,0
151.645888,30,42,30,5.696000,0
151.651584,31,43,31,0,7849.152000
159.500736,31,44,31,4.416000,0
159.505152,32,45,32,5.056000,0
159.510208,33,46,33,5.696000,0
159.515904,34,47,34,0,7849.152000
167.365056,34,48,34,4.416000,0
167.369472,35,49,35,5.056000,0
167.374528,36,50,36,5.696000,0
167.380224,37,51,37,0,7849.152000
175.229376,37,52,37,4.416000,0
175.233792,38,53,38,5.056000,0
175.238848,39,54,39,0,7854.848000
183.093696,39,55,39,5.696000,0
183.099392,40,56,40,4.416000,0
183.103808,41,57,41,5.056000,0
183.108864,42,58,42,0,7849.152000
190.958016,42,59,42,5.696000,0
190.963712,43,60,43,4.416000,0
190.968128,44,61,44,5.056000,0
190.973184,45,62,45,0,7849.152000
198.822336,45,63,45,5.696000,0
198.828032,46,64,46,4.416000,0
198.832448,47,65,47,5.056000,0
198.837504,48,66,48,0,7849.152000
206.686656,48,67,48,5.696000,0
206.692352,49,68,49,4.416000,0
206.696768,50,69,50,0,7854.208000
214.550976,50,70,50,5.056000,0
214.556032,51,71,51,5.696000,0
214.561728,52,72,52,4.416000,0
214.566144,53,73,53,0,7849.152000
222.415296,53,74,53,5.056000,0
222.420352,54,75,54,5.696000,0
222.426048,55,76,55,4.416000,0
222.430464,56,77,56,0,7849.152000
230.279616,56,78,56,5.056000,0
230.284672,57,79,57,5.696000,0
230.290368,58,80,58,0,7853.568000
238.143936,58,81,58,4.416000,0
238.148352,59,82,59,5.056000,0
238.153408,60,83,60,5.696000,0
238.159104,61,84,61,0,7849.152000
246.008256,61,85,61,4.416000,0
246.012672,62,86,62,5.056000,0
246.017728,63,87,63,5.696000,0
246.023424,64,88,64,0,7849.152000
253.872576,64,89,64,4.416000,0
253.876992,65,90,65,5.056000,0
253.882048,66,91,66,0,7854.848000
261.736896,66,92,66,5.696000,0
261.742592,67,93,67,4.416000,0
261.747008,68,94,68,5.056000,0
261.752064,69,95,69,0,7849.152000
269.601216,69,96,69,5.696000,0
269.606912,70,97,70,4.416000,0
269.611328,71,98,71,5.056000,0
269.616384,72,99,72,0,7849.152000
