Time,CovertPackets,AllPackets,BitsSent,PacketInterval,GTSInterval
30.127232,1,2,1,0,487.744000
30.614976,1,3,1,4.416000,0
30.619392,2,4,2,5.056000,0
30.624448,3,5,3,0,482.048000
31.106496,3,6,3,5.696000,0
31.112192,4,7,4,0,485.824000
31.598016,4,8,4,4.416000,0
31.602432,5,9,5,5.056000,0
31.607488,6,10,6,0,482.048000
32.089536,6,11,6,5.696000,0
32.095232,7,12,7,0,485.824000
32.581056,7,13,7,4.416000,0
32.585472,8,14,8,5.056000,0
32.590528,9,15,9,0,482.048000
33.072576,9,16,9,5.696000,0
33.078272,10,17,10,0,485.824000
33.564096,10,18,10,4.416000,0
33.568512,11,19,11,5.056000,0
33.573568,12,20,12,0,482.048000
34.055616,12,21,12,5.696000,0
34.061312,13,22,13,0,485.824000
34.547136,13,23,13,4.416000,0
34.551552,14,24,14,5.056000,0
34.556608,15,25,15,0,482.048000
35.038656,15,26,15,5.696000,0
35.044352,16,27,16,0,485.824000
35.530176,16,28,16,4.416000,0
35.534592,17,29,17,5.056000,0
35.539648,18,30,18,0,482.048000
36.021696,18,31,18,5.696000,0
36.027392,19,32,19,0,485.824000
36.513216,19,33,19,4.416000,0
36.517632,20,34,20,5.056000,0
36.522688,21,35,21,0,482.048000
37.004736,21,36,21,5.696000,0
37.010432,22,37,22,0,485.824000
37.496256,22,38,22,4.416000,0
37.500672,23,39,23,5.056000,0
37.505728,24,40,24,0,482.048000
37.987776,24,41,24,5.696000,0
37.993472,25,42,25,0,485.824000
38.479296,25,43,25,4.416000,0
38.483712,26,44,26,5.056000,0
38.488768,27,45,27,0,482.048000
38.970816,27,46,27,5.696000,0
38.976512,28,47,28,0,485.824000
39.462336,28,48,28,4.416000,0
39.466752,29,49,29,5.056000,0
39.471808,30,50,30,0,482.048000
39.953856,30,51,30,5.696000,0
39.959552,31,52,31,0,485.824000
40.445376,31,53,31,4.416000,0
40.449792,32,54,32,5.056000,0
40.454848,33,55,33,0,482.048000
40.936896,33,56,33,5.696000,0
40.942592,34,57,34,0,485.824000
41.428416,34,58,34,4.416000,0
41.432832,35,59,35,5.056000,0
41.437888,36,60,36,0,482.048000
41.919936,36,61,36,5.696000,0
41.925632,37,62,37,0,485.824000
42.411456,37,63,37,4.416000,0
42.415872,38,64,38,5.056000,0
42.420928,39,65,39,0,482.048000
42.902976,39,66,39,5.696000,0
42.908672,40,67,40,0,485.824000
43.394496,40,68,40,4.416000,0
43.398912,41,69,41,5.056000,0
43.403968,42,70,42,0,482.048000
43.886016,42,71,42,5.696000,0
43.891712,43,72,43,0,485.824000
44.377536,43,73,43,4.416000,0
44.381952,44,74,44,5.056000,0
44.387008,45,75,45,0,482.048000
44.869056,45,76,45,5.696000,0
44.874752,46,77,46,0,485.824000
45.360576,46,78,46,4.416000,0
45.364992,47,79,47,0,978.624000
46.343616,47,80,47,0,491.520000
46.835136,47,81,47,0,983.040000
47.818176,47,82,47,0,491.520000
48.309696,47,83,47,0,983.040000
49.292736,47,84,47,0,983.040000
50.275776,47,85,47,0,491.520000
50.767296,47,86,47,0,983.040000
51.750336,47,87,47,0,983.040000
52.733376,47,88,47,0,491.520000
53.224896,47,89,47,0,983.040000
54.207936,47,90,47,0,491.520000
54.699456,47,91,47,0,983.040000
55.682496,47,92,47,0,491.520000
56.174016,47,93,47,0,983.040000
57.157056,47,94,47,0,983.040000
58.140096,47,95,47,0,491.520000
58.631616,47,96,47,0,983.040000
59.614656,47,97,47,0,491.520000
60.106176,47,98,47,0,983.040000
61.089216,47,99,47,0,491.520000
61.580736,47,100,47,0,983.040000
62.563776,47,101,47,0,983.040000
63.546816,47,102,47,0,491.520000
64.038336,47,103,47,0,983.040000
65.021376,47,104,47,0,983.040000
66.004416,47,105,47,0,491.520000
66.495936,47,106,47,0,983.040000
67.478976,47,107,47,0,983.040000
68.462016,47,108,47,0,491.520000
68.953536,47,109,47,0,983.040000
69.936576,47,110,47,0,491.520000
70.428096,47,111,47,0,983.040000
71.411136,47,112,47,0,983.040000
72.394176,47,113,47,0,491.520000
72.885696,47,114,47,0,983.040000
73.868736,47,115,47,0,491.520000
74.360256,47,116,47,0,983.040000
75.343296,47,117,47,0,983.040000
76.326336,47,118,47,0,491.520000
76.817856,47,119,47,0,983.040000
77.800896,47,120,47,0,983.040000
78.783936,47,121,47,0,491.520000
79.275456,47,122,47,0,983.040000
80.258496,47,123,47,0,983.040000
81.241536,47,124,47,0,491.520000
81.733056,47,125,47,0,491.520000
82.224576,47,126,47,0,983.040000
83.207616,47,127,47,0,983.040000
84.190656,47,128,47,0,491.520000
84.682176,47,129,47,0,983.040000
85.665216,47,130,47,0,983.040000
86.648256,47,131,47,0,491.520000
87.139776,47,132,47,0,983.040000
88.122816,47,133,47,0,983.040000
89.105856,47,134,47,0,491.520000
89.597376,47,135,47,0,983.040000
90.580416,47,136,47,0,491.520000
91.071936,47,137,47,0,983.040000
92.054976,47,138,47,0,983.040000
93.038016,47,139,47,0,491.520000
93.529536,47,140,47,0,983.040000
94.512576,47,141,47,0,491.520000
95.004096,47,142,47,0,983.040000
95.987136,47,143,47,0,983.040000
96.970176,47,144,47,0,983.040000
97.953216,47,145,47,0,491.520000
98.444736,47,146,47,0,983.040000
99.427776,47,147,47,0,491.520000
99.919296,47,148,47,0,983.040000
100.902336,47,149,47,0,491.520000
101.393856,47,150,47,0,983.040000
102.376896,47,151,47,0,491.520000
102.868416,47,152,47,0,983.040000
103.851456,47,153,47,0,491.520000
104.342976,47,154,47,0,983.040000
105.326016,47,155,47,0,983.040000
106.309056,47,156,47,0,983.040000
107.292096,47,157,47,0,983.040000
108.275136,47,158,47,0,491.520000
108.766656,47,159,47,0,491.520000
109.258176,47,160,47,0,983.040000
110.241216,47,161,47,0,983.040000
111.224256,47,162,47,0,491.520000
111.715776,47,163,47,0,983.040000
112.698816,47,164,47,0,983.040000
113.681856,47,165,47,0,491.520000
114.173376,47,166,47,0,983.040000
115.156416,47,167,47,0,983.040000
116.139456,47,168,47,0,491.520000
116.630976,47,169,47,0,983.040000
117.614016,47,170,47,0,491.520000
118.105536,47,171,47,0,983.040000
119.088576,47,172,47,0,983.040000
120.071616,47,173,47,0,491.520000
120.563136,47,174,47,0,983.040000
121.546176,47,175,47,0,983.040000
122.529216,47,176,47,0,491.520000
123.020736,47,177,47,0,983.040000
124.003776,47,178,47,0,983.040000
124.986816,47,179,47,0,491.520000
125.478336,47,180,47,0,983.040000
126.461376,47,181,47,0,491.520000
126.952896,47,182,47,0,983.040000
127.935936,47,183,47,0,983.040000
128.918976,47,184,47,0,983.040000
129.902016,47,185,47,0,491.520000
130.393536,47,186,47,0,983.040000
131.376576,47,187,47,0,491.520000
131.868096,47,188,47,0,983.040000
132.851136,47,189,47,0,983.040000
133.834176,47,190,47,0,491.520000
134.325696,47,191,47,0,983.040000
135.308736,47,192,47,0,983.040000
136.291776,47,193,47,0,983.040000
137.274816,47,194,47,0,491.520000
137.766336,47,195,47,0,983.040000
138.749376,47,196,47,0,491.520000
139.240896,47,197,47,0,983.040000
140.223936,47,198,47,0,983.040000
141.206976,47,199,47,0,983.040000
142.190016,47,200,47,0,983.040000
143.173056,47,201,47,0,491.520000
143.664576,47,202,47,0,983.040000
144.647616,47,203,47,0,983.040000
145.630656,47,204,47,0,1474.560000
147.105216,47,205,47,0,491.520000
147.596736,47,206,47,0,983.040000
148.579776,47,207,47,0,983.040000
149.562816,47,208,47,0,491.520000
150.054336,47,209,47,0,983.040000
151.037376,47,210,47,0,983.040000
152.020416,47,211,47,0,983.040000
153.003456,47,212,47,0,491.520000
153.494976,47,213,47,0,983.040000
154.478016,47,214,47,0,491.520000
154.969536,47,215,47,0,983.040000
155.952576,47,216,47,0,491.520000
156.444096,47,217,47,0,983.040000
157.427136,47,218,47,0,491.520000
157.918656,47,219,47,0,983.040000
158.901696,47,220,47,0,983.040000
159.884736,47,221,47,0,491.520000
160.376256,47,222,47,0,983.040000
161.359296,47,223,47,0,491.520000
161.850816,47,224,47,0,983.040000
162.833856,47,225,47,0,983.040000
163.816896,47,226,47,0,983.040000
164.799936,47,227,47,0,983.040000
165.782976,47,228,47,0,491.520000
166.274496,47,229,47,0,983.040000
167.257536,47,230,47,0,491.520000
167.749056,47,231,47,0,983.040000
168.732096,47,232,47,0,983.040000
169.715136,47,233,47,0,491.520000
170.206656,47,234,47,0,983.040000
171.189696,47,235,47,0,983.040000
172.172736,47,236,47,0,491.520000
172.664256,47,237,47,0,983.040000
173.647296,47,238,47,0,983.040000
174.630336,47,239,47,0,491.520000
175.121856,47,240,47,0,983.040000
176.104896,47,241,47,0,491.520000
176.596416,47,242,47,0,983.040000
177.579456,47,243,47,0,491.520000
178.070976,47,244,47,0,983.040000
179.054016,47,245,47,0,983.040000
180.037056,47,246,47,0,491.520000
180.528576,47,247,47,0,983.040000
181.511616,47,248,47,0,491.520000
182.003136,47,249,47,0,983.040000
182.986176,47,250,47,0,983.040000
183.969216,47,251,47,0,491.520000
184.460736,47,252,47,0,983.040000
185.443776,47,253,47,0,983.040000
186.426816,47,254,47,0,983.040000
187.409856,47,255,47,0,491.520000
187.901376,47,256,47,0,983.040000
188.884416,47,257,47,0,491.520000
189.375936,47,258,47,0,983.040000
190.358976,47,259,47,0,491.520000
190.850496,47,260,47,0,983.040000
191.833536,47,261,47,0,491.520000
192.325056,47,262,47,0,983.040000
193.308096,47,263,47,0,983.040000
194.291136,47,264,47,0,491.520000
194.782656,47,265,47,0,983.040000
195.765696,47,266,47,0,983.040000
196.748736,47,267,47,0,491.520000
197.240256,47,268,47,0,983.040000
198.223296,47,269,47,0,491.520000
198.714816,47,270,47,0,983.040000
199.697856,47,271,47,0,491.520000
200.189376,47,272,47,0,983.040000
201.172416,47,273,47,0,491.520000
201.663936,47,274,47,0,983.040000
202.646976,47,275,47,0,491.520000
203.138496,47,276,47,0,983.040000
204.121536,47,277,47,0,491.520000
204.613056,47,278,47,0,983.040000
205.596096,47,279,47,0,491.520000
206.087616,47,280,47,0,983.040000
207.070656,47,281,47,0,983.040000
208.053696,47,282,47,0,491.520000
208.545216,47,283,47,0,983.040000
209.528256,47,284,47,0,491.520000
210.019776,47,285,47,0,983.040000
211.002816,47,286,47,0,491.520000
211.494336,47,287,47,0,983.040000
212.477376,47,288,47,0,983.040000
213.460416,47,289,47,0,491.520000
213.951936,47,290,47,0,983.040000
214.934976,47,291,47,0,983.040000
215.918016,47,292,47,0,491.520000
216.409536,47,293,47,0,983.040000
217.392576,47,294,47,0,491.520000
217.884096,47,295,47,0,983.040000
218.867136,47,296,47,0,491.520000
219.358656,47,297,47,0,983.040000
220.341696,47,298,47,0,983.040000
221.324736,47,299,47,0,491.520000
221.816256,47,300,47,0,983.040000
222.799296,47,301,47,0,983.040000
223.782336,47,302,47,0,491.520000
224.273856,47,303,47,0,983.040000
225.256896,47,304,47,0,491.520000
225.748416,47,305,47,0,983.040000
226.731456,47,306,47,0,983.040000
227.714496,47,307,47,0,491.520000
228.206016,47,308,47,0,983.040000
229.189056,47,309,47,0,491.520000
229.680576,47,310,47,0,983.040000
230.663616,47,311,47,0,491.520000
