Time,CovertPackets,AllPackets,BitsSent,PacketInterval,GTSInterval
30.756992,1,2,1,4.416000,0
30.761408,2,3,2,5.056000,0
30.766464,3,4,3,5.696000,0
30.772160,4,5,4,4.416000,0
30.776576,5,6,5,0,959.680000
31.736256,5,7,5,5.056000,0
31.741312,6,8,6,5.696000,0
31.747008,7,9,7,4.416000,0
31.751424,8,10,8,5.056000,0
31.756480,9,11,9,0,962.816000
32.719296,9,12,9,5.696000,0
32.724992,10,13,10,4.416000,0
32.729408,11,14,11,5.056000,0
32.734464,12,15,12,5.696000,0
32.740160,13,16,13,0,962.176000
33.702336,13,17,13,4.416000,0
33.706752,14,18,14,5.056000,0
33.711808,15,19,15,5.696000,0
33.717504,16,20,16,4.416000,0
33.721920,17,21,17,5.056000,0
33.726976,18,22,18,0,958.400000
34.685376,18,23,18,5.696000,0
34.691072,19,24,19,4.416000,0
34.695488,20,25,20,5.056000,0
34.700544,21,26,21,5.696000,0
34.706240,22,27,22,0,962.176000
35.668416,22,28,22,4.416000,0
35.672832,23,29,23,5.056000,0
35.677888,24,30,24,5.696000,0
35.683584,25,31,25,4.416000,0
35.688000,26,32,26,5.056000,0
35.693056,27,33,27,0,958.400000
36.651456,27,34,27,5.696000,0
36.657152,28,35,28,4.416000,0
36.661568,29,36,29,5.056000,0
36.666624,30,37,30,5.696000,0
36.672320,31,38,31,0,962.176000
37.634496,31,39,31,4.416000,0
37.638912,32,40,32,5.056000,0
37.643968,33,41,33,5.696000,0
37.649664,34,42,34,4.416000,0
37.654080,35,43,35,5.056000,0
37.659136,36,44,36,0,958.400000
38.617536,36,45,36,5.696000,0
38.623232,37,46,37,4.416000,0
38.627648,38,47,38,5.056000,0
38.632704,39,48,39,5.696000,0
38.638400,40,49,40,0,962.176000
39.600576,40,50,40,4.416000,0
39.604992,41,51,41,5.056000,0
39.610048,42,52,42,5.696000,0
39.615744,43,53,43,4.416000,0
39.620160,44,54,44,5.056000,0
39.625216,45,55,45,0,958.400000
40.583616,45,56,45,5.696000,0
40.589312,46,57,46,4.416000,0
40.593728,47,58,47,5.056000,0
40.598784,48,59,48,5.696000,0
40.604480,49,60,49,0,962.176000
41.566656,49,61,49,4.416000,0
41.571072,50,62,50,5.056000,0
41.576128,51,63,51,5.696000,0
41.581824,52,64,52,4.416000,0
41.586240,53,65,53,5.056000,0
41.591296,54,66,54,0,958.400000
42.549696,54,67,54,5.696000,0
42.555392,55,68,55,4.416000,0
42.559808,56,69,56,5.056000,0
42.564864,57,70,57,5.696000,0
42.570560,58,71,58,0,962.176000
43.532736,58,72,58,4.416000,0
43.537152,59,73,59,5.056000,0
43.542208,60,74,60,5.696000,0
43.547904,61,75,61,4.416000,0
43.552320,62,76,62,5.056000,0
43.557376,63,77,63,0,958.400000
44.515776,63,78,63,5.696000,0
44.521472,64,79,64,4.416000,0
44.525888,65,80,65,5.056000,0
44.530944,66,81,66,5.696000,0
44.536640,67,82,67,0,962.176000
45.498816,67,83,67,4.416000,0
45.503232,68,84,68,5.056000,0
45.508288,69,85,69,5.696000,0
45.513984,70,86,70,4.416000,0
45.518400,71,87,71,5.056000,0
45.523456,72,88,72,0,958.400000
46.481856,72,89,72,5.696000,0
46.487552,73,90,73,4.416000,0
46.491968,74,91,74,5.056000,0
46.497024,75,92,75,5.696000,0
46.502720,76,93,76,0,962.176000
47.464896,76,94,76,4.416000,0
47.469312,77,95,77,5.056000,0
47.474368,78,96,78,5.696000,0
47.480064,79,97,79,4.416000,0
47.484480,80,98,80,5.056000,0
47.489536,81,99,81,0,958.400000
48.447936,81,100,81,5.696000,0
48.453632,82,101,82,4.416000,0
48.458048,83,102,83,5.056000,0
48.463104,84,103,84,5.696000,0
48.468800,85,104,85,0,962.176000
49.430976,85,105,85,4.416000,0
49.435392,86,106,86,5.056000,0
49.440448,87,107,87,5.696000,0
49.446144,88,108,88,4.416000,0
49.450560,89,109,89,5.056000,0
49.455616,90,110,90,0,958.400000
50.414016,90,111,90,5.696000,0
50.419712,91,112,91,4.416000,0
50.424128,92,113,92,5.056000,0
50.429184,93,114,93,5.696000,0
50.434880,94,115,94,0,962.176000
51.397056,94,116,94,4.416000,0
51.401472,95,117,95,5.056000,0
51.406528,96,118,96,5.696000,0
51.412224,97,119,97,4.416000,0
51.416640,98,120,98,5.056000,0
51.421696,99,121,99,0,958.400000
52.380096,99,122,99,5.696000,0
52.385792,100,123,100,4.416000,0
52.390208,101,124,101,5.056000,0
52.395264,102,125,102,5.696000,0
52.400960,103,126,103,0,962.176000
53.363136,103,127,103,4.416000,0
53.367552,104,128,104,5.056000,0
53.372608,105,129,105,5.696000,0
53.378304,106,130,106,4.416000,0
53.382720,107,131,107,5.056000,0
53.387776,108,132,108,0,958.400000
54.346176,108,133,108,5.696000,0
54.351872,109,134,109,4.416000,0
54.356288,110,135,110,5.056000,0
54.361344,111,136,111,5.696000,0
54.367040,112,137,112,0,962.176000
55.329216,112,138,112,4.416000,0
55.333632,113,139,113,5.056000,0
55.338688,114,140,114,5.696000,0
55.344384,115,141,115,4.416000,0
55.348800,116,142,116,5.056000,0
55.353856,117,143,117,0,958.400000
56.312256,117,144,117,5.696000,0
56.317952,118,145,118,4.416000,0
56.322368,119,146,119,5.056000,0
56.327424,120,147,120,5.696000,0
56.333120,121,148,121,0,962.176000
57.295296,121,149,121,4.416000,0
57.299712,122,150,122,5.056000,0
57.304768,123,151,123,5.696000,0
57.310464,124,152,124,4.416000,0
57.314880,125,153,125,5.056000,0
57.319936,126,154,126,0,958.400000
58.278336,126,155,126,5.696000,0
58.284032,127,156,127,4.416000,0
58.288448,128,157,128,5.056000,0
58.293504,129,158,129,5.696000,0
58.299200,130,159,130,0,962.176000
59.261376,130,160,130,4.416000,0
59.265792,131,161,131,5.056000,0
59.270848,132,162,132,5.696000,0
59.276544,133,163,133,4.416000,0
59.280960,134,164,134,5.056000,0
59.286016,135,165,135,0,958.400000
60.244416,135,166,135,5.696000,0
60.250112,136,167,136,4.416000,0
60.254528,137,168,137,5.056000,0
60.259584,138,169,138,5.696000,0
60.265280,139,170,139,0,962.176000
61.227456,139,171,139,4.416000,0
61.231872,140,172,140,5.056000,0
61.236928,141,173,141,5.696000,0
61.242624,142,174,142,4.416000,0
61.247040,143,175,143,5.056000,0
61.252096,144,176,144,0,958.400000
62.210496,144,177,144,5.696000,0
62.216192,145,178,145,4.416000,0
62.220608,146,179,146,5.056000,0
62.225664,147,180,147,5.696000,0
62.231360,148,181,148,0,962.176000
63.193536,148,182,148,4.416000,0
63.197952,149,183,149,5.056000,0
63.203008,150,184,150,5.696000,0
63.208704,151,185,151,4.416000,0
63.213120,152,186,152,5.056000,0
63.218176,153,187,153,0,958.400000
64.176576,153,188,153,5.696000,0
64.182272,154,189,154,4.416000,0
64.186688,155,190,155,5.056000,0
64.191744,156,191,156,5.696000,0
64.197440,157,192,157,0,962.176000
65.159616,157,193,157,4.416000,0
65.164032,158,194,158,5.056000,0
65.169088,159,195,159,5.696000,0
65.174784,160,196,160,4.416000,0
65.179200,161,197,161,5.056000,0
65.184256,162,198,162,0,958.400000
66.142656,162,199,162,5.696000,0
66.148352,163,200,163,4.416000,0
66.152768,164,201,164,5.056000,0
66.157824,165,202,165,5.696000,0
66.163520,166,203,166,0,962.176000
67.125696,166,204,166,4.416000,0
67.130112,167,205,167,5.056000,0
67.135168,168,206,168,5.696000,0
67.140864,169,207,169,4.416000,0
67.145280,170,208,170,5.056000,0
67.150336,171,209,171,0,958.400000
68.108736,171,210,171,5.696000,0
68.114432,172,211,172,4.416000,0
68.118848,173,212,173,5.056000,0
68.123904,174,213,174,5.696000,0
68.129600,175,214,175,0,962.176000
69.091776,175,215,175,4.416000,0
69.096192,176,216,176,5.056000,0
69.101248,177,217,177,5.696000,0
69.106944,178,218,178,4.416000,0
69.111360,179,219,179,5.056000,0
69.116416,180,220,180,0,958.400000
70.074816,180,221,180,5.696000,0
70.080512,181,222,181,4.416000,0
70.084928,182,223,182,5.056000,0
70.089984,183,224,183,5.696000,0
70.095680,184,225,184,0,962.176000
71.057856,184,226,184,4.416000,0
71.062272,185,227,185,5.056000,0
71.067328,186,228,186,5.696000,0
71.073024,187,229,187,4.416000,0
71.077440,188,230,188,5.056000,0
71.082496,189,231,189,0,958.400000
72.040896,189,232,189,5.696000,0
72.046592,190,233,190,4.416000,0
72.051008,191,234,191,5.056000,0
72.056064,192,235,192,5.696000,0
72.061760,193,236,193,0,962.176000
73.023936,193,237,193,4.416000,0
73.028352,194,238,194,5.056000,0
73.033408,195,239,195,5.696000,0
73.039104,196,240,196,4.416000,0
73.043520,197,241,197,5.056000,0
73.048576,198,242,198,0,958.400000
74.006976,198,243,198,5.696000,0
74.012672,199,244,199,4.416000,0
74.017088,200,245,200,5.056000,0
74.022144,201,246,201,5.696000,0
74.027840,202,247,202,0,962.176000
74.990016,202,248,202,4.416000,0
74.994432,203,249,203,5.056000,0
74.999488,204,250,204,5.696000,0
75.005184,205,251,205,4.416000,0
75.009600,206,252,206,5.056000,0
75.014656,207,253,207,0,958.400000
75.973056,207,254,207,5.696000,0
75.978752,208,255,208,4.416000,0
75.983168,209,256,209,5.056000,0
75.988224,210,257,210,5.696000,0
75.993920,211,258,211,0,962.176000
76.956096,211,259,211,4.416000,0
76.960512,212,260,212,5.056000,0
76.965568,213,261,213,5.696000,0
76.971264,214,262,214,4.416000,0
76.975680,215,263,215,5.056000,0
76.980736,216,264,216,0,958.400000
77.939136,216,265,216,5.696000,0
77.944832,217,266,217,4.416000,0
77.949248,218,267,218,5.056000,0
77.954304,219,268,219,5.696000,0
77.960000,220,269,220,0,962.176000
78.922176,220,270,220,4.416000,0
78.926592,221,271,221,5.056000,0
78.931648,222,272,222,5.696000,0
78.937344,223,273,223,4.416000,0
78.941760,224,274,224,5.056000,0
78.946816,225,275,225,0,958.400000
79.905216,225,276,225,5.696000,0
79.910912,226,277,226,4.416000,0
79.915328,227,278,227,5.056000,0
79.920384,228,279,228,5.696000,0
79.926080,229,280,229,0,962.176000
80.888256,229,281,229,4.416000,0
80.892672,230,282,230,5.056000,0
80.897728,231,283,231,5.696000,0
80.903424,232,284,232,4.416000,0
80.907840,233,285,233,5.056000,0
80.912896,234,286,234,0,958.400000
81.871296,234,287,234,5.696000,0
81.876992,235,288,235,4.416000,0
81.881408,236,289,236,5.056000,0
81.886464,237,290,237,5.696000,0
81.892160,238,291,238,0,962.176000
82.854336,238,292,238,4.416000,0
82.858752,239,293,239,5.056000,0
82.863808,240,294,240,5.696000,0
82.869504,241,295,241,4.416000,0
82.873920,242,296,242,5.056000,0
82.878976,243,297,243,0,958.400000
83.837376,243,298,243,5.696000,0
83.843072,244,299,244,4.416000,0
83.847488,245,300,245,5.056000,0
83.852544,246,301,246,5.696000,0
83.858240,247,302,247,0,962.176000
84.820416,247,303,247,4.416000,0
84.824832,248,304,248,5.056000,0
84.829888,249,305,249,5.696000,0
84.835584,250,306,250,4.416000,0
84.840000,251,307,251,5.056000,0
84.845056,252,308,252,0,958.400000
85.803456,252,309,252,5.696000,0
85.809152,253,310,253,4.416000,0
85.813568,254,311,254,5.056000,0
85.818624,255,312,255,5.696000,0
85.824320,256,313,256,0,962.176000
86.786496,256,314,256,4.416000,0
86.790912,257,315,257,5.056000,0
86.795968,258,316,258,5.696000,0
86.801664,259,317,259,4.416000,0
86.806080,260,318,260,5.056000,0
86.811136,261,319,261,0,958.400000
87.769536,261,320,261,5.696000,0
87.775232,262,321,262,4.416000,0
87.779648,263,322,263,5.056000,0
87.784704,264,323,264,5.696000,0
87.790400,265,324,265,0,962.176000
88.752576,265,325,265,4.416000,0
88.756992,266,326,266,5.056000,0
88.762048,267,327,267,5.696000,0
88.767744,268,328,268,4.416000,0
88.772160,269,329,269,5.056000,0
88.777216,270,330,270,0,958.400000
89.735616,270,331,270,5.696000,0
89.741312,271,332,271,4.416000,0
89.745728,272,333,272,5.056000,0
89.750784,273,334,273,5.696000,0
89.756480,274,335,274,0,962.176000
90.718656,274,336,274,4.416000,0
90.723072,275,337,275,5.056000,0
90.728128,276,338,276,5.696000,0
90.733824,277,339,277,4.416000,0
90.738240,278,340,278,5.056000,0
90.743296,279,341,279,0,958.400000
91.701696,279,342,279,5.696000,0
91.707392,280,343,280,4.416000,0
91.711808,281,344,281,5.056000,0
91.716864,282,345,282,5.696000,0
91.722560,283,346,283,0,962.176000
92.684736,283,347,283,4.416000,0
92.689152,284,348,284,5.056000,0
92.694208,285,349,285,5.696000,0
92.699904,286,350,286,4.416000,0
92.704320,287,351,287,5.056000,0
92.709376,288,352,288,0,958.400000
93.667776,288,353,288,5.696000,0
93.673472,289,354,289,4.416000,0
93.677888,290,355,290,5.056000,0
93.682944,291,356,291,5.696000,0
93.688640,292,357,292,0,962.176000
94.650816,292,358,292,4.416000,0
94.655232,293,359,293,5.056000,0
94.660288,294,360,294,5.696000,0
94.665984,295,361,295,4.416000,0
94.670400,296,362,296,5.056000,0
94.675456,297,363,297,0,958.400000
95.633856,297,364,297,5.696000,0
95.639552,298,365,298,4.416000,0
95.643968,299,366,299,5.056000,0
95.649024,300,367,300,5.696000,0
95.654720,301,368,301,0,962.176000
96.616896,301,369,301,4.416000,0
96.621312,302,370,302,5.056000,0
96.626368,303,371,303,5.696000,0
96.632064,304,372,304,4.416000,0
96.636480,305,373,305,5.056000,0
96.641536,306,374,306,0,958.400000
97.599936,306,375,306,5.696000,0
97.605632,307,376,307,4.416000,0
97.610048,308,377,308,5.056000,0
97.615104,309,378,309,5.696000,0
97.620800,310,379,310,0,962.176000
98.582976,310,380,310,4.416000,0
98.587392,311,381,311,5.056000,0
98.592448,312,382,312,5.696000,0
98.598144,313,383,313,4.416000,0
98.602560,314,384,314,5.056000,0
98.607616,315,385,315,0,958.400000
99.566016,315,386,315,5.696000,0
99.571712,316,387,316,4.416000,0
99.576128,317,388,317,5.056000,0
99.581184,318,389,318,5.696000,0
99.586880,319,390,319,0,962.176000
100.549056,319,391,319,4.416000,0
100.553472,320,392,320,5.056000,0
100.558528,321,393,321,5.696000,0
100.564224,322,394,322,4.416000,0
100.568640,323,395,323,5.056000,0
100.573696,324,396,324,0,958.400000
101.532096,324,397,324,5.696000,0
101.537792,325,398,325,4.416000,0
101.542208,326,399,326,5.056000,0
101.547264,327,400,327,5.696000,0
101.552960,328,401,328,0,962.176000
102.515136,328,402,328,4.416000,0
102.519552,329,403,329,5.056000,0
102.524608,330,404,330,5.696000,0
102.530304,331,405,331,4.416000,0
102.534720,332,406,332,5.056000,0
102.539776,333,407,333,0,958.400000
103.498176,333,408,333,5.696000,0
103.503872,334,409,334,4.416000,0
103.508288,335,410,335,5.056000,0
103.513344,336,411,336,5.696000,0
103.519040,337,412,337,0,962.176000
104.481216,337,413,337,4.416000,0
104.485632,338,414,338,5.056000,0
104.490688,339,415,339,5.696000,0
104.496384,340,416,340,4.416000,0
104.500800,341,417,341,5.056000,0
104.505856,342,418,342,0,958.400000
105.464256,342,419,342,5.696000,0
105.469952,343,420,343,4.416000,0
105.474368,344,421,344,5.056000,0
105.479424,345,422,345,5.696000,0
105.485120,346,423,346,0,962.176000
106.447296,346,424,346,4.416000,0
106.451712,347,425,347,5.056000,0
106.456768,348,426,348,5.696000,0
106.462464,349,427,349,4.416000,0
106.466880,350,428,350,5.056000,0
106.471936,351,429,351,0,958.400000
107.430336,351,430,351,5.696000,0
107.436032,352,431,352,4.416000,0
107.440448,353,432,353,5.056000,0
107.445504,354,433,354,5.696000,0
107.451200,355,434,355,0,962.176000
108.413376,355,435,355,4.416000,0
108.417792,356,436,356,5.056000,0
108.422848,357,437,357,5.696000,0
108.428544,358,438,358,4.416000,0
108.432960,359,439,359,5.056000,0
108.438016,360,440,360,0,958.400000
109.396416,360,441,360,5.696000,0
109.402112,361,442,361,4.416000,0
109.406528,362,443,362,5.056000,0
109.411584,363,444,363,5.696000,0
109.417280,364,445,364,0,962.176000
110.379456,364,446,364,4.416000,0
110.383872,365,447,365,5.056000,0
110.388928,366,448,366,5.696000,0
110.394624,367,449,367,4.416000,0
110.399040,368,450,368,5.056000,0
110.404096,369,451,369,0,958.400000
111.362496,369,452,369,5.696000,0
111.368192,370,453,370,4.416000,0
111.372608,371,454,371,5.056000,0
111.377664,372,455,372,5.696000,0
111.383360,373,456,373,0,962.176000
112.345536,373,457,373,4.416000,0
112.349952,374,458,374,5.056000,0
112.355008,375,459,375,5.696000,0
112.360704,376,460,376,4.416000,0
112.365120,377,461,377,5.056000,0
112.370176,378,462,378,0,958.400000
113.328576,378,463,378,5.696000,0
113.334272,379,464,379,4.416000,0
113.338688,380,465,380,5.056000,0
113.343744,381,466,381,5.696000,0
113.349440,382,467,382,0,962.176000
114.311616,382,468,382,4.416000,0
114.316032,383,469,383,5.056000,0
114.321088,384,470,384,5.696000,0
114.326784,385,471,385,4.416000,0
114.331200,386,472,386,5.056000,0
114.336256,387,473,387,0,958.400000
115.294656,387,474,387,5.696000,0
115.300352,388,475,388,4.416000,0
115.304768,389,476,389,5.056000,0
115.309824,390,477,390,5.696000,0
115.315520,391,478,391,0,962.176000
116.277696,391,479,391,4.416000,0
116.282112,392,480,392,5.056000,0
116.287168,393,481,393,5.696000,0
116.292864,394,482,394,4.416000,0
116.297280,395,483,395,5.056000,0
116.302336,396,484,396,0,958.400000
117.260736,396,485,396,5.696000,0
117.266432,397,486,397,4.416000,0
117.270848,398,487,398,5.056000,0
117.275904,399,488,399,5.696000,0
117.281600,400,489,400,0,962.176000
118.243776,400,490,400,4.416000,0
118.248192,401,491,401,5.056000,0
118.253248,402,492,402,5.696000,0
118.258944,403,493,403,4.416000,0
118.263360,404,494,404,5.056000,0
118.268416,405,495,405,0,958.400000
119.226816,405,496,405,5.696000,0
119.232512,406,497,406,4.416000,0
119.236928,407,498,407,5.056000,0
119.241984,408,499,408,5.696000,0
119.247680,409,500,409,0,962.176000
120.209856,409,501,409,4.416000,0
120.214272,410,502,410,5.056000,0
120.219328,411,503,411,5.696000,0
120.225024,412,504,412,4.416000,0
120.229440,413,505,413,5.056000,0
120.234496,414,506,414,0,958.400000
121.192896,414,507,414,5.696000,0
121.198592,415,508,415,4.416000,0
121.203008,416,509,416,5.056000,0
121.208064,417,510,417,5.696000,0
121.213760,418,511,418,0,962.176000
122.175936,418,512,418,4.416000,0
122.180352,419,513,419,5.056000,0
122.185408,420,514,420,5.696000,0
122.191104,421,515,421,4.416000,0
122.195520,422,516,422,5.056000,0
122.200576,423,517,423,0,958.400000
123.158976,423,518,423,5.696000,0
123.164672,424,519,424,4.416000,0
123.169088,425,520,425,5.056000,0
123.174144,426,521,426,5.696000,0
123.179840,427,522,427,0,962.176000
124.142016,427,523,427,4.416000,0
124.146432,428,524,428,5.056000,0
124.151488,429,525,429,5.696000,0
124.157184,430,526,430,4.416000,0
124.161600,431,527,431,5.056000,0
124.166656,432,528,432,0,958.400000
125.125056,432,529,432,5.696000,0
125.130752,433,530,433,4.416000,0
125.135168,434,531,434,5.056000,0
125.140224,435,532,435,5.696000,0
125.145920,436,533,436,0,962.176000
126.108096,436,534,436,4.416000,0
126.112512,437,535,437,5.056000,0
126.117568,438,536,438,5.696000,0
126.123264,439,537,439,4.416000,0
126.127680,440,538,440,5.056000,0
126.132736,441,539,441,0,958.400000
127.091136,441,540,441,5.696000,0
127.096832,442,541,442,4.416000,0
127.101248,443,542,443,5.056000,0
127.106304,444,543,444,5.696000,0
127.112000,445,544,445,0,962.176000
128.074176,445,545,445,4.416000,0
128.078592,446,546,446,5.056000,0
128.083648,447,547,447,5.696000,0
128.089344,448,548,448,4.416000,0
128.093760,449,549,449,5.056000,0
128.098816,450,550,450,0,958.400000
129.057216,450,551,450,5.696000,0
129.062912,451,552,451,4.416000,0
129.067328,452,553,452,5.056000,0
129.072384,453,554,453,5.696000,0
129.078080,454,555,454,0,962.176000
130.040256,454,556,454,4.416000,0
130.044672,455,557,455,5.056000,0
130.049728,456,558,456,5.696000,0
130.055424,457,559,457,4.416000,0
130.059840,458,560,458,5.056000,0
130.064896,459,561,459,0,958.400000
131.023296,459,562,459,5.696000,0
131.028992,460,563,460,4.416000,0
131.033408,461,564,461,5.056000,0
131.038464,462,565,462,5.696000,0
131.044160,463,566,463,0,962.176000
132.006336,463,567,463,4.416000,0
132.010752,464,568,464,5.056000,0
132.015808,465,569,465,5.696000,0
132.021504,466,570,466,4.416000,0
132.025920,467,571,467,5.056000,0
132.030976,468,572,468,0,958.400000
132.989376,468,573,468,5.696000,0
132.995072,469,574,469,4.416000,0
132.999488,470,575,470,5.056000,0
133.004544,471,576,471,5.696000,0
133.010240,472,577,472,0,962.176000
133.972416,472,578,472,4.416000,0
133.976832,473,579,473,5.056000,0
133.981888,474,580,474,5.696000,0
133.987584,475,581,475,4.416000,0
133.992000,476,582,476,5.056000,0
133.997056,477,583,477,0,958.400000
134.955456,477,584,477,5.696000,0
134.961152,478,585,478,4.416000,0
134.965568,479,586,479,5.056000,0
134.970624,480,587,480,5.696000,0
134.976320,481,588,481,0,962.176000
135.938496,481,589,481,4.416000,0
135.942912,482,590,482,5.056000,0
135.947968,483,591,483,5.696000,0
135.953664,484,592,484,4.416000,0
135.958080,485,593,485,5.056000,0
135.963136,486,594,486,0,958.400000
136.921536,486,595,486,5.696000,0
136.927232,487,596,487,4.416000,0
136.931648,488,597,488,5.056000,0
136.936704,489,598,489,5.696000,0
136.942400,490,599,490,0,962.176000
137.904576,490,600,490,4.416000,0
137.908992,491,601,491,5.056000,0
137.914048,492,602,492,5.696000,0
137.919744,493,603,493,4.416000,0
137.924160,494,604,494,5.056000,0
137.929216,495,605,495,0,958.400000
138.887616,495,606,495,5.696000,0
138.893312,496,607,496,4.416000,0
138.897728,497,608,497,5.056000,0
138.902784,498,609,498,5.696000,0
138.908480,499,610,499,0,962.176000
139.870656,499,611,499,4.416000,0
139.875072,500,612,500,5.056000,0
139.880128,501,613,501,5.696000,0
139.885824,502,614,502,4.416000,0
139.890240,503,615,503,5.056000,0
139.895296,504,616,504,0,958.400000
140.853696,504,617,504,5.696000,0
140.859392,505,618,505,4.416000,0
140.863808,506,619,506,5.056000,0
140.868864,507,620,507,5.696000,0
140.874560,508,621,508,0,962.176000
141.836736,508,622,508,4.416000,0
141.841152,509,623,509,5.056000,0
141.846208,510,624,510,5.696000,0
141.851904,511,625,511,4.416000,0
141.856320,512,626,512,5.056000,0
141.861376,513,627,513,0,958.400000
142.819776,513,628,513,5.696000,0
142.825472,514,629,514,4.416000,0
142.829888,515,630,515,5.056000,0
142.834944,516,631,516,5.696000,0
142.840640,517,632,517,0,962.176000
143.802816,517,633,517,4.416000,0
143.807232,518,634,518,5.056000,0
143.812288,519,635,519,5.696000,0
143.817984,520,636,520,4.416000,0
143.822400,521,637,521,5.056000,0
143.827456,522,638,522,0,958.400000
144.785856,522,639,522,5.696000,0
144.791552,523,640,523,4.416000,0
144.795968,524,641,524,5.056000,0
144.801024,525,642,525,5.696000,0
144.806720,526,643,526,0,962.176000
145.768896,526,644,526,4.416000,0
145.773312,527,645,527,5.056000,0
145.778368,528,646,528,5.696000,0
145.784064,529,647,529,4.416000,0
145.788480,530,648,530,5.056000,0
145.793536,531,649,531,0,958.400000
146.751936,531,650,531,5.696000,0
146.757632,532,651,532,4.416000,0
146.762048,533,652,533,5.056000,0
146.767104,534,653,534,5.696000,0
146.772800,535,654,535,0,962.176000
147.734976,535,655,535,4.416000,0
147.739392,536,656,536,5.056000,0
147.744448,537,657,537,5.696000,0
147.750144,538,658,538,4.416000,0
147.754560,539,659,539,5.056000,0
147.759616,540,660,540,0,958.400000
148.718016,540,661,540,5.696000,0
148.723712,541,662,541,4.416000,0
148.728128,542,663,542,5.056000,0
148.733184,543,664,543,5.696000,0
148.738880,544,665,544,0,962.176000
149.701056,544,666,544,4.416000,0
149.705472,545,667,545,5.056000,0
149.710528,546,668,546,5.696000,0
149.716224,547,669,547,4.416000,0
149.720640,548,670,548,5.056000,0
149.725696,549,671,549,0,958.400000
150.684096,549,672,549,5.696000,0
150.689792,550,673,550,4.416000,0
150.694208,551,674,551,5.056000,0
150.699264,552,675,552,5.696000,0
150.704960,553,676,553,0,962.176000
151.667136,553,677,553,4.416000,0
151.671552,554,678,554,5.056000,0
151.676608,555,679,555,5.696000,0
151.682304,556,680,556,4.416000,0
151.686720,557,681,557,5.056000,0
151.691776,558,682,558,0,958.400000
152.650176,558,683,558,5.696000,0
152.655872,559,684,559,4.416000,0
152.660288,560,685,560,5.056000,0
152.665344,561,686,561,5.696000,0
152.671040,562,687,562,0,962.176000
153.633216,562,688,562,4.416000,0
153.637632,563,689,563,5.056000,0
153.642688,564,690,564,5.696000,0
153.648384,565,691,565,4.416000,0
153.652800,566,692,566,5.056000,0
153.657856,567,693,567,0,958.400000
154.616256,567,694,567,5.696000,0
154.621952,568,695,568,4.416000,0
154.626368,569,696,569,5.056000,0
154.631424,570,697,570,5.696000,0
154.637120,571,698,571,0,962.176000
155.599296,571,699,571,4.416000,0
155.603712,572,700,572,5.056000,0
155.608768,573,701,573,5.696000,0
155.614464,574,702,574,4.416000,0
155.618880,575,703,575,5.056000,0
155.623936,576,704,576,0,958.400000
156.582336,576,705,576,5.696000,0
156.588032,577,706,577,4.416000,0
156.592448,578,707,578,5.056000,0
156.597504,579,708,579,5.696000,0
156.603200,580,709,580,0,962.176000
157.565376,580,710,580,4.416000,0
157.569792,581,711,581,5.056000,0
157.574848,582,712,582,5.696000,0
157.580544,583,713,583,4.416000,0
157.584960,584,714,584,5.056000,0
157.590016,585,715,585,0,958.400000
158.548416,585,716,585,5.696000,0
158.554112,586,717,586,4.416000,0
158.558528,587,718,587,5.056000,0
158.563584,588,719,588,5.696000,0
158.569280,589,720,589,0,962.176000
159.531456,589,721,589,4.416000,0
159.535872,590,722,590,5.056000,0
159.540928,591,723,591,5.696000,0
159.546624,592,724,592,4.416000,0
159.551040,593,725,593,5.056000,0
159.556096,594,726,594,0,958.400000
160.514496,594,727,594,5.696000,0
160.520192,595,728,595,4.416000,0
160.524608,596,729,596,5.056000,0
160.529664,597,730,597,5.696000,0
160.535360,598,731,598,0,962.176000
161.497536,598,732,598,4.416000,0
161.501952,599,733,599,5.056000,0
161.507008,600,734,600,5.696000,0
161.512704,601,735,601,4.416000,0
161.517120,602,736,602,5.056000,0
161.522176,603,737,603,0,958.400000
162.480576,603,738,603,5.696000,0
162.486272,604,739,604,4.416000,0
162.490688,605,740,605,5.056000,0
162.495744,606,741,606,5.696000,0
162.501440,607,742,607,0,962.176000
163.463616,607,743,607,4.416000,0
163.468032,608,744,608,5.056000,0
163.473088,609,745,609,5.696000,0
163.478784,610,746,610,4.416000,0
163.483200,611,747,611,5.056000,0
163.488256,612,748,612,0,958.400000
164.446656,612,749,612,5.696000,0
164.452352,613,750,613,4.416000,0
164.456768,614,751,614,5.056000,0
164.461824,615,752,615,5.696000,0
164.467520,616,753,616,0,962.176000
165.429696,616,754,616,4.416000,0
165.434112,617,755,617,5.056000,0
165.439168,618,756,618,5.696000,0
165.444864,619,757,619,4.416000,0
165.449280,620,758,620,5.056000,0
165.454336,621,759,621,0,958.400000
166.412736,621,760,621,5.696000,0
166.418432,622,761,622,4.416000,0
166.422848,623,762,623,5.056000,0
166.427904,624,763,624,5.696000,0
166.433600,625,764,625,0,962.176000
167.395776,625,765,625,4.416000,0
167.400192,626,766,626,5.056000,0
167.405248,627,767,627,5.696000,0
167.410944,628,768,628,4.416000,0
167.415360,629,769,629,5.056000,0
167.420416,630,770,630,0,958.400000
168.378816,630,771,630,5.696000,0
168.384512,631,772,631,4.416000,0
168.388928,632,773,632,5.056000,0
168.393984,633,774,633,5.696000,0
168.399680,634,775,634,0,962.176000
169.361856,634,776,634,4.416000,0
169.366272,635,777,635,5.056000,0
169.371328,636,778,636,5.696000,0
169.377024,637,779,637,4.416000,0
169.381440,638,780,638,5.056000,0
169.386496,639,781,639,0,958.400000
170.344896,639,782,639,5.696000,0
170.350592,640,783,640,4.416000,0
170.355008,641,784,641,5.056000,0
170.360064,642,785,642,5.696000,0
170.365760,643,786,643,0,962.176000
171.327936,643,787,643,4.416000,0
171.332352,644,788,644,5.056000,0
171.337408,645,789,645,5.696000,0
171.343104,646,790,646,4.416000,0
171.347520,647,791,647,5.056000,0
171.352576,648,792,648,0,958.400000
172.310976,648,793,648,5.696000,0
172.316672,649,794,649,4.416000,0
172.321088,650,795,650,5.056000,0
172.326144,651,796,651,5.696000,0
172.331840,652,797,652,0,962.176000
173.294016,652,798,652,4.416000,0
173.298432,653,799,653,5.056000,0
173.303488,654,800,654,5.696000,0
173.309184,655,801,655,4.416000,0
173.313600,656,802,656,5.056000,0
173.318656,657,803,657,0,958.400000
174.277056,657,804,657,5.696000,0
174.282752,658,805,658,4.416000,0
174.287168,659,806,659,5.056000,0
174.292224,660,807,660,5.696000,0
174.297920,661,808,661,0,962.176000
175.260096,661,809,661,4.416000,0
175.264512,662,810,662,5.056000,0
175.269568,663,811,663,5.696000,0
175.275264,664,812,664,4.416000,0
175.279680,665,813,665,5.056000,0
175.284736,666,814,666,0,958.400000
176.243136,666,815,666,5.696000,0
176.248832,667,816,667,4.416000,0
176.253248,668,817,668,5.056000,0
176.258304,669,818,669,5.696000,0
176.264000,670,819,670,0,962.176000
177.226176,670,820,670,4.416000,0
177.230592,671,821,671,5.056000,0
177.235648,672,822,672,5.696000,0
177.241344,673,823,673,4.416000,0
177.245760,674,824,674,5.056000,0
177.250816,675,825,675,0,958.400000
178.209216,675,826,675,5.696000,0
178.214912,676,827,676,4.416000,0
178.219328,677,828,677,5.056000,0
178.224384,678,829,678,5.696000,0
178.230080,679,830,679,0,962.176000
179.192256,679,831,679,4.416000,0
179.196672,680,832,680,5.056000,0
179.201728,681,833,681,5.696000,0
179.207424,682,834,682,4.416000,0
179.211840,683,835,683,5.056000,0
179.216896,684,836,684,0,958.400000
180.175296,684,837,684,5.696000,0
180.180992,685,838,685,4.416000,0
180.185408,686,839,686,5.056000,0
180.190464,687,840,687,5.696000,0
180.196160,688,841,688,0,962.176000
181.158336,688,842,688,4.416000,0
181.162752,689,843,689,5.056000,0
181.167808,690,844,690,5.696000,0
181.173504,691,845,691,4.416000,0
181.177920,692,846,692,5.056000,0
181.182976,693,847,693,0,958.400000
182.141376,693,848,693,5.696000,0
182.147072,694,849,694,4.416000,0
182.151488,695,850,695,5.056000,0
182.156544,696,851,696,5.696000,0
182.162240,697,852,697,0,962.176000
183.124416,697,853,697,4.416000,0
183.128832,698,854,698,5.056000,0
183.133888,699,855,699,5.696000,0
183.139584,700,856,700,4.416000,0
183.144000,701,857,701,5.056000,0
183.149056,702,858,702,0,958.400000
184.107456,702,859,702,5.696000,0
184.113152,703,860,703,4.416000,0
184.117568,704,861,704,5.056000,0
184.122624,705,862,705,5.696000,0
184.128320,706,863,706,0,962.176000
185.090496,706,864,706,4.416000,0
185.094912,707,865,707,5.056000,0
185.099968,708,866,708,5.696000,0
185.105664,709,867,709,4.416000,0
185.110080,710,868,710,5.056000,0
185.115136,711,869,711,0,958.400000
186.073536,711,870,711,5.696000,0
186.079232,712,871,712,4.416000,0
186.083648,713,872,713,5.056000,0
186.088704,714,873,714,5.696000,0
186.094400,715,874,715,0,962.176000
187.056576,715,875,715,4.416000,0
187.060992,716,876,716,5.056000,0
187.066048,717,877,717,5.696000,0
187.071744,718,878,718,4.416000,0
187.076160,719,879,719,5.056000,0
187.081216,720,880,720,0,958.400000
188.039616,720,881,720,5.696000,0
188.045312,721,882,721,4.416000,0
188.049728,722,883,722,5.056000,0
188.054784,723,884,723,5.696000,0
188.060480,724,885,724,0,962.176000
189.022656,724,886,724,4.416000,0
189.027072,725,887,725,5.056000,0
189.032128,726,888,726,5.696000,0
189.037824,727,889,727,4.416000,0
189.042240,728,890,728,5.056000,0
189.047296,729,891,729,0,958.400000
190.005696,729,892,729,5.696000,0
190.011392,730,893,730,4.416000,0
190.015808,731,894,731,5.056000,0
190.020864,732,895,732,5.696000,0
190.026560,733,896,733,0,962.176000
190.988736,733,897,733,4.416000,0
190.993152,734,898,734,5.056000,0
190.998208,735,899,735,5.696000,0
191.003904,736,900,736,4.416000,0
191.008320,737,901,737,5.056000,0
191.013376,738,902,738,0,958.400000
191.971776,738,903,738,5.696000,0
191.977472,739,904,739,4.416000,0
191.981888,740,905,740,5.056000,0
191.986944,741,906,741,5.696000,0
191.992640,742,907,742,0,962.176000
192.954816,742,908,742,4.416000,0
192.959232,743,909,743,5.056000,0
192.964288,744,910,744,5.696000,0
192.969984,745,911,745,4.416000,0
192.974400,746,912,746,5.056000,0
192.979456,747,913,747,0,958.400000
193.937856,747,914,747,5.696000,0
193.943552,748,915,748,4.416000,0
193.947968,749,916,749,5.056000,0
193.953024,750,917,750,5.696000,0
193.958720,751,918,751,0,962.176000
194.920896,751,919,751,4.416000,0
194.925312,752,920,752,5.056000,0
194.930368,753,921,753,5.696000,0
194.936064,754,922,754,4.416000,0
194.940480,755,923,755,5.056000,0
194.945536,756,924,756,0,958.400000
195.903936,756,925,756,5.696000,0
195.909632,757,926,757,4.416000,0
195.914048,758,927,758,5.056000,0
195.919104,759,928,759,5.696000,0
195.924800,760,929,760,0,962.176000
196.886976,760,930,760,4.416000,0
196.891392,761,931,761,5.056000,0
196.896448,762,932,762,5.696000,0
196.902144,763,933,763,4.416000,0
196.906560,764,934,764,5.056000,0
196.911616,765,935,765,0,958.400000
197.870016,765,936,765,5.696000,0
197.875712,766,937,766,4.416000,0
197.880128,767,938,767,5.056000,0
197.885184,768,939,768,5.696000,0
197.890880,769,940,769,0,962.176000
198.853056,769,941,769,4.416000,0
198.857472,770,942,770,5.056000,0
198.862528,771,943,771,5.696000,0
198.868224,772,944,772,4.416000,0
198.872640,773,945,773,5.056000,0
198.877696,774,946,774,0,958.400000
199.836096,774,947,774,5.696000,0
199.841792,775,948,775,4.416000,0
199.846208,776,949,776,5.056000,0
199.851264,777,950,777,5.696000,0
199.856960,778,951,778,0,962.176000
200.819136,778,952,778,4.416000,0
200.823552,779,953,779,5.056000,0
200.828608,780,954,780,5.696000,0
200.834304,781,955,781,4.416000,0
200.838720,782,956,782,5.056000,0
200.843776,783,957,783,0,958.400000
201.802176,783,958,783,5.696000,0
201.807872,784,959,784,4.416000,0
201.812288,785,960,785,5.056000,0
201.817344,786,961,786,5.696000,0
201.823040,787,962,787,0,962.176000
202.785216,787,963,787,4.416000,0
202.789632,788,964,788,5.056000,0
202.794688,789,965,789,5.696000,0
202.800384,790,966,790,4.416000,0
202.804800,791,967,791,5.056000,0
202.809856,792,968,792,0,958.400000
203.768256,792,969,792,5.696000,0
203.773952,793,970,793,4.416000,0
203.778368,794,971,794,5.056000,0
203.783424,795,972,795,5.696000,0
203.789120,796,973,796,0,962.176000
204.751296,796,974,796,4.416000,0
204.755712,797,975,797,5.056000,0
204.760768,798,976,798,5.696000,0
204.766464,799,977,799,4.416000,0
204.770880,800,978,800,5.056000,0
204.775936,801,979,801,0,958.400000
205.734336,801,980,801,5.696000,0
205.740032,802,981,802,4.416000,0
205.744448,803,982,803,5.056000,0
205.749504,804,983,804,5.696000,0
205.755200,805,984,805,0,962.176000
206.717376,805,985,805,4.416000,0
206.721792,806,986,806,5.056000,0
206.726848,807,987,807,5.696000,0
206.732544,808,988,808,4.416000,0
206.736960,809,989,809,5.056000,0
206.742016,810,990,810,0,958.400000
207.700416,810,991,810,5.696000,0
207.706112,811,992,811,4.416000,0
207.710528,812,993,812,5.056000,0
207.715584,813,994,813,5.696000,0
207.721280,814,995,814,0,962.176000
208.683456,814,996,814,4.416000,0
208.687872,815,997,815,5.056000,0
208.692928,816,998,816,5.696000,0
208.698624,817,999,817,4.416000,0
208.703040,818,1000,818,5.056000,0
208.708096,819,1001,819,0,958.400000
209.666496,819,1002,819,5.696000,0
209.672192,820,1003,820,4.416000,0
209.676608,821,1004,821,5.056000,0
209.681664,822,1005,822,5.696000,0
209.687360,823,1006,823,0,962.176000
210.649536,823,1007,823,4.416000,0
210.653952,824,1008,824,5.056000,0
210.659008,825,1009,825,5.696000,0
210.664704,826,1010,826,4.416000,0
210.669120,827,1011,827,5.056000,0
210.674176,828,1012,828,0,958.400000
211.632576,828,1013,828,5.696000,0
211.638272,829,1014,829,4.416000,0
211.642688,830,1015,830,5.056000,0
211.647744,831,1016,831,5.696000,0
211.653440,832,1017,832,0,962.176000
212.615616,832,1018,832,4.416000,0
212.620032,833,1019,833,5.056000,0
212.625088,834,1020,834,5.696000,0
212.630784,835,1021,835,4.416000,0
212.635200,836,1022,836,5.056000,0
212.640256,837,1023,837,0,958.400000
213.598656,837,1024,837,5.696000,0
213.604352,838,1025,838,4.416000,0
213.608768,839,1026,839,5.056000,0
213.613824,840,1027,840,5.696000,0
213.619520,841,1028,841,0,962.176000
214.581696,841,1029,841,4.416000,0
214.586112,842,1030,842,5.056000,0
214.591168,843,1031,843,5.696000,0
214.596864,844,1032,844,4.416000,0
214.601280,845,1033,845,5.056000,0
214.606336,846,1034,846,0,958.400000
215.564736,846,1035,846,5.696000,0
215.570432,847,1036,847,4.416000,0
215.574848,848,1037,848,5.056000,0
215.579904,849,1038,849,5.696000,0
215.585600,850,1039,850,0,962.176000
216.547776,850,1040,850,4.416000,0
216.552192,851,1041,851,5.056000,0
216.557248,852,1042,852,5.696000,0
216.562944,853,1043,853,4.416000,0
216.567360,854,1044,854,5.056000,0
216.572416,855,1045,855,0,958.400000
217.530816,855,1046,855,5.696000,0
217.536512,856,1047,856,4.416000,0
217.540928,857,1048,857,5.056000,0
217.545984,858,1049,858,5.696000,0
217.551680,859,1050,859,0,962.176000
218.513856,859,1051,859,4.416000,0
218.518272,860,1052,860,5.056000,0
218.523328,861,1053,861,5.696000,0
218.529024,862,1054,862,4.416000,0
218.533440,863,1055,863,5.056000,0
218.538496,864,1056,864,0,958.400000
219.496896,864,1057,864,5.696000,0
219.502592,865,1058,865,4.416000,0
219.507008,866,1059,866,5.056000,0
219.512064,867,1060,867,5.696000,0
219.517760,868,1061,868,0,962.176000
220.479936,868,1062,868,4.416000,0
220.484352,869,1063,869,5.056000,0
220.489408,870,1064,870,5.696000,0
220.495104,871,1065,871,4.416000,0
220.499520,872,1066,872,5.056000,0
220.504576,873,1067,873,0,958.400000
221.462976,873,1068,873,5.696000,0
221.468672,874,1069,874,4.416000,0
221.473088,875,1070,875,5.056000,0
221.478144,876,1071,876,5.696000,0
221.483840,877,1072,877,0,962.176000
222.446016,877,1073,877,4.416000,0
222.450432,878,1074,878,5.056000,0
222.455488,879,1075,879,5.696000,0
222.461184,880,1076,880,4.416000,0
222.465600,881,1077,881,5.056000,0
222.470656,882,1078,882,0,958.400000
223.429056,882,1079,882,5.696000,0
223.434752,883,1080,883,4.416000,0
223.439168,884,1081,884,5.056000,0
223.444224,885,1082,885,5.696000,0
223.449920,886,1083,886,0,962.176000
224.412096,886,1084,886,4.416000,0
224.416512,887,1085,887,5.056000,0
224.421568,888,1086,888,5.696000,0
224.427264,889,1087,889,4.416000,0
224.431680,890,1088,890,5.056000,0
224.436736,891,1089,891,0,958.400000
225.395136,891,1090,891,5.696000,0
225.400832,892,1091,892,4.416000,0
225.405248,893,1092,893,5.056000,0
225.410304,894,1093,894,5.696000,0
225.416000,895,1094,895,0,962.176000
226.378176,895,1095,895,4.416000,0
226.382592,896,1096,896,5.056000,0
226.387648,897,1097,897,5.696000,0
226.393344,898,1098,898,4.416000,0
226.397760,899,1099,899,5.056000,0
226.402816,900,1100,900,0,958.400000
227.361216,900,1101,900,5.696000,0
227.366912,901,1102,901,4.416000,0
227.371328,902,1103,902,5.056000,0
227.376384,903,1104,903,5.696000,0
227.382080,904,1105,904,0,962.176000
228.344256,904,1106,904,4.416000,0
228.348672,905,1107,905,5.056000,0
228.353728,906,1108,906,5.696000,0
228.359424,907,1109,907,4.416000,0
228.363840,908,1110,908,5.056000,0
228.368896,909,1111,909,0,958.400000
229.327296,909,1112,909,5.696000,0
229.332992,910,1113,910,4.416000,0
229.337408,911,1114,911,5.056000,0
229.342464,912,1115,912,5.696000,0
229.348160,913,1116,913,0,962.176000
230.310336,913,1117,913,4.416000,0
230.314752,914,1118,914,5.056000,0
230.319808,915,1119,915,5.696000,0
230.325504,916,1120,916,4.416000,0
230.329920,917,1121,917,5.056000,0
230.334976,918,1122,918,0,958.400000
