Time,CovertPackets,AllPackets,BitsSent,PacketInterval,GTSInterval
30.756992,1,2,1,4.416000,0
30.761408,2,3,2,5.056000,0
30.766464,3,4,3,5.696000,0
30.772160,4,5,4,4.416000,0
30.776576,5,6,5,0,959.680000
31.736256,5,7,5,5.056000,0
31.741312,6,8,6,5.696000,0
31.747008,7,9,7,4.416000,0
31.751424,8,10,8,5.056000,0
31.756480,9,11,9,0,962.816000
32.719296,9,12,9,5.696000,0
32.724992,10,13,10,4.416000,0
32.729408,11,14,11,5.056000,0
32.734464,12,15,12,5.696000,0
32.740160,13,16,13,0,962.176000
33.702336,13,17,13,4.416000,0
33.706752,14,18,14,5.056000,0
33.711808,15,19,15,5.696000,0
33.717504,16,20,16,4.416000,0
33.721920,17,21,17,5.056000,0
33.726976,18,22,18,0,958.400000
34.685376,18,23,18,5.696000,0
34.691072,19,24,19,4.416000,0
34.695488,20,25,20,5.056000,0
34.700544,21,26,21,5.696000,0
34.706240,22,27,22,0,962.176000
35.668416,22,28,22,4.416000,0
35.672832,23,29,23,5.056000,0
35.677888,24,30,24,5.696000,0
35.683584,25,31,25,4.416000,0
35.688000,26,32,26,5.056000,0
35.693056,27,33,27,0,958.400000
36.651456,27,34,27,5.696000,0
36.657152,28,35,28,4.416000,0
36.661568,29,36,29,5.056000,0
36.666624,30,37,30,5.696000,0
36.672320,31,38,31,0,962.176000
37.634496,31,39,31,4.416000,0
37.638912,32,40,32,5.056000,0
37.643968,33,41,33,5.696000,0
37.649664,34,42,34,4.416000,0
37.654080,35,43,35,5.056000,0
37.659136,36,44,36,0,958.400000
38.617536,36,45,36,5.696000,0
38.623232,37,46,37,4.416000,0
38.627648,38,47,38,5.056000,0
38.632704,39,48,39,5.696000,0
38.638400,40,49,40,0,962.176000
39.600576,40,50,40,4.416000,0
39.604992,41,51,41,5.056000,0
39.610048,42,52,42,5.696000,0
39.615744,43,53,43,4.416000,0
39.620160,44,54,44,5.056000,0
39.625216,45,55,45,0,958.400000
40.583616,45,56,45,5.696000,0
40.589312,46,57,46,4.416000,0
40.593728,47,58,47,5.056000,0
40.598784,48,59,48,5.696000,0
40.604480,49,60,49,0,962.176000
41.566656,49,61,49,4.416000,0
41.571072,50,62,50,5.056000,0
41.576128,51,63,51,5.696000,0
41.581824,52,64,52,4.416000,0
41.586240,53,65,53,5.056000,0
41.591296,54,66,54,0,958.400000
42.549696,54,67,54,5.696000,0
42.555392,55,68,55,4.416000,0
42.559808,56,69,56,5.056000,0
42.564864,57,70,57,5.696000,0
42.570560,58,71,58,0,962.176000
43.532736,58,72,58,4.416000,0
43.537152,59,73,59,5.056000,0
43.542208,60,74,60,5.696000,0
43.547904,61,75,61,4.416000,0
43.552320,62,76,62,5.056000,0
43.557376,63,77,63,0,1941.440000
45.498816,63,78,63,0,983.040000
46.481856,63,79,63,0,983.040000
47.464896,63,80,63,0,983.040000
48.447936,63,81,63,0,983.040000
49.430976,63,82,63,0,983.040000
50.414016,63,83,63,0,983.040000
51.397056,63,84,63,0,983.040000
52.380096,63,85,63,0,983.040000
53.363136,63,86,63,0,983.040000
54.346176,63,87,63,0,983.040000
55.329216,63,88,63,0,1966.080000
57.295296,63,89,63,0,983.040000
58.278336,63,90,63,0,983.040000
59.261376,63,91,63,0,983.040000
60.244416,63,92,63,0,983.040000
61.227456,63,93,63,0,983.040000
62.210496,63,94,63,0,983.040000
63.193536,63,95,63,0,1966.080000
65.159616,63,96,63,0,983.040000
66.142656,63,97,63,0,983.040000
67.125696,63,98,63,0,983.040000
68.108736,63,99,63,0,983.040000
69.091776,63,100,63,0,983.040000
70.074816,63,101,63,0,983.040000
71.057856,63,102,63,0,1966.080000
73.023936,63,103,63,0,983.040000
74.006976,63,104,63,0,983.040000
74.990016,63,105,63,0,983.040000
75.973056,63,106,63,0,983.040000
76.956096,63,107,63,0,983.040000
77.939136,63,108,63,0,983.040000
78.922176,63,109,63,0,983.040000
79.905216,63,110,63,0,983.040000
80.888256,63,111,63,0,1966.080000
82.854336,63,112,63,0,983.040000
83.837376,63,113,63,0,983.040000
84.820416,63,114,63,0,983.040000
85.803456,63,115,63,0,983.040000
86.786496,63,116,63,0,1966.080000
88.752576,63,117,63,0,983.040000
89.735616,63,118,63,0,983.040000
90.718656,63,119,63,0,983.040000
91.701696,63,120,63,0,983.040000
92.684736,63,121,63,0,983.040000
93.667776,63,122,63,0,983.040000
94.650816,63,123,63,0,983.040000
95.633856,63,124,63,0,983.040000
96.616896,63,125,63,0,983.040000
97.599936,63,126,63,0,983.040000
98.582976,63,127,63,0,983.040000
99.566016,63,128,63,0,1966.080000
101.532096,63,129,63,0,983.040000
102.515136,63,130,63,0,983.040000
103.498176,63,131,63,0,1966.080000
105.464256,63,132,63,0,983.040000
106.447296,63,133,63,0,983.040000
107.430336,63,134,63,0,983.040000
108.413376,63,135,63,0,983.040000
109.396416,63,136,63,0,983.040000
110.379456,63,137,63,0,983.040000
111.362496,63,138,63,0,1966.080000
113.328576,63,139,63,0,983.040000
114.311616,63,140,63,0,983.040000
115.294656,63,141,63,0,983.040000
116.277696,63,142,63,0,1966.080000
118.243776,63,143,63,0,983.040000
119.226816,63,144,63,0,983.040000
120.209856,63,145,63,0,983.040000
121.192896,63,146,63,0,983.040000
122.175936,63,147,63,0,983.040000
123.158976,63,148,63,0,983.040000
124.142016,63,149,63,0,1966.080000
126.108096,63,150,63,0,983.040000
127.091136,63,151,63,0,983.040000
128.074176,63,152,63,0,983.040000
129.057216,63,153,63,0,983.040000
130.040256,63,154,63,0,983.040000
131.023296,63,155,63,0,983.040000
132.006336,63,156,63,0,983.040000
132.989376,63,157,63,0,983.040000
133.972416,63,158,63,0,983.040000
134.955456,63,159,63,0,1966.080000
136.921536,63,160,63,0,983.040000
137.904576,63,161,63,0,983.040000
138.887616,63,162,63,0,983.040000
139.870656,63,163,63,0,983.040000
140.853696,63,164,63,0,983.040000
141.836736,63,165,63,0,983.040000
142.819776,63,166,63,0,983.040000
143.802816,63,167,63,0,983.040000
144.785856,63,168,63,0,1966.080000
146.751936,63,169,63,0,983.040000
147.734976,63,170,63,0,983.040000
148.718016,63,171,63,0,983.040000
149.701056,63,172,63,0,983.040000
150.684096,63,173,63,0,983.040000
151.667136,63,174,63,0,983.040000
152.650176,63,175,63,0,983.040000
153.633216,63,176,63,0,1966.080000
155.599296,63,177,63,0,983.040000
156.582336,63,178,63,0,983.040000
157.565376,63,179,63,0,983.040000
158.548416,63,180,63,0,983.040000
159.531456,63,181,63,0,983.040000
160.514496,63,182,63,0,983.040000
161.497536,63,183,63,0,983.040000
162.480576,63,184,63,0,983.040000
163.463616,63,185,63,0,1966.080000
165.429696,63,186,63,0,983.040000
166.412736,63,187,63,0,983.040000
167.395776,63,188,63,0,983.040000
168.378816,63,189,63,0,983.040000
169.361856,63,190,63,0,983.040000
170.344896,63,191,63,0,1966.080000
172.310976,63,192,63,0,983.040000
173.294016,63,193,63,0,983.040000
174.277056,63,194,63,0,983.040000
175.260096,63,195,63,0,983.040000
176.243136,63,196,63,0,983.040000
177.226176,63,197,63,0,983.040000
178.209216,63,198,63,0,1966.080000
180.175296,63,199,63,0,983.040000
181.158336,63,200,63,0,983.040000
182.141376,63,201,63,0,983.040000
183.124416,63,202,63,0,983.040000
184.107456,63,203,63,0,983.040000
185.090496,63,204,63,0,983.040000
186.073536,63,205,63,0,983.040000
187.056576,63,206,63,0,983.040000
188.039616,63,207,63,0,983.040000
189.022656,63,208,63,0,983.040000
190.005696,63,209,63,0,983.040000
190.988736,63,210,63,0,1966.080000
192.954816,63,211,63,0,983.040000
193.937856,63,212,63,0,983.040000
194.920896,63,213,63,0,983.040000
195.903936,63,214,63,0,983.040000
196.886976,63,215,63,0,983.040000
197.870016,63,216,63,0,983.040000
198.853056,63,217,63,0,983.040000
199.836096,63,218,63,0,1966.080000
201.802176,63,219,63,0,983.040000
202.785216,63,220,63,0,983.040000
203.768256,63,221,63,0,983.040000
204.751296,63,222,63,0,983.040000
205.734336,63,223,63,0,983.040000
206.717376,63,224,63,0,983.040000
207.700416,63,225,63,0,983.040000
208.683456,63,226,63,0,983.040000
209.666496,63,227,63,0,983.040000
210.649536,63,228,63,0,1966.080000
212.615616,63,229,63,0,983.040000
213.598656,63,230,63,0,983.040000
214.581696,63,231,63,0,983.040000
215.564736,63,232,63,0,983.040000
216.547776,63,233,63,0,983.040000
217.530816,63,234,63,0,983.040000
218.513856,63,235,63,0,1966.080000
220.479936,63,236,63,0,983.040000
221.462976,63,237,63,0,983.040000
222.446016,63,238,63,0,983.040000
223.429056,63,239,63,0,983.040000
224.412096,63,240,63,0,983.040000
225.395136,63,241,63,0,983.040000
226.378176,63,242,63,0,983.040000
227.361216,63,243,63,0,983.040000
228.344256,63,244,63,0,983.040000
229.327296,63,245,63,0,1966.080000
231.293376,63,246,63,0,983.040000
