Time,CovertPackets,AllPackets,BitsSent,PacketInterval,GTSInterval
826.744192,1,2,0,3.136000,0
826.747328,2,3,0,4.416000,0
826.751744,3,4,0,4.416000,0
826.756160,4,5,0,3.136000,0
826.759296,5,6,0,4.416000,0
826.763712,6,7,0,3.136000,0
826.766848,7,8,0,3.136000,0
826.769984,8,9,1,4.416000,0
826.774400,9,10,1,3.136000,0
826.777536,10,11,1,4.416000,0
826.781952,11,12,1,4.416000,0
826.786368,12,13,1,3.136000,0
826.789504,13,14,1,4.416000,0
826.793920,14,15,1,4.416000,0
826.798336,15,16,1,4.416000,0
826.802752,16,17,2,3.136000,0
826.805888,17,18,2,3.136000,0
826.809024,18,19,2,4.416000,0
826.813440,19,20,2,4.416000,0
826.817856,20,21,2,3.136000,0
826.820992,21,22,2,0,62832.704000
889.653696,21,23,2,3.136000,0
889.656832,22,24,2,4.416000,0
889.661248,23,25,2,4.416000,0
889.665664,24,26,3,3.136000,0
889.668800,25,27,3,3.136000,0
889.671936,26,28,3,4.416000,0
889.676352,27,29,3,4.416000,0
889.680768,28,30,3,3.136000,0
889.683904,29,31,3,4.416000,0
889.688320,30,32,3,4.416000,0
889.692736,31,33,3,4.416000,0
889.697152,32,34,4,4.416000,0
889.701568,33,35,4,3.136000,0
889.704704,34,36,4,4.416000,0
889.709120,35,37,4,4.416000,0
889.713536,36,38,4,4.416000,0
889.717952,37,39,4,3.136000,0
889.721088,38,40,4,3.136000,0
889.724224,39,41,4,4.416000,0
889.728640,40,42,5,3.136000,0
889.731776,41,43,5,3.136000,0
889.734912,42,44,5,0,62833.344000
952.568256,42,45,5,4.416000,0
952.572672,43,46,5,4.416000,0
952.577088,44,47,5,3.136000,0
952.580224,45,48,5,4.416000,0
952.584640,46,49,5,4.416000,0
952.589056,47,50,5,3.136000,0
952.592192,48,51,6,4.416000,0
952.596608,49,52,6,3.136000,0
952.599744,50,53,6,4.416000,0
952.604160,51,54,6,4.416000,0
952.608576,52,55,6,3.136000,0
952.611712,53,56,6,3.136000,0
952.614848,54,57,6,3.136000,0
952.617984,55,58,6,3.136000,0
952.621120,56,59,7,4.416000,0
952.625536,57,60,7,3.136000,0
952.628672,58,61,7,4.416000,0
952.633088,59,62,7,4.416000,0
952.637504,60,63,7,3.136000,0
952.640640,61,64,7,3.136000,0
952.643776,62,65,7,3.136000,0
952.646912,63,66,7,0,62835.904000
1015.482816,63,67,7,4.416000,0
1015.487232,64,68,8,4.416000,0
1015.491648,65,69,8,3.136000,0
1015.494784,66,70,8,4.416000,0
1015.499200,67,71,8,4.416000,0
1015.503616,68,72,8,3.136000,0
1015.506752,69,73,8,3.136000,0
1015.509888,70,74,8,3.136000,0
1015.513024,71,75,8,3.136000,0
1015.516160,72,76,9,4.416000,0
1015.520576,73,77,9,3.136000,0
1015.523712,74,78,9,4.416000,0
1015.528128,75,79,9,4.416000,0
1015.532544,76,80,9,3.136000,0
1015.535680,77,81,9,4.416000,0
1015.540096,78,82,9,4.416000,0
1015.544512,79,83,9,4.416000,0
1015.548928,80,84,10,4.416000,0
1015.553344,81,85,10,3.136000,0
1015.556480,82,86,10,3.136000,0
1015.559616,83,87,10,4.416000,0
1015.564032,84,88,10,0,62835.904000
