Time,CovertPackets,AllPackets,BitsSent,PacketInterval,GTSInterval
37.639552,1,2,0,3.136000,0
37.642688,2,3,0,4.416000,0
37.647104,3,4,0,4.416000,0
37.651520,4,5,0,3.136000,0
37.654656,5,6,0,4.416000,0
37.659072,6,7,0,0,1941.504000
39.600576,6,8,0,3.136000,0
39.603712,7,9,0,3.136000,0
39.606848,8,10,1,4.416000,0
39.611264,9,11,1,3.136000,0
39.614400,10,12,1,4.416000,0
39.618816,11,13,1,4.416000,0
39.623232,12,14,1,3.136000,0
39.626368,13,15,1,0,1940.288000
41.566656,13,16,1,4.416000,0
41.571072,14,17,1,4.416000,0
41.575488,15,18,1,4.416000,0
41.579904,16,19,2,3.136000,0
41.583040,17,20,2,3.136000,0
41.586176,18,21,2,4.416000,0
41.590592,19,22,2,0,1942.144000
43.532736,19,23,2,4.416000,0
43.537152,20,24,2,3.136000,0
43.540288,21,25,2,3.136000,0
43.543424,22,26,2,4.416000,0
43.547840,23,27,2,4.416000,0
43.552256,24,28,3,3.136000,0
43.555392,25,29,3,3.136000,0
43.558528,26,30,3,0,1940.288000
45.498816,26,31,3,4.416000,0
45.503232,27,32,3,4.416000,0
45.507648,28,33,3,3.136000,0
45.510784,29,34,3,4.416000,0
45.515200,30,35,3,4.416000,0
45.519616,31,36,3,4.416000,0
45.524032,32,37,4,0,1940.864000
47.464896,32,38,4,4.416000,0
47.469312,33,39,4,3.136000,0
47.472448,34,40,4,4.416000,0
47.476864,35,41,4,4.416000,0
47.481280,36,42,4,4.416000,0
47.485696,37,43,4,3.136000,0
47.488832,38,44,4,0,1942.144000
49.430976,38,45,4,3.136000,0
49.434112,39,46,4,4.416000,0
49.438528,40,47,5,3.136000,0
49.441664,41,48,5,3.136000,0
49.444800,42,49,5,4.416000,0
49.449216,43,50,5,4.416000,0
49.453632,44,51,5,3.136000,0
49.456768,45,52,5,0,1940.288000
51.397056,45,53,5,4.416000,0
51.401472,46,54,5,4.416000,0
51.405888,47,55,5,3.136000,0
51.409024,48,56,6,4.416000,0
51.413440,49,57,6,3.136000,0
51.416576,50,58,6,4.416000,0
51.420992,51,59,6,0,1942.144000
53.363136,51,60,6,4.416000,0
53.367552,52,61,6,3.136000,0
53.370688,53,62,6,3.136000,0
53.373824,54,63,6,3.136000,0
53.376960,55,64,6,3.136000,0
53.380096,56,65,7,4.416000,0
53.384512,57,66,7,3.136000,0
53.387648,58,67,7,0,1941.568000
55.329216,58,68,7,4.416000,0
55.333632,59,69,7,4.416000,0
55.338048,60,70,7,3.136000,0
55.341184,61,71,7,3.136000,0
55.344320,62,72,7,3.136000,0
55.347456,63,73,7,4.416000,0
55.351872,64,74,8,0,1943.424000
57.295296,64,75,8,4.416000,0
57.299712,65,76,8,3.136000,0
57.302848,66,77,8,4.416000,0
57.307264,67,78,8,4.416000,0
57.311680,68,79,8,3.136000,0
57.314816,69,80,8,3.136000,0
57.317952,70,81,8,3.136000,0
57.321088,71,82,8,0,1940.288000
59.261376,71,83,8,3.136000,0
59.264512,72,84,9,4.416000,0
59.268928,73,85,9,3.136000,0
59.272064,74,86,9,4.416000,0
59.276480,75,87,9,4.416000,0
59.280896,76,88,9,3.136000,0
59.284032,77,89,9,0,1943.424000
61.227456,77,90,9,4.416000,0
61.231872,78,91,9,4.416000,0
61.236288,79,92,9,4.416000,0
61.240704,80,93,10,4.416000,0
61.245120,81,94,10,3.136000,0
61.248256,82,95,10,3.136000,0
61.251392,83,96,10,0,1942.144000
63.193536,83,97,10,4.416000,0
63.197952,84,98,10,3.136000,0
63.201088,85,99,10,3.136000,0
63.204224,86,100,10,3.136000,0
63.207360,87,101,10,3.136000,0
63.210496,88,102,11,3.136000,0
63.213632,89,103,11,3.136000,0
63.216768,90,104,11,0,1942.848000
65.159616,90,105,11,4.416000,0
65.164032,91,106,11,4.416000,0
65.168448,92,107,11,3.136000,0
65.171584,93,108,11,3.136000,0
65.174720,94,109,11,3.136000,0
65.177856,95,110,11,4.416000,0
65.182272,96,111,12,0,1943.424000
67.125696,96,112,12,4.416000,0
67.130112,97,113,12,3.136000,0
67.133248,98,114,12,4.416000,0
67.137664,99,115,12,4.416000,0
67.142080,100,116,12,3.136000,0
67.145216,101,117,12,4.416000,0
67.149632,102,118,12,0,1942.144000
69.091776,102,119,12,4.416000,0
69.096192,103,120,12,4.416000,0
69.100608,104,121,13,4.416000,0
69.105024,105,122,13,3.136000,0
69.108160,106,123,13,4.416000,0
69.112576,107,124,13,4.416000,0
69.116992,108,125,13,0,1940.864000
71.057856,108,126,13,3.136000,0
71.060992,109,127,13,4.416000,0
71.065408,110,128,13,4.416000,0
71.069824,111,129,13,4.416000,0
71.074240,112,130,14,3.136000,0
71.077376,113,131,14,3.136000,0
71.080512,114,132,14,0,1943.424000
73.023936,114,133,14,4.416000,0
73.028352,115,134,14,4.416000,0
73.032768,116,135,14,3.136000,0
73.035904,117,136,14,3.136000,0
73.039040,118,137,14,4.416000,0
73.043456,119,138,14,4.416000,0
73.047872,120,139,15,0,1942.144000
74.990016,120,140,15,3.136000,0
74.993152,121,141,15,3.136000,0
74.996288,122,142,15,4.416000,0
75.000704,123,143,15,4.416000,0
75.005120,124,144,15,3.136000,0
75.008256,125,145,15,4.416000,0
75.012672,126,146,15,3.136000,0
75.015808,127,147,15,0,1940.288000
76.956096,127,148,15,3.136000,0
76.959232,128,149,16,4.416000,0
76.963648,129,150,16,3.136000,0
76.966784,130,151,16,4.416000,0
76.971200,131,152,16,4.416000,0
76.975616,132,153,16,3.136000,0
76.978752,133,154,16,3.136000,0
76.981888,134,155,16,0,1940.288000
78.922176,134,156,16,4.416000,0
78.926592,135,157,16,3.136000,0
78.929728,136,158,17,3.136000,0
78.932864,137,159,17,3.136000,0
78.936000,138,160,17,4.416000,0
78.940416,139,161,17,4.416000,0
78.944832,140,162,17,3.136000,0
78.947968,141,163,17,0,1940.288000
80.888256,141,164,17,3.136000,0
80.891392,142,165,17,4.416000,0
80.895808,143,166,17,3.136000,0
80.898944,144,167,18,4.416000,0
80.903360,145,168,18,3.136000,0
80.906496,146,169,18,4.416000,0
80.910912,147,170,18,0,1943.424000
82.854336,147,171,18,4.416000,0
82.858752,148,172,18,3.136000,0
82.861888,149,173,18,4.416000,0
82.866304,150,174,18,4.416000,0
82.870720,151,175,18,4.416000,0
82.875136,152,176,19,3.136000,0
82.878272,153,177,19,0,1942.144000
84.820416,153,178,19,3.136000,0
84.823552,154,179,19,4.416000,0
84.827968,155,180,19,4.416000,0
84.832384,156,181,19,3.136000,0
84.835520,157,182,19,3.136000,0
84.838656,158,183,19,3.136000,0
84.841792,159,184,19,4.416000,0
84.846208,160,185,20,0,1940.288000
86.786496,160,186,20,4.416000,0
86.790912,161,187,20,3.136000,0
86.794048,162,188,20,4.416000,0
86.798464,163,189,20,4.416000,0
86.802880,164,190,20,3.136000,0
86.806016,165,191,20,4.416000,0
86.810432,166,192,20,0,1942.144000
88.752576,166,193,20,3.136000,0
88.755712,167,194,20,3.136000,0
88.758848,168,195,21,4.416000,0
88.763264,169,196,21,3.136000,0
88.766400,170,197,21,4.416000,0
88.770816,171,198,21,4.416000,0
88.775232,172,199,21,3.136000,0
88.778368,173,200,21,0,1940.288000
90.718656,173,201,21,3.136000,0
90.721792,174,202,21,3.136000,0
90.724928,175,203,21,3.136000,0
90.728064,176,204,22,4.416000,0
90.732480,177,205,22,3.136000,0
90.735616,178,206,22,4.416000,0
90.740032,179,207,22,4.416000,0
90.744448,180,208,22,0,1940.288000
92.684736,180,209,22,3.136000,0
92.687872,181,210,22,4.416000,0
92.692288,182,211,22,4.416000,0
92.696704,183,212,22,3.136000,0
92.699840,184,213,23,3.136000,0
92.702976,185,214,23,3.136000,0
92.706112,186,215,23,3.136000,0
92.709248,187,216,23,0,1941.568000
94.650816,187,217,23,4.416000,0
94.655232,188,218,23,3.136000,0
94.658368,189,219,23,3.136000,0
94.661504,190,220,23,3.136000,0
94.664640,191,221,23,3.136000,0
94.667776,192,222,24,3.136000,0
94.670912,193,223,24,3.136000,0
94.674048,194,224,24,0,1942.848000
96.616896,194,225,24,3.136000,0
96.620032,195,226,24,4.416000,0
96.624448,196,227,24,3.136000,0
96.627584,197,228,24,3.136000,0
96.630720,198,229,24,3.136000,0
96.633856,199,230,24,3.136000,0
96.636992,200,231,25,3.136000,0
96.640128,201,232,25,0,1942.848000
98.582976,201,233,25,3.136000,0
98.586112,202,234,25,3.136000,0
98.589248,203,235,25,4.416000,0
98.593664,204,236,25,3.136000,0
98.596800,205,237,25,3.136000,0
98.599936,206,238,25,3.136000,0
98.603072,207,239,25,3.136000,0
98.606208,208,240,26,0,1942.848000
100.549056,208,241,26,3.136000,0
100.552192,209,242,26,3.136000,0
100.555328,210,243,26,3.136000,0
100.558464,211,244,26,4.416000,0
100.562880,212,245,26,4.416000,0
100.567296,213,246,26,3.136000,0
100.570432,214,247,26,4.416000,0
100.574848,215,248,26,0,1940.288000
102.515136,215,249,26,3.136000,0
102.518272,216,250,27,3.136000,0
102.521408,217,251,27,4.416000,0
102.525824,218,252,27,3.136000,0
102.528960,219,253,27,4.416000,0
102.533376,220,254,27,4.416000,0
102.537792,221,255,27,3.136000,0
102.540928,222,256,27,0,1940.288000
104.481216,222,257,27,4.416000,0
104.485632,223,258,27,4.416000,0
104.490048,224,259,28,4.416000,0
104.494464,225,260,28,3.136000,0
104.497600,226,261,28,3.136000,0
104.500736,227,262,28,4.416000,0
104.505152,228,263,28,0,1942.144000
106.447296,228,264,28,4.416000,0
106.451712,229,265,28,3.136000,0
106.454848,230,266,28,3.136000,0
106.457984,231,267,28,4.416000,0
106.462400,232,268,29,4.416000,0
106.466816,233,269,29,3.136000,0
106.469952,234,270,29,3.136000,0
106.473088,235,271,29,0,1940.288000
108.413376,235,272,29,4.416000,0
108.417792,236,273,29,4.416000,0
108.422208,237,274,29,3.136000,0
108.425344,238,275,29,4.416000,0
108.429760,239,276,29,4.416000,0
108.434176,240,277,30,4.416000,0
108.438592,241,278,30,0,1940.864000
110.379456,241,279,30,4.416000,0
110.383872,242,280,30,3.136000,0
110.387008,243,281,30,4.416000,0
110.391424,244,282,30,4.416000,0
110.395840,245,283,30,4.416000,0
110.400256,246,284,30,3.136000,0
110.403392,247,285,30,0,1942.144000
112.345536,247,286,30,3.136000,0
112.348672,248,287,31,4.416000,0
112.353088,249,288,31,3.136000,0
112.356224,250,289,31,3.136000,0
112.359360,251,290,31,4.416000,0
112.363776,252,291,31,4.416000,0
112.368192,253,292,31,3.136000,0
112.371328,254,293,31,0,1940.288000
114.311616,254,294,31,4.416000,0
114.316032,255,295,31,4.416000,0
114.320448,256,296,32,3.136000,0
114.323584,257,297,32,4.416000,0
114.328000,258,298,32,3.136000,0
114.331136,259,299,32,4.416000,0
114.335552,260,300,32,0,1942.144000
116.277696,260,301,32,4.416000,0
116.282112,261,302,32,3.136000,0
116.285248,262,303,32,3.136000,0
116.288384,263,304,32,3.136000,0
116.291520,264,305,33,3.136000,0
116.294656,265,306,33,4.416000,0
116.299072,266,307,33,3.136000,0
116.302208,267,308,33,0,1941.568000
118.243776,267,309,33,4.416000,0
118.248192,268,310,33,4.416000,0
118.252608,269,311,33,3.136000,0
118.255744,270,312,33,3.136000,0
118.258880,271,313,33,3.136000,0
118.262016,272,314,34,4.416000,0
118.266432,273,315,34,0,1943.424000
120.209856,273,316,34,4.416000,0
120.214272,274,317,34,3.136000,0
120.217408,275,318,34,4.416000,0
120.221824,276,319,34,4.416000,0
120.226240,277,320,34,3.136000,0
120.229376,278,321,34,3.136000,0
120.232512,279,322,34,3.136000,0
120.235648,280,323,35,0,1940.288000
122.175936,280,324,35,3.136000,0
122.179072,281,325,35,4.416000,0
122.183488,282,326,35,3.136000,0
122.186624,283,327,35,4.416000,0
122.191040,284,328,35,4.416000,0
122.195456,285,329,35,3.136000,0
122.198592,286,330,35,0,1943.424000
124.142016,286,331,35,4.416000,0
124.146432,287,332,35,4.416000,0
124.150848,288,333,36,4.416000,0
124.155264,289,334,36,4.416000,0
124.159680,290,335,36,3.136000,0
124.162816,291,336,36,3.136000,0
124.165952,292,337,36,0,1942.144000
126.108096,292,338,36,4.416000,0
126.112512,293,339,36,3.136000,0
126.115648,294,340,36,3.136000,0
126.118784,295,341,36,3.136000,0
126.121920,296,342,37,3.136000,0
126.125056,297,343,37,3.136000,0
126.128192,298,344,37,3.136000,0
126.131328,299,345,37,0,1942.848000
128.074176,299,346,37,4.416000,0
128.078592,300,347,37,4.416000,0
128.083008,301,348,37,3.136000,0
128.086144,302,349,37,3.136000,0
128.089280,303,350,37,3.136000,0
128.092416,304,351,38,4.416000,0
128.096832,305,352,38,0,1943.424000
130.040256,305,353,38,4.416000,0
130.044672,306,354,38,3.136000,0
130.047808,307,355,38,4.416000,0
130.052224,308,356,38,4.416000,0
130.056640,309,357,38,3.136000,0
130.059776,310,358,38,4.416000,0
130.064192,311,359,38,0,1942.144000
132.006336,311,360,38,4.416000,0
132.010752,312,361,39,4.416000,0
132.015168,313,362,39,4.416000,0
132.019584,314,363,39,3.136000,0
132.022720,315,364,39,4.416000,0
132.027136,316,365,39,4.416000,0
132.031552,317,366,39,0,1940.864000
133.972416,317,367,39,3.136000,0
133.975552,318,368,39,4.416000,0
133.979968,319,369,39,4.416000,0
133.984384,320,370,40,4.416000,0
133.988800,321,371,40,3.136000,0
133.991936,322,372,40,3.136000,0
133.995072,323,373,40,0,1943.424000
135.938496,323,374,40,4.416000,0
135.942912,324,375,40,4.416000,0
135.947328,325,376,40,3.136000,0
135.950464,326,377,40,3.136000,0
135.953600,327,378,40,4.416000,0
135.958016,328,379,41,4.416000,0
135.962432,329,380,41,0,1942.144000
137.904576,329,381,41,3.136000,0
137.907712,330,382,41,3.136000,0
137.910848,331,383,41,4.416000,0
137.915264,332,384,41,4.416000,0
137.919680,333,385,41,3.136000,0
137.922816,334,386,41,4.416000,0
137.927232,335,387,41,3.136000,0
137.930368,336,388,42,0,1940.288000
139.870656,336,389,42,3.136000,0
139.873792,337,390,42,4.416000,0
139.878208,338,391,42,3.136000,0
139.881344,339,392,42,4.416000,0
139.885760,340,393,42,4.416000,0
139.890176,341,394,42,3.136000,0
139.893312,342,395,42,3.136000,0
139.896448,343,396,42,0,1940.288000
141.836736,343,397,42,4.416000,0
141.841152,344,398,43,3.136000,0
141.844288,345,399,43,3.136000,0
141.847424,346,400,43,3.136000,0
141.850560,347,401,43,4.416000,0
141.854976,348,402,43,4.416000,0
141.859392,349,403,43,3.136000,0
141.862528,350,404,43,0,1940.288000
143.802816,350,405,43,3.136000,0
143.805952,351,406,43,4.416000,0
143.810368,352,407,44,3.136000,0
143.813504,353,408,44,4.416000,0
143.817920,354,409,44,3.136000,0
143.821056,355,410,44,4.416000,0
143.825472,356,411,44,0,1943.424000
145.768896,356,412,44,4.416000,0
145.773312,357,413,44,3.136000,0
145.776448,358,414,44,4.416000,0
145.780864,359,415,44,4.416000,0
145.785280,360,416,45,4.416000,0
145.789696,361,417,45,3.136000,0
145.792832,362,418,45,0,1942.144000
147.734976,362,419,45,3.136000,0
147.738112,363,420,45,4.416000,0
147.742528,364,421,45,4.416000,0
147.746944,365,422,45,3.136000,0
147.750080,366,423,45,3.136000,0
147.753216,367,424,45,3.136000,0
147.756352,368,425,46,4.416000,0
147.760768,369,426,46,0,1940.288000
149.701056,369,427,46,4.416000,0
149.705472,370,428,46,3.136000,0
149.708608,371,429,46,4.416000,0
149.713024,372,430,46,4.416000,0
149.717440,373,431,46,3.136000,0
149.720576,374,432,46,4.416000,0
149.724992,375,433,46,0,1942.144000
151.667136,375,434,46,3.136000,0
151.670272,376,435,47,3.136000,0
151.673408,377,436,47,4.416000,0
151.677824,378,437,47,3.136000,0
151.680960,379,438,47,4.416000,0
151.685376,380,439,47,4.416000,0
151.689792,381,440,47,3.136000,0
151.692928,382,441,47,0,1940.288000
153.633216,382,442,47,3.136000,0
153.636352,383,443,47,3.136000,0
153.639488,384,444,48,3.136000,0
153.642624,385,445,48,4.416000,0
153.647040,386,446,48,3.136000,0
153.650176,387,447,48,4.416000,0
153.654592,388,448,48,4.416000,0
153.659008,389,449,48,0,1940.288000
155.599296,389,450,48,3.136000,0
155.602432,390,451,48,4.416000,0
155.606848,391,452,48,4.416000,0
155.611264,392,453,49,3.136000,0
155.614400,393,454,49,3.136000,0
155.617536,394,455,49,3.136000,0
155.620672,395,456,49,3.136000,0
155.623808,396,457,49,0,1941.568000
157.565376,396,458,49,4.416000,0
157.569792,397,459,49,3.136000,0
157.572928,398,460,49,3.136000,0
157.576064,399,461,49,3.136000,0
157.579200,400,462,50,3.136000,0
157.582336,401,463,50,3.136000,0
157.585472,402,464,50,3.136000,0
157.588608,403,465,50,0,1942.848000
159.531456,403,466,50,3.136000,0
159.534592,404,467,50,4.416000,0
159.539008,405,468,50,3.136000,0
159.542144,406,469,50,3.136000,0
159.545280,407,470,50,3.136000,0
159.548416,408,471,51,3.136000,0
159.551552,409,472,51,3.136000,0
159.554688,410,473,51,0,1942.848000
161.497536,410,474,51,3.136000,0
161.500672,411,475,51,3.136000,0
161.503808,412,476,51,4.416000,0
161.508224,413,477,51,3.136000,0
161.511360,414,478,51,3.136000,0
161.514496,415,479,51,3.136000,0
161.517632,416,480,52,3.136000,0
161.520768,417,481,52,0,1942.848000
163.463616,417,482,52,3.136000,0
163.466752,418,483,52,3.136000,0
163.469888,419,484,52,3.136000,0
163.473024,420,485,52,4.416000,0
163.477440,421,486,52,4.416000,0
163.481856,422,487,52,3.136000,0
163.484992,423,488,52,4.416000,0
163.489408,424,489,53,0,1940.288000
165.429696,424,490,53,3.136000,0
165.432832,425,491,53,3.136000,0
165.435968,426,492,53,4.416000,0
165.440384,427,493,53,3.136000,0
165.443520,428,494,53,4.416000,0
165.447936,429,495,53,4.416000,0
165.452352,430,496,53,3.136000,0
165.455488,431,497,53,0,1940.288000
167.395776,431,498,53,4.416000,0
167.400192,432,499,54,4.416000,0
167.404608,433,500,54,4.416000,0
167.409024,434,501,54,3.136000,0
167.412160,435,502,54,3.136000,0
167.415296,436,503,54,4.416000,0
167.419712,437,504,54,0,1942.144000
169.361856,437,505,54,4.416000,0
169.366272,438,506,54,3.136000,0
169.369408,439,507,54,3.136000,0
169.372544,440,508,55,4.416000,0
169.376960,441,509,55,4.416000,0
169.381376,442,510,55,3.136000,0
169.384512,443,511,55,3.136000,0
169.387648,444,512,55,0,1940.288000
171.327936,444,513,55,4.416000,0
171.332352,445,514,55,4.416000,0
171.336768,446,515,55,3.136000,0
171.339904,447,516,55,4.416000,0
171.344320,448,517,56,4.416000,0
171.348736,449,518,56,4.416000,0
171.353152,450,519,56,0,1940.864000
173.294016,450,520,56,4.416000,0
173.298432,451,521,56,3.136000,0
173.301568,452,522,56,4.416000,0
173.305984,453,523,56,4.416000,0
173.310400,454,524,56,4.416000,0
173.314816,455,525,56,3.136000,0
173.317952,456,526,57,0,1942.144000
175.260096,456,527,57,3.136000,0
175.263232,457,528,57,4.416000,0
175.267648,458,529,57,3.136000,0
175.270784,459,530,57,3.136000,0
175.273920,460,531,57,4.416000,0
175.278336,461,532,57,4.416000,0
175.282752,462,533,57,3.136000,0
175.285888,463,534,57,0,1940.288000
177.226176,463,535,57,4.416000,0
177.230592,464,536,58,4.416000,0
177.235008,465,537,58,3.136000,0
177.238144,466,538,58,4.416000,0
177.242560,467,539,58,3.136000,0
177.245696,468,540,58,4.416000,0
177.250112,469,541,58,0,1942.144000
179.192256,469,542,58,4.416000,0
179.196672,470,543,58,3.136000,0
179.199808,471,544,58,3.136000,0
179.202944,472,545,59,3.136000,0
179.206080,473,546,59,3.136000,0
179.209216,474,547,59,4.416000,0
179.213632,475,548,59,3.136000,0
179.216768,476,549,59,0,1941.568000
181.158336,476,550,59,4.416000,0
181.162752,477,551,59,4.416000,0
181.167168,478,552,59,3.136000,0
181.170304,479,553,59,3.136000,0
181.173440,480,554,60,3.136000,0
181.176576,481,555,60,4.416000,0
181.180992,482,556,60,0,1943.424000
183.124416,482,557,60,4.416000,0
183.128832,483,558,60,3.136000,0
183.131968,484,559,60,4.416000,0
183.136384,485,560,60,4.416000,0
183.140800,486,561,60,3.136000,0
183.143936,487,562,60,3.136000,0
183.147072,488,563,61,3.136000,0
183.150208,489,564,61,0,1940.288000
185.090496,489,565,61,3.136000,0
185.093632,490,566,61,4.416000,0
185.098048,491,567,61,3.136000,0
185.101184,492,568,61,4.416000,0
185.105600,493,569,61,4.416000,0
185.110016,494,570,61,3.136000,0
185.113152,495,571,61,0,1943.424000
187.056576,495,572,61,4.416000,0
187.060992,496,573,62,4.416000,0
187.065408,497,574,62,4.416000,0
187.069824,498,575,62,4.416000,0
187.074240,499,576,62,3.136000,0
187.077376,500,577,62,3.136000,0
187.080512,501,578,62,0,1942.144000
189.022656,501,579,62,4.416000,0
189.027072,502,580,62,3.136000,0
189.030208,503,581,62,3.136000,0
189.033344,504,582,63,3.136000,0
189.036480,505,583,63,3.136000,0
189.039616,506,584,63,3.136000,0
189.042752,507,585,63,3.136000,0
189.045888,508,586,63,0,1942.848000
190.988736,508,587,63,4.416000,0
190.993152,509,588,63,4.416000,0
190.997568,510,589,63,3.136000,0
191.000704,511,590,63,3.136000,0
191.003840,512,591,64,3.136000,0
191.006976,513,592,64,4.416000,0
191.011392,514,593,64,0,1943.424000
192.954816,514,594,64,4.416000,0
192.959232,515,595,64,3.136000,0
192.962368,516,596,64,4.416000,0
192.966784,517,597,64,4.416000,0
192.971200,518,598,64,3.136000,0
192.974336,519,599,64,4.416000,0
192.978752,520,600,65,0,1942.144000
194.920896,520,601,65,4.416000,0
194.925312,521,602,65,4.416000,0
194.929728,522,603,65,4.416000,0
194.934144,523,604,65,3.136000,0
194.937280,524,605,65,4.416000,0
194.941696,525,606,65,4.416000,0
194.946112,526,607,65,0,1940.864000
196.886976,526,608,65,3.136000,0
196.890112,527,609,65,4.416000,0
196.894528,528,610,66,4.416000,0
196.898944,529,611,66,4.416000,0
196.903360,530,612,66,3.136000,0
196.906496,531,613,66,3.136000,0
196.909632,532,614,66,0,1943.424000
198.853056,532,615,66,4.416000,0
198.857472,533,616,66,4.416000,0
198.861888,534,617,66,3.136000,0
198.865024,535,618,66,3.136000,0
198.868160,536,619,67,4.416000,0
198.872576,537,620,67,4.416000,0
198.876992,538,621,67,0,1942.144000
200.819136,538,622,67,3.136000,0
200.822272,539,623,67,3.136000,0
200.825408,540,624,67,4.416000,0
200.829824,541,625,67,4.416000,0
200.834240,542,626,67,3.136000,0
200.837376,543,627,67,4.416000,0
200.841792,544,628,68,3.136000,0
200.844928,545,629,68,0,1940.288000
202.785216,545,630,68,3.136000,0
202.788352,546,631,68,4.416000,0
202.792768,547,632,68,3.136000,0
202.795904,548,633,68,4.416000,0
202.800320,549,634,68,4.416000,0
202.804736,550,635,68,3.136000,0
202.807872,551,636,68,3.136000,0
202.811008,552,637,69,0,1940.288000
204.751296,552,638,69,4.416000,0
204.755712,553,639,69,3.136000,0
204.758848,554,640,69,3.136000,0
204.761984,555,641,69,3.136000,0
204.765120,556,642,69,4.416000,0
204.769536,557,643,69,4.416000,0
204.773952,558,644,69,3.136000,0
204.777088,559,645,69,0,1940.288000
206.717376,559,646,69,3.136000,0
206.720512,560,647,70,4.416000,0
206.724928,561,648,70,3.136000,0
206.728064,562,649,70,4.416000,0
206.732480,563,650,70,3.136000,0
206.735616,564,651,70,4.416000,0
206.740032,565,652,70,0,1943.424000
208.683456,565,653,70,4.416000,0
208.687872,566,654,70,3.136000,0
208.691008,567,655,70,4.416000,0
208.695424,568,656,71,4.416000,0
208.699840,569,657,71,4.416000,0
208.704256,570,658,71,3.136000,0
208.707392,571,659,71,0,1942.144000
210.649536,571,660,71,3.136000,0
210.652672,572,661,71,4.416000,0
210.657088,573,662,71,4.416000,0
210.661504,574,663,71,3.136000,0
210.664640,575,664,71,3.136000,0
210.667776,576,665,72,3.136000,0
210.670912,577,666,72,4.416000,0
210.675328,578,667,72,0,1940.288000
212.615616,578,668,72,4.416000,0
212.620032,579,669,72,3.136000,0
212.623168,580,670,72,4.416000,0
212.627584,581,671,72,4.416000,0
212.632000,582,672,72,3.136000,0
212.635136,583,673,72,4.416000,0
212.639552,584,674,73,0,1942.144000
214.581696,584,675,73,3.136000,0
214.584832,585,676,73,3.136000,0
214.587968,586,677,73,4.416000,0
214.592384,587,678,73,3.136000,0
214.595520,588,679,73,4.416000,0
214.599936,589,680,73,4.416000,0
214.604352,590,681,73,3.136000,0
214.607488,591,682,73,0,1940.288000
216.547776,591,683,73,3.136000,0
216.550912,592,684,74,3.136000,0
216.554048,593,685,74,3.136000,0
216.557184,594,686,74,4.416000,0
216.561600,595,687,74,3.136000,0
216.564736,596,688,74,4.416000,0
216.569152,597,689,74,4.416000,0
216.573568,598,690,74,0,1940.288000
218.513856,598,691,74,3.136000,0
218.516992,599,692,74,4.416000,0
218.521408,600,693,75,4.416000,0
218.525824,601,694,75,3.136000,0
218.528960,602,695,75,3.136000,0
218.532096,603,696,75,3.136000,0
218.535232,604,697,75,3.136000,0
218.538368,605,698,75,0,1941.568000
220.479936,605,699,75,4.416000,0
220.484352,606,700,75,3.136000,0
220.487488,607,701,75,3.136000,0
220.490624,608,702,76,3.136000,0
220.493760,609,703,76,3.136000,0
220.496896,610,704,76,3.136000,0
220.500032,611,705,76,3.136000,0
220.503168,612,706,76,0,1942.848000
222.446016,612,707,76,3.136000,0
222.449152,613,708,76,4.416000,0
222.453568,614,709,76,3.136000,0
222.456704,615,710,76,3.136000,0
222.459840,616,711,77,3.136000,0
222.462976,617,712,77,3.136000,0
222.466112,618,713,77,3.136000,0
222.469248,619,714,77,0,1942.848000
224.412096,619,715,77,3.136000,0
224.415232,620,716,77,3.136000,0
224.418368,621,717,77,4.416000,0
224.422784,622,718,77,3.136000,0
224.425920,623,719,77,3.136000,0
224.429056,624,720,78,3.136000,0
224.432192,625,721,78,3.136000,0
224.435328,626,722,78,0,1942.848000
226.378176,626,723,78,3.136000,0
226.381312,627,724,78,3.136000,0
226.384448,628,725,78,3.136000,0
226.387584,629,726,78,4.416000,0
226.392000,630,727,78,4.416000,0
226.396416,631,728,78,3.136000,0
226.399552,632,729,79,4.416000,0
226.403968,633,730,79,0,1940.288000
228.344256,633,731,79,3.136000,0
228.347392,634,732,79,3.136000,0
228.350528,635,733,79,4.416000,0
228.354944,636,734,79,3.136000,0
228.358080,637,735,79,4.416000,0
228.362496,638,736,79,4.416000,0
228.366912,639,737,79,3.136000,0
228.370048,640,738,80,0,1940.288000
230.310336,640,739,80,4.416000,0
230.314752,641,740,80,4.416000,0
230.319168,642,741,80,4.416000,0
230.323584,643,742,80,3.136000,0
230.326720,644,743,80,3.136000,0
230.329856,645,744,80,4.416000,0
230.334272,646,745,80,0,1942.144000
232.276416,646,746,80,4.416000,0
232.280832,647,747,80,3.136000,0
232.283968,648,748,81,3.136000,0
232.287104,649,749,81,4.416000,0
232.291520,650,750,81,4.416000,0
232.295936,651,751,81,3.136000,0
232.299072,652,752,81,3.136000,0
232.302208,653,753,81,0,1942.144000
