Time,CovertPackets,AllPackets,BitsSent,PacketInterval,GTSInterval
1518.804352,1,2,0,3.136000,0
1518.807488,2,3,0,4.416000,0
1518.811904,3,4,0,4.416000,0
1518.816320,4,5,0,3.136000,0
1518.819456,5,6,0,4.416000,0
1518.823872,6,7,0,3.136000,0
1518.827008,7,8,0,3.136000,0
1518.830144,8,9,1,4.416000,0
1518.834560,9,10,1,3.136000,0
1518.837696,10,11,1,4.416000,0
1518.842112,11,12,1,4.416000,0
1518.846528,12,13,1,3.136000,0
1518.849664,13,14,1,4.416000,0
1518.854080,14,15,1,4.416000,0
1518.858496,15,16,1,4.416000,0
1518.862912,16,17,2,3.136000,0
1518.866048,17,18,2,3.136000,0
1518.869184,18,19,2,4.416000,0
1518.873600,19,20,2,4.416000,0
1518.878016,20,21,2,3.136000,0
1518.881152,21,22,2,0,62832.704000
1581.713856,21,23,2,3.136000,0
1581.716992,22,24,2,4.416000,0
1581.721408,23,25,2,4.416000,0
1581.725824,24,26,3,3.136000,0
1581.728960,25,27,3,3.136000,0
1581.732096,26,28,3,4.416000,0
1581.736512,27,29,3,4.416000,0
1581.740928,28,30,3,3.136000,0
1581.744064,29,31,3,4.416000,0
1581.748480,30,32,3,4.416000,0
1581.752896,31,33,3,4.416000,0
1581.757312,32,34,4,4.416000,0
1581.761728,33,35,4,3.136000,0
1581.764864,34,36,4,4.416000,0
1581.769280,35,37,4,4.416000,0
1581.773696,36,38,4,4.416000,0
1581.778112,37,39,4,3.136000,0
1581.781248,38,40,4,3.136000,0
1581.784384,39,41,4,4.416000,0
1581.788800,40,42,5,3.136000,0
1581.791936,41,43,5,3.136000,0
1581.795072,42,44,5,0,62833.344000
1644.628416,42,45,5,4.416000,0
1644.632832,43,46,5,4.416000,0
1644.637248,44,47,5,3.136000,0
1644.640384,45,48,5,4.416000,0
1644.644800,46,49,5,4.416000,0
1644.649216,47,50,5,3.136000,0
1644.652352,48,51,6,4.416000,0
1644.656768,49,52,6,3.136000,0
1644.659904,50,53,6,4.416000,0
1644.664320,51,54,6,4.416000,0
1644.668736,52,55,6,3.136000,0
1644.671872,53,56,6,3.136000,0
1644.675008,54,57,6,3.136000,0
1644.678144,55,58,6,3.136000,0
1644.681280,56,59,7,4.416000,0
1644.685696,57,60,7,3.136000,0
1644.688832,58,61,7,4.416000,0
1644.693248,59,62,7,4.416000,0
1644.697664,60,63,7,3.136000,0
1644.700800,61,64,7,3.136000,0
1644.703936,62,65,7,3.136000,0
1644.707072,63,66,7,0,62835.904000
1707.542976,63,67,7,4.416000,0
1707.547392,64,68,8,4.416000,0
1707.551808,65,69,8,3.136000,0
1707.554944,66,70,8,4.416000,0
1707.559360,67,71,8,4.416000,0
1707.563776,68,72,8,3.136000,0
1707.566912,69,73,8,3.136000,0
1707.570048,70,74,8,3.136000,0
1707.573184,71,75,8,3.136000,0
1707.576320,72,76,9,4.416000,0
1707.580736,73,77,9,3.136000,0
1707.583872,74,78,9,4.416000,0
1707.588288,75,79,9,4.416000,0
1707.592704,76,80,9,3.136000,0
1707.595840,77,81,9,4.416000,0
1707.600256,78,82,9,4.416000,0
1707.604672,79,83,9,4.416000,0
1707.609088,80,84,10,4.416000,0
1707.613504,81,85,10,3.136000,0
1707.616640,82,86,10,3.136000,0
1707.619776,83,87,10,4.416000,0
1707.624192,84,88,10,0,62835.904000
