Time,CovertPackets,AllPackets,BitsSent,PacketInterval,GTSInterval
37.639552,1,2,0,3.136000,0
37.642688,2,3,0,4.416000,0
37.647104,3,4,0,4.416000,0
37.651520,4,5,0,3.136000,0
37.654656,5,6,0,4.416000,0
37.659072,6,7,0,0,1941.504000
39.600576,6,8,0,3.136000,0
39.603712,7,9,0,3.136000,0
39.606848,8,10,1,4.416000,0
39.611264,9,11,1,3.136000,0
39.614400,10,12,1,4.416000,0
39.618816,11,13,1,4.416000,0
39.623232,12,14,1,3.136000,0
39.626368,13,15,1,0,1940.288000
41.566656,13,16,1,4.416000,0
41.571072,14,17,1,4.416000,0
41.575488,15,18,1,4.416000,0
41.579904,16,19,2,3.136000,0
41.583040,17,20,2,3.136000,0
41.586176,18,21,2,4.416000,0
41.590592,19,22,2,0,1942.144000
43.532736,19,23,2,4.416000,0
43.537152,20,24,2,3.136000,0
43.540288,21,25,2,3.136000,0
43.543424,22,26,2,4.416000,0
43.547840,23,27,2,4.416000,0
43.552256,24,28,3,3.136000,0
43.555392,25,29,3,3.136000,0
43.558528,26,30,3,0,1940.288000
45.498816,26,31,3,4.416000,0
45.503232,27,32,3,4.416000,0
45.507648,28,33,3,3.136000,0
45.510784,29,34,3,0,1954.112000
47.464896,29,35,3,0,1966.080000
49.430976,29,36,3,0,1966.080000
51.397056,29,37,3,0,1966.080000
53.363136,29,38,3,0,1966.080000
55.329216,29,39,3,0,1966.080000
57.295296,29,40,3,0,1966.080000
59.261376,29,41,3,0,3932.160000
63.193536,29,42,3,0,1966.080000
65.159616,29,43,3,0,1966.080000
67.125696,29,44,3,0,1966.080000
69.091776,29,45,3,0,1966.080000
71.057856,29,46,3,0,1966.080000
73.023936,29,47,3,0,1966.080000
74.990016,29,48,3,0,1966.080000
76.956096,29,49,3,0,1966.080000
78.922176,29,50,3,0,1966.080000
80.888256,29,51,3,0,1966.080000
82.854336,29,52,3,0,1966.080000
84.820416,29,53,3,0,1966.080000
86.786496,29,54,3,0,1966.080000
88.752576,29,55,3,0,1966.080000
90.718656,29,56,3,0,1966.080000
92.684736,29,57,3,0,1966.080000
94.650816,29,58,3,0,1966.080000
96.616896,29,59,3,0,3932.160000
100.549056,29,60,3,0,1966.080000
102.515136,29,61,3,0,1966.080000
104.481216,29,62,3,0,1966.080000
106.447296,29,63,3,0,1966.080000
108.413376,29,64,3,0,1966.080000
110.379456,29,65,3,0,1966.080000
112.345536,29,66,3,0,1966.080000
114.311616,29,67,3,0,1966.080000
116.277696,29,68,3,0,1966.080000
118.243776,29,69,3,0,1966.080000
120.209856,29,70,3,0,1966.080000
122.175936,29,71,3,0,1966.080000
124.142016,29,72,3,0,1966.080000
126.108096,29,73,3,0,1966.080000
128.074176,29,74,3,0,1966.080000
130.040256,29,75,3,0,1966.080000
132.006336,29,76,3,0,1966.080000
133.972416,29,77,3,0,1966.080000
135.938496,29,78,3,0,3932.160000
139.870656,29,79,3,0,1966.080000
141.836736,29,80,3,0,1966.080000
143.802816,29,81,3,0,1966.080000
145.768896,29,82,3,0,1966.080000
147.734976,29,83,3,0,1966.080000
149.701056,29,84,3,0,1966.080000
151.667136,29,85,3,0,1966.080000
153.633216,29,86,3,0,1966.080000
155.599296,29,87,3,0,1966.080000
157.565376,29,88,3,0,1966.080000
159.531456,29,89,3,0,1966.080000
161.497536,29,90,3,0,1966.080000
163.463616,29,91,3,0,1966.080000
165.429696,29,92,3,0,3932.160000
169.361856,29,93,3,0,1966.080000
171.327936,29,94,3,0,1966.080000
173.294016,29,95,3,0,1966.080000
175.260096,29,96,3,0,1966.080000
177.226176,29,97,3,0,1966.080000
179.192256,29,98,3,0,1966.080000
181.158336,29,99,3,0,1966.080000
183.124416,29,100,3,0,1966.080000
185.090496,29,101,3,0,1966.080000
187.056576,29,102,3,0,1966.080000
189.022656,29,103,3,0,1966.080000
190.988736,29,104,3,0,1966.080000
192.954816,29,105,3,0,1966.080000
194.920896,29,106,3,0,1966.080000
196.886976,29,107,3,0,3932.160000
200.819136,29,108,3,0,1966.080000
202.785216,29,109,3,0,1966.080000
204.751296,29,110,3,0,1966.080000
206.717376,29,111,3,0,1966.080000
208.683456,29,112,3,0,1966.080000
210.649536,29,113,3,0,1966.080000
212.615616,29,114,3,0,1966.080000
214.581696,29,115,3,0,1966.080000
216.547776,29,116,3,0,1966.080000
218.513856,29,117,3,0,1966.080000
220.479936,29,118,3,0,1966.080000
222.446016,29,119,3,0,1966.080000
224.412096,29,120,3,0,1966.080000
226.378176,29,121,3,0,3932.160000
230.310336,29,122,3,0,1966.080000
232.276416,29,123,3,0,1966.080000
