Time,CovertPackets,AllPackets,BitsSent,PacketInterval,GTSInterval
31.603072,1,2,0,3.136000,0
31.606208,2,3,0,0,974.848000
32.581056,2,4,0,4.416000,0
32.585472,3,5,0,4.416000,0
32.589888,4,6,0,0,974.208000
33.564096,4,7,0,3.136000,0
33.567232,5,8,0,4.416000,0
33.571648,6,9,0,0,975.488000
34.547136,6,10,0,3.136000,0
34.550272,7,11,0,3.136000,0
34.553408,8,12,1,0,976.768000
35.530176,8,13,1,4.416000,0
35.534592,9,14,1,3.136000,0
35.537728,10,15,1,0,975.488000
36.513216,10,16,1,4.416000,0
36.517632,11,17,1,4.416000,0
36.522048,12,18,1,0,974.208000
37.496256,12,19,1,3.136000,0
37.499392,13,20,1,4.416000,0
37.503808,14,21,1,0,975.488000
38.479296,14,22,1,4.416000,0
38.483712,15,23,1,4.416000,0
38.488128,16,24,2,0,974.208000
39.462336,16,25,2,3.136000,0
39.465472,17,26,2,3.136000,0
39.468608,18,27,2,0,976.768000
40.445376,18,28,2,4.416000,0
40.449792,19,29,2,4.416000,0
40.454208,20,30,2,0,974.208000
41.428416,20,31,2,3.136000,0
41.431552,21,32,2,3.136000,0
41.434688,22,33,2,0,976.768000
42.411456,22,34,2,4.416000,0
42.415872,23,35,2,4.416000,0
42.420288,24,36,3,0,974.208000
43.394496,24,37,3,3.136000,0
43.397632,25,38,3,3.136000,0
43.400768,26,39,3,0,976.768000
44.377536,26,40,3,4.416000,0
44.381952,27,41,3,4.416000,0
44.386368,28,42,3,0,974.208000
45.360576,28,43,3,3.136000,0
45.363712,29,44,3,4.416000,0
45.368128,30,45,3,0,975.488000
46.343616,30,46,3,4.416000,0
46.348032,31,47,3,4.416000,0
46.352448,32,48,4,0,974.208000
47.326656,32,49,4,4.416000,0
47.331072,33,50,4,3.136000,0
47.334208,34,51,4,0,975.488000
48.309696,34,52,4,4.416000,0
48.314112,35,53,4,4.416000,0
48.318528,36,54,4,0,974.208000
49.292736,36,55,4,4.416000,0
49.297152,37,56,4,3.136000,0
49.300288,38,57,4,0,975.488000
50.275776,38,58,4,3.136000,0
50.278912,39,59,4,4.416000,0
50.283328,40,60,5,0,975.488000
51.258816,40,61,5,3.136000,0
51.261952,41,62,5,3.136000,0
51.265088,42,63,5,0,976.768000
52.241856,42,64,5,4.416000,0
52.246272,43,65,5,4.416000,0
52.250688,44,66,5,0,974.208000
53.224896,44,67,5,3.136000,0
53.228032,45,68,5,4.416000,0
53.232448,46,69,5,0,975.488000
54.207936,46,70,5,4.416000,0
54.212352,47,71,5,3.136000,0
54.215488,48,72,6,0,975.488000
55.190976,48,73,6,4.416000,0
55.195392,49,74,6,3.136000,0
55.198528,50,75,6,0,975.488000
56.174016,50,76,6,4.416000,0
56.178432,51,77,6,4.416000,0
56.182848,52,78,6,0,974.208000
57.157056,52,79,6,3.136000,0
57.160192,53,80,6,3.136000,0
57.163328,54,81,6,3.136000,0
57.166464,55,82,6,0,973.632000
58.140096,55,83,6,3.136000,0
58.143232,56,84,7,4.416000,0
58.147648,57,85,7,0,975.488000
59.123136,57,86,7,3.136000,0
59.126272,58,87,7,4.416000,0
59.130688,59,88,7,0,975.488000
60.106176,59,89,7,4.416000,0
60.110592,60,90,7,3.136000,0
60.113728,61,91,7,0,975.488000
61.089216,61,92,7,3.136000,0
61.092352,62,93,7,3.136000,0
61.095488,63,94,7,0,976.768000
62.072256,63,95,7,4.416000,0
62.076672,64,96,8,4.416000,0
62.081088,65,97,8,0,974.208000
63.055296,65,98,8,3.136000,0
63.058432,66,99,8,4.416000,0
63.062848,67,100,8,0,975.488000
64.038336,67,101,8,4.416000,0
64.042752,68,102,8,3.136000,0
64.045888,69,103,8,0,975.488000
65.021376,69,104,8,3.136000,0
65.024512,70,105,8,3.136000,0
65.027648,71,106,8,3.136000,0
65.030784,72,107,9,0,973.632000
66.004416,72,108,9,4.416000,0
66.008832,73,109,9,3.136000,0
66.011968,74,110,9,0,975.488000
66.987456,74,111,9,4.416000,0
66.991872,75,112,9,4.416000,0
66.996288,76,113,9,0,974.208000
67.970496,76,114,9,3.136000,0
67.973632,77,115,9,4.416000,0
67.978048,78,116,9,0,975.488000
68.953536,78,117,9,4.416000,0
68.957952,79,118,9,4.416000,0
68.962368,80,119,10,0,974.208000
69.936576,80,120,10,4.416000,0
69.940992,81,121,10,3.136000,0
69.944128,82,122,10,0,975.488000
70.919616,82,123,10,3.136000,0
70.922752,83,124,10,4.416000,0
70.927168,84,125,10,0,975.488000
71.902656,84,126,10,3.136000,0
71.905792,85,127,10,3.136000,0
71.908928,86,128,10,3.136000,0
71.912064,87,129,10,0,973.632000
72.885696,87,130,10,3.136000,0
72.888832,88,131,11,3.136000,0
72.891968,89,132,11,3.136000,0
72.895104,90,133,11,0,973.632000
73.868736,90,134,11,4.416000,0
73.873152,91,135,11,4.416000,0
73.877568,92,136,11,0,974.208000
74.851776,92,137,11,3.136000,0
74.854912,93,138,11,3.136000,0
74.858048,94,139,11,3.136000,0
74.861184,95,140,11,0,973.632000
75.834816,95,141,11,4.416000,0
75.839232,96,142,12,4.416000,0
75.843648,97,143,12,0,974.208000
76.817856,97,144,12,3.136000,0
76.820992,98,145,12,4.416000,0
76.825408,99,146,12,0,975.488000
77.800896,99,147,12,4.416000,0
77.805312,100,148,12,3.136000,0
77.808448,101,149,12,0,975.488000
78.783936,101,150,12,4.416000,0
78.788352,102,151,12,4.416000,0
78.792768,103,152,12,0,974.208000
79.766976,103,153,12,4.416000,0
79.771392,104,154,13,4.416000,0
79.775808,105,155,13,0,974.208000
80.750016,105,156,13,3.136000,0
80.753152,106,157,13,4.416000,0
80.757568,107,158,13,0,975.488000
81.733056,107,159,13,4.416000,0
81.737472,108,160,13,3.136000,0
81.740608,109,161,13,0,975.488000
82.716096,109,162,13,4.416000,0
82.720512,110,163,13,4.416000,0
82.724928,111,164,13,0,974.208000
83.699136,111,165,13,4.416000,0
83.703552,112,166,14,3.136000,0
83.706688,113,167,14,0,975.488000
84.682176,113,168,14,3.136000,0
84.685312,114,169,14,4.416000,0
84.689728,115,170,14,0,975.488000
85.665216,115,171,14,4.416000,0
85.669632,116,172,14,3.136000,0
85.672768,117,173,14,0,975.488000
86.648256,117,174,14,3.136000,0
86.651392,118,175,14,4.416000,0
86.655808,119,176,14,0,975.488000
87.631296,119,177,14,4.416000,0
87.635712,120,178,15,3.136000,0
87.638848,121,179,15,0,975.488000
88.614336,121,180,15,3.136000,0
88.617472,122,181,15,4.416000,0
88.621888,123,182,15,0,975.488000
89.597376,123,183,15,4.416000,0
89.601792,124,184,15,3.136000,0
89.604928,125,185,15,0,975.488000
90.580416,125,186,15,4.416000,0
90.584832,126,187,15,3.136000,0
90.587968,127,188,15,0,975.488000
91.563456,127,189,15,3.136000,0
91.566592,128,190,16,4.416000,0
91.571008,129,191,16,0,975.488000
92.546496,129,192,16,3.136000,0
92.549632,130,193,16,4.416000,0
92.554048,131,194,16,0,975.488000
93.529536,131,195,16,4.416000,0
93.533952,132,196,16,3.136000,0
93.537088,133,197,16,0,975.488000
94.512576,133,198,16,3.136000,0
94.515712,134,199,16,4.416000,0
94.520128,135,200,16,0,975.488000
95.495616,135,201,16,3.136000,0
95.498752,136,202,17,3.136000,0
95.501888,137,203,17,3.136000,0
95.505024,138,204,17,0,973.632000
96.478656,138,205,17,4.416000,0
96.483072,139,206,17,4.416000,0
96.487488,140,207,17,0,974.208000
97.461696,140,208,17,3.136000,0
97.464832,141,209,17,3.136000,0
97.467968,142,210,17,0,976.768000
98.444736,142,211,17,4.416000,0
98.449152,143,212,17,3.136000,0
98.452288,144,213,18,0,975.488000
99.427776,144,214,18,4.416000,0
99.432192,145,215,18,3.136000,0
99.435328,146,216,18,0,975.488000
100.410816,146,217,18,4.416000,0
100.415232,147,218,18,4.416000,0
100.419648,148,219,18,0,974.208000
101.393856,148,220,18,3.136000,0
101.396992,149,221,18,4.416000,0
101.401408,150,222,18,0,975.488000
102.376896,150,223,18,4.416000,0
102.381312,151,224,18,4.416000,0
102.385728,152,225,19,0,974.208000
103.359936,152,226,19,3.136000,0
103.363072,153,227,19,3.136000,0
103.366208,154,228,19,0,976.768000
104.342976,154,229,19,4.416000,0
104.347392,155,230,19,4.416000,0
104.351808,156,231,19,0,974.208000
105.326016,156,232,19,3.136000,0
105.329152,157,233,19,3.136000,0
105.332288,158,234,19,3.136000,0
105.335424,159,235,19,0,973.632000
106.309056,159,236,19,4.416000,0
106.313472,160,237,20,4.416000,0
106.317888,161,238,20,0,974.208000
107.292096,161,239,20,3.136000,0
107.295232,162,240,20,4.416000,0
107.299648,163,241,20,0,975.488000
108.275136,163,242,20,4.416000,0
108.279552,164,243,20,3.136000,0
108.282688,165,244,20,0,975.488000
109.258176,165,245,20,4.416000,0
109.262592,166,246,20,3.136000,0
109.265728,167,247,20,0,975.488000
110.241216,167,248,20,3.136000,0
110.244352,168,249,21,4.416000,0
110.248768,169,250,21,0,975.488000
111.224256,169,251,21,3.136000,0
111.227392,170,252,21,4.416000,0
111.231808,171,253,21,0,975.488000
112.207296,171,254,21,4.416000,0
112.211712,172,255,21,3.136000,0
112.214848,173,256,21,0,975.488000
113.190336,173,257,21,3.136000,0
113.193472,174,258,21,3.136000,0
113.196608,175,259,21,3.136000,0
113.199744,176,260,22,0,973.632000
114.173376,176,261,22,4.416000,0
114.177792,177,262,22,3.136000,0
114.180928,178,263,22,0,975.488000
115.156416,178,264,22,4.416000,0
115.160832,179,265,22,4.416000,0
115.165248,180,266,22,0,974.208000
116.139456,180,267,22,3.136000,0
116.142592,181,268,22,4.416000,0
116.147008,182,269,22,0,975.488000
117.122496,182,270,22,4.416000,0
117.126912,183,271,22,3.136000,0
117.130048,184,272,23,0,975.488000
118.105536,184,273,23,3.136000,0
118.108672,185,274,23,3.136000,0
118.111808,186,275,23,3.136000,0
118.114944,187,276,23,0,973.632000
119.088576,187,277,23,4.416000,0
119.092992,188,278,23,3.136000,0
119.096128,189,279,23,0,975.488000
120.071616,189,280,23,3.136000,0
120.074752,190,281,23,3.136000,0
120.077888,191,282,23,3.136000,0
120.081024,192,283,24,0,973.632000
121.054656,192,284,24,3.136000,0
121.057792,193,285,24,3.136000,0
121.060928,194,286,24,3.136000,0
121.064064,195,287,24,0,973.632000
122.037696,195,288,24,4.416000,0
122.042112,196,289,24,3.136000,0
122.045248,197,290,24,0,975.488000
123.020736,197,291,24,3.136000,0
123.023872,198,292,24,3.136000,0
123.027008,199,293,24,3.136000,0
123.030144,200,294,25,0,973.632000
124.003776,200,295,25,3.136000,0
124.006912,201,296,25,3.136000,0
124.010048,202,297,25,3.136000,0
124.013184,203,298,25,0,973.632000
124.986816,203,299,25,4.416000,0
124.991232,204,300,25,3.136000,0
124.994368,205,301,25,0,975.488000
125.969856,205,302,25,3.136000,0
125.972992,206,303,25,3.136000,0
125.976128,207,304,25,3.136000,0
125.979264,208,305,26,0,973.632000
126.952896,208,306,26,3.136000,0
126.956032,209,307,26,3.136000,0
126.959168,210,308,26,3.136000,0
126.962304,211,309,26,0,973.632000
127.935936,211,310,26,4.416000,0
127.940352,212,311,26,4.416000,0
127.944768,213,312,26,0,974.208000
128.918976,213,313,26,3.136000,0
128.922112,214,314,26,4.416000,0
128.926528,215,315,26,0,975.488000
129.902016,215,316,26,3.136000,0
129.905152,216,317,27,3.136000,0
129.908288,217,318,27,0,976.768000
130.885056,217,319,27,4.416000,0
130.889472,218,320,27,3.136000,0
130.892608,219,321,27,0,975.488000
131.868096,219,322,27,4.416000,0
131.872512,220,323,27,4.416000,0
131.876928,221,324,27,0,974.208000
132.851136,221,325,27,3.136000,0
132.854272,222,326,27,4.416000,0
132.858688,223,327,27,0,975.488000
133.834176,223,328,27,4.416000,0
133.838592,224,329,28,4.416000,0
133.843008,225,330,28,0,974.208000
134.817216,225,331,28,3.136000,0
134.820352,226,332,28,3.136000,0
134.823488,227,333,28,0,976.768000
135.800256,227,334,28,4.416000,0
135.804672,228,335,28,4.416000,0
135.809088,229,336,28,0,974.208000
136.783296,229,337,28,3.136000,0
136.786432,230,338,28,3.136000,0
136.789568,231,339,28,0,976.768000
137.766336,231,340,28,4.416000,0
137.770752,232,341,29,4.416000,0
137.775168,233,342,29,0,974.208000
138.749376,233,343,29,3.136000,0
138.752512,234,344,29,3.136000,0
138.755648,235,345,29,0,976.768000
139.732416,235,346,29,4.416000,0
139.736832,236,347,29,4.416000,0
139.741248,237,348,29,0,974.208000
140.715456,237,349,29,3.136000,0
140.718592,238,350,29,4.416000,0
140.723008,239,351,29,0,975.488000
141.698496,239,352,29,4.416000,0
141.702912,240,353,30,4.416000,0
141.707328,241,354,30,0,974.208000
142.681536,241,355,30,4.416000,0
142.685952,242,356,30,3.136000,0
142.689088,243,357,30,0,975.488000
143.664576,243,358,30,4.416000,0
143.668992,244,359,30,4.416000,0
143.673408,245,360,30,0,974.208000
144.647616,245,361,30,4.416000,0
144.652032,246,362,30,3.136000,0
144.655168,247,363,30,0,975.488000
145.630656,247,364,30,3.136000,0
145.633792,248,365,31,4.416000,0
145.638208,249,366,31,0,975.488000
146.613696,249,367,31,3.136000,0
146.616832,250,368,31,3.136000,0
146.619968,251,369,31,0,976.768000
147.596736,251,370,31,4.416000,0
147.601152,252,371,31,4.416000,0
147.605568,253,372,31,0,974.208000
148.579776,253,373,31,3.136000,0
148.582912,254,374,31,4.416000,0
148.587328,255,375,31,0,975.488000
149.562816,255,376,31,4.416000,0
149.567232,256,377,32,3.136000,0
149.570368,257,378,32,0,975.488000
150.545856,257,379,32,4.416000,0
150.550272,258,380,32,3.136000,0
150.553408,259,381,32,0,975.488000
151.528896,259,382,32,4.416000,0
151.533312,260,383,32,4.416000,0
151.537728,261,384,32,0,974.208000
152.511936,261,385,32,3.136000,0
152.515072,262,386,32,3.136000,0
152.518208,263,387,32,3.136000,0
152.521344,264,388,33,0,973.632000
153.494976,264,389,33,3.136000,0
153.498112,265,390,33,4.416000,0
153.502528,266,391,33,0,975.488000
154.478016,266,392,33,3.136000,0
154.481152,267,393,33,4.416000,0
154.485568,268,394,33,0,975.488000
155.461056,268,395,33,4.416000,0
155.465472,269,396,33,3.136000,0
155.468608,270,397,33,0,975.488000
156.444096,270,398,33,3.136000,0
156.447232,271,399,33,3.136000,0
156.450368,272,400,34,0,976.768000
157.427136,272,401,34,4.416000,0
157.431552,273,402,34,4.416000,0
157.435968,274,403,34,0,974.208000
158.410176,274,404,34,3.136000,0
158.413312,275,405,34,4.416000,0
158.417728,276,406,34,0,975.488000
159.393216,276,407,34,4.416000,0
159.397632,277,408,34,3.136000,0
159.400768,278,409,34,0,975.488000
160.376256,278,410,34,3.136000,0
160.379392,279,411,34,3.136000,0
160.382528,280,412,35,3.136000,0
160.385664,281,413,35,0,973.632000
161.359296,281,414,35,4.416000,0
161.363712,282,415,35,3.136000,0
161.366848,283,416,35,0,975.488000
162.342336,283,417,35,4.416000,0
162.346752,284,418,35,4.416000,0
162.351168,285,419,35,0,974.208000
163.325376,285,420,35,3.136000,0
163.328512,286,421,35,4.416000,0
163.332928,287,422,35,0,975.488000
164.308416,287,423,35,4.416000,0
164.312832,288,424,36,4.416000,0
164.317248,289,425,36,0,974.208000
165.291456,289,426,36,4.416000,0
165.295872,290,427,36,3.136000,0
165.299008,291,428,36,0,975.488000
166.274496,291,429,36,3.136000,0
166.277632,292,430,36,4.416000,0
166.282048,293,431,36,0,975.488000
167.257536,293,432,36,3.136000,0
167.260672,294,433,36,3.136000,0
167.263808,295,434,36,3.136000,0
167.266944,296,435,37,0,973.632000
168.240576,296,436,37,3.136000,0
168.243712,297,437,37,3.136000,0
168.246848,298,438,37,3.136000,0
168.249984,299,439,37,0,973.632000
169.223616,299,440,37,4.416000,0
169.228032,300,441,37,4.416000,0
169.232448,301,442,37,0,974.208000
170.206656,301,443,37,3.136000,0
170.209792,302,444,37,3.136000,0
170.212928,303,445,37,3.136000,0
170.216064,304,446,38,0,973.632000
171.189696,304,447,38,4.416000,0
171.194112,305,448,38,4.416000,0
171.198528,306,449,38,0,974.208000
172.172736,306,450,38,3.136000,0
172.175872,307,451,38,4.416000,0
172.180288,308,452,38,0,975.488000
173.155776,308,453,38,4.416000,0
173.160192,309,454,38,3.136000,0
173.163328,310,455,38,0,975.488000
174.138816,310,456,38,4.416000,0
174.143232,311,457,38,4.416000,0
174.147648,312,458,39,0,974.208000
175.121856,312,459,39,4.416000,0
175.126272,313,460,39,4.416000,0
175.130688,314,461,39,0,974.208000
176.104896,314,462,39,3.136000,0
176.108032,315,463,39,4.416000,0
176.112448,316,464,39,0,975.488000
177.087936,316,465,39,4.416000,0
177.092352,317,466,39,3.136000,0
177.095488,318,467,39,0,975.488000
178.070976,318,468,39,4.416000,0
178.075392,319,469,39,4.416000,0
178.079808,320,470,40,0,974.208000
179.054016,320,471,40,4.416000,0
179.058432,321,472,40,3.136000,0
179.061568,322,473,40,0,975.488000
180.037056,322,474,40,3.136000,0
180.040192,323,475,40,4.416000,0
180.044608,324,476,40,0,975.488000
181.020096,324,477,40,4.416000,0
181.024512,325,478,40,3.136000,0
181.027648,326,479,40,0,975.488000
182.003136,326,480,40,3.136000,0
182.006272,327,481,40,4.416000,0
182.010688,328,482,41,0,975.488000
182.986176,328,483,41,4.416000,0
182.990592,329,484,41,3.136000,0
182.993728,330,485,41,0,975.488000
183.969216,330,486,41,3.136000,0
183.972352,331,487,41,4.416000,0
183.976768,332,488,41,0,975.488000
184.952256,332,489,41,4.416000,0
184.956672,333,490,41,3.136000,0
184.959808,334,491,41,0,975.488000
185.935296,334,492,41,4.416000,0
185.939712,335,493,41,3.136000,0
185.942848,336,494,42,0,975.488000
186.918336,336,495,42,3.136000,0
186.921472,337,496,42,4.416000,0
186.925888,338,497,42,0,975.488000
187.901376,338,498,42,3.136000,0
187.904512,339,499,42,4.416000,0
187.908928,340,500,42,0,975.488000
188.884416,340,501,42,4.416000,0
188.888832,341,502,42,3.136000,0
188.891968,342,503,42,0,975.488000
189.867456,342,504,42,3.136000,0
189.870592,343,505,42,4.416000,0
189.875008,344,506,43,0,975.488000
190.850496,344,507,43,3.136000,0
190.853632,345,508,43,3.136000,0
190.856768,346,509,43,3.136000,0
190.859904,347,510,43,0,973.632000
191.833536,347,511,43,4.416000,0
191.837952,348,512,43,4.416000,0
191.842368,349,513,43,0,974.208000
192.816576,349,514,43,3.136000,0
192.819712,350,515,43,3.136000,0
192.822848,351,516,43,0,976.768000
193.799616,351,517,43,4.416000,0
193.804032,352,518,44,3.136000,0
193.807168,353,519,44,0,975.488000
194.782656,353,520,44,4.416000,0
194.787072,354,521,44,3.136000,0
194.790208,355,522,44,0,975.488000
195.765696,355,523,44,4.416000,0
195.770112,356,524,44,4.416000,0
195.774528,357,525,44,0,974.208000
196.748736,357,526,44,3.136000,0
196.751872,358,527,44,4.416000,0
196.756288,359,528,44,0,975.488000
197.731776,359,529,44,4.416000,0
197.736192,360,530,45,4.416000,0
197.740608,361,531,45,0,974.208000
198.714816,361,532,45,3.136000,0
198.717952,362,533,45,3.136000,0
198.721088,363,534,45,0,976.768000
199.697856,363,535,45,4.416000,0
199.702272,364,536,45,4.416000,0
199.706688,365,537,45,0,974.208000
200.680896,365,538,45,3.136000,0
200.684032,366,539,45,3.136000,0
200.687168,367,540,45,3.136000,0
200.690304,368,541,46,0,973.632000
201.663936,368,542,46,4.416000,0
201.668352,369,543,46,4.416000,0
201.672768,370,544,46,0,974.208000
202.646976,370,545,46,3.136000,0
202.650112,371,546,46,4.416000,0
202.654528,372,547,46,0,975.488000
203.630016,372,548,46,4.416000,0
203.634432,373,549,46,3.136000,0
203.637568,374,550,46,0,975.488000
204.613056,374,551,46,4.416000,0
204.617472,375,552,46,3.136000,0
204.620608,376,553,47,0,975.488000
205.596096,376,554,47,3.136000,0
205.599232,377,555,47,4.416000,0
205.603648,378,556,47,0,975.488000
206.579136,378,557,47,3.136000,0
206.582272,379,558,47,4.416000,0
206.586688,380,559,47,0,975.488000
207.562176,380,560,47,4.416000,0
207.566592,381,561,47,3.136000,0
207.569728,382,562,47,0,975.488000
208.545216,382,563,47,3.136000,0
208.548352,383,564,47,3.136000,0
208.551488,384,565,48,3.136000,0
208.554624,385,566,48,0,973.632000
209.528256,385,567,48,4.416000,0
209.532672,386,568,48,3.136000,0
209.535808,387,569,48,0,975.488000
210.511296,387,570,48,4.416000,0
210.515712,388,571,48,4.416000,0
210.520128,389,572,48,0,974.208000
211.494336,389,573,48,3.136000,0
211.497472,390,574,48,4.416000,0
211.501888,391,575,48,0,975.488000
212.477376,391,576,48,4.416000,0
212.481792,392,577,49,3.136000,0
212.484928,393,578,49,0,975.488000
213.460416,393,579,49,3.136000,0
213.463552,394,580,49,3.136000,0
213.466688,395,581,49,3.136000,0
213.469824,396,582,49,0,973.632000
214.443456,396,583,49,4.416000,0
214.447872,397,584,49,3.136000,0
214.451008,398,585,49,0,975.488000
215.426496,398,586,49,3.136000,0
215.429632,399,587,49,3.136000,0
215.432768,400,588,50,3.136000,0
215.435904,401,589,50,0,973.632000
216.409536,401,590,50,3.136000,0
216.412672,402,591,50,3.136000,0
216.415808,403,592,50,3.136000,0
216.418944,404,593,50,0,973.632000
217.392576,404,594,50,4.416000,0
217.396992,405,595,50,3.136000,0
217.400128,406,596,50,0,975.488000
218.375616,406,597,50,3.136000,0
218.378752,407,598,50,3.136000,0
218.381888,408,599,51,3.136000,0
218.385024,409,600,51,0,973.632000
219.358656,409,601,51,3.136000,0
219.361792,410,602,51,3.136000,0
219.364928,411,603,51,3.136000,0
219.368064,412,604,51,0,973.632000
220.341696,412,605,51,4.416000,0
220.346112,413,606,51,3.136000,0
220.349248,414,607,51,0,975.488000
221.324736,414,608,51,3.136000,0
221.327872,415,609,51,3.136000,0
221.331008,416,610,52,3.136000,0
221.334144,417,611,52,0,973.632000
222.307776,417,612,52,3.136000,0
222.310912,418,613,52,3.136000,0
222.314048,419,614,52,3.136000,0
222.317184,420,615,52,0,973.632000
223.290816,420,616,52,4.416000,0
223.295232,421,617,52,4.416000,0
223.299648,422,618,52,0,974.208000
224.273856,422,619,52,3.136000,0
224.276992,423,620,52,4.416000,0
224.281408,424,621,53,0,975.488000
225.256896,424,622,53,3.136000,0
225.260032,425,623,53,3.136000,0
225.263168,426,624,53,0,976.768000
226.239936,426,625,53,4.416000,0
226.244352,427,626,53,3.136000,0
226.247488,428,627,53,0,975.488000
227.222976,428,628,53,4.416000,0
227.227392,429,629,53,4.416000,0
227.231808,430,630,53,0,974.208000
228.206016,430,631,53,3.136000,0
228.209152,431,632,53,4.416000,0
228.213568,432,633,54,0,975.488000
229.189056,432,634,54,4.416000,0
229.193472,433,635,54,4.416000,0
229.197888,434,636,54,0,974.208000
230.172096,434,637,54,3.136000,0
230.175232,435,638,54,3.136000,0
230.178368,436,639,54,0,976.768000
231.155136,436,640,54,4.416000,0
231.159552,437,641,54,4.416000,0
231.163968,438,642,54,0,974.208000
