Time,CovertPackets,AllPackets,BitsSent,PacketInterval,GTSInterval
260.515984,1,150,1,6.784000,0
260.522768,2,225,2,9.184000,0
260.531952,3,300,3,9.440000,0
260.541392,4,375,4,5.568000,0
260.546960,5,450,5,7.008000,0
260.553968,6,525,6,8.704000,0
260.562672,7,600,7,7.040000,0
260.569712,8,675,8,8.000000,0
260.577712,9,750,9,7.040000,0
260.584752,10,825,10,5.568000,0
260.590320,11,900,11,8.608000,0
260.598928,12,975,12,8.000000,0
260.606928,13,1050,13,5.568000,0
260.612496,14,1125,14,9.184000,0
260.621680,15,1200,15,9.440000,0
260.631120,16,1275,16,0,31336.624000
291.967744,16,1350,16,6.784000,0
291.974528,17,1425,17,8.480000,0
291.983008,18,1500,18,8.960000,0
291.991968,19,1575,19,9.184000,0
292.001152,20,1650,20,8.000000,0
292.009152,21,1725,21,6.784000,0
292.015936,22,1800,22,7.040000,0
292.022976,23,1875,23,8.224000,0
292.031200,24,1950,24,8.608000,0
292.039808,25,2025,25,8.608000,0
292.048416,26,2100,26,8.608000,0
292.057024,27,2175,27,6.784000,0
292.063808,28,2250,28,9.184000,0
292.072992,29,2325,29,9.440000,0
292.082432,30,2400,30,5.568000,0
292.088000,31,2475,31,7.008000,0
292.095008,32,2550,32,8.704000,0
292.103712,33,2625,33,7.040000,0
292.110752,34,2700,34,8.000000,0
292.118752,35,2775,35,7.040000,0
292.125792,36,2850,36,5.568000,0
292.131360,37,2925,37,0,31293.664000
323.425024,37,3000,37,8.608000,0
323.433632,38,3075,38,8.000000,0
323.441632,39,3150,39,5.568000,0
323.447200,40,3225,40,9.184000,0
323.456384,41,3300,41,9.440000,0
323.465824,42,3375,42,6.784000,0
323.472608,43,3450,43,8.480000,0
323.481088,44,3525,44,8.960000,0
323.490048,45,3600,45,9.184000,0
323.499232,46,3675,46,8.000000,0
323.507232,47,3750,47,6.784000,0
323.514016,48,3825,48,7.040000,0
323.521056,49,3900,49,8.224000,0
323.529280,50,3975,50,8.608000,0
323.537888,51,4050,51,8.608000,0
323.546496,52,4125,52,8.608000,0
323.555104,53,4200,53,6.784000,0
323.561888,54,4275,54,9.184000,0
323.571072,55,4350,55,9.440000,0
323.580512,56,4425,56,5.568000,0
323.586080,57,4500,57,7.008000,0
323.593088,58,4575,58,0,31289.216000
354.882304,58,4650,58,8.704000,0
354.891008,59,4725,59,7.040000,0
354.898048,60,4800,60,8.000000,0
354.906048,61,4875,61,7.040000,0
354.913088,62,4950,62,5.568000,0
354.918656,63,5025,63,8.608000,0
354.927264,64,5100,64,8.000000,0
354.935264,65,5175,65,5.568000,0
354.940832,66,5250,66,9.184000,0
354.950016,67,5325,67,9.440000,0
354.959456,68,5400,68,6.784000,0
354.966240,69,5475,69,8.480000,0
354.974720,70,5550,70,8.960000,0
354.983680,71,5625,71,9.184000,0
354.992864,72,5700,72,8.000000,0
355.000864,73,5775,73,6.784000,0
355.007648,74,5850,74,7.040000,0
355.014688,75,5925,75,8.224000,0
355.022912,76,6000,76,8.608000,0
355.031520,77,6075,77,8.608000,0
355.040128,78,6150,78,8.608000,0
355.048736,79,6225,79,0,31290.848000
386.339584,79,6300,79,6.784000,0
386.346368,80,6375,80,9.184000,0
386.355552,81,6450,81,9.440000,0
386.364992,82,6525,82,5.568000,0
386.370560,83,6600,83,7.008000,0
386.377568,84,6675,84,8.704000,0
386.386272,85,6750,85,7.040000,0
386.393312,86,6825,86,8.000000,0
386.401312,87,6900,87,7.040000,0
386.408352,88,6975,88,5.568000,0
386.413920,89,7050,89,8.608000,0
386.422528,90,7125,90,8.000000,0
386.430528,91,7200,91,5.568000,0
386.436096,92,7275,92,9.184000,0
386.445280,93,7350,93,9.440000,0
386.454720,94,7425,94,6.784000,0
386.461504,95,7500,95,8.480000,0
386.469984,96,7575,96,8.960000,0
386.478944,97,7650,97,9.184000,0
386.488128,98,7725,98,8.000000,0
386.496128,99,7800,99,6.784000,0
386.502912,100,7875,100,7.040000,0
386.509952,101,7950,101,0,31286.912000
417.796864,101,8025,101,8.224000,0
417.805088,102,8100,102,8.608000,0
417.813696,103,8175,103,8.608000,0
417.822304,104,8250,104,8.608000,0
417.830912,105,8325,105,6.784000,0
417.837696,106,8400,106,9.184000,0
417.846880,107,8475,107,9.440000,0
417.856320,108,8550,108,5.568000,0
417.861888,109,8625,109,7.008000,0
417.868896,110,8700,110,8.704000,0
417.877600,111,8775,111,7.040000,0
417.884640,112,8850,112,8.000000,0
417.892640,113,8925,113,7.040000,0
417.899680,114,9000,114,5.568000,0
417.905248,115,9075,115,8.608000,0
417.913856,116,9150,116,8.000000,0
417.921856,117,9225,117,5.568000,0
417.927424,118,9300,118,9.184000,0
417.936608,119,9375,119,9.440000,0
417.946048,120,9450,120,6.784000,0
417.952832,121,9525,121,8.480000,0
417.961312,122,9600,122,0,31292.832000
449.254144,122,9675,122,8.960000,0
449.263104,123,9750,123,9.184000,0
449.272288,124,9825,124,8.000000,0
449.280288,125,9900,125,6.784000,0
449.287072,126,9975,126,7.040000,0
449.294112,127,10050,127,8.224000,0
449.302336,128,10125,128,8.608000,0
449.310944,129,10200,129,8.608000,0
449.319552,130,10275,130,8.608000,0
449.328160,131,10350,131,6.784000,0
449.334944,132,10425,132,9.184000,0
449.344128,133,10500,133,9.440000,0
449.353568,134,10575,134,5.568000,0
449.359136,135,10650,135,7.008000,0
449.366144,136,10725,136,8.704000,0
449.374848,137,10800,137,7.040000,0
449.381888,138,10875,138,8.000000,0
449.389888,139,10950,139,7.040000,0
449.396928,140,11025,140,5.568000,0
449.402496,141,11100,141,8.608000,0
449.411104,142,11175,142,8.000000,0
449.419104,143,11250,143,