Delay,Aut_Number,Aut_Slot,MensagemAut
0.027296,1,1,9
0.023920,1,1,9
0.020752,1,1,9
0.017472,1,1,9
0.013648,1,1,9
0.009760,1,1,9
0.006592,1,1,9
0.003312,1,1,9
0.000000,1,1,9
0.023920,2,1,17
0.020752,2,1,17
0.017216,2,1,17
0.013648,2,1,17
0.010272,2,1,17
0.007104,2,1,17
0.003568,2,1,17
0.000000,2,1,17
31.409808,3,2,25
31.406384,3,2,25
31.402848,3,2,25
31.399024,3,2,25
0.014160,3,2,25
0.010784,3,2,25
0.007104,3,2,25
0.003312,3,2,25
0.000000,3,2,25
0.024688,4,2,33
0.021264,4,2,33
0.017728,4,2,33
0.013904,4,2,33
0.010272,4,2,33
0.006848,4,2,33
0.003568,4,2,33
0.000000,4,2,33
0.024176,5,2,41
0.020496,5,2,41
0.017216,5,2,41
0.013648,5,2,41
0.010272,5,2,41
0.007104,5,2,41
0.003824,5,2,41
0.000000,5,2,41
31.404624,6,3,49
31.401456,6,3,49
0.021264,6,3,49
0.017472,6,3,49
0.014160,6,3,49
0.010784,6,3,49
0.007104,6,3,49
0.003568,6,3,49
0.000000,6,3,49
0.024688,7,3,57
0.021264,7,3,57
0.017984,7,3,57
0.014672,7,3,57
0.011040,7,3,57
0.007616,7,3,57
0.003824,7,3,57
0.000000,7,3,57
31.407376,8,4,65
31.404208,8,4,65
31.400416,8,4,65
31.396592,8,4,65
31.393216,8,4,65
31.390048,8,4,65
31.386512,8,4,65
0.003568,8,4,65
0.000000,8,4,65
0.023920,9,4,73
0.020240,9,4,73
0.016960,9,4,73
0.013648,9,4,73
0.010272,9,4,73
0.007104,9,4,73
0.003312,9,4,73
0.000000,9,4,73
0.024688,10,4,81
0.021008,10,4,81
0.017728,10,4,81
0.013904,10,4,81
0.010528,10,4,81
0.007104,10,4,81
0.003312,10,4,81
0.000000,10,4,81
31.404224,11,5,89
31.400544,11,5,89
31.396752,11,5,89
31.393184,11,5,89
31.389552,11,5,89
0.010272,11,5,89
0.007104,11,5,89
0.003312,11,5,89
0.000000,11,5,89
0.024944,12,5,97
0.021776,12,5,97
0.018240,12,5,97
0.014416,12,5,97
0.010528,12,5,97
0.006848,12,5,97
0.003568,12,5,97
0.000000,12,5,97
0.024944,13,5,105
0.021776,13,5,105
0.017984,13,5,105
0.014672,13,5,105
0.010784,13,5,105
0.007360,13,5,105
0.003824,13,5,105
0.000000,13,5,105
31.406720,14,6,113
31.403296,14,6,113
0.020752,14,6,113
0.017216,14,6,113
0.013648,14,6,113
0.010016,14,6,113
0.006848,14,6,113
0.003568,14,6,113
0.000000,14,6,113
0.025456,15,6,121
0.022032,15,6,121
0.018240,15,6,121
0.014672,15,6,121
0.011040,15,6,121
0.007360,15,6,121
0.003568,15,6,121
0.000000,15,6,121
31.407376,16,7,129
31.404208,16,7,129
31.400928,16,7,129
31.397104,16,7,129
31.393472,16,7,129
31.390048,16,7,129
31.386256,16,7,129
0.003312,16,7,129
0.000000,16,7,129
0.024688,17,7,137
0.021520,17,7,137
0.017728,17,7,137
0.014416,17,7,137
0.011040,17,7,137
0.007360,17,7,137
0.003568,17,7,137
0.000000,17,7,137
0.024432,18,7,145
0.020752,18,7,145
0.017472,18,7,145
0.013648,18,7,145
0.010272,18,7,145
0.006848,18,7,145
0.003312,18,7,145
0.000000,18,7,145
