Time,CovertPackets,AllPackets,BitsSent,PacketInterval;GTSInterval
65.132048,1,2,1,4.848000,0
65.136896,2,3,2,4.928000,0
65.141824,3,4,3,0,7851.392000
72.993216,3,5,3,4.800000,0
72.998016,4,6,4,4.944000,0
73.002960,5,7,5,4.992000,0
73.007952,6,8,6,4.912000,0
73.012864,7,9,7,4.720000,0
73.017584,8,10,8,4.752000,0
73.022336,9,11,9,4.720000,0
73.027056,10,12,10,4.944000,0
73.032000,11,13,11,3.680000,0
73.035680,12,14,12,4.752000,0
73.040432,13,15,13,4.944000,0
73.045376,14,16,14,4.928000,0
73.050304,15,17,15,4.800000,0
73.055104,16,18,16,4.848000,0
73.059952,17,19,17,4.768000,0
73.064720,18,20,18,0,7792.816000
80.857536,18,21,18,4.784000,0
80.862320,19,22,19,4.928000,0
80.867248,20,23,20,4.752000,0
80.872000,21,24,21,4.848000,0
80.876848,22,25,22,4.720000,0
80.881568,23,26,23,4.896000,0
80.886464,24,27,24,3.680000,0
80.890144,25,28,25,3.680000,0
80.893824,26,29,26,3.680000,0
80.897504,27,30,27,4.848000,0
80.902352,28,31,28,4.928000,0
80.907280,29,32,29,4.800000,0
80.912080,30,33,30,4.944000,0
80.917024,31,34,31,4.992000,0
80.922016,32,35,32,4.912000,0
80.926928,33,36,33,0,7794.928000
88.721856,33,37,33,4.720000,0
88.726576,34,38,34,4.752000,0
88.731328,35,39,35,4.720000,0
88.736048,36,40,36,4.944000,0
88.740992,37,41,37,3.680000,0
88.744672,38,42,38,4.752000,0
88.749424,39,43,39,4.944000,0
88.754368,40,44,40,4.928000,0
88.759296,41,45,41,4.800000,0
88.764096,42,46,42,4.848000,0
88.768944,43,47,43,4.768000,0
88.773712,44,48,44,4.784000,0
88.778496,45,49,45,4.928000,0
88.783424,46,50,46,0,7802.752000
96.586176,46,51,46,4.752000,0
96.590928,47,52,47,4.848000,0
96.595776,48,53,48,4.720000,0
96.600496,49,54,49,4.896000,0
96.605392,50,55,50,3.680000,0
96.609072,51,56,51,3.680000,0
96.612752,52,57,52,3.680000,0
96.616432,53,58,53,4.848000,0
96.621280,54,59,54,4.928000,0
96.626208,55,60,55,4.800000,0
96.631008,56,61,56,4.944000,0
96.635952,57,62,57,4.992000,0
96.640944,58,63,58,4.912000,0
96.645856,59,64,59,4.720000,0
96.650576,60,65,60,4.752000,0
96.655328,61,66,61,0,7795.168000
104.450496,61,67,61,4.720000,0
104.455216,62,68,62,4.944000,0
104.460160,63,69,63,3.680000,0
104.463840,64,70,64,4.752000,0
104.468592,65,71,65,4.944000,0
104.473536,66,72,66,4.928000,0
104.478464,67,73,67,4.800000,0
104.483264,68,74,68,4.848000,0
104.488112,69,75,69,4.768000,0
104.492880,70,76,70,4.784000,0
104.497664,71,77,71,4.928000,0
104.502592,72,78,72,4.752000,0
104.507344,73,79,73,4.848000,0
104.512192,74,80,74,4.720000,0
104.516912,75,81,75,4.896000,0
104.521808,76,82,76,0,7793.008000
112.314816,76,83,76,3.680000,0
112.318496,77,84,77,3.680000,0
112.322176,78,85,78,3.680000,0
112.325856,79,86,79,4.848000,0
112.330704,80,87,80,4.928000,0
112.335632,81,88,81,4.800000,0
112.340432,82,89,82,4.944000,0
112.345376,83,90,83,4.992000,0
112.350368,84,91,84,4.912000,0
112.355280,85,92,85,4.720000,0
112.360000,86,93,86,4.752000,0
112.364752,87,94,87,4.720000,0
112.369472,88,95,88,4.944000,0
112.374416,89,96,89,3.680000,0
112.378096,90,97,90,0,7801.040000
120.179136,90,98,90,4.752000,0
120.183888,91,99,91,4.944000,0
120.188832,92,100,92,4.928000,0
120.193760,93,101,93,4.800000,0
120.198560,94,102,94,4.848000,0
120.203408,95,103,95,4.768000,0
120.208176,96,104,96,4.784000,0
120.212960,97,105,97,4.928000,0
120.217888,98,106,98,4.752000,0
120.222640,99,107,99,4.848000,0
120.227488,100,108,100,4.720000,0
120.232208,101,109,101,4.896000,0
120.237104,102,110,102,3.680000,0
120.240784,103,111,103,3.680000,0
120.244464,104,112,104,3.680000,0
120.248144,105,113,105,0,7795.312000
128.043456,105,114,105,4.848000,0
128.048304,106,115,106,4.928000,0
128.053232,107,116,107,4.800000,0
128.058032,108,117,108,4.944000,0
128.062976,109,118,109,4.992000,0
128.067968,110,119,110,4.912000,0
128.072880,111,120,111,4.720000,0
128.077600,112,121,112,4.752000,0
128.082352,113,122,113,4.720000,0
128.087072,114,123,114,4.944000,0
128.092016,115,124,115,3.680000,0
128.095696,116,125,116,4.752000,0
128.100448,117,126,117,4.944000,0
128.105392,118,127,118,4.928000,0
128.110320,119,128,119,4.800000,0
128.115120,120,129,120,4.848000,0
128.119968,121,130,121,0,7787.808000
135.907776,121,131,121,4.768000,0
135.912544,122,132,122,4.784000,0
135.917328,123,133,123,4.928000,0
135.922256,124,134,124,4.752000,0
135.927008,125,135,125,4.848000,0
135.931856,126,136,126,4.720000,0
135.936576,127,137,127,4.896000,0
135.941472,128,138,128,3.680000,0
135.945152,129,139,129,3.680000,0
135.948832,130,140,130,3.680000,0
135.952512,131,141,131,4.848000,0
135.957360,132,142,132,4.928000,0
135.962288,133,143,133,4.800000,0
135.967088,134,144,134,0,7805.008000
143.772096,134,145,134,4.944000,0
143.777040,135,146,135,4.992000,0
143.782032,136,147,136,4.912000,0
143.786944,137,148,137,4.720000,0
143.791664,138,149,138,4.752000,0
143.796416,139,150,139,4.720000,0
143.801136,140,151,140,4.944000,0
143.806080,141,152,141,3.680000,0
143.809760,142,153,142,4.752000,0
143.814512,143,154,143,4.944000,0
143.819456,144,155,144,4.928000,0
143.824384,145,156,145,4.800000,0
143.829184,146,157,146,4.848000,0
143.834032,147,158,147,4.768000,0
143.838800,148,159,148,4.784000,0
143.843584,149,160,149,4.928000,0
143.848512,150,161,150,0,7787.904000
151.636416,150,162,150,4.752000,0
151.641168,151,163,151,4.848000,0
151.646016,152,164,152,4.720000,0
151.650736,153,165,153,4.896000,0
151.655632,154,166,154,3.680000,0
151.659312,155,167,155,3.680000,0
151.662992,156,168,156,3.680000,0
151.666672,157,169,157,4.848000,0
151.671520,158,170,158,4.928000,0
151.676448,159,171,159,4.800000,0
151.681248,160,172,160,4.944000,0
151.686192,161,173,161,4.992000,0
151.691184,162,174,162,4.912000,0
151.696096,163,175,163,0,7804.640000
159.500736,163,176,163,4.720000,0
159.505456,164,177,164,4.752000,0
159.510208,165,178,165,4.720000,0
159.514928,166,179,166,4.944000,0
159.519872,167,180,167,3.680000,0
159.523552,168,181,168,4.752000,0
159.528304,169,182,169,4.944000,0
159.533248,170,183,170,4.928000,0
159.538176,171,184,171,4.800000,0
159.542976,172,185,172,4.848000,0
159.547824,173,186,173,4.768000,0
159.552592,174,187,174,4.784000,0
159.557376,175,188,175,4.928000,0
159.562304,176,189,176,4.752000,0
159.567056,177,190,177,4.848000,0
159.571904,178,191,178,4.720000,0
159.576624,179,192,179,0,7788.432000
167.365056,179,193,179,4.896000,0
167.369952,180,194,180,3.680000,0
167.373632,181,195,181,3.680000,0
167.377312,182,196,182,3.680000,0
167.380992,183,197,183,4.848000,0
167.385840,184,198,184,4.928000,0
167.390768,185,199,185,4.800000,0
167.395568,186,200,186,4.944000,0
167.400512,187,201,187,4.992000,0
167.405504,188,202,188,4.912000,0
167.410416,189,203,189,4.720000,0
167.415136,190,204,190,4.752000,0
167.419888,191,205,191,4.720000,0
167.424608,192,206,192,4.944000,0
167.429552,193,207,193,3.680000,0
167.433232,194,208,194,0,7796.144000
175.229376,194,209,194,4.752000,0
175.234128,195,210,195,4.944000,0
175.239072,196,211,196,4.928000,0
175.244000,197,212,197,4.800000,0
175.248800,198,213,198,4.848000,0
175.253648,199,214,199,4.768000,0
175.258416,200,215,200,4.784000,0
175.263200,201,216,201,4.928000,0
175.268128,202,217,202,4.752000,0
175.272880,203,218,203,4.848000,0
175.277728,204,219,204,4.720000,0
175.282448,205,220,205,4.896000,0
175.287344,206,221,206,3.680000,0
175.291024,207,222,207,3.680000,0
175.294704,208,223,208,3.680000,0
175.298384,209,224,209,0,7795.312000
183.093696,209,225,209,4.848000,0
183.098544,210,226,210,4.928000,0
183.103472,211,227,211,4.800000,0
183.108272,212,228,212,4.944000,0
183.113216,213,229,213,4.992000,0
183.118208,214,230,214,4.912000,0
183.123120,215,231,215,4.720000,0
183.127840,216,232,216,4.752000,0
183.132592,217,233,217,4.720000,0
183.137312,218,234,218,4.944000,0
183.142256,219,235,219,3.680000,0
183.145936,220,236,220,4.752000,0
183.150688,221,237,221,4.944000,0
183.155632,222,238,222,4.928000,0
183.160560,223,239,223,4.800000,0
183.165360,224,240,224,0,7792.656000
190.958016,224,241,224,4.848000,0
190.962864,225,242,225,4.768000,0
190.967632,226,243,226,4.784000,0
190.972416,227,244,227,4.928000,0
190.977344,228,245,228,4.752000,0
190.982096,229,246,229,4.848000,0
190.986944,230,247,230,4.720000,0
190.991664,231,248,231,4.896000,0
190.996560,232,249,232,3.680000,0
191.000240,233,250,233,3.680000,0
191.003920,234,251,234,3.680000,0
191.007600,235,252,235,4.848000,0
191.012448,236,253,236,4.928000,0
191.017376,237,254,237,4.800000,0
191.022176,238,255,238,4.944000,0
191.027120,239,256,239,0,7795.216000
198.822336,239,257,239,4.992000,0
198.827328,240,258,240,4.912000,0
198.832240,241,259,241,4.720000,0
198.836960,242,260,242,4.752000,0
198.841712,243,261,243,4.720000,0
198.846432,244,262,244,4.944000,0
198.851376,245,263,245,3.680000,0
198.855056,246,264,246,4.752000,0
198.859808,247,265,247,4.944000,0
198.864752,248,266,248,4.928000,0
198.869680,249,267,249,4.800000,0
198.874480,250,268,250,4.848000,0
198.879328,251,269,251,4.768000,0
198.884096,252,270,252,4.784000,0
198.888880,253,271,253,4.928000,0
198.893808,254,272,254,4.752000,0
198.898560,255,273,255,0,7788.096000
206.686656,255,274,255,4.848000,0
206.691504,256,275,256,4.720000,0
206.696224,257,276,257,4.896000,0
206.701120,258,277,258,3.680000,0
206.704800,259,278,259,3.680000,0
206.708480,260,279,260,3.680000,0
206.712160,261,280,261,4.848000,0
206.717008,262,281,262,4.928000,0
206.721936,263,282,263,4.800000,0
206.726736,264,283,264,4.944000,0
206.731680,265,284,265,4.992000,0
206.736672,266,285,266,4.912000,0
206.741584,267,286,267,4.720000,0
206.746304,268,287,268,4.752000,0
206.751056,269,288,269,4.720000,0
206.755776,270,289,270,0,7795.200000
214.550976,270,290,270,4.944000,0
214.555920,271,291,271,3.680000,0
214.559600,272,292,272,4.752000,0
214.564352,273,293,273,4.944000,0
214.569296,274,294,274,4.928000,0
214.574224,275,295,275,4.800000,0
214.579024,276,296,276,4.848000,0
214.583872,277,297,277,4.768000,0
214.588640,278,298,278,4.784000,0
214.593424,279,299,279,4.928000,0
214.598352,280,300,280,4.752000,0
214.603104,281,301,281,4.848000,0
214.607952,282,302,282,4.720000,0
214.612672,283,303,283,4.896000,0
214.617568,284,304,284,3.680000,0
214.621248,285,305,285,0,7794.048000
222.415296,285,306,285,3.680000,0
222.418976,286,307,286,3.680000,0
222.422656,287,308,287,4.848000,0
222.427504,288,309,288,4.928000,0
222.432432,289,310,289,4.800000,0
222.437232,290,311,290,4.944000,0
222.442176,291,312,291,4.992000,0
222.447168,292,313,292,4.912000,0
222.452080,293,314,293,4.720000,0
222.456800,294,315,294,4.752000,0
222.461552,295,316,295,4.720000,0
222.466272,296,317,296,4.944000,0
222.471216,297,318,297,3.680000,0
222.474896,298,319,298,4.752000,0
222.479648,299,320,299,0,7799.968000
230.279616,299,321,299,4.944000,0
230.284560,300,322,300,4.928000,0
230.289488,301,323,301,4.800000,0
230.294288,302,324,302,4.848000,0
230.299136,303,325,303,4.768000,0
230.303904,304,326,304,4.784000,0
230.308688,305,327,305,4.928000,0
230.313616,306,328,306,4.752000,0
230.318368,307,329,307,4.848000,0
230.323216,308,330,308,4.720000,0
230.327936,309,331,309,4.896000,0
230.332832,310,332,310,3.680000,0
230.336512,311,333,311,3.680000,0
230.340192,312,334,312,3.680000,0
230.343872,313,335,313,4.848000,0
230.348720,314,336,314,4.928000,0
230.353648,315,337,315,0,7790.288000
238.143936,315,338,315,4.800000,0
238.148736,316,339,316,4.944000,0
238.153680,317,340,317,4.992000,0
238.158672,318,341,318,4.912000,0
238.163584,319,342,319,4.720000,0
238.168304,320,343,320,4.752000,0
238.173056,321,344,321,4.720000,0
238.177776,322,345,322,4.944000,0
238.182720,323,346,323,3.680000,0
238.186400,324,347,324,4.752000,0
238.191152,325,348,325,4.944000,0
238.196096,326,349,326,4.928000,0
238.201024,327,350,327,4.800000,0
238.205824,328,351,328,4.848000,0
238.210672,329,352,329,4.768000,0
238.215440,330,353,330,4.784000,0
238.220224,331,354,331,0,7788.032000
246.008256,331,355,331,4.928000,0
246.013184,332,356,332,4.752000,0
246.017936,333,357,333,4.848000,0
246.022784,334,358,334,4.720000,0
246.027504,335,359,335,4.896000,0
246.032400,336,360,336,3.680000,0
246.036080,337,361,337,3.680000,0
246.039760,338,362,338,3.680000,0
246.043440,339,363,339,4.848000,0
246.048288,340,364,340,4.928000,0
246.053216,341,365,341,4.800000,0
246.058016,342,366,342,4.944000,0
246.062960,343,367,343,4.992000,0
246.067952,344,368,344,4.912000,0
246.072864,345,369,345,0,7799.712000
253.872576,345,370,345,4.720000,0
253.877296,346,371,346,4.752000,0
253.882048,347,372,347,4.720000,0
253.886768,348,373,348,4.944000,0
253.891712,349,374,349,3.680000,0
253.895392,350,375,350,4.752000,0
253.900144,351,376,351,4.944000,0
253.905088,352,377,352,4.928000,0
253.910016,353,378,353,4.800000,0
253.914816,354,379,354,4.848000,0
253.919664,355,380,355,4.768000,0
253.924432,356,381,356,4.784000,0
253.929216,357,382,357,4.928000,0
253.934144,358,383,358,4.752000,0
253.938896,359,384,359,4.848000,0
253.943744,360,385,360,0,7793.152000
261.736896,360,386,360,4.720000,0
261.741616,361,387,361,4.896000,0
261.746512,362,388,362,3.680000,0
261.750192,363,389,363,3.680000,0
261.753872,364,390,364,3.680000,0
261.757552,365,391,365,4.848000,0
261.762400,366,392,366,4.928000,0
261.767328,367,393,367,4.800000,0
261.772128,368,394,368,4.944000,0
261.777072,369,395,369,4.992000,0
261.782064,370,396,370,4.912000,0
261.786976,371,397,371,4.720000,0
261.791696,372,398,372,4.752000,0
261.796448,373,399,373,4.720000,0
261.801168,374,400,374,4.944000,0
261.806112,375,401,375,3.680000,0
261.809792,376,402,376,0,7791.424000
269.601216,376,403,376,4.752000,0
269.605968,377,404,377,4.944000,0
269.610912,378,405,378,4.928000,0
269.615840,379,406,379,4.800000,0
269.620640,380,407,380,4.848000,0
269.625488,381,408,381,4.768000,0
269.630256,382,409,382,4.784000,0
269.635040,383,410,383,4.928000,0
269.639968,384,411,384,4.752000,0
269.644720,385,412,385,4.848000,0
269.649568,386,413,386,4.720000,0
269.654288,387,414,387,4.896000,0
269.659184,388,415,388,3.680000,0
269.662864,389,416,389,3.680000,0
269.666544,390,417,390,3.680000,0
269.670224,391,418,391,