Time,CovertPackets,AllPackets,BitsSent,PacketInterval,GTSInterval
31.738624,0,150,0,0,983.040000
32.721664,0,225,0,0,983.040000
33.704704,0,300,0,0,983.040000
34.687744,0,375,0,0,983.040000
35.670784,0,450,0,0,983.040000
36.653824,0,525,0,0,983.040000
37.636864,0,600,0,0,983.040000
38.619904,0,675,0,0,1966.080000
40.585984,0,750,0,0,983.040000
41.569024,0,825,0,0,983.040000
42.552064,0,900,0,0,983.040000
43.535104,0,975,0,0,983.040000
44.518144,0,1050,0,0,983.040000
45.501184,0,1125,0,0,983.040000
46.484224,0,1200,0,0,1966.080000
48.450304,0,1275,0,0,983.040000
49.433344,0,1350,0,0,983.040000
50.416384,0,1425,0,0,983.040000
51.399424,0,1500,0,0,983.040000
52.382464,0,1575,0,0,983.040000
53.365504,0,1650,0,0,983.040000
54.348544,0,1725,0,0,983.040000
55.331584,0,1800,0,0,1966.080000
57.297664,0,1875,0,0,983.040000
58.280704,0,1950,0,0,983.040000
59.263744,0,2025,0,0,983.040000
60.246784,0,2100,0,0,983.040000
61.229824,0,2175,0,0,983.040000
62.212864,0,2250,0,0,983.040000
63.195904,0,2325,0,0,983.040000
64.178944,0,2400,0,0,983.040000
65.161984,0,2475,0,0,983.040000
66.145024,0,2550,0,0,983.040000
67.128064,0,2625,0,0,1966.080000
69.094144,0,2700,0,0,983.040000
70.077184,0,2775,0,0,983.040000
71.060224,0,2850,0,0,983.040000
72.043264,0,2925,0,0,983.040000
73.026304,0,3000,0,0,983.040000
74.009344,0,3075,0,0,1966.080000
75.975424,0,3150,0,0,983.040000
76.958464,0,3225,0,0,983.040000
77.941504,0,3300,0,0,983.040000
78.924544,0,3375,0,0,983.040000
79.907584,0,3450,0,0,983.040000
80.890624,0,3525,0,0,983.040000
81.873664,0,3600,0,0,983.040000
82.856704,0,3675,0,0,983.040000
83.839744,0,3750,0,0,983.040000
84.822784,0,3825,0,0,1966.080000
86.788864,0,3900,0,0,983.040000
87.771904,0,3975,0,0,983.040000
88.754944,0,4050,0,0,983.040000
89.737984,0,4125,0,0,983.040000
90.721024,0,4200,0,0,983.040000
91.704064,0,4275,0,0,983.040000
92.687104,0,4350,0,0,983.040000
93.670144,0,4425,0,0,983.040000
94.653184,0,4500,0,0,983.040000
95.636224,0,4575,0,0,983.040000
96.619264,0,4650,0,0,1966.080000
98.585344,0,4725,0,0,983.040000
99.568384,0,4800,0,0,983.040000
100.551424,0,4875,0,0,983.040000
101.534464,0,4950,0,0,983.040000
102.517504,0,5025,0,0,983.040000
103.500544,0,5100,0,0,983.040000
104.483584,0,5175,0,0,983.040000
105.466624,0,5250,0,0,983.040000
106.449664,0,5325,0,0,983.040000
107.432704,0,5400,0,0,983.040000
108.415744,0,5475,0,0,983.040000
109.398784,0,5550,0,0,983.040000
110.381824,0,5625,0,0,983.040000
111.364864,0,5700,0,0,983.040000
112.347904,0,5775,0,0,1966.080000
114.313984,0,5850,0,0,983.040000
115.297024,0,5925,0,0,983.040000
116.280064,0,6000,0,0,983.040000
117.263104,0,6075,0,0,983.040000
118.246144,0,6150,0,0,983.040000
119.229184,0,6225,0,0,983.040000
120.212224,0,6300,0,0,983.040000
121.195264,0,6375,0,0,1966.080000
123.161344,0,6450,0,0,983.040000
124.144384,0,6525,0,0,983.040000
125.127424,0,6600,0,0,983.040000
126.110464,0,6675,0,0,983.040000
127.093504,0,6750,0,0,983.040000
128.076544,0,6825,0,0,983.040000
129.059584,0,6900,0,0,983.040000
130.042624,0,6975,0,0,983.040000
131.025664,0,7050,0,0,983.040000
132.008704,0,7125,0,0,1966.080000
133.974784,0,7200,0,0,983.040000
134.957824,0,7275,0,0,983.040000
135.940864,0,7350,0,0,983.040000
136.923904,0,7425,0,0,983.040000
137.906944,0,7500,0,0,983.040000
138.889984,0,7575,0,0,1966.080000
140.856064,0,7650,0,0,983.040000
141.839104,0,7725,0,0,983.040000
142.822144,0,7800,0,0,983.040000
143.805184,0,7875,0,0,983.040000
144.788224,0,7950,0,0,983.040000
145.771264,0,8025,0,0,1966.080000
147.737344,0,8100,0,0,983.040000
148.720384,0,8175,0,0,983.040000
149.703424,0,8250,0,0,983.040000
150.686464,0,8325,0,0,983.040000
151.669504,0,8400,0,0,983.040000
152.652544,0,8475,0,0,983.040000
153.635584,0,8550,0,0,983.040000
154.618624,0,8625,0,0,1966.080000
156.584704,0,8700,0,0,983.040000
157.567744,0,8775,0,0,983.040000
158.550784,0,8850,0,0,983.040000
159.533824,0,8925,0,0,983.040000
160.516864,0,9000,0,0,983.040000
161.499904,0,9075,0,0,1966.080000
163.465984,0,9150,0,0,983.040000
164.449024,0,9225,0,0,983.040000
165.432064,0,9300,0,0,983.040000
166.415104,0,9375,0,0,983.040000
167.398144,0,9450,0,0,983.040000
168.381184,0,9525,0,0,983.040000
169.364224,0,9600,0,0,983.040000
170.347264,0,9675,0,0,1966.080000
172.313344,0,9750,0,0,983.040000
173.296384,0,9825,0,0,983.040000
174.279424,0,9900,0,0,983.040000
175.262464,0,9975,0,0,983.040000
176.245504,0,10050,0,0,983.040000
177.228544,0,10125,0,0,983.040000
178.211584,0,10200,0,0,983.040000
179.194624,0,10275,0,0,983.040000
180.177664,0,10350,0,0,1966.080000
182.143744,0,10425,0,0,983.040000
183.126784,0,10500,0,0,983.040000
184.109824,0,10575,0,0,983.040000
185.092864,0,10650,0,0,983.040000
186.075904,0,10725,0,0,983.040000
187.058944,0,10800,0,0,983.040000
188.041984,0,10875,0,0,983.040000
189.025024,0,10950,0,0,1966.080000
190.991104,0,11025,0,0,983.040000
191.974144,0,11100,0,0,983.040000
192.957184,0,11175,0,0,983.040000
193.940224,0,11250,0,0,983.040000
194.923264,0,11325,0,0,983.040000
195.906304,0,11400,0,0,983.040000
196.889344,0,11475,0,0,983.040000
197.872384,0,11550,0,0,983.040000
198.855424,0,11625,0,0,1966.080000
200.821504,0,11700,0,0,983.040000
201.804544,0,11775,0,0,983.040000
202.787584,0,11850,0,0,983.040000
203.770624,0,11925,0,0,983.040000
204.753664,0,12000,0,0,983.040000
205.736704,0,12075,0,0,983.040000
206.719744,0,12150,0,0,983.040000
207.702784,0,12225,0,0,983.040000
208.685824,0,12300,0,0,1966.080000
210.651904,0,12375,0,0,983.040000
211.634944,0,12450,0,0,983.040000
212.617984,0,12525,0,0,983.040000
213.601024,0,12600,0,0,983.040000
214.584064,0,12675,0,0,983.040000
215.567104,0,12750,0,0,983.040000
216.550144,0,12825,0,0,983.040000
217.533184,0,12900,0,0,983.040000
218.516224,0,12975,0,0,1966.080000
220.482304,0,13050,0,0,983.040000
221.465344,0,13125,0,0,983.040000
222.448384,0,13200,0,0,983.040000
223.431424,0,13275,0,0,983.040000
224.414464,0,13350,0,0,983.040000
225.397504,0,13425,0,0,983.040000
226.380544,0,13500,0,0,1966.080000
228.346624,0,13575,0,0,983.040000
229.329664,0,13650,0,0,983.040000
230.312704,0,13725,0,0,983.040000
231.295744,0,13800,0,0,983.040000
