Time,CovertPackets,AllPackets,BitsSent,PacketInterval;GTSInterval
32.568848,1,2,1,4.848000,0
32.573696,2,3,2,0,3924.160000
36.497856,2,4,2,4.928000,0
36.502784,3,5,3,4.800000,0
36.507584,4,6,4,4.944000,0
36.512528,5,7,5,4.992000,0
36.517520,6,8,6,4.912000,0
36.522432,7,9,7,4.720000,0
36.527152,8,10,8,0,3902.864000
40.430016,8,11,8,4.752000,0
40.434768,9,12,9,4.720000,0
40.439488,10,13,10,4.944000,0
40.444432,11,14,11,3.680000,0
40.448112,12,15,12,4.752000,0
40.452864,13,16,13,4.944000,0
40.457808,14,17,14,4.928000,0
40.462736,15,18,15,0,3899.440000
44.362176,15,19,15,4.800000,0
44.366976,16,20,16,4.848000,0
44.371824,17,21,17,4.768000,0
44.376592,18,22,18,4.784000,0
44.381376,19,23,19,4.928000,0
44.386304,20,24,20,4.752000,0
44.391056,21,25,21,4.848000,0
44.395904,22,26,22,0,3898.432000
48.294336,22,27,22,4.720000,0
48.299056,23,28,23,4.896000,0
48.303952,24,29,24,3.680000,0
48.307632,25,30,25,3.680000,0
48.311312,26,31,26,3.680000,0
48.314992,27,32,27,4.848000,0
48.319840,28,33,28,4.928000,0
48.324768,29,34,29,0,3901.728000
52.226496,29,35,29,4.800000,0
52.231296,30,36,30,4.944000,0
52.236240,31,37,31,4.992000,0
52.241232,32,38,32,4.912000,0
52.246144,33,39,33,4.720000,0
52.250864,34,40,34,4.752000,0
52.255616,35,41,35,4.720000,0
52.260336,36,42,36,0,3898.320000
56.158656,36,43,36,4.944000,0
56.163600,37,44,37,3.680000,0
56.167280,38,45,38,4.752000,0
56.172032,39,46,39,4.944000,0
56.176976,40,47,40,4.928000,0
56.181904,41,48,41,4.800000,0
56.186704,42,49,42,4.848000,0
56.191552,43,50,43,0,3899.264000
60.090816,43,51,43,4.768000,0
60.095584,44,52,44,4.784000,0
60.100368,45,53,45,4.928000,0
60.105296,46,54,46,4.752000,0
60.110048,47,55,47,4.848000,0
60.114896,48,56,48,4.720000,0
60.119616,49,57,49,4.896000,0
60.124512,50,58,50,0,3898.464000
64.022976,50,59,50,3.680000,0
64.026656,51,60,51,3.680000,0
64.030336,52,61,52,3.680000,0
64.034016,53,62,53,4.848000,0
64.038864,54,63,54,4.928000,0
64.043792,55,64,55,4.800000,0
64.048592,56,65,56,4.944000,0
64.053536,57,66,57,0,3901.600000
67.955136,57,67,57,4.992000,0
67.960128,58,68,58,4.912000,0
67.965040,59,69,59,4.720000,0
67.969760,60,70,60,4.752000,0
67.974512,61,71,61,4.720000,0
67.979232,62,72,62,4.944000,0
67.984176,63,73,63,3.680000,0
67.987856,64,74,64,0,3899.440000
71.887296,64,75,64,4.752000,0
71.892048,65,76,65,4.944000,0
71.896992,66,77,66,4.928000,0
71.901920,67,78,67,4.800000,0
71.906720,68,79,68,4.848000,0
71.911568,69,80,69,4.768000,0
71.916336,70,81,70,4.784000,0
71.921120,71,82,71,0,3898.336000
75.819456,71,83,71,4.928000,0
75.824384,72,84,72,4.752000,0
75.829136,73,85,73,4.848000,0
75.833984,74,86,74,4.720000,0
75.838704,75,87,75,4.896000,0
75.843600,76,88,76,3.680000,0
75.847280,77,89,77,0,3904.336000
79.751616,77,90,77,3.680000,0
79.755296,78,91,78,3.680000,0
79.758976,79,92,79,4.848000,0
79.763824,80,93,80,4.928000,0
79.768752,81,94,81,4.800000,0
79.773552,82,95,82,4.944000,0
79.778496,83,96,83,4.992000,0
79.783488,84,97,84,0,3900.288000
83.683776,84,98,84,4.912000,0
83.688688,85,99,85,4.720000,0
83.693408,86,100,86,4.752000,0
83.698160,87,101,87,4.720000,0
83.702880,88,102,88,4.944000,0
83.707824,89,103,89,3.680000,0
83.711504,90,104,90,4.752000,0
83.716256,91,105,91,0,3899.680000
87.615936,91,106,91,4.944000,0
87.620880,92,107,92,4.928000,0
87.625808,93,108,93,4.800000,0
87.630608,94,109,94,4.848000,0
87.635456,95,110,95,4.768000,0
87.640224,96,111,96,4.784000,0
87.645008,97,112,97,0,3903.088000
91.548096,97,113,97,4.928000,0
91.553024,98,114,98,4.752000,0
91.557776,99,115,99,4.848000,0
91.562624,100,116,100,4.720000,0
91.567344,101,117,101,4.896000,0
91.572240,102,118,102,3.680000,0
91.575920,103,119,103,3.680000,0
91.579600,104,120,104,0,3900.656000
95.480256,104,121,104,3.680000,0
95.483936,105,122,105,3.680000,0
95.487616,106,123,106,4.848000,0
95.492464,107,124,107,4.928000,0
95.497392,108,125,108,4.800000,0
95.502192,109,126,109,4.944000,0
95.507136,110,127,110,4.992000,0
95.512128,111,128,111,0,3900.288000
99.412416,111,129,111,4.912000,0
99.417328,112,130,112,4.720000,0
99.422048,113,131,113,4.752000,0
99.426800,114,132,114,4.720000,0
99.431520,115,133,115,4.944000,0
99.436464,116,134,116,3.680000,0
99.440144,117,135,117,0,3904.432000
103.344576,117,136,117,4.752000,0
103.349328,118,137,118,4.944000,0
103.354272,119,138,119,4.928000,0
103.359200,120,139,120,4.800000,0
103.364000,121,140,121,4.848000,0
103.368848,122,141,122,4.768000,0
103.373616,123,142,123,4.784000,0
103.378400,124,143,124,0,3898.336000
107.276736,124,144,124,4.928000,0
107.281664,125,145,125,4.752000,0
107.286416,126,146,126,4.848000,0
107.291264,127,147,127,4.720000,0
107.295984,128,148,128,4.896000,0
107.300880,129,149,129,3.680000,0
107.304560,130,150,130,3.680000,0
107.308240,131,151,131,3.680000,0
107.311920,132,152,132,0,3896.976000
111.208896,132,153,132,4.848000,0
111.213744,133,154,133,4.928000,0
111.218672,134,155,134,4.800000,0
111.223472,135,156,135,4.944000,0
111.228416,136,157,136,4.992000,0
111.233408,137,158,137,4.912000,0
111.238320,138,159,138,0,3902.736000
115.141056,138,160,138,4.720000,0
115.145776,139,161,139,4.752000,0
115.150528,140,162,140,4.720000,0
115.155248,141,163,141,4.944000,0
115.160192,142,164,142,3.680000,0
115.163872,143,165,143,4.752000,0
115.168624,144,166,144,4.944000,0
115.173568,145,167,145,0,3899.648000
119.073216,145,168,145,4.928000,0
119.078144,146,169,146,4.800000,0
119.082944,147,170,147,4.848000,0
119.087792,148,171,148,4.768000,0
119.092560,149,172,149,4.784000,0
119.097344,150,173,150,4.928000,0
119.102272,151,174,151,4.752000,0
119.107024,152,175,152,0,3898.352000
123.005376,152,176,152,4.848000,0
123.010224,153,177,153,4.720000,0
123.014944,154,178,154,4.896000,0
123.019840,155,179,155,3.680000,0
123.023520,156,180,156,3.680000,0
123.027200,157,181,157,3.680000,0
123.030880,158,182,158,4.848000,0
123.035728,159,183,159,0,3901.808000
126.937536,159,184,159,4.928000,0
126.942464,160,185,160,4.800000,0
126.947264,161,186,161,4.944000,0
126.952208,162,187,162,4.992000,0
126.957200,163,188,163,4.912000,0
126.962112,164,189,164,4.720000,0
126.966832,165,190,165,4.752000,0
126.971584,166,191,166,0,3898.112000
130.869696,166,192,166,4.720000,0
130.874416,167,193,167,4.944000,0
130.879360,168,194,168,3.680000,0
130.883040,169,195,169,4.752000,0
130.887792,170,196,170,4.944000,0
130.892736,171,197,171,4.928000,0
130.897664,172,198,172,4.800000,0
130.902464,173,199,173,4.848000,0
130.907312,174,200,174,0,3894.544000
134.801856,174,201,174,4.768000,0
134.806624,175,202,175,4.784000,0
134.811408,176,203,176,4.928000,0
134.816336,177,204,177,4.752000,0
134.821088,178,205,178,4.848000,0
134.825936,179,206,179,4.720000,0
134.830656,180,207,180,4.896000,0
134.835552,181,208,181,0,3898.464000
138.734016,181,209,181,3.680000,0
138.737696,182,210,182,3.680000,0
138.741376,183,211,183,3.680000,0
138.745056,184,212,184,4.848000,0
138.749904,185,213,185,4.928000,0
138.754832,186,214,186,4.800000,0
138.759632,187,215,187,4.944000,0
138.764576,188,216,188,0,3901.600000
142.666176,188,217,188,4.992000,0
142.671168,189,218,189,4.912000,0
142.676080,190,219,190,4.720000,0
142.680800,191,220,191,4.752000,0
142.685552,192,221,192,4.720000,0
142.690272,193,222,193,4.944000,0
142.695216,194,223,194,0,3903.120000
146.598336,194,224,194,3.680000,0
146.602016,195,225,195,4.752000,0
146.606768,196,226,196,4.944000,0
146.611712,197,227,197,4.928000,0
146.616640,198,228,198,4.800000,0
146.621440,199,229,199,4.848000,0
146.626288,200,230,200,4.768000,0
146.631056,201,231,201,0,3899.440000
150.530496,201,232,201,4.784000,0
150.535280,202,233,202,4.928000,0
150.540208,203,234,203,4.752000,0
150.544960,204,235,204,4.848000,0
150.549808,205,236,205,4.720000,0
150.554528,206,237,206,4.896000,0
150.559424,207,238,207,3.680000,0
150.563104,208,239,208,3.680000,0
150.566784,209,240,209,0,3895.872000
154.462656,209,241,209,3.680000,0
154.466336,210,242,210,3.680000,0
154.470016,211,243,211,4.848000,0
154.474864,212,244,212,4.928000,0
154.479792,213,245,213,4.800000,0
154.484592,214,246,214,4.944000,0
154.489536,215,247,215,4.992000,0
154.494528,216,248,216,0,3900.288000
158.394816,216,249,216,4.912000,0
158.399728,217,250,217,4.720000,0
158.404448,218,251,218,4.752000,0
158.409200,219,252,219,4.720000,0
158.413920,220,253,220,4.944000,0
158.418864,221,254,221,3.680000,0
158.422544,222,255,222,4.752000,0
158.427296,223,256,223,0,3899.680000
162.326976,223,257,223,4.944000,0
162.331920,224,258,224,4.928000,0
162.336848,225,259,225,4.800000,0
162.341648,226,260,226,4.848000,0
162.346496,227,261,227,4.768000,0
162.351264,228,262,228,4.784000,0
162.356048,229,263,229,4.928000,0
162.360976,230,264,230,0,3898.160000
166.259136,230,265,230,4.752000,0
166.263888,231,266,231,4.848000,0
166.268736,232,267,232,4.720000,0
166.273456,233,268,233,4.896000,0
166.278352,234,269,234,3.680000,0
166.282032,235,270,235,3.680000,0
166.285712,236,271,236,3.680000,0
166.289392,237,272,237,4.848000,0
166.294240,238,273,238,0,3897.056000
170.191296,238,274,238,4.928000,0
170.196224,239,275,239,4.800000,0
170.201024,240,276,240,4.944000,0
170.205968,241,277,241,4.992000,0
170.210960,242,278,242,4.912000,0
170.215872,243,279,243,4.720000,0
170.220592,244,280,244,4.752000,0
170.225344,245,281,245,0,3898.112000
174.123456,245,282,245,4.720000,0
174.128176,246,283,246,4.944000,0
174.133120,247,284,247,3.680000,0
174.136800,248,285,248,4.752000,0
174.141552,249,286,249,4.944000,0
174.146496,250,287,250,4.928000,0
174.151424,251,288,251,4.800000,0
174.156224,252,289,252,0,3899.392000
178.055616,252,290,252,4.848000,0
178.060464,253,291,253,4.768000,0
178.065232,254,292,254,4.784000,0
178.070016,255,293,255,4.928000,0
178.074944,256,294,256,4.752000,0
178.079696,257,295,257,4.848000,0
178.084544,258,296,258,4.720000,0
178.089264,259,297,259,4.896000,0
178.094160,260,298,260,0,3893.616000
181.987776,260,299,260,3.680000,0
181.991456,261,300,261,3.680000,0
181.995136,262,301,262,3.680000,0
181.998816,263,302,263,4.848000,0
182.003664,264,303,264,4.928000,0
182.008592,265,304,265,4.800000,0
182.013392,266,305,266,0,3906.544000
185.919936,266,306,266,4.944000,0
185.924880,267,307,267,4.992000,0
185.929872,268,308,268,4.912000,0
185.934784,269,309,269,4.720000,0
185.939504,270,310,270,4.752000,0
185.944256,271,311,271,4.720000,0
185.948976,272,312,272,0,3903.120000
189.852096,272,313,272,4.944000,0
189.857040,273,314,273,3.680000,0
189.860720,274,315,274,4.752000,0
189.865472,275,316,275,4.944000,0
189.870416,276,317,276,4.928000,0
189.875344,277,318,277,4.800000,0
189.880144,278,319,278,4.848000,0
189.884992,279,320,279,0,3899.264000
193.784256,279,321,279,4.768000,0
193.789024,280,322,280,4.784000,0
193.793808,281,323,281,4.928000,0
193.798736,282,324,282,4.752000,0
193.803488,283,325,283,4.848000,0
193.808336,284,326,284,4.720000,0
193.813056,285,327,285,4.896000,0
193.817952,286,328,286,0,3898.464000
197.716416,286,329,286,3.680000,0
197.720096,287,330,287,3.680000,0
197.723776,288,331,288,3.680000,0
197.727456,289,332,289,4.848000,0
197.732304,290,333,290,4.928000,0
197.737232,291,334,291,4.800000,0
197.742032,292,335,292,4.944000,0
197.746976,293,336,293,0,3901.600000
201.648576,293,337,293,4.992000,0
201.653568,294,338,294,4.912000,0
201.658480,295,339,295,4.720000,0
201.663200,296,340,296,4.752000,0
201.667952,297,341,297,4.720000,0
201.672672,298,342,298,4.944000,0
201.677616,299,343,299,3.680000,0
201.681296,300,344,300,0,3899.440000
205.580736,300,345,300,4.752000,0
205.585488,301,346,301,4.944000,0
205.590432,302,347,302,4.928000,0
205.595360,303,348,303,4.800000,0
205.600160,304,349,304,4.848000,0
205.605008,305,350,305,4.768000,0
205.609776,306,351,306,4.784000,0
205.614560,307,352,307,0,3898.336000
209.512896,307,353,307,4.928000,0
209.517824,308,354,308,4.752000,0
209.522576,309,355,309,4.848000,0
209.527424,310,356,310,4.720000,0
209.532144,311,357,311,4.896000,0
209.537040,312,358,312,3.680000,0
209.540720,313,359,313,3.680000,0
209.544400,314,360,314,3.680000,0
209.548080,315,361,315,0,3896.976000
213.445056,315,362,315,4.848000,0
213.449904,316,363,316,4.928000,0
213.454832,317,364,317,4.800000,0
213.459632,318,365,318,4.944000,0
213.464576,319,366,319,4.992000,0
213.469568,320,367,320,4.912000,0
213.474480,321,368,321,4.720000,0
213.479200,322,369,322,0,3898.016000
217.377216,322,370,322,4.752000,0
217.381968,323,371,323,4.720000,0
217.386688,324,372,324,4.944000,0
217.391632,325,373,325,3.680000,0
217.395312,326,374,326,4.752000,0
217.400064,327,375,327,4.944000,0
217.405008,328,376,328,4.928000,0
217.409936,329,377,329,0,3899.440000
221.309376,329,378,329,4.800000,0
221.314176,330,379,330,4.848000,0
221.319024,331,380,331,4.768000,0
221.323792,332,381,332,4.784000,0
221.328576,333,382,333,4.928000,0
221.333504,334,383,334,4.752000,0
221.338256,335,384,335,4.848000,0
221.343104,336,385,336,4.720000,0
221.347824,337,386,337,0,3893.712000
225.241536,337,387,337,4.896000,0
225.246432,338,388,338,3.680000,0
225.250112,339,389,339,3.680000,0
225.253792,340,390,340,3.680000,0
225.257472,341,391,341,4.848000,0
225.262320,342,392,342,4.928000,0
225.267248,343,393,343,4.800000,0
225.272048,344,394,344,0,3901.648000
229.173696,344,395,344,4.944000,0
229.178640,345,396,345,4.992000,0
229.183632,346,397,346,4.912000,0
229.188544,347,398,347,4.720000,0
229.193264,348,399,348,4.752000,0
229.198016,349,400,349,4.720000,0
229.202736,350,401,350,0,3903.120000
233.105856,350,402,350,4.944000,0
233.110800,351,403,351,3.680000,0
233.114480,352,404,352,4.752000,0
233.119232,353,405,353,4.944000,0
233.124176,354,406,354,4.928000,0
233.129104,355,407,355,4.800000,0
233.133904,356,408,356,