Time,CovertPackets,AllPackets,BitsSent,PacketInterval,GTSInterval
30.761104,1,150,1,0,977.520000
31.738624,1,225,1,7.216000,0
31.745840,2,300,2,0,975.824000
32.721664,2,375,2,7.296000,0
32.728960,3,450,3,0,975.744000
33.704704,3,525,3,7.168000,0
33.711872,4,600,4,0,975.872000
34.687744,4,675,4,7.312000,0
34.695056,5,750,5,0,975.728000
35.670784,5,825,5,7.360000,0
35.678144,6,900,6,0,975.680000
36.653824,6,975,6,7.280000,0
36.661104,7,1050,7,0,975.760000
37.636864,7,1125,7,0,983.040000
38.619904,7,1200,7,7.088000,0
38.626992,8,1275,8,0,975.952000
39.602944,8,1350,8,7.120000,0
39.610064,9,1425,9,0,975.920000
40.585984,9,1500,9,7.088000,0
40.593072,10,1575,10,0,975.952000
41.569024,10,1650,10,7.312000,0
41.576336,11,1725,11,0,975.728000
42.552064,11,1800,11,6.048000,0
42.558112,12,1875,12,0,976.992000
43.535104,12,1950,12,7.120000,0
43.542224,13,2025,13,0,975.920000
44.518144,13,2100,13,7.312000,0
44.525456,14,2175,14,0,975.728000
45.501184,14,2250,14,7.296000,0
45.508480,15,2325,15,0,975.744000
46.484224,15,2400,15,7.168000,0
46.491392,16,2475,16,0,975.872000
47.467264,16,2550,16,7.216000,0
47.474480,17,2625,17,0,975.824000
48.450304,17,2700,17,7.136000,0
48.457440,18,2775,18,0,975.904000
49.433344,18,2850,18,7.152000,0
49.440496,19,2925,19,0,975.888000
50.416384,19,3000,19,7.296000,0
50.423680,20,3075,20,0,975.744000
51.399424,20,3150,20,7.120000,0
51.406544,21,3225,21,0,975.920000
52.382464,21,3300,21,7.216000,0
52.389680,22,3375,22,0,975.824000
53.365504,22,3450,22,7.088000,0
53.372592,23,3525,23,0,975.952000
54.348544,23,3600,23,7.264000,0
54.355808,24,3675,24,0,975.776000
55.331584,24,3750,24,6.048000,0
55.337632,25,3825,25,0,976.992000
56.314624,25,3900,25,0,983.040000
57.297664,25,3975,25,6.048000,0
57.303712,26,4050,26,6.048000,0
57.309760,27,4125,27,0,970.944000
58.280704,27,4200,27,0,983.040000
59.263744,27,4275,27,7.216000,0
59.270960,28,4350,28,0,975.824000
60.246784,28,4425,28,7.296000,0
60.254080,29,4500,29,0,975.744000
61.229824,29,4575,29,0,983.040000
62.212864,29,4650,29,7.168000,0
62.220032,30,4725,30,0,975.872000
63.195904,30,4800,30,7.312000,0
63.203216,31,4875,31,0,975.728000
64.178944,31,4950,31,7.360000,0
64.186304,32,5025,32,0,975.680000
65.161984,32,5100,32,7.280000,0
65.169264,33,5175,33,0,975.760000
66.145024,33,5250,33,7.088000,0
66.152112,34,5325,34,0,975.952000
67.128064,34,5400,34,7.120000,0
67.135184,35,5475,35,0,975.920000
68.111104,35,5550,35,7.088000,0
68.118192,36,5625,36,0,975.952000
69.094144,36,5700,36,7.312000,0
69.101456,37,5775,37,0,975.728000
70.077184,37,5850,37,6.048000,0
70.083232,38,5925,38,0,976.992000
71.060224,38,6000,38,7.120000,0
71.067344,39,6075,39,0,975.920000
72.043264,39,6150,39,7.312000,0
72.050576,40,6225,40,0,975.728000
73.026304,40,6300,40,7.296000,0
73.033600,41,6375,41,0,975.744000
74.009344,41,6450,41,7.168000,0
74.016512,42,6525,42,0,975.872000
74.992384,42,6600,42,7.216000,0
74.999600,43,6675,43,0,975.824000
75.975424,43,6750,43,7.136000,0
75.982560,44,6825,44,0,975.904000
76.958464,44,6900,44,7.152000,0
76.965616,45,6975,45,0,975.888000
77.941504,45,7050,45,7.296000,0
77.948800,46,7125,46,0,975.744000
78.924544,46,7200,46,7.120000,0
78.931664,47,7275,47,0,975.920000
79.907584,47,7350,47,7.216000,0
79.914800,48,7425,48,0,975.824000
80.890624,48,7500,48,7.088000,0
80.897712,49,7575,49,0,975.952000
81.873664,49,7650,49,7.264000,0
81.880928,50,7725,50,0,975.776000
82.856704,50,7800,50,6.048000,0
82.862752,51,7875,51,0,976.992000
83.839744,51,7950,51,6.048000,0
83.845792,52,8025,52,0,976.992000
84.822784,52,8100,52,6.048000,0
84.828832,53,8175,53,0,976.992000
85.805824,53,8250,53,0,983.040000
86.788864,53,8325,53,6.048000,0
86.794912,54,8400,54,0,976.992000
87.771904,54,8475,54,6.048000,0
87.777952,55,8550,55,0,976.992000
88.754944,55,8625,55,6.048000,0
88.760992,56,8700,56,0,976.992000
89.737984,56,8775,56,6.048000,0
89.744032,57,8850,57,0,976.992000
90.721024,57,8925,57,6.048000,0
90.727072,58,9000,58,0,976.992000
91.704064,58,9075,58,0,983.040000
92.687104,58,9150,58,6.048000,0
92.693152,59,9225,59,6.048000,0
92.699200,60,9300,60,0,970.944000
93.670144,60,9375,60,7.216000,0
93.677360,61,9450,61,0,975.824000
94.653184,61,9525,61,7.296000,0
94.660480,62,9600,62,0,975.744000
95.636224,62,9675,62,7.168000,0
95.643392,63,9750,63,0,975.872000
96.619264,63,9825,63,7.312000,0
96.626576,64,9900,64,0,975.728000
97.602304,64,9975,64,7.360000,0
97.609664,65,10050,65,0,975.680000
98.585344,65,10125,65,7.280000,0
98.592624,66,10200,66,0,975.760000
99.568384,66,10275,66,7.088000,0
99.575472,67,10350,67,0,975.952000
100.551424,67,10425,67,7.120000,0
100.558544,68,10500,68,0,975.920000
101.534464,68,10575,68,7.088000,0
101.541552,69,10650,69,0,975.952000
102.517504,69,10725,69,7.312000,0
102.524816,70,10800,70,0,975.728000
103.500544,70,10875,70,6.048000,0
103.506592,71,10950,71,0,976.992000
104.483584,71,11025,71,7.120000,0
104.490704,72,11100,72,0,975.920000
105.466624,72,11175,72,7.312000,0
105.473936,73,11250,73,0,975.728000
106.449664,73,11325,73,7.296000,0
106.456960,74,11400,74,0,975.744000
107.432704,74,11475,74,7.168000,0
107.439872,75,11550,75,0,975.872000
108.415744,75,11625,75,7.216000,0
108.422960,76,11700,76,0,975.824000
109.398784,76,11775,76,7.136000,0
109.405920,77,11850,77,0,975.904000
110.381824,77,11925,77,7.152000,0
110.388976,78,12000,78,0,975.888000
111.364864,78,12075,78,7.296000,0
111.372160,79,12150,79,0,975.744000
112.347904,79,12225,79,0,983.040000
113.330944,79,12300,79,7.120000,0
113.338064,80,12375,80,0,975.920000
114.313984,80,12450,80,7.216000,0
114.321200,81,12525,81,0,975.824000
115.297024,81,12600,81,7.088000,0
115.304112,82,12675,82,0,975.952000
116.280064,82,12750,82,7.264000,0
116.287328,83,12825,83,0,975.776000
117.263104,83,12900,83,6.048000,0
117.269152,84,12975,84,0,976.992000
118.246144,84,13050,84,6.048000,0
118.252192,85,13125,85,0,976.992000
119.229184,85,13200,85,6.048000,0
119.235232,86,13275,86,0,976.992000
120.212224,86,13350,86,6.048000,0
120.218272,87,13425,87,0,976.992000
121.195264,87,13500,87,6.048000,0
121.201312,88,13575,88,0,976.992000
122.178304,88,13650,88,6.048000,0
122.184352,89,13725,89,0,976.992000
123.161344,89,13800,89,6.048000,0
123.167392,90,13875,90,0,976.992000
124.144384,90,13950,90,6.048000,0
124.150432,91,14025,91,0,976.992000
125.127424,91,14100,91,6.048000,0
125.133472,92,14175,92,0,976.992000
126.110464,92,14250,92,6.048000,0
126.116512,93,14325,93,0,976.992000
127.093504,93,14400,93,6.048000,0
127.099552,94,14475,94,0,976.992000
128.076544,94,14550,94,6.048000,0
128.082592,95,14625,95,0,976.992000
129.059584,95,14700,95,0,983.040000
130.042624,95,14775,95,6.048000,0
130.048672,96,14850,96,6.048000,0
130.054720,97,14925,97,0,970.944000
131.025664,97,15000,97,7.216000,0
131.032880,98,15075,98,0,975.824000
132.008704,98,15150,98,7.296000,0
132.016000,99,15225,99,0,975.744000
132.991744,99,15300,99,7.168000,0
132.998912,100,15375,100,0,975.872000
133.974784,100,15450,100,7.312000,0
133.982096,101,15525,101,0,975.728000
134.957824,101,15600,101,0,983.040000
135.940864,101,15675,101,7.360000,0
135.948224,102,15750,102,0,975.680000
136.923904,102,15825,102,7.280000,0
136.931184,103,15900,103,0,975.760000
137.906944,103,15975,103,0,983.040000
138.889984,103,16050,103,7.088000,0
138.897072,104,16125,104,0,975.952000
139.873024,104,16200,104,7.120000,0
139.880144,105,16275,105,0,975.920000
140.856064,105,16350,105,7.088000,0
140.863152,106,16425,106,0,975.952000
141.839104,106,16500,106,7.312000,0
141.846416,107,16575,107,0,975.728000
142.822144,107,16650,107,6.048000,0
142.828192,108,16725,108,0,976.992000
143.805184,108,16800,108,7.120000,0
143.812304,109,16875,109,0,975.920000
144.788224,109,16950,109,7.312000,0
144.795536,110,17025,110,0,975.728000
145.771264,110,17100,110,7.296000,0
145.778560,111,17175,111,0,975.744000
146.754304,111,17250,111,7.168000,0
146.761472,112,17325,112,0,975.872000
147.737344,112,17400,112,7.216000,0
147.744560,113,17475,113,0,975.824000
148.720384,113,17550,113,7.136000,0
148.727520,114,17625,114,0,975.904000
149.703424,114,17700,114,7.152000,0
149.710576,115,17775,115,0,975.888000
150.686464,115,17850,115,7.296000,0
150.693760,116,17925,116,0,975.744000
151.669504,116,18000,116,7.120000,0
151.676624,117,18075,117,0,975.920000
152.652544,117,18150,117,7.216000,0
152.659760,118,18225,118,0,975.824000
153.635584,118,18300,118,7.088000,0
153.642672,119,18375,119,0,975.952000
154.618624,119,18450,119,7.264000,0
154.625888,120,18525,120,0,975.776000
155.601664,120,18600,120,0,983.040000
156.584704,120,18675,120,6.048000,0
156.590752,121,18750,121,0,976.992000
157.567744,121,18825,121,0,983.040000
158.550784,121,18900,121,6.048000,0
158.556832,122,18975,122,6.048000,0
158.562880,123,19050,123,0,970.944000
159.533824,123,19125,123,7.216000,0
159.541040,124,19200,124,0,975.824000
160.516864,124,19275,124,7.296000,0
160.524160,125,19350,125,0,975.744000
161.499904,125,19425,125,7.168000,0
161.507072,126,19500,126,0,975.872000
162.482944,126,19575,126,7.312000,0
162.490256,127,19650,127,0,975.728000
163.465984,127,19725,127,7.360000,0
163.473344,128,19800,128,0,975.680000
164.449024,128,19875,128,7.280000,0
164.456304,129,19950,129,0,975.760000
165.432064,129,20025,129,7.088000,0
165.439152,130,20100,130,0,975.952000
166.415104,130,20175,130,7.120000,0
166.422224,131,20250,131,0,975.920000
167.398144,131,20325,131,0,983.040000
168.381184,131,20400,131,7.088000,0
168.388272,132,20475,132,0,975.952000
169.364224,132,20550,132,7.312000,0
169.371536,133,20625,133,0,975.728000
170.347264,133,20700,133,6.048000,0
170.353312,134,20775,134,0,976.992000
171.330304,134,20850,134,7.120000,0
171.337424,135,20925,135,0,975.920000
172.313344,135,21000,135,7.312000,0
172.320656,136,21075,136,0,975.728000
173.296384,136,21150,136,7.296000,0
173.303680,137,21225,137,0,975.744000
174.279424,137,21300,137,7.168000,0
174.286592,138,21375,138,0,975.872000
175.262464,138,21450,138,7.216000,0
175.269680,139,21525,139,0,975.824000
176.245504,139,21600,139,7.136000,0
176.252640,140,21675,140,0,975.904000
177.228544,140,21750,140,7.152000,0
177.235696,141,21825,141,0,975.888000
178.211584,141,21900,141,7.296000,0
178.218880,142,21975,142,0,975.744000
179.194624,142,22050,142,7.120000,0
179.201744,143,22125,143,0,975.920000
180.177664,143,22200,143,7.216000,0
180.184880,144,22275,144,0,975.824000
181.160704,144,22350,144,7.088000,0
181.167792,145,22425,145,0,975.952000
182.143744,145,22500,145,7.264000,0
182.151008,146,22575,146,0,975.776000
183.126784,146,22650,146,6.048000,0
183.132832,147,22725,147,6.048000,0
183.138880,148,22800,148,0,970.944000
184.109824,148,22875,148,6.048000,0
184.115872,149,22950,149,0,976.992000
185.092864,149,23025,149,6.048000,0
185.098912,150,23100,150,0,976.992000
186.075904,150,23175,150,6.048000,0
186.081952,151,23250,151,0,976.992000
187.058944,151,23325,151,6.048000,0
187.064992,152,23400,152,0,976.992000
188.041984,152,23475,152,6.048000,0
188.048032,153,23550,153,0,976.992000
189.025024,153,23625,153,0,983.040000
190.008064,153,23700,153,6.048000,0
190.014112,154,23775,154,6.048000,0
190.020160,155,23850,155,0,970.944000
190.991104,155,23925,155,7.216000,0
190.998320,156,24000,156,0,975.824000
191.974144,156,24075,156,7.296000,0
191.981440,157,24150,157,0,975.744000
192.957184,157,24225,157,7.168000,0
192.964352,158,24300,158,0,975.872000
193.940224,158,24375,158,0,983.040000
194.923264,158,24450,158,7.312000,0
194.930576,159,24525,159,0,975.728000
195.906304,159,24600,159,7.360000,0
195.913664,160,24675,160,0,975.680000
196.889344,160,24750,160,7.280000,0
196.896624,161,24825,161,0,975.760000
197.872384,161,24900,161,7.088000,0
197.879472,162,24975,162,0,975.952000
198.855424,162,25050,162,7.120000,0
198.862544,163,25125,163,0,975.920000
199.838464,163,25200,163,7.088000,0
199.845552,164,25275,164,0,975.952000
200.821504,164,25350,164,7.312000,0
200.828816,165,25425,165,0,975.728000
201.804544,165,25500,165,6.048000,0
201.810592,166,25575,166,0,976.992000
202.787584,166,25650,166,0,983.040000
203.770624,166,25725,166,7.120000,0
203.777744,167,25800,167,0,975.920000
204.753664,167,25875,167,7.312000,0
204.760976,168,25950,168,0,975.728000
205.736704,168,26025,168,7.296000,0
205.744000,169,26100,169,0,975.744000
206.719744,169,26175,169,0,983.040000
207.702784,169,26250,169,7.168000,0
207.709952,170,26325,170,0,975.872000
208.685824,170,26400,170,7.216000,0
208.693040,171,26475,171,0,975.824000
209.668864,171,26550,171,7.136000,0
209.676000,172,26625,172,0,975.904000
210.651904,172,26700,172,7.152000,0
210.659056,173,26775,173,0,975.888000
211.634944,173,26850,173,7.296000,0
211.642240,174,26925,174,0,975.744000
212.617984,174,27000,174,7.120000,0
212.625104,175,27075,175,0,975.920000
213.601024,175,27150,175,7.216000,0
213.608240,176,27225,176,0,975.824000
214.584064,176,27300,176,7.088000,0
214.591152,177,27375,177,0,975.952000
215.567104,177,27450,177,7.264000,0
215.574368,178,27525,178,0,975.776000
216.550144,178,27600,178,6.048000,0
216.556192,179,27675,179,6.048000,0
216.562240,180,27750,180,0,970.944000
217.533184,180,27825,180,0,983.040000
218.516224,180,27900,180,6.048000,0
218.522272,181,27975,181,6.048000,0
218.528320,182,28050,182,0,970.944000
219.499264,182,28125,182,7.216000,0
219.506480,183,28200,183,0,975.824000
220.482304,183,28275,183,0,983.040000
221.465344,183,28350,183,7.296000,0
221.472640,184,28425,184,0,975.744000
222.448384,184,28500,184,7.168000,0
222.455552,185,28575,185,0,975.872000
223.431424,185,28650,185,7.312000,0
223.438736,186,28725,186,0,975.728000
224.414464,186,28800,186,7.360000,0
224.421824,187,28875,187,0,975.680000
225.397504,187,28950,187,7.280000,0
225.404784,188,29025,188,0,975.760000
226.380544,188,29100,188,7.088000,0
226.387632,189,29175,189,0,975.952000
227.363584,189,29250,189,7.120000,0
227.370704,190,29325,190,0,975.920000
228.346624,190,29400,190,7.088000,0
228.353712,191,29475,191,0,975.952000
229.329664,191,29550,191,0,983.040000
230.312704,191,29625,191,7.312000,0
230.320016,192,29700,192,0,975.728000
231.295744,192,29775,192,6.048000,0
231.301792,193,29850,193,0,976.992000
