Time,CovertPackets,AllPackets,BitsSent,PacketInterval;GTSInterval
32.015888,1,2,1,4.848000,0
32.020736,2,3,2,4.928000,0
32.025664,3,4,3,0,1953.152000
33.978816,3,5,3,4.800000,0
33.983616,4,6,4,4.944000,0
33.988560,5,7,5,4.992000,0
33.993552,6,8,6,0,1951.344000
35.944896,6,9,6,4.912000,0
35.949808,7,10,7,4.720000,0
35.954528,8,11,8,4.752000,0
35.959280,9,12,9,0,1951.696000
37.910976,9,13,9,4.720000,0
37.915696,10,14,10,4.944000,0
37.920640,11,15,11,3.680000,0
37.924320,12,16,12,0,1952.736000
39.877056,12,17,12,4.752000,0
39.881808,13,18,13,4.944000,0
39.886752,14,19,14,4.928000,0
39.891680,15,20,15,0,1951.456000
41.843136,15,21,15,4.800000,0
41.847936,16,22,16,4.848000,0
41.852784,17,23,17,0,1956.432000
43.809216,17,24,17,4.768000,0
43.813984,18,25,18,4.784000,0
43.818768,19,26,19,4.928000,0
43.823696,20,27,20,4.752000,0
43.828448,21,28,21,0,1946.848000
45.775296,21,29,21,4.848000,0
45.780144,22,30,22,4.720000,0
45.784864,23,31,23,4.896000,0
45.789760,24,32,24,0,1951.616000
47.741376,24,33,24,3.680000,0
47.745056,25,34,25,3.680000,0
47.748736,26,35,26,3.680000,0
47.752416,27,36,27,0,1955.040000
49.707456,27,37,27,4.848000,0
49.712304,28,38,28,4.928000,0
49.717232,29,39,29,4.800000,0
49.722032,30,40,30,0,1951.504000
51.673536,30,41,30,4.944000,0
51.678480,31,42,31,4.992000,0
51.683472,32,43,32,4.912000,0
51.688384,33,44,33,4.720000,0
51.693104,34,45,34,0,1946.512000
53.639616,34,46,34,4.752000,0
53.644368,35,47,35,4.720000,0
53.649088,36,48,36,4.944000,0
53.654032,37,49,37,0,1951.664000
55.605696,37,50,37,3.680000,0
55.609376,38,51,38,4.752000,0
55.614128,39,52,39,4.944000,0
55.619072,40,53,40,0,1952.704000
57.571776,40,54,40,4.928000,0
57.576704,41,55,41,4.800000,0
57.581504,42,56,42,4.848000,0
57.586352,43,57,43,0,1951.504000
59.537856,43,58,43,4.768000,0
59.542624,44,59,44,4.784000,0
59.547408,45,60,45,4.928000,0
59.552336,46,61,46,0,1951.600000
61.503936,46,62,46,4.752000,0
61.508688,47,63,47,4.848000,0
61.513536,48,64,48,4.720000,0
61.518256,49,65,49,0,1951.760000
63.470016,49,66,49,4.896000,0
63.474912,50,67,50,3.680000,0
63.478592,51,68,51,3.680000,0
63.482272,52,69,52,0,1953.824000
65.436096,52,70,52,3.680000,0
65.439776,53,71,53,3.680000,0
65.443456,54,72,54,4.848000,0
65.448304,55,73,55,4.928000,0
65.453232,56,74,56,0,1948.944000
67.402176,56,75,56,4.800000,0
67.406976,57,76,57,4.944000,0
67.411920,58,77,58,4.992000,0
67.416912,59,78,59,0,1951.344000
69.368256,59,79,59,4.912000,0
69.373168,60,80,60,4.720000,0
69.377888,61,81,61,4.752000,0
69.382640,62,82,62,0,1951.696000
71.334336,62,83,62,4.720000,0
71.339056,63,84,63,4.944000,0
71.344000,64,85,64,3.680000,0
71.347680,65,86,65,0,1952.736000
73.300416,65,87,65,4.752000,0
73.305168,66,88,66,4.944000,0
73.310112,67,89,67,0,1956.384000
75.266496,67,90,67,4.928000,0
75.271424,68,91,68,4.800000,0
75.276224,69,92,69,4.848000,0
75.281072,70,93,70,0,1951.504000
77.232576,70,94,70,4.768000,0
77.237344,71,95,71,4.784000,0
77.242128,72,96,72,4.928000,0
77.247056,73,97,73,0,1951.600000
79.198656,73,98,73,4.752000,0
79.203408,74,99,74,4.848000,0
79.208256,75,100,75,4.720000,0
79.212976,76,101,76,4.896000,0
79.217872,77,102,77,0,1946.864000
81.164736,77,103,77,3.680000,0
81.168416,78,104,78,3.680000,0
81.172096,79,105,79,3.680000,0
81.175776,80,106,80,0,1955.040000
83.130816,80,107,80,4.848000,0
83.135664,81,108,81,4.928000,0
83.140592,82,109,82,4.800000,0
83.145392,83,110,83,0,1951.504000
85.096896,83,111,83,4.944000,0
85.101840,84,112,84,4.992000,0
85.106832,85,113,85,4.912000,0
85.111744,86,114,86,0,1951.232000
87.062976,86,115,86,4.720000,0
87.067696,87,116,87,4.752000,0
87.072448,88,117,88,0,1956.608000
89.029056,88,118,88,4.720000,0
89.033776,89,119,89,4.944000,0
89.038720,90,120,90,3.680000,0
89.042400,91,121,91,0,1952.736000
90.995136,91,122,91,4.752000,0
90.999888,92,123,92,4.944000,0
91.004832,93,124,93,0,1956.384000
92.961216,93,125,93,4.928000,0
92.966144,94,126,94,4.800000,0
92.970944,95,127,95,4.848000,0
92.975792,96,128,96,0,1951.504000
94.927296,96,129,96,4.768000,0
94.932064,97,130,97,4.784000,0
94.936848,98,131,98,4.928000,0
94.941776,99,132,99,0,1951.600000
96.893376,99,133,99,4.752000,0
96.898128,100,134,100,4.848000,0
96.902976,101,135,101,0,1956.480000
98.859456,101,136,101,4.720000,0
98.864176,102,137,102,4.896000,0
98.869072,103,138,103,3.680000,0
98.872752,104,139,104,0,1952.784000
100.825536,104,140,104,3.680000,0
100.829216,105,141,105,3.680000,0
100.832896,106,142,106,4.848000,0
100.837744,107,143,107,0,1953.872000
102.791616,107,144,107,4.928000,0
102.796544,108,145,108,4.800000,0
102.801344,109,146,109,4.944000,0
102.806288,110,147,110,0,1951.408000
104.757696,110,148,110,4.992000,0
104.762688,111,149,111,4.912000,0
104.767600,112,150,112,4.720000,0
104.772320,113,151,113,0,1951.456000
106.723776,113,152,113,4.752000,0
106.728528,114,153,114,4.720000,0
106.733248,115,154,115,4.944000,0
106.738192,116,155,116,0,1951.664000
108.689856,116,156,116,3.680000,0
108.693536,117,157,117,4.752000,0
108.698288,118,158,118,4.944000,0
108.703232,119,159,119,0,1952.704000
110.655936,119,160,119,4.928000,0
110.660864,120,161,120,4.800000,0
110.665664,121,162,121,0,1956.352000
112.622016,121,163,121,4.848000,0
112.626864,122,164,122,4.768000,0
112.631632,123,165,123,4.784000,0
112.636416,124,166,124,4.928000,0
112.641344,125,167,125,0,1946.752000
114.588096,125,168,125,4.752000,0
114.592848,126,169,126,4.848000,0
114.597696,127,170,127,0,1956.480000
116.554176,127,171,127,4.720000,0
116.558896,128,172,128,4.896000,0
116.563792,129,173,129,3.680000,0
116.567472,130,174,130,0,1952.784000
118.520256,130,175,130,3.680000,0
118.523936,131,176,131,3.680000,0
118.527616,132,177,132,4.848000,0
118.532464,133,178,133,4.928000,0
118.537392,134,179,134,0,1948.944000
120.486336,134,180,134,4.800000,0
120.491136,135,181,135,4.944000,0
120.496080,136,182,136,4.992000,0
120.501072,137,183,137,0,1951.344000
122.452416,137,184,137,4.912000,0
122.457328,138,185,138,4.720000,0
122.462048,139,186,139,4.752000,0
122.466800,140,187,140,0,1951.696000
124.418496,140,188,140,4.720000,0
124.423216,141,189,141,4.944000,0
124.428160,142,190,142,3.680000,0
124.431840,143,191,143,0,1952.736000
126.384576,143,192,143,4.752000,0
126.389328,144,193,144,4.944000,0
126.394272,145,194,145,4.928000,0
126.399200,146,195,146,4.800000,0
126.404000,147,196,147,0,1946.656000
128.350656,147,197,147,4.848000,0
128.355504,148,198,148,4.768000,0
128.360272,149,199,149,0,1956.464000
130.316736,149,200,149,4.784000,0
130.321520,150,201,150,4.928000,0
130.326448,151,202,151,0,1956.368000
132.282816,151,203,151,4.752000,0
132.287568,152,204,152,4.848000,0
132.292416,153,205,153,4.720000,0
132.297136,154,206,154,0,1951.760000
134.248896,154,207,154,4.896000,0
134.253792,155,208,155,3.680000,0
134.257472,156,209,156,3.680000,0
134.261152,157,210,157,0,1953.824000
136.214976,157,211,157,3.680000,0
136.218656,158,212,158,3.680000,0
136.222336,159,213,159,4.848000,0
136.227184,160,214,160,0,1953.872000
138.181056,160,215,160,4.928000,0
138.185984,161,216,161,4.800000,0
138.190784,162,217,162,4.944000,0
138.195728,163,218,163,0,1951.408000
140.147136,163,219,163,4.992000,0
140.152128,164,220,164,4.912000,0
140.157040,165,221,165,0,1956.176000
142.113216,165,222,165,4.720000,0
142.117936,166,223,166,4.752000,0
142.122688,167,224,167,4.720000,0
142.127408,168,225,168,4.944000,0
142.132352,169,226,169,0,1946.944000
144.079296,169,227,169,3.680000,0
144.082976,170,228,170,4.752000,0
144.087728,171,229,171,4.944000,0
144.092672,172,230,172,0,1952.704000
146.045376,172,231,172,4.928000,0
146.050304,173,232,173,4.800000,0
146.055104,174,233,174,4.848000,0
146.059952,175,234,175,0,1951.504000
148.011456,175,235,175,4.768000,0
148.016224,176,236,176,4.784000,0
148.021008,177,237,177,0,1956.528000
149.977536,177,238,177,4.928000,0
149.982464,178,239,178,4.752000,0
149.987216,179,240,179,4.848000,0
149.992064,180,241,180,4.720000,0
149.996784,181,242,181,0,1946.832000
151.943616,181,243,181,4.896000,0
151.948512,182,244,182,3.680000,0
151.952192,183,245,183,3.680000,0
151.955872,184,246,184,0,1953.824000
153.909696,184,247,184,3.680000,0
153.913376,185,248,185,3.680000,0
153.917056,186,249,186,4.848000,0
153.921904,187,250,187,0,1953.872000
155.875776,187,251,187,4.928000,0
155.880704,188,252,188,4.800000,0
155.885504,189,253,189,4.944000,0
155.890448,190,254,190,0,1951.408000
157.841856,190,255,190,4.992000,0
157.846848,191,256,191,4.912000,0
157.851760,192,257,192,0,1956.176000
159.807936,192,258,192,4.720000,0
159.812656,193,259,193,4.752000,0
159.817408,194,260,194,4.720000,0
159.822128,195,261,195,4.944000,0
159.827072,196,262,196,0,1946.944000
161.774016,196,263,196,3.680000,0
161.777696,197,264,197,4.752000,0
161.782448,198,265,198,0,1957.648000
163.740096,198,266,198,4.944000,0
163.745040,199,267,199,4.928000,0
163.749968,200,268,200,4.800000,0
163.754768,201,269,201,4.848000,0
163.759616,202,270,202,0,1946.560000
165.706176,202,271,202,4.768000,0
165.710944,203,272,203,4.784000,0
165.715728,204,273,204,0,1956.528000
167.672256,204,274,204,4.928000,0
167.677184,205,275,205,4.752000,0
167.681936,206,276,206,4.848000,0
167.686784,207,277,207,0,1951.552000
169.638336,207,278,207,4.720000,0
169.643056,208,279,208,4.896000,0
169.647952,209,280,209,3.680000,0
169.651632,210,281,210,0,1952.784000
171.604416,210,282,210,3.680000,0
171.608096,211,283,211,3.680000,0
171.611776,212,284,212,4.848000,0
171.616624,213,285,213,0,1953.872000
173.570496,213,286,213,4.928000,0
173.575424,214,287,214,4.800000,0
173.580224,215,288,215,4.944000,0
173.585168,216,289,216,0,1951.408000
175.536576,216,290,216,4.992000,0
175.541568,217,291,217,4.912000,0
175.546480,218,292,218,4.720000,0
175.551200,219,293,219,0,1951.456000
177.502656,219,294,219,4.752000,0
177.507408,220,295,220,4.720000,0
177.512128,221,296,221,0,1956.608000
179.468736,221,297,221,4.944000,0
179.473680,222,298,222,3.680000,0
179.477360,223,299,223,4.752000,0
179.482112,224,300,224,0,1952.704000
181.434816,224,301,224,4.944000,0
181.439760,225,302,225,4.928000,0
181.444688,226,303,226,4.800000,0
181.449488,227,304,227,0,1951.408000
183.400896,227,305,227,4.848000,0
183.405744,228,306,228,4.768000,0
183.410512,229,307,229,4.784000,0
183.415296,230,308,230,0,1951.680000
185.366976,230,309,230,4.928000,0
185.371904,231,310,231,4.752000,0
185.376656,232,311,232,0,1956.400000
187.333056,232,312,232,4.848000,0
187.337904,233,313,233,4.720000,0
187.342624,234,314,234,4.896000,0
187.347520,235,315,235,0,1951.616000
189.299136,235,316,235,3.680000,0
189.302816,236,317,236,3.680000,0
189.306496,237,318,237,3.680000,0
189.310176,238,319,238,0,1955.040000
191.265216,238,320,238,4.848000,0
191.270064,239,321,239,4.928000,0
191.274992,240,322,240,4.800000,0
191.279792,241,323,241,0,1951.504000
193.231296,241,324,241,4.944000,0
193.236240,242,325,242,4.992000,0
193.241232,243,326,243,4.912000,0
193.246144,244,327,244,0,1951.232000
195.197376,244,328,244,4.720000,0
195.202096,245,329,245,4.752000,0
195.206848,246,330,246,4.720000,0
195.211568,247,331,247,0,1951.888000
197.163456,247,332,247,4.944000,0
197.168400,248,333,248,3.680000,0
197.172080,249,334,249,0,1957.456000
199.129536,249,335,249,4.752000,0
199.134288,250,336,250,4.944000,0
199.139232,251,337,251,4.928000,0
199.144160,252,338,252,4.800000,0
199.148960,253,339,253,0,1946.656000
201.095616,253,340,253,4.848000,0
201.100464,254,341,254,4.768000,0
201.105232,255,342,255,4.784000,0
201.110016,256,343,256,0,1951.680000
203.061696,256,344,256,4.928000,0
203.066624,257,345,257,4.752000,0
203.071376,258,346,258,4.848000,0
203.076224,259,347,259,0,1951.552000
205.027776,259,348,259,4.720000,0
205.032496,260,349,260,4.896000,0
205.037392,261,350,261,0,1956.464000
206.993856,261,351,261,3.680000,0
206.997536,262,352,262,3.680000,0
207.001216,263,353,263,3.680000,0
207.004896,264,354,264,0,1955.040000
208.959936,264,355,264,4.848000,0
208.964784,265,356,265,4.928000,0
208.969712,266,357,266,4.800000,0
208.974512,267,358,267,0,1951.504000
210.926016,267,359,267,4.944000,0
210.930960,268,360,268,4.992000,0
210.935952,269,361,269,4.912000,0
210.940864,270,362,270,0,1951.232000
212.892096,270,363,270,4.720000,0
212.896816,271,364,271,4.752000,0
212.901568,272,365,272,4.720000,0
212.906288,273,366,273,4.944000,0
212.911232,274,367,274,0,1946.944000
214.858176,274,368,274,3.680000,0
214.861856,275,369,275,4.752000,0
214.866608,276,370,276,4.944000,0
214.871552,277,371,277,4.928000,0
214.876480,278,372,278,0,1947.776000
216.824256,278,373,278,4.800000,0
216.829056,279,374,279,4.848000,0
216.833904,280,375,280,0,1956.432000
218.790336,280,376,280,4.768000,0
218.795104,281,377,281,4.784000,0
218.799888,282,378,282,4.928000,0
218.804816,283,379,283,4.752000,0
218.809568,284,380,284,0,1946.848000
220.756416,284,381,284,4.848000,0
220.761264,285,382,285,4.720000,0
220.765984,286,383,286,4.896000,0
220.770880,287,384,287,0,1951.616000
222.722496,287,385,287,3.680000,0
222.726176,288,386,288,3.680000,0
222.729856,289,387,289,0,1958.720000
224.688576,289,388,289,3.680000,0
224.692256,290,389,290,3.680000,0
224.695936,291,390,291,4.848000,0
224.700784,292,391,292,4.928000,0
224.705712,293,392,293,0,1948.944000
226.654656,293,393,293,4.800000,0
226.659456,294,394,294,4.944000,0
226.664400,295,395,295,4.992000,0
226.669392,296,396,296,0,1951.344000
228.620736,296,397,296,4.912000,0
228.625648,297,398,297,4.720000,0
228.630368,298,399,298,4.752000,0
228.635120,299,400,299,0,1951.696000
230.586816,299,401,299,4.720000,0
230.591536,300,402,300,4.944000,0
230.596480,301,403,301,3.680000,0
230.600160,302,404,302,0,1952.736000
232.552896,302,405,302,4.752000,0
232.557648,303,406,303,4.944000,0
232.562592,304,407,304,4.928000,0
232.567520,305,408,305,0,1951.456000
234.518976,305,409,305,4.800000,0
234.523776,306,410,306,4.848000,0
234.528624,307,411,307,4.768000,0
234.533392,308,412,308,