Delay,Aut_Number,Aut_Slot,MensagemAut
1.478768,1,4,9
1.475136,1,4,9
1.471712,1,4,9
0.990400,1,4,9
0.986864,1,4,9
0.498880,1,4,9
0.495056,1,4,9
0.491424,1,4,9
0.488000,1,4,9
0.007360,1,4,9
0.003568,1,4,9
0.000000,1,4,9
1.477872,2,8,17
1.474496,2,8,17
1.471072,2,8,17
0.986352,2,8,17
0.983072,2,8,17
0.979248,2,8,17
0.975872,2,8,17
0.494832,2,8,17
0.491664,2,8,17
0.488384,2,8,17
0.003312,2,8,17
0.000000,2,8,17
1.470928,3,11,25
0.986608,3,11,25
0.982928,3,11,25
0.979648,3,11,25
0.976336,3,11,25
0.495088,3,11,25
0.491200,3,11,25
0.488032,3,11,25
0.484752,3,11,25
0.003568,3,11,25
0.000000,3,11,25
0.986112,4,13,33
0.982688,4,13,33
0.501792,4,13,33
0.498512,4,13,33
0.495200,4,13,33
0.491568,4,13,33
0.010272,4,13,33
0.006848,4,13,33
0.003568,4,13,33
0.000000,4,13,33
1.477872,5,17,41
1.473984,5,17,41
1.470560,5,17,41
0.986352,5,17,41
0.983072,5,17,41
0.979504,5,17,41
0.494832,5,17,41
0.491456,5,17,41
0.488288,5,17,41
0.484496,5,17,41
0.003312,5,17,41
0.000000,5,17,41
1.471696,6,20,49
1.468016,6,20,49
0.986864,6,20,49
0.983584,6,20,49
0.980272,6,20,49
0.495344,6,20,49
0.491968,6,20,49
0.488288,6,20,49
0.485008,6,20,49
0.003824,6,20,49
0.000000,6,20,49
0.989888,7,23,57
0.986256,7,23,57
0.982576,7,23,57
0.978784,7,23,57
0.498368,7,23,57
0.495056,7,23,57
0.491168,7,23,57
0.487488,7,23,57
0.006848,7,23,57
0.003312,7,23,57
0.000000,7,23,57
1.467392,8,26,65
0.986352,8,26,65
0.982672,8,26,65
0.979136,8,26,65
0.975824,8,26,65
0.494832,8,26,65
0.490944,8,26,65
0.487520,8,26,65
0.483728,8,26,65
0.003312,8,26,65
0.000000,8,26,65
1.962960,9,30,73
1.959536,9,30,73
1.478384,9,30,73
1.474848,9,30,73
1.471280,9,30,73
1.467392,9,30,73
0.986864,9,30,73
0.495344,9,30,73
0.492176,9,30,73
0.488384,9,30,73
0.003824,9,30,73
0.000000,9,30,73
0.986368,10,32,81
0.982944,10,32,81
0.502304,10,32,81
0.498512,10,32,81
0.494944,10,32,81
0.491056,10,32,81
0.010784,10,32,81
0.007104,10,32,81
0.003312,10,32,81
0.000000,10,32,81
0.990400,11,35,89
0.986512,11,35,89
0.982832,11,35,89
0.979552,11,35,89
0.498880,11,35,89
0.495056,11,35,89
0.491680,11,35,89
0.488256,11,35,89
0.007360,11,35,89
0.003824,11,35,89
0.000000,11,35,89
1.467136,12,38,97
0.986864,12,38,97
0.983440,12,38,97
0.979648,12,38,97
0.976336,12,38,97
0.495344,12,38,97
0.491456,12,38,97
0.487776,12,38,97
0.484240,12,38,97
0.003824,12,38,97
0.000000,12,38,97
0.986112,13,40,105
0.982432,13,40,105
0.502048,13,40,105
0.498512,13,40,105
0.495200,13,40,105
0.491568,13,40,105
0.010528,13,40,105
0.007104,13,40,105
0.003312,13,40,105
0.000000,13,40,105
0.990144,14,43,113
0.986512,14,43,113
0.983344,14,43,113
0.980064,14,43,113
0.498624,14,43,113
0.495312,14,43,113
0.491680,14,43,113
0.488000,14,43,113
0.007104,14,43,113
0.003824,14,43,113
0.000000,14,43,113
1.467136,15,46,121
0.986608,15,46,121
0.983184,15,46,121
0.979904,15,46,121
0.976080,15,46,121
0.495088,15,46,121
0.491456,15,46,121
0.488288,15,46,121
0.485008,15,46,121
0.003568,15,46,121
0.000000,15,46,121
0.987136,16,48,129
0.983968,16,48,129
0.502560,16,48,129
0.499024,16,48,129
0.495456,16,48,129
0.492080,16,48,129
0.011040,16,48,129
0.007616,16,48,129
0.003824,16,48,129
0.000000,16,48,129
0.990400,17,51,137
0.986768,17,51,137
0.983600,17,51,137
0.980064,17,51,137
0.498880,17,51,137
0.495568,17,51,137
0.491680,17,51,137
0.488000,17,51,137
0.007360,17,51,137
0.003568,17,51,137
0.000000,17,51,137
1.467136,18,54,145
0.986352,18,54,145
0.982672,18,54,145
0.979392,18,54,145
0.975824,18,54,145
0.494832,18,54,145
0.491200,18,54,145
0.488032,18,54,145
0.484240,18,54,145
0.003312,18,54,145
0.000000,18,54,145
0.986624,19,56,153
0.983456,19,56,153
0.502048,19,56,153
0.498512,19,56,153
0.494688,19,56,153
0.491312,19,56,153
0.010528,19,56,153
0.007104,19,56,153
0.003568,19,56,153
0.000000,19,56,153
0.990144,20,59,161
0.986768,20,59,161
0.983344,20,59,161
0.980064,20,59,161
0.498624,20,59,161
0.494800,20,59,161
0.491424,20,59,161
0.488256,20,59,161
0.007104,20,59,161
0.003824,20,59,161
0.000000,20,59,161
1.466880,21,62,169
0.986352,21,62,169
0.983184,21,62,169
0.979904,21,62,169
0.976592,21,62,169
0.494832,21,62,169
0.490944,21,62,169
0.487264,21,62,169
0.483984,21,62,169
0.003312,21,62,169
0.000000,21,62,169
0.986368,22,64,177
0.982688,22,64,177
0.502048,22,64,177
0.498512,22,64,177
0.495200,22,64,177
0.491824,22,64,177
0.010528,22,64,177
0.007104,22,64,177
0.003568,22,64,177
0.000000,22,64,177
0.989888,23,67,185
0.986512,23,67,185
0.983088,23,67,185
0.979296,23,67,185
0.498368,23,67,185
0.495056,23,67,185
0.491168,23,67,185
0.487744,23,67,185
0.006848,23,67,185
0.003568,23,67,185
0.000000,23,67,185
1.467392,24,70,193
0.986352,24,70,193
0.982672,24,70,193
0.979136,24,70,193
0.975312,24,70,193
0.494832,24,70,193
0.491456,24,70,193
0.487776,24,70,193
0.484240,24,70,193
0.003312,24,70,193
0.000000,24,70,193
0.986624,25,72,201
0.983456,25,72,201
0.502304,25,72,201
0.498768,25,72,201
0.495456,25,72,201
0.491568,25,72,201
0.010784,25,72,201
0.007104,25,72,201
0.003312,25,72,201
0.000000,25,72,201
0.989888,26,75,209
0.986512,26,75,209
0.982832,26,75,209
0.979552,26,75,209
0.498368,26,75,209
0.494800,26,75,209
0.490912,26,75,209
0.487744,26,75,209
0.006848,26,75,209
0.003312,26,75,209
0.000000,26,75,209
1.467904,27,78,217
0.986608,27,78,217
0.983440,27,78,217
0.979904,27,78,217
0.976336,27,78,217
0.495088,27,78,217
0.491712,27,78,217
0.488288,27,78,217
0.484496,27,78,217
0.003568,27,78,217
0.000000,27,78,217
0.986368,28,80,225
0.982688,28,80,225
0.502304,28,80,225
0.498768,28,80,225
0.494944,28,80,225
0.491312,28,80,225
0.010784,28,80,225
0.007104,28,80,225
0.003824,28,80,225
0.000000,28,80,225
0.989632,29,83,233
0.985744,29,83,233
0.982064,29,83,233
0.978528,29,83,233
0.498112,29,83,233
0.494800,29,83,233
0.491168,29,83,233
0.487744,29,83,233
0.006592,29,83,233
0.003312,29,83,233
0.000000,29,83,233
1.467904,30,86,241
0.986864,30,86,241
0.983440,30,86,241
0.980160,30,86,241
0.976592,30,86,241
0.495344,30,86,241
0.491456,30,86,241
0.488032,30,86,241
0.484496,30,86,241
0.003824,30,86,241
0.000000,30,86,241
0.986880,31,88,249
0.983200,31,88,249
0.502816,31,88,249
0.499280,31,88,249
0.495456,31,88,249
0.491568,31,88,249
0.011296,31,88,249
0.007616,31,88,249
0.003824,31,88,249
0.000000,31,88,249
0.989888,32,91,257
0.986256,32,91,257
0.982576,32,91,257
0.979296,32,91,257
0.498368,32,91,257
0.494544,32,91,257
0.491168,32,91,257
0.488000,32,91,257
0.006848,32,91,257
0.003568,32,91,257
0.000000,32,91,257
1.467392,33,94,265
0.986352,33,94,265
0.982672,33,94,265
0.978880,33,94,265
0.975312,33,94,265
0.494832,33,94,265
0.491200,33,94,265
0.487520,33,94,265
0.483984,33,94,265
0.003312,33,94,265
0.000000,33,94,265
0.986880,34,96,273
0.983456,34,96,273
0.502304,34,96,273
0.499024,34,96,273
0.495456,34,96,273
0.491824,34,96,273
0.010784,34,96,273
0.007104,34,96,273
0.003568,34,96,273
0.000000,34,96,273
0.990144,35,99,281
0.986256,35,99,281
0.983088,35,99,281
0.979808,35,99,281
0.498624,35,99,281
0.494800,35,99,281
0.491168,35,99,281
0.488000,35,99,281
0.007104,35,99,281
0.003568,35,99,281
0.000000,35,99,281
1.467648,36,102,289
0.986864,36,102,289
0.983696,36,102,289
0.979904,36,102,289
0.976336,36,102,289
0.495344,36,102,289
0.491712,36,102,289
0.488032,36,102,289
0.484752,36,102,289
0.003824,36,102,289
0.000000,36,102,289
0.985344,37,104,297
0.981920,37,104,297
0.501536,37,104,297
0.498256,37,104,297
0.494688,37,104,297
0.490800,37,104,297
0.010016,37,104,297
0.006848,37,104,297
0.003568,37,104,297
0.000000,37,104,297
0.990656,38,107,305
0.987280,38,107,305
0.983600,38,107,305
0.980320,38,107,305
0.499136,38,107,305
0.495824,38,107,305
0.492192,38,107,305
0.489024,38,107,305
0.007616,38,107,305
0.003824,38,107,305
0.000000,38,107,305
1.466880,39,110,313
0.986352,39,110,313
0.983184,39,110,313
0.979648,39,110,313
0.976336,39,110,313
0.494832,39,110,313
0.491456,39,110,313
0.487776,39,110,313
0.484240,39,110,313
0.003312,39,110,313
0.000000,39,110,313
0.986880,40,112,321
0.983712,40,112,321
0.502304,40,112,321
0.498512,40,112,321
0.495200,40,112,321
0.491568,40,112,321
0.010784,40,112,321
0.007104,40,112,321
0.003568,40,112,321
0.000000,40,112,321
0.989888,41,115,329
0.986512,41,115,329
0.983344,41,115,329
0.979552,41,115,329
0.498368,41,115,329
0.495056,41,115,329
0.491680,41,115,329
0.488256,41,115,329
0.006848,41,115,329
0.003568,41,115,329
0.000000,41,115,329
1.468160,42,118,337
0.986864,42,118,337
0.983184,42,118,337
0.979392,42,118,337
0.975568,42,118,337
0.495344,42,118,337
0.491712,42,118,337
0.488544,42,118,337
0.485264,42,118,337
0.003824,42,118,337
0.000000,42,118,337
0.986112,43,120,345
0.982688,43,120,345
0.502304,43,120,345
0.498512,43,120,345
0.494688,43,120,345
0.490800,43,120,345
0.010784,43,120,345
0.007360,43,120,345
0.003824,43,120,345
0.000000,43,120,345
0.990400,44,123,353
0.987024,44,123,353
0.983856,44,123,353
0.980064,44,123,353
0.498880,44,123,353
0.495568,44,123,353
0.491680,44,123,353
0.488256,44,123,353
0.007360,44,123,353
0.003568,44,123,353
0.000000,44,123,353
1.467136,45,126,361
0.986352,45,126,361
0.982672,45,126,361
0.978880,45,126,361
0.975312,45,126,361
0.494832,45,126,361
0.491200,45,126,361
0.488032,45,126,361
0.484752,45,126,361
0.003312,45,126,361
0.000000,45,126,361
0.986368,46,128,369
0.983200,46,128,369
0.502048,46,128,369
0.498512,46,128,369
0.494944,46,128,369
0.491568,46,128,369
0.010528,46,128,369
0.007360,46,128,369
0.003568,46,128,369
0.000000,46,128,369
0.990144,47,131,377
0.986768,47,131,377
0.983600,47,131,377
0.980320,47,131,377
0.498624,47,131,377
0.494800,47,131,377
0.491168,47,131,377
0.487488,47,131,377
0.007104,47,131,377
0.003824,47,131,377
0.000000,47,131,377
1.467392,48,134,385
0.986864,48,134,385
0.983184,48,134,385
0.979392,48,134,385
0.976080,48,134,385
0.495344,48,134,385
0.491712,48,134,385
0.488288,48,134,385
0.485008,48,134,385
0.003824,48,134,385
0.000000,48,134,385
0.985088,49,136,393
0.981664,49,136,393
0.501280,49,136,393
0.497744,49,136,393
0.494176,49,136,393
0.490544,49,136,393
0.009760,49,136,393
0.006592,49,136,393
0.003312,49,136,393
0.000000,49,136,393
0.990400,50,139,401
0.986768,50,139,401
0.983344,50,139,401
0.979552,50,139,401
0.498880,50,139,401
0.495568,50,139,401
0.492192,50,139,401
0.488768,50,139,401
0.007360,50,139,401
0.003568,50,139,401
0.000000,50,139,401
1.466880,51,142,409
0.986608,51,142,409
0.983440,51,142,409
0.980160,51,142,409
0.976592,51,142,409
0.495088,51,142,409
0.491712,51,142,409
0.488544,51,142,409
0.484752,51,142,409
0.003568,51,142,409
0.000000,51,142,409
0.986368,52,144,417
0.982688,52,144,417
0.502048,52,144,417
0.498256,52,144,417
0.494688,52,144,417
0.490800,52,144,417
0.010528,52,144,417
0.006848,52,144,417
0.003312,52,144,417
0.000000,52,144,417
0.990400,53,147,425
0.986768,53,147,425
0.983600,53,147,425
0.980320,53,147,425
0.498880,53,147,425
0.495056,53,147,425
0.491680,53,147,425
0.488000,53,147,425
0.007360,53,147,425
0.003824,53,147,425
0.000000,53,147,425
1.466880,54,150,433
0.986608,54,150,433
0.982928,54,150,433
0.979392,54,150,433
0.975568,54,150,433
0.495088,54,150,433
0.491712,54,150,433
0.488032,54,150,433
0.484240,54,150,433
0.003568,54,150,433
0.000000,54,150,433
0.986368,55,152,441
0.982688,55,152,441
0.502304,55,152,441
0.498512,55,152,441
0.495200,55,152,441
0.491824,55,152,441
0.010784,55,152,441
0.007360,55,152,441
0.003824,55,152,441
0.000000,55,152,441
0.990656,56,155,449
0.987280,56,155,449
0.983600,56,155,449
0.979808,56,155,449
0.499136,56,155,449
0.495568,56,155,449
0.492192,56,155,449
0.488768,56,155,449
0.007616,56,155,449
0.003824,56,155,449
0.000000,56,155,449
1.467392,57,158,457
0.986864,57,158,457
0.983696,57,158,457
0.979904,57,158,457
0.976080,57,158,457
0.495344,57,158,457
0.491456,57,158,457
0.488032,57,158,457
0.484240,57,158,457
0.003824,57,158,457
0.000000,57,158,457
0.986624,58,160,465
0.982944,58,160,465
0.502304,58,160,465
0.498512,58,160,465
0.494944,58,160,465
0.491312,58,160,465
0.010784,58,160,465
0.007616,58,160,465
0.003824,58,160,465
0.000000,58,160,465
0.989888,59,163,473
0.986256,59,163,473
0.982832,59,163,473
0.979552,59,163,473
0.498368,59,163,473
0.494800,59,163,473
0.491168,59,163,473
0.487744,59,163,473
0.006848,59,163,473
0.003312,59,163,473
0.000000,59,163,473
1.467904,60,166,481
0.986608,60,166,481
0.983184,60,166,481
0.979904,60,166,481
0.976336,60,166,481
0.495088,60,166,481
0.491200,60,166,481
0.488032,60,166,481
0.484752,60,166,481
0.003568,60,166,481
0.000000,60,166,481
0.985856,61,168,489
0.982688,61,168,489
0.501536,61,168,489
0.498256,61,168,489
0.494432,61,168,489
0.490544,61,168,489
0.010016,61,168,489
0.006848,61,168,489
0.003568,61,168,489
0.000000,61,168,489
0.990144,62,171,497
0.986768,62,171,497
0.983088,62,171,497
0.979808,62,171,497
0.498624,62,171,497
0.494800,62,171,497
0.491168,62,171,497
0.487488,62,171,497
0.007104,62,171,497
0.003312,62,171,497
0.000000,62,171,497
1.467392,63,174,505
0.986608,63,174,505
0.982928,63,174,505
0.979648,63,174,505
0.976336,63,174,505
0.495088,63,174,505
0.491200,63,174,505
0.487520,63,174,505
0.483728,63,174,505
0.003568,63,174,505
0.000000,63,174,505
0.985856,64,176,513
0.982688,64,176,513
0.501536,64,176,513
0.497744,64,176,513
0.493920,64,176,513
0.490032,64,176,513
0.010016,64,176,513
0.006592,64,176,513
0.003312,64,176,513
0.000000,64,176,513
0.990144,65,179,521
0.986512,65,179,521
0.982832,65,179,521
0.979296,65,179,521
0.498624,65,179,521
0.495056,65,179,521
0.491168,65,179,521
0.487744,65,179,521
0.007104,65,179,521
0.003568,65,179,521
0.000000,65,179,521
1.467136,66,182,529
0.986352,66,182,529
0.983184,66,182,529
0.979392,66,182,529
0.976080,66,182,529
0.494832,66,182,529
0.490944,66,182,529
0.487776,66,182,529
0.483984,66,182,529
0.003312,66,182,529
0.000000,66,182,529
0.986368,67,184,537
0.982944,67,184,537
0.501792,67,184,537
0.498000,67,184,537
0.494432,67,184,537
0.490544,67,184,537
0.010272,67,184,537
0.006592,67,184,537
0.003312,67,184,537
0.000000,67,184,537
0.990656,68,187,545
0.987280,68,187,545
0.984112,68,187,545
0.980576,68,187,545
0.499136,68,187,545
0.495824,68,187,545
0.491936,68,187,545
0.488512,68,187,545
0.007616,68,187,545
0.003824,68,187,545
0.000000,68,187,545
1.466624,69,190,553
0.986352,69,190,553
0.982928,69,190,553
0.979648,69,190,553
0.976080,69,190,553
0.494832,69,190,553
0.490944,69,190,553
0.487776,69,190,553
0.484240,69,190,553
0.003312,69,190,553
0.000000,69,190,553
0.986880,70,192,561
0.983712,70,192,561
0.502304,70,192,561
0.499024,70,192,561
0.495200,70,192,561
0.491312,70,192,561
0.010784,70,192,561
0.007360,70,192,561
0.003824,70,192,561
0.000000,70,192,561
0.990144,71,195,569
0.986256,71,195,569
0.982832,71,195,569
0.979296,71,195,569
0.498624,71,195,569
0.494800,71,195,569
0.490912,71,195,569
0.487744,71,195,569
0.007104,71,195,569
0.003312,71,195,569
0.000000,71,195,569
1.467392,72,198,577
0.986864,72,198,577
0.983440,72,198,577
0.980160,72,198,577
0.976336,72,198,577
0.495344,72,198,577
0.491712,72,198,577
0.488288,72,198,577
0.484496,72,198,577
0.003824,72,198,577
0.000000,72,198,577
0.986112,73,200,585
0.982432,73,200,585
0.502304,73,200,585
0.498768,73,200,585
0.495200,73,200,585
0.491312,73,200,585
0.010784,73,200,585
0.007360,73,200,585
0.003824,73,200,585
0.000000,73,200,585
0.990144,74,203,593
0.986256,74,203,593
0.982576,74,203,593
0.979040,74,203,593
0.498624,74,203,593
0.495312,74,203,593
0.491936,74,203,593
0.488256,74,203,593
0.007104,74,203,593
0.003312,74,203,593
0.000000,74,203,593
1.467904,75,206,601
0.986864,75,206,601
0.983184,75,206,601
0.979648,75,206,601
0.976336,75,206,601
0.495344,75,206,601
0.491712,75,206,601
0.488288,75,206,601
0.484496,75,206,601
0.003824,75,206,601
0.000000,75,206,601
0.985856,76,208,609
0.982176,76,208,609
0.501536,76,208,609
0.498000,76,208,609
0.494176,76,208,609
0.490800,76,208,609
0.010016,76,208,609
0.006848,76,208,609
0.003568,76,208,609
0.000000,76,208,609
0.990144,77,211,617
0.986256,77,211,617
0.982832,77,211,617
0.979296,77,211,617
0.498624,77,211,617
0.494800,77,211,617
0.490912,77,211,617
0.487232,77,211,617
0.007104,77,211,617
0.003312,77,211,617
0.000000,77,211,617
1.467392,78,214,625
0.986608,78,214,625
0.983440,78,214,625
0.979648,78,214,625
0.976080,78,214,625
0.495088,78,214,625
0.491200,78,214,625
0.487520,78,214,625
0.483984,78,214,625
0.003568,78,214,625
0.000000,78,214,625
0.986880,79,216,633
0.983456,79,216,633
0.502304,79,216,633
0.498512,79,216,633
0.494944,79,216,633
0.491056,79,216,633
0.010784,79,216,633
0.007360,79,216,633
0.003568,79,216,633
0.000000,79,216,633
0.990400,80,219,641
0.987024,80,219,641
0.983600,80,219,641
0.979808,80,219,641
0.498880,80,219,641
0.495312,80,219,641
0.491936,80,219,641
0.488512,80,219,641
0.007360,80,219,641
0.003568,80,219,641
0.000000,80,219,641
1.466880,81,222,649
0.986352,81,222,649
0.983184,81,222,649
0.979904,81,222,649
0.976080,81,222,649
0.494832,81,222,649
0.490944,81,222,649
0.487264,81,222,649
0.483472,81,222,649
0.003312,81,222,649
0.000000,81,222,649
0.987648,82,224,657
0.984224,82,224,657
0.502816,82,224,657
0.499280,82,224,657
0.495968,82,224,657
0.492336,82,224,657
0.011296,82,224,657
0.007616,82,224,657
0.003824,82,224,657
0.000000,82,224,657
0.990400,83,227,665
0.986768,83,227,665
0.983088,83,227,665
0.979552,83,227,665
0.498880,83,227,665
0.495312,83,227,665
0.491424,83,227,665
0.487744,83,227,665
0.007360,83,227,665
0.003568,83,227,665
0.000000,83,227,665
1.467392,84,230,673
0.986864,84,230,673
0.983696,84,230,673
0.980416,84,230,673
0.976592,84,230,673
0.495344,84,230,673
0.491456,84,230,673
0.488032,84,230,673
0.484752,84,230,673
0.003824,84,230,673
0.000000,84,230,673
0.986624,85,232,681
0.983200,85,232,681
0.502560,85,232,681
0.499280,85,232,681
0.495712,85,232,681
0.492080,85,232,681
0.011040,85,232,681
0.007616,85,232,681
0.003824,85,232,681
0.000000,85,232,681
0.989632,86,235,689
0.986256,86,235,689
0.982576,86,235,689
0.979040,86,235,689
0.498112,86,235,689
0.494288,86,235,689
0.490656,86,235,689
0.487232,86,235,689
0.006592,86,235,689
0.003312,86,235,689
0.000000,86,235,689
1.467904,87,238,697
0.986352,87,238,697
0.982928,87,238,697
0.979392,87,238,697
0.975824,87,238,697
0.494832,87,238,697
0.491200,87,238,697
0.488032,87,238,697
0.484240,87,238,697
0.003312,87,238,697
0.000000,87,238,697
0.986880,88,240,705
0.983456,88,240,705
0.502048,88,240,705
0.498256,88,240,705
0.494432,88,240,705
0.490544,88,240,705
0.010528,88,240,705
0.007360,88,240,705
0.003824,88,240,705
0.000000,88,240,705
0.989888,89,243,713
0.986256,89,243,713
0.982576,89,243,713
0.979040,89,243,713
0.498368,89,243,713
0.494800,89,243,713
0.491424,89,243,713
0.488256,89,243,713
0.006848,89,243,713
0.003312,89,243,713
0.000000,89,243,713
1.467392,90,246,721
0.986608,90,246,721
0.983184,90,246,721
0.979904,90,246,721
0.976080,90,246,721
0.495088,90,246,721
0.491712,90,246,721
0.488544,90,246,721
0.484752,90,246,721
0.003568,90,246,721
0.000000,90,246,721
0.986368,91,248,729
0.982944,91,248,729
0.502304,91,248,729
0.498768,91,248,729
0.495200,91,248,729
0.491312,91,248,729
0.010784,91,248,729
0.007104,91,248,729
0.003568,91,248,729
0.000000,91,248,729
0.990656,92,251,737
0.986768,92,251,737
0.983600,92,251,737
0.980320,92,251,737
0.499136,92,251,737
0.495824,92,251,737
0.492448,92,251,737
0.489024,92,251,737
0.007616,92,251,737
0.003824,92,251,737
0.000000,92,251,737
1.466368,93,254,745
0.986352,93,254,745
0.982928,93,254,745
0.979648,93,254,745
0.976080,93,254,745
0.494832,93,254,745
0.491456,93,254,745
0.488288,93,254,745
0.484752,93,254,745
0.003312,93,254,745
0.000000,93,254,745
0.986624,94,256,753
0.982944,94,256,753
0.502048,94,256,753
0.498768,94,256,753
0.494944,94,256,753
0.491056,94,256,753
0.010528,94,256,753
0.006848,94,256,753
0.003312,94,256,753
0.000000,94,256,753
0.990656,95,259,761
0.986768,95,259,761
0.983088,95,259,761
0.979296,95,259,761
0.499136,95,259,761
0.495568,95,259,761
0.492192,95,259,761
0.489024,95,259,761
0.007616,95,259,761
0.003824,95,259,761
0.000000,95,259,761
1.466624,96,262,769
0.986608,96,262,769
0.982928,96,262,769
0.979136,96,262,769
0.975312,96,262,769
0.495088,96,262,769
0.491456,96,262,769
0.487776,96,262,769
0.484240,96,262,769
0.003568,96,262,769
0.000000,96,262,769
0.986880,97,264,777
0.983712,97,264,777
0.502560,97,264,777
0.499024,97,264,777
0.495200,97,264,777
0.491312,97,264,777
0.011040,97,264,777
0.007616,97,264,777
0.003824,97,264,777
0.000000,97,264,777
0.990400,98,267,785
0.986768,98,267,785
0.983344,98,267,785
0.979552,98,267,785
0.498880,98,267,785
0.495312,98,267,785
0.491424,98,267,785
0.488000,98,267,785
0.007360,98,267,785
0.003824,98,267,785
0.000000,98,267,785
1.467648,99,270,793
0.986864,99,270,793
0.983696,99,270,793
0.979904,99,270,793
0.976080,99,270,793
0.495344,99,270,793
0.491968,99,270,793
0.488544,99,270,793
0.485264,99,270,793
0.003824,99,270,793
0.000000,99,270,793
0.985600,100,272,801
0.981920,100,272,801
0.501280,100,272,801
0.497744,100,272,801
0.494432,100,272,801
0.490544,100,272,801
0.009760,100,272,801
0.006592,100,272,801
0.003312,100,272,801
0.000000,100,272,801
0.990400,101,275,809
0.986512,101,275,809
0.982832,101,275,809
0.979552,101,275,809
0.498880,101,275,809
0.495568,101,275,809
0.491680,101,275,809
0.488000,101,275,809
0.007360,101,275,809
0.003568,101,275,809
0.000000,101,275,809
1.466880,102,278,817
0.986608,102,278,817
0.983184,102,278,817
0.979904,102,278,817
0.976080,102,278,817
0.495088,102,278,817
0.491712,102,278,817
0.488032,102,278,817
0.484752,102,278,817
0.003568,102,278,817
0.000000,102,278,817
0.986624,103,280,825
0.983456,103,280,825
0.502560,103,280,825
0.498768,103,280,825
0.495200,103,280,825
0.491312,103,280,825
0.011040,103,280,825
0.007360,103,280,825
0.003568,103,280,825
0.000000,103,280,825
0.990144,104,283,833
0.986256,104,283,833
0.982576,104,283,833
0.978784,104,283,833
0.498624,104,283,833
0.494800,104,283,833
0.490912,104,283,833
0.487232,104,283,833
0.007104,104,283,833
0.003312,104,283,833
0.000000,104,283,833
1.467904,105,286,841
0.986864,105,286,841
0.983696,105,286,841
0.980416,105,286,841
0.976848,105,286,841
0.495344,105,286,841
0.491968,105,286,841
0.488288,105,286,841
0.485008,105,286,841
0.003824,105,286,841
0.000000,105,286,841
0.985856,106,288,849
0.982688,106,288,849
0.501536,106,288,849
0.498256,106,288,849
0.494688,106,288,849
0.490800,106,288,849
0.010016,106,288,849
0.006848,106,288,849
0.003568,106,288,849
0.000000,106,288,849
0.990144,107,291,857
0.986512,107,291,857
0.983088,107,291,857
0.979552,107,291,857
0.498624,107,291,857
0.495312,107,291,857
0.491424,107,291,857
0.488000,107,291,857
0.007104,107,291,857
0.003824,107,291,857
0.000000,107,291,857
1.466880,108,294,865
0.986352,108,294,865
0.983184,108,294,865
0.979392,108,294,865
0.976080,108,294,865
0.494832,108,294,865
0.490944,108,294,865
0.487520,108,294,865
0.483728,108,294,865
0.003312,108,294,865
0.000000,108,294,865
0.987136,109,296,873
0.983456,109,296,873
0.502304,109,296,873
0.498512,109,296,873
0.494944,109,296,873
0.491312,109,296,873
0.010784,109,296,873
0.007616,109,296,873
0.003824,109,296,873
0.000000,109,296,873
0.990400,110,299,881
0.987024,110,299,881
0.983600,110,299,881
0.979808,110,299,881
0.498880,110,299,881
0.495312,110,299,881
0.491936,110,299,881
0.488256,110,299,881
0.007360,110,299,881
0.003824,110,299,881
0.000000,110,299,881
1.466624,111,302,889
0.986352,111,302,889
0.982928,111,302,889
0.979136,111,302,889
0.975568,111,302,889
0.494832,111,302,889
0.490944,111,302,889
0.487264,111,302,889
0.483728,111,302,889
0.003312,111,302,889
0.000000,111,302,889
0.986624,112,304,897
0.983200,112,304,897
0.501792,112,304,897
0.498512,112,304,897
0.495200,112,304,897
0.491568,112,304,897
0.010272,112,304,897
0.006592,112,304,897
0.003312,112,304,897
0.000000,112,304,897
0.989888,113,307,905
0.986512,113,307,905
0.982832,113,307,905
0.979040,113,307,905
0.498368,113,307,905
0.494544,113,307,905
0.490912,113,307,905
0.487744,113,307,905
0.006848,113,307,905
0.003312,113,307,905
0.000000,113,307,905
1.467648,114,310,913
0.986608,114,310,913
0.982928,114,310,913
0.979136,114,310,913
0.975312,114,310,913
0.495088,114,310,913
0.491456,114,310,913
0.487776,114,310,913
0.484240,114,310,913
0.003568,114,310,913
0.000000,114,310,913
0.986368,115,312,921
0.982688,115,312,921
0.502048,115,312,921
0.498768,115,312,921
0.495200,115,312,921
0.491312,115,312,921
0.010528,115,312,921
0.007360,115,312,921
0.003824,115,312,921
0.000000,115,312,921
0.989888,116,315,929
0.986256,116,315,929
0.982832,116,315,929
0.979552,116,315,929
0.498368,116,315,929
0.494544,116,315,929
0.491168,116,315,929
0.487488,116,315,929
0.006848,116,315,929
0.003312,116,315,929
0.000000,116,315,929
1.468160,117,318,937
0.986864,117,318,937
0.983696,117,318,937
0.979904,117,318,937
0.976080,117,318,937
0.495344,117,318,937
0.491712,117,318,937
0.488032,117,318,937
0.484496,117,318,937
0.003824,117,318,937
0.000000,117,318,937
0.986112,118,320,945
0.982432,118,320,945
0.501792,118,320,945
0.498000,118,320,945
0.494176,118,320,945
0.490800,118,320,945
0.010272,118,320,945
0.007104,118,320,945
0.003568,118,320,945
0.000000,118,320,945
0.990144,119,323,953
0.986768,119,323,953
0.983088,119,323,953
0.979296,119,323,953
0.498624,119,323,953
0.494800,119,323,953
0.491424,119,323,953
0.487744,119,323,953
0.007104,119,323,953
0.003568,119,323,953
0.000000,119,323,953
1.467392,120,326,961
0.986864,120,326,961
0.983440,120,326,961
0.979904,120,326,961
0.976080,120,326,961
0.495344,120,326,961
0.491968,120,326,961
0.488544,120,326,961
0.485008,120,326,961
0.003824,120,326,961
0.000000,120,326,961
0.986368,121,328,969
0.983200,121,328,969
0.502304,121,328,969
0.499024,121,328,969
0.495712,121,328,969
0.491824,121,328,969
0.010784,121,328,969
0.007360,121,328,969
0.003568,121,328,969
0.000000,121,328,969
0.990400,122,331,977
0.986512,122,331,977
0.982832,122,331,977
0.979296,122,331,977
0.498880,122,331,977
0.495568,122,331,977
0.491680,122,331,977
0.488256,122,331,977
0.007360,122,331,977
0.003568,122,331,977
0.000000,122,331,977
1.467136,123,334,985
0.986864,123,334,985
0.983696,123,334,985
0.979904,123,334,985
0.976080,123,334,985
0.495344,123,334,985
0.491968,123,334,985
0.488288,123,334,985
0.485008,123,334,985
0.003824,123,334,985
0.000000,123,334,985
0.986624,124,336,993
0.982944,124,336,993
0.502560,124,336,993
0.498768,124,336,993
0.495456,124,336,993
0.491568,124,336,993
0.011040,124,336,993
0.007616,124,336,993
0.003824,124,336,993
0.000000,124,336,993
0.989888,125,339,1001
0.986000,125,339,1001
0.982320,125,339,1001
0.979040,125,339,1001
0.498368,125,339,1001
0.494800,125,339,1001
0.490912,125,339,1001
0.487488,125,339,1001
0.006848,125,339,1001
0.003312,125,339,1001
0.000000,125,339,1001
1.468160,126,342,1009
0.986864,126,342,1009
0.983184,126,342,1009
0.979904,126,342,1009
0.976592,126,342,1009
0.495344,126,342,1009
0.491456,126,342,1009
0.488288,126,342,1009
0.485008,126,342,1009
0.003824,126,342,1009
0.000000,126,342,1009
0.986624,127,344,1017
0.983456,127,344,1017
0.502560,127,344,1017
0.499280,127,344,1017
0.495968,127,344,1017
0.492336,127,344,1017
0.011040,127,344,1017
0.007360,127,344,1017
0.003568,127,344,1017
0.000000,127,344,1017
0.989888,128,347,1025
0.986512,128,347,1025
0.983088,128,347,1025
0.979808,128,347,1025
0.498368,128,347,1025
0.494800,128,347,1025
0.491424,128,347,1025
0.488256,128,347,1025
0.006848,128,347,1025
0.003312,128,347,1025
0.000000,128,347,1025
1.467648,129,350,1033
0.986864,129,350,1033
0.983184,129,350,1033
0.979648,129,350,1033
0.976336,129,350,1033
0.495344,129,350,1033
0.491456,129,350,1033
0.487776,129,350,1033
0.483984,129,350,1033
0.003824,129,350,1033
0.000000,129,350,1033
0.985856,130,352,1041
0.982176,130,352,1041
0.501792,130,352,1041
0.498256,130,352,1041
0.494432,130,352,1041
0.490800,130,352,1041
0.010272,130,352,1041
0.006592,130,352,1041
0.003312,130,352,1041
0.000000,130,352,1041
0.990656,131,355,1049
0.987280,131,355,1049
0.983856,131,355,1049
0.980576,131,355,1049
0.499136,131,355,1049
0.495312,131,355,1049
0.491680,131,355,1049
0.488256,131,355,1049
0.007616,131,355,1049
0.003824,131,355,1049
0.000000,131,355,1049
1.466624,132,358,1057
0.986608,132,358,1057
0.983440,132,358,1057
0.979904,132,358,1057
0.976592,132,358,1057
0.495088,132,358,1057
0.491456,132,358,1057
0.488288,132,358,1057
0.485008,132,358,1057
0.003568,132,358,1057
0.000000,132,358,1057
0.987136,133,360,1065
0.983968,133,360,1065
0.502560,133,360,1065
0.498768,133,360,1065
0.494944,133,360,1065
0.491056,133,360,1065
0.011040,133,360,1065
0.007360,133,360,1065
0.003824,133,360,1065
0.000000,133,360,1065
0.990144,134,363,1073
0.986768,134,363,1073
0.983088,134,363,1073
0.979552,134,363,1073
0.498624,134,363,1073
0.495056,134,363,1073
0.491168,134,363,1073
0.487488,134,363,1073
0.007104,134,363,1073
0.003568,134,363,1073
0.000000,134,363,1073
1.467392,135,366,1081
0.986864,135,366,1081
0.983440,135,366,1081
0.980160,135,366,1081
0.976336,135,366,1081
0.495344,135,366,1081
0.491456,135,366,1081
0.487776,135,366,1081
0.483984,135,366,1081
0.003824,135,366,1081
0.000000,135,366,1081
0.985856,136,368,1089
0.982176,136,368,1089
0.502048,136,368,1089
0.498512,136,368,1089
0.494688,136,368,1089
0.491056,136,368,1089
0.010528,136,368,1089
0.007104,136,368,1089
0.003312,136,368,1089
0.000000,136,368,1089
0.989632,137,371,1097
0.986000,137,371,1097
0.982320,137,371,1097
0.979040,137,371,1097
0.498112,137,371,1097
0.494800,137,371,1097
0.491424,137,371,1097
0.487744,137,371,1097
0.006592,137,371,1097
0.003312,137,371,1097
0.000000,137,371,1097
1.467904,138,374,1105
0.986864,138,374,1105
0.983440,138,374,1105
0.979904,138,374,1105
0.976080,138,374,1105
0.495344,138,374,1105
0.491712,138,374,1105
0.488032,138,374,1105
0.484240,138,374,1105
0.003824,138,374,1105
0.000000,138,374,1105
0.986624,139,376,1113
0.983200,139,376,1113
0.502304,139,376,1113
0.499024,139,376,1113
0.495200,139,376,1113
0.491312,139,376,1113
0.010784,139,376,1113
0.007360,139,376,1113
0.003568,139,376,1113
0.000000,139,376,1113
0.989888,140,379,1121
0.986512,140,379,1121
0.982832,140,379,1121
0.979296,140,379,1121
0.498368,140,379,1121
0.495056,140,379,1121
0.491424,140,379,1121
0.488256,140,379,1121
0.006848,140,379,1121
0.003312,140,379,1121
0.000000,140,379,1121
1.467648,141,382,1129
0.986608,141,382,1129
0.983184,141,382,1129
0.979648,141,382,1129
0.976080,141,382,1129
0.495088,141,382,1129
0.491456,141,382,1129
0.488032,141,382,1129
0.484240,141,382,1129
0.003568,141,382,1129
0.000000,141,382,1129
0.986624,142,384,1137
0.983200,142,384,1137
0.502304,142,384,1137
0.498768,142,384,1137
0.495456,142,384,1137
0.492080,142,384,1137
0.010784,142,384,1137
0.007360,142,384,1137
0.003568,142,384,1137
0.000000,142,384,1137
0.990400,143,387,1145
0.986512,143,387,1145
0.983344,143,387,1145
0.979808,143,387,1145
0.498880,143,387,1145
0.495312,143,387,1145
0.491936,143,387,1145
0.488256,143,387,1145
0.007360,143,387,1145
0.003568,143,387,1145
0.000000,143,387,1145
1.467392,144,390,1153
0.986864,144,390,1153
0.983696,144,390,1153
0.979904,144,390,1153
0.976080,144,390,1153
0.495344,144,390,1153
0.491456,144,390,1153
0.488288,144,390,1153
0.484752,144,390,1153
0.003824,144,390,1153
0.000000,144,390,1153
0.985344,145,392,1161
0.981664,145,392,1161
0.501536,145,392,1161
0.498000,145,392,1161
0.494176,145,392,1161
0.490800,145,392,1161
0.010016,145,392,1161
0.006848,145,392,1161
0.003568,145,392,1161
0.000000,145,392,1161
0.990400,146,395,1169
0.986512,146,395,1169
0.983344,146,395,1169
0.980064,146,395,1169
0.498880,146,395,1169
0.495056,146,395,1169
0.491168,146,395,1169
0.487744,146,395,1169
0.007360,146,395,1169
0.003568,146,395,1169
0.000000,146,395,1169
1.467136,147,398,1177
0.986352,147,398,1177
0.982672,147,398,1177
0.978880,147,398,1177
0.975312,147,398,1177
0.494832,147,398,1177
0.491456,147,398,1177
0.487776,147,398,1177
0.484240,147,398,1177
0.003312,147,398,1177
0.000000,147,398,1177
0.985856,148,400,1185
0.982688,148,400,1185
0.501536,148,400,1185
0.497744,148,400,1185
0.494176,148,400,1185
0.490288,148,400,1185
0.010016,148,400,1185
0.006592,148,400,1185
0.003312,148,400,1185
0.000000,148,400,1185
0.990144,149,403,1193
0.986768,149,403,1193
0.983344,149,403,1193
0.979552,149,403,1193
0.498624,149,403,1193
0.495056,149,403,1193
0.491168,149,403,1193
0.487488,149,403,1193
0.007104,149,403,1193
0.003568,149,403,1193
0.000000,149,403,1193
1.467136,150,406,1201
0.986352,150,406,1201
0.983184,150,406,1201
0.979392,150,406,1201
0.975568,150,406,1201
0.494832,150,406,1201
0.491200,150,406,1201
0.488032,150,406,1201
0.484752,150,406,1201
0.003312,150,406,1201
0.000000,150,406,1201
0.986368,151,408,1209
0.983200,151,408,1209
0.501536,151,408,1209
0.497744,151,408,1209
0.493920,151,408,1209
0.490544,151,408,1209
0.010016,151,408,1209
0.006592,151,408,1209
0.003312,151,408,1209
0.000000,151,408,1209
0.990400,152,411,1217
0.987024,152,411,1217
0.983856,152,411,1217
0.980320,152,411,1217
0.498880,152,411,1217
0.495568,152,411,1217
0.491936,152,411,1217
0.488256,152,411,1217
0.007360,152,411,1217
0.003568,152,411,1217
0.000000,152,411,1217
