Time,CovertPackets,AllPackets,BitsSent,PacketInterval;GTSInterval
104.458384,1,150,0,0,7858.800000
112.317184,1,225,0,5.616000,0
112.322800,2,300,0,5.568000,0
112.328368,3,375,0,5.568000,0
112.333936,4,450,1,5.616000,0
112.339552,5,525,1,5.680000,0
112.345232,6,600,1,5.696000,0
112.350928,7,675,1,0,7830.576000
120.181504,7,750,1,5.648000,0
120.187152,8,825,2,5.696000,0
120.192848,9,900,2,5.552000,0
120.198400,10,975,2,5.696000,0
120.204096,11,1050,2,5.552000,0
120.209648,12,1125,3,5.568000,0
120.215216,13,1200,3,5.616000,0
120.220832,14,1275,3,0,7824.992000
128.045824,14,1350,3,5.568000,0
128.051392,15,1425,3,5.648000,0
128.057040,16,1500,4,5.584000,0
128.062624,17,1575,4,5.616000,0
128.068240,18,1650,4,5.712000,0
128.073952,19,1725,4,5.664000,0
128.079616,20,1800,5,0,7830.528000
135.910144,20,1875,5,5.632000,0
135.915776,21,1950,5,5.680000,0
135.921456,22,2025,5,5.568000,0
135.927024,23,2100,5,5.584000,0
135.932608,24,2175,6,5.680000,0
135.938288,25,2250,6,5.552000,0
135.943840,26,2325,6,0,7830.624000
143.774464,26,2400,6,5.632000,0
143.780096,27,2475,6,5.536000,0
143.785632,28,2550,7,5.680000,0
143.791312,29,2625,7,5.552000,0
143.796864,30,2700,7,5.568000,0
143.802432,31,2775,7,5.664000,0
143.808096,32,2850,8,5.648000,0
143.813744,33,2925,8,0,7825.040000
151.638784,33,3000,8,5.552000,0
151.644336,34,3075,8,5.632000,0
151.649968,35,3150,8,5.664000,0
151.655632,36,3225,9,5.680000,0
151.661312,37,3300,9,5.680000,0
151.666992,38,3375,9,5.696000,0
151.672688,39,3450,9,0,7830.416000
159.503104,39,3525,9,5.712000,0
159.508816,40,3600,10,5.584000,0
159.514400,41,3675,10,5.664000,0
159.520064,42,3750,10,5.696000,0
159.525760,43,3825,10,5.664000,0
159.531424,44,3900,11,5.664000,0
159.537088,45,3975,11,0,7830.336000
167.367424,45,4050,11,5.552000,0
167.372976,46,4125,11,5.696000,0
167.378672,47,4200,11,5.536000,0
167.384208,48,4275,12,5.712000,0
167.389920,49,4350,12,5.552000,0
167.395472,50,4425,12,5.632000,0
167.401104,51,4500,12,5.712000,0
167.406816,52,4575,13,0,7824.928000
175.231744,52,4650,13,5.648000,0
175.237392,53,4725,13,5.616000,0
175.243008,54,4800,13,5.696000,0
175.248704,55,4875,13,5.584000,0
175.254288,56,4950,14,5.632000,0
175.259920,57,5025,14,5.552000,0
175.265472,58,5100,14,0,7830.592000
183.096064,58,5175,14,5.696000,0
183.101760,59,5250,14,5.616000,0
183.107376,60,5325,15,5.568000,0
183.112944,61,5400,15,5.552000,0
183.118496,62,5475,15,5.696000,0
183.124192,63,5550,15,5.696000,0
183.129888,64,5625,16,0,7830.496000
190.960384,64,5700,16,5.552000,0
190.965936,65,5775,16,5.680000,0
190.971616,66,5850,16,5.632000,0
190.977248,67,5925,16,5.680000,0
190.982928,68,6000,17,5.664000,0
190.988592,69,6075,17,5.680000,0
190.994272,70,6150,17,0,7830.432000
198.824704,70,6225,17,5.632000,0
198.830336,71,6300,17,5.552000,0
198.835888,72,6375,18,5.616000,0
198.841504,73,6450,18,5.616000,0
198.847120,74,6525,18,5.632000,0
198.852752,75,6600,18,5.584000,0
198.858336,76,6675,19,0,7830.688000
206.689024,76,6750,19,5.568000,0
206.694592,77,6825,19,5.616000,0
206.700208,78,6900,19,5.568000,0
206.705776,79,6975,19,5.664000,0
206.711440,80,7050,20,5.712000,0
206.717152,81,7125,20,5.680000,0
206.722832,82,7200,20,0,7830.512000
214.553344,82,7275,20,5.632000,0
214.558976,83,7350,20,5.568000,0
214.564544,84,7425,21,5.680000,0
214.570224,85,7500,21,5.616000,0
214.575840,86,7575,21,5.632000,0
214.581472,87,7650,21,5.664000,0
214.587136,88,7725,22,5.680000,0
214.592816,89,7800,22,0,7824.848000
222.417664,89,7875,22,5.552000,0
222.423216,90,7950,22,5.568000,0
222.428784,91,8025,22,5.712000,0
222.434496,92,8100,23,5.536000,0
222.440032,93,8175,23,5.600000,0
222.445632,94,8250,23,0,7836.352000
230.281984,94,8325,23,5.568000,0
230.287552,95,8400,23,5.600000,0
230.293152,96,8475,24,5.600000,0
230.298752,97,8550,24,5.536000,0
230.304288,98,8625,24,5.696000,0
230.309984,99,8700,24,5.664000,0
230.315648,100,8775,25,0,7830.656000
238.146304,100,8850,25,5.536000,0
238.151840,101,8925,25,5.600000,0
238.157440,102,9000,25,5.696000,0
238.163136,103,9075,25,5.536000,0
238.168672,104,9150,26,5.600000,0
238.174272,105,9225,26,5.616000,0
238.179888,106,9300,26,0,7830.736000
246.010624,106,9375,26,5.696000,0
246.016320,107,9450,26,5.632000,0
246.021952,108,9525,27,5.680000,0
246.027632,109,9600,27,5.680000,0
246.033312,110,9675,27,5.568000,0
246.038880,111,9750,27,5.712000,0
246.044592,112,9825,28,5.632000,0
246.050224,113,9900,28,0,7824.720000
253.874944,113,9975,28,5.680000,0
253.880624,114,10050,28,5.568000,0
253.886192,115,10125,28,5.552000,0
253.891744,116,10200,29,5.696000,0
253.897440,117,10275,29,5.680000,0
253.903120,118,10350,29,5.568000,0
253.908688,119,10425,29,0,7830.576000
261.739264,119,10500,29,5.712000,0
261.744976,120,10575,30,5.712000,0
261.750688,121,10650,30,5.616000,0
261.756304,122,10725,30,5.584000,0
261.761888,123,10800,30,5.536000,0
261.767424,124,10875,31,5.632000,0
261.773056,125,10950,31,0,7830.528000
269.603584,125,11025,31,5.552000,0
269.609136,126,11100,31,5.568000,0
269.614704,127,11175,31,5.712000,0
269.620416,128,11250,32,5.552000,0
269.625968,129,11325,32,5.552000,0
269.631520,130,11400,32,5.568000,0
269.637088,131,11475,32,5.600000,0
269.642688,132,11550,33,0,7825.216000
277.467904,132,11625,33,5.616000,0
277.473520,133,11700,33,5.552000,0
277.479072,134,11775,33,5.696000,0
277.484768,135,11850,33,5.664000,0
277.490432,136,11925,34,5.584000,0
277.496016,137,12000,34,5.616000,0
277.501632,138,12075,34,0,7830.592000
285.332224,138,12150,34,5.696000,0
285.337920,139,12225,34,5.664000,0
285.343584,140,12300,35,5.680000,0
285.349264,141,12375,35,5.680000,0
285.354944,142,12450,35,5.632000,0
285.360576,143,12525,35,0,7835.968000
293.196544,143,12600,35,5.584000,0
293.202128,144,12675,36,5.712000,0
293.207840,145,12750,36,5.664000,0
293.213504,146,12825,36,5.568000,0
293.219072,147,12900,36,5.600000,0
293.224672,148,12975,37,5.664000,0
293.230336,149,13050,37,0,7830.528000
301.060864,149,13125,37,5.680000,0
301.066544,150,13200,37,5.632000,0
301.072176,151,13275,37,5.600000,0
301.077776,152,13350,38,5.712000,0
301.083488,153,13425,38,5.616000,0
301.089104,154,13500,38,5.696000,0
301.094800,155,13575,38,5.648000,0
301.100448,156,13650,39,0,7824.736000
308.925184,156,13725,39,5.648000,0
308.930832,157,13800,39,5.680000,0
308.936512,158,13875,39,5.632000,0
308.942144,159,13950,39,5.648000,0
308.947792,160,14025,40,5.632000,0
308.953424,161,14100,40,5.616000,0
308.959040,162,14175,40,