Time,CovertPackets,AllPackets,BitsSent,PacketInterval;GTSInterval
65.132944,1,30,0,3.632000,0
65.136576,2,45,0,3.648000,0
65.140224,3,60,0,3.648000,0
65.143872,4,75,1,3.760000,0
65.147632,5,90,1,3.696000,0
65.151328,6,105,1,3.712000,0
65.155040,7,120,1,3.792000,0
65.158832,8,135,2,0,7834.832000
72.993664,8,150,2,3.648000,0
72.997312,9,165,2,3.696000,0
73.001008,10,180,2,3.712000,0
73.004720,11,195,2,3.760000,0
73.008480,12,210,3,3.648000,0
73.012128,13,225,3,3.760000,0
73.015888,14,240,3,3.712000,0
73.019600,15,255,3,3.792000,0
73.023392,16,270,4,3.664000,0
73.027056,17,285,4,3.760000,0
73.030816,18,300,4,3.664000,0
73.034480,19,315,4,3.744000,0
73.038224,20,330,5,3.648000,0
73.041872,21,345,5,3.696000,0
73.045568,22,360,5,3.648000,0
73.049216,23,375,5,3.664000,0
73.052880,24,390,6,3.696000,0
73.056576,25,405,6,3.760000,0
73.060336,26,420,6,3.776000,0
73.064112,27,435,6,3.680000,0
73.067792,28,450,7,3.632000,0
73.071424,29,465,7,0,7786.560000
80.857984,29,480,7,3.632000,0
80.861616,30,495,7,3.648000,0
80.865264,31,510,7,3.680000,0
80.868944,32,525,8,3.664000,0
80.872608,33,540,8,3.632000,0
80.876240,34,555,8,3.776000,0
80.880016,35,570,8,3.744000,0
80.883760,36,585,9,3.696000,0
80.887456,37,600,9,3.696000,0
80.891152,38,615,9,3.712000,0
80.894864,39,630,9,3.728000,0
80.898592,40,645,10,3.792000,0
80.902384,41,660,10,3.616000,0
80.906000,42,675,10,3.776000,0
80.909776,43,690,10,3.744000,0
80.913520,44,705,11,3.616000,0
80.917136,45,720,11,3.632000,0
80.920768,46,735,11,3.776000,0
80.924544,47,750,11,3.744000,0
80.928288,48,765,12,3.664000,0
80.931952,49,780,12,3.760000,0
80.935712,50,795,12,0,7786.592000
88.722304,50,810,12,3.712000,0
88.726016,51,825,12,3.792000,0
88.729808,52,840,13,3.664000,0
88.733472,53,855,13,3.632000,0
88.737104,54,870,13,3.712000,0
88.740816,55,885,13,3.792000,0
88.744608,56,900,14,3.648000,0
88.748256,57,915,14,3.632000,0
88.751888,58,930,14,3.712000,0
88.755600,59,945,14,3.760000,0
88.759360,60,960,15,3.648000,0
88.763008,61,975,15,3.760000,0
88.766768,62,990,15,3.776000,0
88.770544,63,1005,15,3.712000,0
88.774256,64,1020,16,3.760000,0
88.778016,65,1035,16,3.760000,0
88.781776,66,1050,16,3.712000,0
88.785488,67,1065,16,3.632000,0
88.789120,68,1080,17,3.616000,0
88.792736,69,1095,17,3.760000,0
88.796496,70,1110,17,3.712000,0
88.800208,71,1125,17,0,7786.416000
96.586624,71,1140,17,3.632000,0
96.590256,72,1155,18,3.696000,0
96.593952,73,1170,18,3.760000,0
96.597712,74,1185,18,3.648000,0
96.601360,75,1200,18,3.728000,0
96.605088,76,1215,19,3.776000,0
96.608864,77,1230,19,3.632000,0
96.612496,78,1245,19,3.776000,0
96.616272,79,1260,19,3.616000,0
96.619888,80,1275,20,3.664000,0
96.623552,81,1290,20,3.696000,0
96.627248,82,1305,20,3.648000,0
96.630896,83,1320,20,3.712000,0
96.634608,84,1335,21,3.632000,0
96.638240,85,1350,21,3.696000,0
96.641936,86,1365,21,3.712000,0
96.645648,87,1380,21,3.744000,0
96.649392,88,1395,22,3.632000,0
96.653024,89,1410,22,3.696000,0
96.656720,90,1425,22,3.776000,0
96.660496,91,1440,22,3.664000,0
96.664160,92,1455,23,0,7786.784000
104.450944,92,1470,23,3.744000,0
104.454688,93,1485,23,3.616000,0
104.458304,94,1500,23,3.648000,0
104.461952,95,1515,23,3.616000,0
104.465568,96,1530,24,3.616000,0
104.469184,97,1545,24,3.744000,0
104.472928,98,1560,24,3.648000,0
104.476576,99,1575,24,3.744000,0
104.480320,100,1590,25,3.616000,0
104.483936,101,1605,25,3.616000,0
104.487552,102,1620,25,3.776000,0
104.491328,103,1635,25,3.616000,0
104.494944,104,1650,26,3.744000,0
104.498688,105,1665,26,3.632000,0
104.502320,106,1680,26,3.712000,0
104.506032,107,1695,26,3.776000,0
104.509808,108,1710,27,3.696000,0
104.513504,109,1725,27,3.632000,0
104.517136,110,1740,27,3.648000,0
104.520784,111,1755,27,3.664000,0
104.524448,112,1770,28,3.776000,0
104.528224,113,1785,28,0,7787.040000
112.315264,113,1800,28,3.760000,0
112.319024,114,1815,28,3.648000,0
112.322672,115,1830,28,3.632000,0
112.326304,116,1845,29,3.712000,0
112.330016,117,1860,29,3.760000,0
112.333776,118,1875,29,3.776000,0
112.337552,119,1890,29,3.728000,0
112.341280,120,1905,30,3.664000,0
112.344944,121,1920,30,3.696000,0
112.348640,122,1935,30,3.792000,0
112.352432,123,1950,30,3.616000,0
112.356048,124,1965,31,3.776000,0
112.359824,125,1980,31,3.696000,0
112.363520,126,1995,31,3.712000,0
112.367232,127,2010,31,3.792000,0
112.371024,128,2025,32,3.696000,0
112.374720,129,2040,32,3.696000,0
112.378416,130,2055,32,3.648000,0
112.382064,131,2070,32,3.680000,0
112.385744,132,2085,33,3.632000,0
112.389376,133,2100,33,3.760000,0
112.393136,134,2115,33,0,7786.448000
120.179584,134,2130,33,3.648000,0
120.183232,135,2145,33,3.680000,0
120.186912,136,2160,34,3.728000,0
120.190640,137,2175,34,3.760000,0
120.194400,138,2190,34,3.776000,0
120.198176,139,2205,34,3.744000,0
120.201920,140,2220,35,3.760000,0
120.205680,141,2235,35,3.760000,0
120.209440,142,2250,35,3.712000,0
120.213152,143,2265,35,3.792000,0
120.216944,144,2280,36,3.664000,0
120.220608,145,2295,36,3.744000,0
120.224352,146,2310,36,3.648000,0
120.228000,147,2325,36,3.616000,0
120.231616,148,2340,37,3.680000,0
120.235296,149,2355,37,3.632000,0
120.238928,150,2370,37,3.712000,0
120.242640,151,2385,37,3.616000,0
120.246256,152,2400,38,3.664000,0
120.249920,153,2415,38,3.760000,0
120.253680,154,2430,38,3.776000,0
120.257456,155,2445,38,3.728000,0
120.261184,156,2460,39,0,7782.720000
128.043904,156,2475,39,3.792000,0
128.047696,157,2490,39,3.760000,0
128.051456,158,2505,39,3.712000,0
128.055168,159,2520,39,3.664000,0
128.058832,160,2535,40,3.648000,0
128.062480,161,2550,40,3.760000,0
128.066240,162,2565,40,3.648000,0
128.069888,163,2580,40,3.632000,0
128.073520,164,2595,41,3.776000,0
128.077296,165,2610,41,3.760000,0
128.081056,166,2625,41,3.712000,0
128.084768,167,2640,41,3.712000,0
128.088480,168,2655,42,3.632000,0
128.092112,169,2670,42,3.696000,0
128.095808,170,2685,42,3.648000,0
128.099456,171,2700,42,3.760000,0
128.103216,172,2715,43,3.744000,0
128.106960,173,2730,43,3.632000,0
128.110592,174,2745,43,3.712000,0
128.114304,175,2760,43,3.632000,0
128.117936,176,2775,44,3.696000,0
128.121632,177,2790,44,3.760000,0
128.125392,178,2805,44,0,7782.832000
135.908224,178,2820,44,3.648000,0
135.911872,179,2835,44,3.792000,0
135.915664,180,2850,45,3.712000,0
135.919376,181,2865,45,3.632000,0
135.923008,182,2880,45,3.648000,0
135.926656,183,2895,45,3.680000,0
135.930336,184,2910,46,3.664000,0
135.934000,185,2925,46,3.632000,0
135.937632,186,2940,46,3.712000,0
135.941344,187,2955,46,3.776000,0
135.945120,188,2970,47,3.632000,0
135.948752,189,2985,47,3.632000,0
135.952384,190,3000,47,3.776000,0
135.956160,191,3015,47,3.680000,0
135.959840,192,3030,48,3.632000,0
135.963472,193,3045,48,3.696000,0
135.967168,194,3060,48,3.648000,0
135.970816,195,3075,48,3.664000,0
135.974480,196,3090,49,3.680000,0
135.978160,197,3105,49,3.680000,0
135.981840,198,3120,49,3.648000,0
135.985488,199,3135,49,3.616000,0
135.989104,200,3150,50,0,7783.440000
143.772544,200,3165,50,3.744000,0
143.776288,201,3180,50,3.744000,0
143.780032,202,3195,50,3.776000,0
143.783808,203,3210,50,3.616000,0
143.787424,204,3225,51,3.680000,0
143.791104,205,3240,51,3.680000,0
143.794784,206,3255,51,3.776000,0
143.798560,207,3270,51,3.744000,0
143.802304,208,3285,52,3.616000,0
143.805920,209,3300,52,3.760000,0
143.809680,210,3315,52,3.648000,0
143.813328,211,3330,52,3.712000,0
143.817040,212,3345,53,3.632000,0
143.820672,213,3360,53,3.696000,0
143.824368,214,3375,53,3.648000,0
143.828016,215,3390,53,3.664000,0
143.831680,216,3405,54,3.648000,0
143.835328,217,3420,54,3.760000,0
143.839088,218,3435,54,3.712000,0
143.842800,219,3450,54,3.632000,0
143.846432,220,3465,55,3.776000,0
143.850208,221,3480,55,0,7786.656000
151.636864,221,3495,55,3.632000,0
151.640496,222,3510,55,3.712000,0
151.644208,223,3525,55,3.792000,0
151.648000,224,3540,56,3.792000,0
151.651792,225,3555,56,3.632000,0
151.655424,226,3570,56,3.728000,0
151.659152,227,3585,56,3.616000,0
151.662768,228,3600,57,3.776000,0
151.666544,229,3615,57,3.696000,0
151.670240,230,3630,57,3.648000,0
151.673888,231,3645,57,3.728000,0
151.677616,232,3660,58,3.760000,0
151.681376,233,3675,58,3.760000,0
151.685136,234,3690,58,3.712000,0
151.688848,235,3705,58,3.616000,0
151.692464,236,3720,59,3.632000,0
151.696096,237,3735,59,3.632000,0
151.699728,238,3750,59,3.712000,0
151.703440,239,3765,59,3.616000,0
151.707056,240,3780,60,3.664000,0
151.710720,241,3795,60,3.696000,0
151.714416,242,3810,60,3.712000,0
151.718128,243,3825,60,0,7783.056000
159.501184,243,3840,60,3.616000,0
159.504800,244,3855,61,3.760000,0
159.508560,245,3870,61,3.696000,0
159.512256,246,3885,61,3.648000,0
159.515904,247,3900,61,3.728000,0
159.519632,248,3915,62,3.792000,0
159.523424,249,3930,62,3.744000,0
159.527168,250,3945,62,3.648000,0
159.530816,251,3960,62,3.680000,0
159.534496,252,3975,63,3.744000,0
159.538240,253,3990,63,3.632000,0
159.541872,254,4005,63,3.776000,0
159.545648,255,4020,63,3.680000,0
159.549328,256,4035,64,3.728000,0
159.553056,257,4050,64,3.632000,0
159.556688,258,4065,64,3.648000,0
159.560336,259,4080,64,3.728000,0
159.564064,260,4095,65,3.792000,0
159.567856,261,4110,65,3.696000,0
159.571552,262,4125,65,3.648000,0
159.575200,263,4140,65,3.792000,0
159.578992,264,4155,66,0,7786.512000
167.365504,264,4170,66,3.776000,0
167.369280,265,4185,66,3.760000,0
167.373040,266,4200,66,3.648000,0
167.376688,267,4215,66,3.632000,0
167.380320,268,4230,67,3.648000,0
167.383968,269,4245,67,3.632000,0
167.387600,270,4260,67,3.776000,0
167.391376,271,4275,67,3.648000,0
167.395024,272,4290,68,3.632000,0
167.398656,273,4305,68,3.760000,0
167.402416,274,4320,68,3.712000,0
167.406128,275,4335,68,3.760000,0
167.409888,276,4350,69,3.616000,0
167.413504,277,4365,69,3.760000,0
167.417264,278,4380,69,3.712000,0
167.420976,279,4395,69,3.696000,0
167.424672,280,4410,70,3.696000,0
167.428368,281,4425,70,3.760000,0
167.432128,282,4440,70,3.712000,0
167.435840,283,4455,70,3.728000,0
167.439568,284,4470,71,3.648000,0
167.443216,285,4485,71,0,7786.608000
175.229824,285,4500,71,3.760000,0
175.233584,286,4515,71,3.712000,0
175.237296,287,4530,71,3.680000,0
175.240976,288,4545,72,3.664000,0
175.244640,289,4560,72,3.632000,0
175.248272,290,4575,72,3.648000,0
175.251920,291,4590,72,3.648000,0
175.255568,292,4605,73,3.760000,0
175.259328,293,4620,73,3.696000,0
175.263024,294,4635,73,3.776000,0
175.266800,295,4650,73,3.616000,0
175.270416,296,4665,74,3.632000,0
175.274048,297,4680,74,3.696000,0
175.277744,298,4695,74,3.712000,0
175.281456,299,4710,74,3.792000,0
175.285248,300,4725,75,3.616000,0
175.288864,301,4740,75,3.744000,0
175.292608,302,4755,75,3.712000,0
175.296320,303,4770,75,3.744000,0
175.300064,304,4785,76,3.680000,0
175.303744,305,4800,76,3.744000,0
175.307488,306,4815,76,0,7786.656000
183.094144,306,4830,76,3.648000,0
183.097792,307,4845,76,3.616000,0
183.101408,308,4860,77,3.616000,0
183.105024,309,4875,77,3.680000,0
183.108704,310,4890,77,3.712000,0
183.112416,311,4905,77,3.616000,0
183.116032,312,4920,78,3.744000,0
183.119776,313,4935,78,3.760000,0
183.123536,314,4950,78,3.648000,0
183.127184,315,4965,78,3.712000,0
183.130896,316,4980,79,3.632000,0
183.134528,317,4995,79,3.760000,0
183.138288,318,5010,79,3.712000,0
183.142000,319,5025,79,3.792000,0
183.145792,320,5040,80,3.648000,0
183.149440,321,5055,80,3.696000,0
183.153136,322,5070,80,3.776000,0
183.156912,323,5085,80,3.696000,0
183.160608,324,5100,81,3.776000,0
183.164384,325,5115,81,3.696000,0
183.168080,326,5130,81,3.712000,0
183.171792,327,5145,81,0,7786.672000
190.958464,327,5160,81,3.792000,0
190.962256,328,5175,82,3.728000,0
190.965984,329,5190,82,3.760000,0
190.969744,330,5205,82,3.664000,0
190.973408,331,5220,82,3.616000,0
190.977024,332,5235,83,3.712000,0
190.980736,333,5250,83,3.696000,0
190.984432,334,5265,83,3.712000,0
190.988144,335,5280,83,3.728000,0
190.991872,336,5295,84,3.632000,0
190.995504,337,5310,84,3.632000,0
190.999136,338,5325,84,3.648000,0
191.002784,339,5340,84,3.680000,0
191.006464,340,5355,85,3.632000,0
191.010096,341,5370,85,3.632000,0
191.013728,342,5385,85,3.776000,0
191.017504,343,5400,85,3.616000,0
191.021120,344,5415,86,3.728000,0
191.024848,345,5430,86,3.696000,0
191.028544,346,5445,86,3.712000,0
191.032256,347,5460,86,3.680000,0
191.035936,348,5475,87,0,7786.848000
198.822784,348,5490,87,3.696000,0
198.826480,349,5505,87,3.632000,0
198.830112,350,5520,87,3.776000,0
198.833888,351,5535,87,3.792000,0
198.837680,352,5550,88,3.728000,0
198.841408,353,5565,88,3.680000,0
198.845088,354,5580,88,3.776000,0
198.848864,355,5595,88,3.616000,0
198.852480,356,5610,89,3.744000,0
198.856224,357,5625,89,3.760000,0
198.859984,358,5640,89,3.776000,0
198.863760,359,5655,89,3.680000,0
198.867440,360,5670,90,3.664000,0
198.871104,361,5685,90,3.760000,0
198.874864,362,5700,90,3.776000,0
198.878640,363,5715,90,3.728000,0
198.882368,364,5730,91,3.728000,0
198.886096,365,5745,91,3.760000,0
198.889856,366,5760,91,3.776000,0
198.893632,367,5775,91,3.664000,0
198.897296,368,5790,92,3.648000,0
198.900944,369,5805,92,0,7786.160000
206.687104,369,5820,92,3.632000,0
206.690736,370,5835,92,3.712000,0
206.694448,371,5850,92,3.632000,0
206.698080,372,5865,93,3.776000,0
206.701856,373,5880,93,3.760000,0
206.705616,374,5895,93,3.712000,0
206.709328,375,5910,93,3.648000,0
206.712976,376,5925,94,3.632000,0
206.716608,377,5940,94,3.760000,0
206.720368,378,5955,94,3.776000,0
206.724144,379,5970,94,3.632000,0
206.727776,380,5985,95,3.744000,0
206.731520,381,6000,95,3.760000,0
206.735280,382,6015,95,3.712000,0
206.738992,383,6030,95,3.696000,0
206.742688,384,6045,96,3.632000,0
206.746320,385,6060,96,3.696000,0
206.750016,386,6075,96,3.776000,0
206.753792,387,6090,96,3.792000,0
206.757584,388,6105,97,3.648000,0
206.761232,389,6120,97,3.632000,0
206.764864,390,6135,97,0,7786.560000
214.551424,390,6150,97,3.776000,0
214.555200,391,6165,97,3.616000,0
214.558816,392,6180,98,3.664000,0
214.562480,393,6195,98,3.760000,0
214.566240,394,6210,98,3.648000,0
214.569888,395,6225,98,3.648000,0
214.573536,396,6240,99,3.760000,0
214.577296,397,6255,99,3.760000,0
214.581056,398,6270,99,3.648000,0
214.584704,399,6285,99,3.616000,0
214.588320,400,6300,100,3.632000,0
214.591952,401,6315,100,3.696000,0
214.595648,402,6330,100,3.648000,0
214.599296,403,6345,100,3.664000,0
214.602960,404,6360,101,3.680000,0
214.606640,405,6375,101,3.744000,0
214.610384,406,6390,101,3.712000,0
214.614096,407,6405,101,3.680000,0
214.617776,408,6420,102,3.744000,0
214.621520,409,6435,102,3.744000,0
214.625264,410,6450,102,3.648000,0
214.628912,411,6465,102,0,7786.832000
222.415744,411,6480,102,3.616000,0
222.419360,412,6495,103,3.616000,0
222.422976,413,6510,103,3.616000,0
222.426592,414,6525,103,3.648000,0
222.430240,415,6540,103,3.616000,0
222.433856,416,6555,104,3.616000,0
222.437472,417,6570,104,3.760000,0
222.441232,418,6585,104,3.712000,0
222.444944,419,6600,104,3.776000,0
222.448720,420,6615,105,3.696000,0
222.452416,421,6630,105,3.760000,0
222.456176,422,6645,105,3.776000,0
222.459952,423,6660,105,3.664000,0
222.463616,424,6675,106,3.648000,0
222.467264,425,6690,106,3.696000,0
222.470960,426,6705,106,3.776000,0
222.474736,427,6720,106,3.760000,0
222.478496,428,6735,107,3.648000,0
222.482144,429,6750,107,3.696000,0
222.485840,430,6765,107,3.712000,0
222.489552,431,6780,107,3.728000,0
222.493280,432,6795,108,0,7786.784000
230.280064,432,6810,108,3.792000,0
230.283856,433,6825,108,3.696000,0
230.287552,434,6840,108,3.792000,0
230.291344,435,6855,108,3.680000,0
230.295024,436,6870,109,3.776000,0
230.298800,437,6885,109,3.760000,0
230.302560,438,6900,109,3.712000,0
230.306272,439,6915,109,3.728000,0
230.310000,440,6930,110,3.632000,0
230.313632,441,6945,110,3.632000,0
230.317264,442,6960,110,3.712000,0
230.320976,443,6975,110,3.616000,0
230.324592,444,6990,111,3.632000,0
230.328224,445,7005,111,3.760000,0
230.331984,446,7020,111,3.776000,0
230.335760,447,7035,111,3.680000,0
230.339440,448,7050,112,3.792000,0
230.343232,449,7065,112,3.632000,0
230.346864,450,7080,112,3.776000,0
230.350640,451,7095,112,3.680000,0
230.354320,452,7110,113,3.760000,0
230.358080,453,7125,113,3.760000,0
230.361840,454,7140,113,0,7782.544000
238.144384,454,7155,113,3.776000,0
238.148160,455,7170,113,3.664000,0
238.151824,456,7185,114,3.792000,0
238.155616,457,7200,114,3.616000,0
238.159232,458,7215,114,3.712000,0
238.162944,459,7230,114,3.616000,0
238.166560,460,7245,115,3.680000,0
238.170240,461,7260,115,3.696000,0
238.173936,462,7275,115,3.776000,0
238.177712,463,7290,115,3.680000,0
238.181392,464,7305,116,3.664000,0
238.185056,465,7320,116,3.760000,0
238.188816,466,7335,116,3.648000,0
238.192464,467,7350,116,3.728000,0
238.196192,468,7365,117,3.792000,0
238.199984,469,7380,117,3.696000,0
238.203680,470,7395,117,3.776000,0
238.207456,471,7410,117,3.792000,0
238.211248,472,7425,118,3.776000,0
238.215024,473,7440,118,3.632000,0
238.218656,474,7455,118,3.776000,0
238.222432,475,7470,118,3.760000,0
238.226192,476,7485,119,0,7782.512000
246.008704,476,7500,119,3.712000,0
246.012416,477,7515,119,3.696000,0
246.016112,478,7530,119,3.648000,0
246.019760,479,7545,119,3.776000,0
246.023536,480,7560,120,3.632000,0
246.027168,481,7575,120,3.760000,0
246.030928,482,7590,120,3.648000,0
246.034576,483,7605,120,3.632000,0
246.038208,484,7620,121,3.616000,0
246.041824,485,7635,121,3.696000,0
246.045520,486,7650,121,3.776000,0
246.049296,487,7665,121,3.632000,0
246.052928,488,7680,122,3.760000,0
246.056688,489,7695,122,3.632000,0
246.060320,490,7710,122,3.776000,0
246.064096,491,7725,122,3.792000,0
246.067888,492,7740,123,3.648000,0
246.071536,493,7755,123,3.760000,0
246.075296,494,7770,123,3.648000,0
246.078944,495,7785,123,3.680000,0
246.082624,496,7800,124,3.664000,0
246.086288,497,7815,124,0,7786.736000
253.873024,497,7830,124,3.632000,0
253.876656,498,7845,124,3.712000,0
253.880368,499,7860,124,3.648000,0
253.884016,500,7875,125,3.632000,0
253.887648,501,7890,125,3.632000,0
253.891280,502,7905,125,3.712000,0
253.894992,503,7920,125,3.680000,0
253.898672,504,7935,126,3.632000,0
253.902304,505,7950,126,3.760000,0
253.906064,506,7965,126,3.776000,0
253.909840,507,7980,126,3.792000,0
253.913632,508,7995,127,3.616000,0
253.917248,509,8010,127,3.680000,0
253.920928,510,8025,127,3.776000,0
253.924704,511,8040,127,3.680000,0
253.928384,512,8055,128,3.616000,0
253.932000,513,8070,128,3.744000,0
253.935744,514,8085,128,3.712000,0
253.939456,515,8100,128,3.616000,0
253.943072,516,8115,129,3.744000,0
253.946816,517,8130,129,3.616000,0
253.950432,518,8145,129,0,7786.912000
261.737344,518,8160,129,3.776000,0
261.741120,519,8175,129,3.680000,0
261.744800,520,8190,130,3.680000,0
261.748480,521,8205,130,3.760000,0
261.752240,522,8220,130,3.712000,0
261.755952,523,8235,130,3.776000,0
261.759728,524,8250,131,3.632000,0
261.763360,525,8265,131,3.632000,0
261.766992,526,8280,131,3.712000,0
261.770704,527,8295,131,3.728000,0
261.774432,528,8310,132,3.712000,0
261.778144,529,8325,132,3.696000,0
261.781840,530,8340,132,3.712000,0
261.785552,531,8355,132,3.632000,0
261.789184,532,8370,133,3.776000,0
261.792960,533,8385,133,3.760000,0
261.796720,534,8400,133,3.648000,0
261.800368,535,8415,133,3.792000,0
261.804160,536,8430,134,3.728000,0
261.807888,537,8445,134,3.760000,0
261.811648,538,8460,134,3.664000,0
261.815312,539,8475,134,3.680000,0
261.818992,540,8490,135,0,7782.672000
269.601664,540,8505,135,3.648000,0
269.605312,541,8520,135,3.696000,0
269.609008,542,8535,135,3.776000,0
269.612784,543,8550,135,3.728000,0
269.616512,544,8565,136,3.696000,0
269.620208,545,8580,136,3.632000,0
269.623840,546,8595,136,3.648000,0
269.627488,547,8610,136,3.744000,0
269.631232,548,8625,137,3.696000,0
269.634928,549,8640,137,3.696000,0
269.638624,550,8655,137,3.712000,0
269.642336,551,8670,137,3.680000,0
269.646016,552,8685,138,3.664000,0
269.649680,553,8700,138,3.760000,0
269.653440,554,8715,138,3.712000,0
269.657152,555,8730,138,3.744000,0
269.660896,556,8745,139,3.632000,0
269.664528,557,8760,139,3.696000,0
269.668224,558,8775,139,3.648000,0
269.671872,559,8790,139,3.664000,0
269.675536,560,8805,140,3.792000,0
269.679328,561,8820,140,