Time,CovertPackets,AllPackets,BitsSent,PacketInterval;GTSInterval
260.512144,1,30,0,3.632000,0
260.515776,2,45,0,3.776000,0
260.519552,3,60,0,3.648000,0
260.523200,4,75,1,3.696000,0
260.526896,5,90,1,3.696000,0
260.530592,6,105,1,3.776000,0
260.534368,7,120,1,3.664000,0
260.538032,8,135,2,3.648000,0
260.541680,9,150,2,3.632000,0
260.545312,10,165,2,0,31420.512000
291.965824,10,180,2,3.776000,0
291.969600,11,195,2,3.632000,0
291.973232,12,210,3,3.712000,0
291.976944,13,225,3,3.632000,0
291.980576,14,240,3,3.776000,0
291.984352,15,255,3,3.792000,0
291.988144,16,270,4,3.792000,0
291.991936,17,285,4,3.760000,0
291.995696,18,300,4,3.728000,0
291.999424,19,315,4,3.616000,0
292.003040,20,330,5,3.712000,0
292.006752,21,345,5,3.696000,0
292.010448,22,360,5,3.712000,0
292.014160,23,375,5,3.728000,0
292.017888,24,390,6,3.760000,0
292.021648,25,405,6,3.632000,0
292.025280,26,420,6,3.648000,0
292.028928,27,435,6,3.680000,0
292.032608,28,450,7,3.760000,0
292.036368,29,465,7,3.696000,0
292.040064,30,480,7,3.776000,0
292.043840,31,495,7,0,31379.264000
323.423104,31,510,7,3.616000,0
323.426720,32,525,8,3.664000,0
323.430384,33,540,8,3.632000,0
323.434016,34,555,8,3.648000,0
323.437664,35,570,8,3.680000,0
323.441344,36,585,9,3.632000,0
323.444976,37,600,9,3.760000,0
323.448736,38,615,9,3.648000,0
323.452384,39,630,9,3.664000,0
323.456048,40,645,10,3.664000,0
323.459712,41,660,10,3.616000,0
323.463328,42,675,10,3.712000,0
323.467040,43,690,10,3.744000,0
323.470784,44,705,11,3.680000,0
323.474464,45,720,11,3.632000,0
323.478096,46,735,11,3.776000,0
323.481872,47,750,11,3.616000,0
323.485488,48,765,12,3.792000,0
323.489280,49,780,12,3.632000,0
323.492912,50,795,12,3.712000,0
323.496624,51,810,12,3.728000,0
323.500352,52,825,13,0,31380.032000
354.880384,52,840,13,3.792000,0
354.884176,53,855,13,3.760000,0
354.887936,54,870,13,3.648000,0
354.891584,55,885,13,3.728000,0
354.895312,56,900,14,3.648000,0
354.898960,57,915,14,3.696000,0
354.902656,58,930,14,3.776000,0
354.906432,59,945,14,3.696000,0
354.910128,60,960,15,3.776000,0
354.913904,61,975,15,3.632000,0
354.917536,62,990,15,3.648000,0
354.921184,63,1005,15,3.648000,0
354.924832,64,1020,16,3.760000,0
354.928592,65,1035,16,3.632000,0
354.932224,66,1050,16,3.776000,0
354.936000,67,1065,16,3.696000,0
354.939696,68,1080,17,3.616000,0
354.943312,69,1095,17,3.632000,0
354.946944,70,1110,17,3.712000,0
354.950656,71,1125,17,3.696000,0
354.954352,72,1140,18,3.696000,0
354.958048,73,1155,18,0,31379.616000
386.337664,73,1170,18,3.760000,0
386.341424,74,1185,18,3.712000,0
386.345136,75,1200,18,3.792000,0
386.348928,76,1215,19,3.776000,0
386.352704,77,1230,19,3.696000,0
386.356400,78,1245,19,3.712000,0
386.360112,79,1260,19,3.744000,0
386.363856,80,1275,20,3.792000,0
386.367648,81,1290,20,3.632000,0
386.371280,82,1305,20,3.776000,0
386.375056,83,1320,20,3.712000,0
386.378768,84,1335,21,3.632000,0
386.382400,85,1350,21,3.632000,0
386.386032,86,1365,21,3.648000,0
386.389680,87,1380,21,3.616000,0
386.393296,88,1395,22,3.696000,0
386.396992,89,1410,22,3.760000,0
386.400752,90,1425,22,3.776000,0
386.404528,91,1440,22,3.664000,0
386.408192,92,1455,23,3.744000,0
386.411936,93,1470,23,3.616000,0
386.415552,94,1485,23,0,31379.392000
417.794944,94,1500,23,3.776000,0
417.798720,95,1515,23,3.744000,0
417.802464,96,1530,24,3.744000,0
417.806208,97,1545,24,3.680000,0
417.809888,98,1560,24,3.648000,0
417.813536,99,1575,24,3.744000,0
417.817280,100,1590,25,3.616000,0
417.820896,101,1605,25,3.616000,0
417.824512,102,1620,25,3.648000,0
417.828160,103,1635,25,3.616000,0
417.831776,104,1650,26,3.680000,0
417.835456,105,1665,26,3.760000,0
417.839216,106,1680,26,3.648000,0
417.842864,107,1695,26,3.712000,0
417.846576,108,1710,27,3.696000,0
417.850272,109,1725,27,3.760000,0
417.854032,110,1740,27,3.776000,0
417.857808,111,1755,27,3.792000,0
417.861600,112,1770,28,3.648000,0
417.865248,113,1785,28,3.632000,0
417.868880,114,1800,28,3.776000,0
417.872656,115,1815,28,0,31379.568000
449.252224,115,1830,28,3.696000,0
449.255920,116,1845,29,3.648000,0
449.259568,117,1860,29,3.760000,0
449.263328,118,1875,29,3.776000,0
449.267104,119,1890,29,3.664000,0
449.270768,120,1905,30,3.792000,0
449.274560,121,1920,30,3.760000,0
449.278320,122,1935,30,3.728000,0
449.282048,123,1950,30,3.616000,0
449.285664,124,1965,31,3.648000,0
449.289312,125,1980,31,3.696000,0
449.293008,126,1995,31,3.648000,0
449.296656,127,2010,31,3.728000,0
449.300384,128,2025,32,3.696000,0
449.304080,129,2040,32,3.696000,0
449.307776,130,2055,32,3.776000,0
449.311552,131,2070,32,3.744000,0
449.315296,132,2085,33,3.696000,0
449.318992,133,2100,33,3.632000,0
449.322624,134,2115,33,3.648000,0
449.326272,135,2130,33,3.680000,0
449.329952,136,2145,34,