Time,CovertPackets,AllPackets,BitsSent,PacketInterval;GTSInterval
32.017744,1,60,0,4.240000,0
32.021984,2,90,0,4.256000,0
32.026240,3,120,0,0,1953.504000
33.979744,3,150,0,4.128000,0
33.983872,4,180,1,4.240000,0
33.988112,5,210,1,4.176000,0
33.992288,6,240,1,0,1953.536000
35.945824,6,270,1,4.192000,0
35.950016,7,300,1,4.272000,0
35.954288,8,330,2,4.128000,0
35.958416,9,360,2,0,1953.488000
37.911904,9,390,2,4.176000,0
37.916080,10,420,2,4.128000,0
37.920208,11,450,2,4.112000,0
37.924320,12,480,3,0,1953.664000
39.877984,12,510,3,4.256000,0
39.882240,13,540,3,4.176000,0
39.886416,14,570,3,4.192000,0
39.890608,15,600,3,0,1953.456000
41.844064,15,630,3,4.208000,0
41.848272,16,660,4,4.272000,0
41.852544,17,690,4,0,1957.600000
43.810144,17,720,4,4.112000,0
43.814256,18,750,4,4.272000,0
43.818528,19,780,4,4.224000,0
43.822752,20,810,5,4.192000,0
43.826944,21,840,5,0,1949.280000
45.776224,21,870,5,4.112000,0
45.780336,22,900,5,4.128000,0
45.784464,23,930,5,4.144000,0
45.788608,24,960,6,0,1953.696000
47.742304,24,990,6,4.176000,0
47.746480,25,1020,6,4.240000,0
47.750720,26,1050,6,4.128000,0
47.754848,27,1080,6,0,1953.536000
49.708384,27,1110,6,4.096000,0
49.712480,28,1140,7,4.176000,0
49.716656,29,1170,7,4.112000,0
49.720768,30,1200,7,0,1953.696000
51.674464,30,1230,7,4.128000,0
51.678592,31,1260,7,4.096000,0
51.682688,32,1290,8,4.144000,0
51.686832,33,1320,8,0,1953.712000
53.640544,33,1350,8,4.240000,0
53.644784,34,1380,8,4.256000,0
53.649040,35,1410,8,4.160000,0
53.653200,36,1440,9,4.176000,0
53.657376,37,1470,9,0,1949.248000
55.606624,37,1500,9,4.176000,0
55.610800,38,1530,9,4.192000,0
55.614992,39,1560,9,4.208000,0
55.619200,40,1590,10,0,1953.504000
57.572704,40,1620,10,4.208000,0
57.576912,41,1650,10,4.224000,0
57.581136,42,1680,10,4.128000,0
57.585264,43,1710,10,0,1953.520000
59.538784,43,1740,10,4.160000,0
59.542944,44,1770,11,4.160000,0
59.547104,45,1800,11,4.240000,0
59.551344,46,1830,11,0,1953.520000
61.504864,46,1860,11,4.192000,0
61.509056,47,1890,11,4.096000,0
61.513152,48,1920,12,4.144000,0
61.517296,49,1950,12,0,1953.648000
63.470944,49,1980,12,4.176000,0
63.475120,50,2010,12,4.192000,0
63.479312,51,2040,12,4.144000,0
63.483456,52,2070,13,0,1953.568000
65.437024,52,2100,13,4.272000,0
65.441296,53,2130,13,4.176000,0
65.445472,54,2160,13,4.256000,0
65.449728,55,2190,13,4.272000,0
65.454000,56,2220,14,0,1949.104000
67.403104,56,2250,14,4.128000,0
67.407232,57,2280,14,4.112000,0
67.411344,58,2310,14,4.256000,0
67.415600,59,2340,14,0,1953.584000
69.369184,59,2370,14,4.240000,0
69.373424,60,2400,15,4.256000,0
69.377680,61,2430,15,4.240000,0
69.381920,62,2460,15,0,1953.344000
71.335264,62,2490,15,4.128000,0
71.339392,63,2520,15,4.192000,0
71.343584,64,2550,16,4.112000,0
71.347696,65,2580,16,0,1953.648000
73.301344,65,2610,16,4.176000,0
73.305520,66,2640,16,4.128000,0
73.309648,67,2670,16,0,1957.776000
75.267424,67,2700,16,4.240000,0
75.271664,68,2730,17,4.224000,0
75.275888,69,2760,17,4.240000,0
75.280128,70,2790,17,0,1953.376000
77.233504,70,2820,17,4.192000,0
77.237696,71,2850,17,4.240000,0
77.241936,72,2880,18,4.240000,0
77.246176,73,2910,18,0,1953.408000
79.199584,73,2940,18,4.112000,0
79.203696,74,2970,18,4.192000,0
79.207888,75,3000,18,4.272000,0
79.212160,76,3030,19,4.192000,0
79.216352,77,3060,19,0,1949.312000
81.165664,77,3090,19,4.240000,0
81.169904,78,3120,19,4.128000,0
81.174032,79,3150,19,4.096000,0
81.178128,80,3180,20,0,1953.616000
83.131744,80,3210,20,4.272000,0
83.136016,81,3240,20,4.176000,0
83.140192,82,3270,20,4.192000,0
83.144384,83,3300,20,0,1953.440000
85.097824,83,3330,20,4.192000,0
85.102016,84,3360,21,4.176000,0
85.106192,85,3390,21,4.240000,0
85.110432,86,3420,21,0,1953.472000
87.063904,86,3450,21,4.192000,0
87.068096,87,3480,21,4.224000,0
87.072320,88,3510,22,0,1957.664000
89.029984,88,3540,22,4.112000,0
89.034096,89,3570,22,4.240000,0
89.038336,90,3600,22,4.128000,0
89.042464,91,3630,22,0,1953.600000
90.996064,91,3660,22,4.272000,0
91.000336,92,3690,23,4.160000,0
91.004496,93,3720,23,0,1957.648000
92.962144,93,3750,23,4.096000,0
92.966240,94,3780,23,4.256000,0
92.970496,95,3810,23,4.224000,0
92.974720,96,3840,24,0,1953.504000
94.928224,96,3870,24,4.224000,0
94.932448,97,3900,24,4.160000,0
94.936608,98,3930,24,4.128000,0
94.940736,99,3960,24,0,1953.568000
96.894304,99,3990,24,4.096000,0
96.898400,100,4020,25,4.224000,0
96.902624,101,4050,25,0,1957.760000
98.860384,101,4080,25,4.160000,0
98.864544,102,4110,25,4.256000,0
98.868800,103,4140,25,4.160000,0
98.872960,104,4170,26,0,1953.504000
100.826464,104,4200,26,4.096000,0
100.830560,105,4230,26,4.096000,0
100.834656,106,4260,26,4.240000,0
100.838896,107,4290,26,0,1953.648000
102.792544,107,4320,26,4.192000,0
102.796736,108,4350,27,4.128000,0
102.800864,109,4380,27,4.112000,0
102.804976,110,4410,27,0,1953.648000
104.758624,110,4440,27,4.240000,0
104.762864,111,4470,27,4.256000,0
104.767120,112,4500,28,4.208000,0
104.771328,113,4530,28,0,1953.376000
106.724704,113,4560,28,4.192000,0
106.728896,114,4590,28,4.240000,0
106.733136,115,4620,28,4.192000,0
106.737328,116,4650,29,0,1953.456000
108.690784,116,4680,29,4.112000,0
108.694896,117,4710,29,4.128000,0
108.699024,118,4740,29,4.112000,0
108.703136,119,4770,29,0,1953.728000
110.656864,119,4800,29,4.192000,0
110.661056,120,4830,30,4.208000,0
110.665264,121,4860,30,0,1957.680000
112.622944,121,4890,30,4.144000,0
112.627088,122,4920,30,4.240000,0
112.631328,123,4950,30,4.144000,0
112.635472,124,4980,31,4.224000,0
112.639696,125,5010,31,0,1949.328000
114.589024,125,5040,31,4.192000,0
114.593216,126,5070,31,4.112000,0
114.597328,127,5100,31,0,1957.776000
116.555104,127,5130,31,4.256000,0
116.559360,128,5160,32,4.208000,0
116.563568,129,5190,32,4.112000,0
116.567680,130,5220,32,0,1953.504000
118.521184,130,5250,32,4.176000,0
118.525360,131,5280,32,4.192000,0
118.529552,132,5310,33,4.096000,0
118.533648,133,5340,33,4.240000,0
118.537888,134,5370,33,0,1949.376000
120.487264,134,5400,33,4.176000,0
120.491440,135,5430,33,4.256000,0
120.495696,136,5460,34,4.096000,0
120.499792,137,5490,34,0,1953.552000
122.453344,137,5520,34,4.208000,0
122.457552,138,5550,34,4.240000,0
122.461792,139,5580,34,4.256000,0
122.466048,140,5610,35,0,1953.376000
124.419424,140,5640,35,4.096000,0
124.423520,141,5670,35,4.112000,0
124.427632,142,5700,35,4.176000,0
124.431808,143,5730,35,0,1953.696000
126.385504,143,5760,35,4.256000,0
126.389760,144,5790,36,4.144000,0
126.393904,145,5820,36,4.208000,0
126.398112,146,5850,36,4.160000,0
126.402272,147,5880,36,0,1949.312000
128.351584,147,5910,36,4.256000,0
128.355840,148,5940,37,4.160000,0
128.360000,149,5970,37,0,1957.664000
130.317664,149,6000,37,4.160000,0
130.321824,150,6030,37,4.112000,0
130.325936,151,6060,37,0,1957.808000
132.283744,151,6090,37,4.192000,0
132.287936,152,6120,38,4.224000,0
132.292160,153,6150,38,4.144000,0
132.296304,154,6180,38,0,1953.520000
134.249824,154,6210,38,4.176000,0
134.254000,155,6240,38,4.256000,0
134.258256,156,6270,39,4.208000,0
134.262464,157,6300,39,0,1953.440000
136.215904,157,6330,39,4.272000,0
136.220176,158,6360,39,4.176000,0
136.224352,159,6390,39,4.192000,0
136.228544,160,6420,40,0,1953.440000
138.181984,160,6450,40,4.208000,0
138.186192,161,6480,40,4.128000,0
138.190320,162,6510,40,4.112000,0
138.194432,163,6540,40,0,1953.632000
140.148064,163,6570,40,4.128000,0
140.152192,164,6600,41,4.176000,0
140.156368,165,6630,41,0,1957.776000
142.114144,165,6660,41,4.256000,0
142.118400,166,6690,41,4.112000,0
142.122512,167,6720,41,4.192000,0
142.126704,168,6750,42,4.256000,0
142.130960,169,6780,42,0,1949.264000
144.080224,169,6810,42,4.240000,0
144.084464,170,6840,42,4.240000,0
144.088704,171,6870,42,4.256000,0
144.092960,172,6900,43,0,1953.344000
146.046304,172,6930,43,4.176000,0
146.050480,173,6960,43,4.096000,0
146.054576,174,6990,43,4.112000,0
146.058688,175,7020,43,0,1953.696000
148.012384,175,7050,43,4.256000,0
148.016640,176,7080,44,4.176000,0
148.020816,177,7110,44,0,1957.648000
149.978464,177,7140,44,4.240000,0
149.982704,178,7170,44,4.176000,0
149.986880,179,7200,44,4.128000,0
149.991008,180,7230,45,4.144000,0
149.995152,181,7260,45,0,1949.392000
151.944544,181,7290,45,4.192000,0
151.948736,182,7320,45,4.176000,0
151.952912,183,7350,45,4.256000,0
151.957168,184,7380,46,0,1953.456000
153.910624,184,7410,46,4.224000,0
153.914848,185,7440,46,4.144000,0
153.918992,186,7470,46,4.240000,0
153.923232,187,7500,46,0,1953.472000
155.876704,187,7530,46,4.192000,0
155.880896,188,7560,47,4.192000,0
155.885088,189,7590,47,4.112000,0
155.889200,190,7620,47,0,1953.584000
157.842784,190,7650,47,4.112000,0
157.846896,191,7680,47,4.192000,0
157.851088,192,7710,48,0,1957.776000
159.808864,192,7740,48,4.160000,0
159.813024,193,7770,48,4.112000,0
159.817136,194,7800,48,4.240000,0
159.821376,195,7830,48,4.192000,0
159.825568,196,7860,49,0,1949.376000
161.774944,196,7890,49,4.272000,0
161.779216,197,7920,49,4.160000,0
161.783376,198,7950,49,0,1957.648000
163.741024,198,7980,49,4.224000,0
163.745248,199,8010,49,4.128000,0
163.749376,200,8040,50,4.160000,0
163.753536,201,8070,50,4.224000,0
163.757760,202,8100,50,0,1949.344000
165.707104,202,8130,50,4.096000,0
165.711200,203,8160,50,4.128000,0
165.715328,204,8190,51,0,1957.856000
167.673184,204,8220,51,4.160000,0
167.677344,205,8250,51,4.224000,0
167.681568,206,8280,51,4.224000,0
167.685792,207,8310,51,0,1953.472000
169.639264,207,8340,51,4.256000,0
169.643520,208,8370,52,4.096000,0
169.647616,209,8400,52,4.160000,0
169.651776,210,8430,52,0,1953.568000
171.605344,210,8460,52,4.240000,0
171.609584,211,8490,52,4.192000,0
171.613776,212,8520,53,4.128000,0
171.617904,213,8550,53,0,1953.520000
173.571424,213,8580,53,4.240000,0
173.575664,214,8610,53,4.240000,0
173.579904,215,8640,53,4.128000,0
173.584032,216,8670,54,0,1953.472000
175.537504,216,8700,54,4.272000,0
175.541776,217,8730,54,4.256000,0
175.546032,218,8760,54,4.112000,0
175.550144,219,8790,54,0,1953.440000
177.503584,219,8820,54,4.128000,0
177.507712,220,8850,55,4.112000,0
177.511824,221,8880,55,0,1957.840000
179.469664,221,8910,55,4.128000,0
179.473792,222,8940,55,4.176000,0
179.477968,223,8970,55,4.256000,0
179.482224,224,9000,56,0,1953.520000
181.435744,224,9030,56,4.208000,0
181.439952,225,9060,56,4.208000,0
181.444160,226,9090,56,4.240000,0
181.448400,227,9120,56,0,1953.424000
183.401824,227,9150,56,4.144000,0
183.405968,228,9180,57,4.224000,0
183.410192,229,9210,57,4.128000,0
183.414320,230,9240,57,0,1953.584000
185.367904,230,9270,57,4.176000,0
185.372080,231,9300,57,4.128000,0
185.376208,232,9330,58,0,1957.776000
187.333984,232,9360,58,4.272000,0
187.338256,233,9390,58,4.112000,0
187.342368,234,9420,58,4.176000,0
187.346544,235,9450,58,0,1953.520000
189.300064,235,9480,58,4.128000,0
189.304192,236,9510,59,4.160000,0
189.308352,237,9540,59,4.240000,0
189.312592,238,9570,59,0,1953.552000
191.266144,238,9600,59,4.112000,0
191.270256,239,9630,59,4.256000,0
191.274512,240,9660,60,4.096000,0
191.278608,241,9690,60,0,1953.616000
193.232224,241,9720,60,4.208000,0
193.236432,242,9750,60,4.240000,0
193.240672,243,9780,60,4.192000,0
193.244864,244,9810,61,0,1953.440000
195.198304,244,9840,61,4.160000,0
195.202464,245,9870,61,4.240000,0
195.206704,246,9900,61,4.112000,0
195.210816,247,9930,61,0,1953.568000
197.164384,247,9960,61,4.192000,0
197.168576,248,9990,62,4.208000,0
197.172784,249,10020,62,0,1957.680000
199.130464,249,10050,62,4.272000,0
199.134736,250,10080,62,4.096000,0
199.138832,251,10110,62,4.128000,0
199.142960,252,10140,63,4.160000,0
199.147120,253,10170,63,0,1949.424000
201.096544,253,10200,63,4.224000,0
201.100768,254,10230,63,4.112000,0
201.104880,255,10260,63,4.192000,0
201.109072,256,10290,64,0,1953.552000
203.062624,256,10320,64,4.224000,0
203.066848,257,10350,64,4.144000,0
203.070992,258,10380,64,4.112000,0
203.075104,259,10410,64,0,1953.600000
205.028704,259,10440,64,4.256000,0
205.032960,260,10470,65,4.144000,0
205.037104,261,10500,65,0,1957.680000
206.994784,261,10530,65,4.144000,0
206.998928,262,10560,65,4.240000,0
207.003168,263,10590,65,4.128000,0
207.007296,264,10620,66,0,1953.568000
208.960864,264,10650,66,4.144000,0
208.965008,265,10680,66,4.192000,0
208.969200,266,10710,66,4.112000,0
208.973312,267,10740,66,0,1953.632000
210.926944,267,10770,66,4.256000,0
210.931200,268,10800,67,4.112000,0
210.935312,269,10830,67,4.192000,0
210.939504,270,10860,67,0,1953.520000
212.893024,270,10890,67,4.176000,0
212.897200,271,10920,67,4.256000,0
212.901456,272,10950,68,4.256000,0
212.905712,273,10980,68,4.176000,0
212.909888,274,11010,68,0,1949.216000
214.859104,274,11040,68,4.240000,0
214.863344,275,11070,68,4.192000,0
214.867536,276,11100,69,4.112000,0
214.871648,277,11130,69,4.224000,0
214.875872,278,11160,69,0,1949.312000
216.825184,278,11190,69,4.176000,0
216.829360,279,11220,69,4.128000,0
216.833488,280,11250,70,0,1957.776000
218.791264,280,11280,70,4.112000,0
218.795376,281,11310,70,4.176000,0
218.799552,282,11340,70,4.240000,0
218.803792,283,11370,70,4.256000,0
218.808048,284,11400,71,0,1949.296000
220.757344,284,11430,71,4.208000,0
220.761552,285,11460,71,4.128000,0
220.765680,286,11490,71,4.176000,0
220.769856,287,11520,71,0,1953.568000
222.723424,287,11550,71,4.128000,0
222.727552,288,11580,72,4.160000,0
222.731712,289,11610,72,0,1957.792000
224.689504,289,11640,72,4.272000,0
224.693776,290,11670,72,4.240000,0
224.698016,291,11700,72,4.192000,0
224.702208,292,11730,73,4.192000,0
224.706400,293,11760,73,0,1949.184000
226.655584,293,11790,73,4.176000,0
226.659760,294,11820,73,4.240000,0
226.664000,295,11850,73,4.192000,0
226.668192,296,11880,74,0,1953.472000
228.621664,296,11910,74,4.096000,0
228.625760,297,11940,74,4.240000,0
228.630000,298,11970,74,4.112000,0
228.634112,299,12000,74,0,1953.632000
230.587744,299,12030,74,4.192000,0
230.591936,300,12060,75,4.272000,0
230.596208,301,12090,75,4.096000,0
230.600304,302,12120,75,0,1953.520000
232.553824,302,12150,75,4.224000,0
232.558048,303,12180,75,4.256000,0
232.562304,304,12210,76,4.096000,0
232.566400,305,12240,76,0,1953.504000
234.519904,305,12270,76,4.096000,0
234.524000,306,12300,76,4.096000,0
234.528096,307,12330,76,4.256000,0
234.532352,308,12360,77,0,1953.632000
236.485984,308,12390,77,4.160000,0
236.490144,309,12420,77,4.160000,0
236.494304,310,12450,77,4.160000,0
236.498464,311,12480,77,