Time,CovertPackets,AllPackets,BitsSent,PacketInterval;GTSInterval
260.512144,1,30,0,3.632000,0
260.515776,2,45,0,3.776000,0
260.519552,3,60,0,3.776000,0
260.523328,4,75,1,3.760000,0
260.527088,5,90,1,3.760000,0
260.530848,6,105,1,3.712000,0
260.534560,7,120,1,3.792000,0
260.538352,8,135,2,3.776000,0
260.542128,9,150,2,3.696000,0
260.545824,10,165,2,3.648000,0
260.549472,11,180,2,3.696000,0
260.553168,12,195,3,3.712000,0
260.556880,13,210,3,3.696000,0
260.560576,14,225,3,3.776000,0
260.564352,15,240,3,0,31401.472000
291.965824,15,255,3,3.664000,0
291.969488,16,270,4,3.664000,0
291.973152,17,285,4,3.632000,0
291.976784,18,300,4,3.728000,0
291.980512,19,315,4,3.744000,0
291.984256,20,330,5,3.712000,0
291.987968,21,345,5,3.696000,0
291.991664,22,360,5,3.648000,0
291.995312,23,375,5,3.728000,0
291.999040,24,390,6,3.632000,0
292.002672,25,405,6,3.632000,0
292.006304,26,420,6,3.648000,0
292.009952,27,435,6,3.680000,0
292.013632,28,450,7,3.696000,0
292.017328,29,465,7,3.760000,0
292.021088,30,480,7,3.776000,0
292.024864,31,495,7,3.680000,0
292.028544,32,510,8,3.792000,0
292.032336,33,525,8,3.632000,0
292.035968,34,540,8,3.648000,0
292.039616,35,555,8,3.616000,0
292.043232,36,570,9,0,31379.872000
323.423104,36,585,9,3.760000,0
323.426864,37,600,9,3.632000,0
323.430496,38,615,9,3.776000,0
323.434272,39,630,9,3.664000,0
323.437936,40,645,10,3.792000,0
323.441728,41,660,10,3.680000,0
323.445408,42,675,10,3.776000,0
323.449184,43,690,10,3.616000,0
323.452800,44,705,11,3.616000,0
323.456416,45,720,11,3.760000,0
323.460176,46,735,11,3.648000,0
323.463824,47,750,11,3.680000,0
323.467504,48,765,12,3.664000,0
323.471168,49,780,12,3.696000,0
323.474864,50,795,12,3.776000,0
323.478640,51,810,12,3.792000,0
323.482432,52,825,13,3.728000,0
323.486160,53,840,13,3.696000,0
323.489856,54,855,13,3.648000,0
323.493504,55,870,13,3.728000,0
323.497232,56,885,14,3.648000,0
323.500880,57,900,14,0,31379.504000
354.880384,57,915,14,3.632000,0
354.884016,58,930,14,3.648000,0
354.887664,59,945,14,3.760000,0
354.891424,60,960,15,3.776000,0
354.895200,61,975,15,3.632000,0
354.898832,62,990,15,3.712000,0
354.902544,63,1005,15,3.648000,0
354.906192,64,1020,16,3.632000,0
354.909824,65,1035,16,3.760000,0
354.913584,66,1050,16,3.712000,0
354.917296,67,1065,16,3.696000,0
354.920992,68,1080,17,3.744000,0
354.924736,69,1095,17,3.632000,0
354.928368,70,1110,17,3.776000,0
354.932144,71,1125,17,3.696000,0
354.935840,72,1140,18,3.760000,0
354.939600,73,1155,18,3.632000,0
354.943232,74,1170,18,3.776000,0
354.947008,75,1185,18,3.664000,0
354.950672,76,1200,19,3.648000,0
354.954320,77,1215,19,3.760000,0
354.958080,78,1230,19,0,31379.584000
386.337664,78,1245,19,3.776000,0
386.341440,79,1260,19,3.680000,0
386.345120,80,1275,20,3.664000,0
386.348784,81,1290,20,3.760000,0
386.352544,82,1305,20,3.776000,0
386.356320,83,1320,20,3.648000,0
386.359968,84,1335,21,3.696000,0
386.363664,85,1350,21,3.760000,0
386.367424,86,1365,21,3.712000,0
386.371136,87,1380,21,3.744000,0
386.374880,88,1395,22,3.696000,0
386.378576,89,1410,22,3.760000,0
386.382336,90,1425,22,3.776000,0
386.386112,91,1440,22,3.664000,0
386.389776,92,1455,23,3.680000,0
386.393456,93,1470,23,3.616000,0
386.397072,94,1485,23,3.776000,0
386.400848,95,1500,23,3.680000,0
386.404528,96,1515,24,3.680000,0
386.408208,97,1530,24,3.616000,0
386.411824,98,1545,24,3.712000,0
386.415536,99,1560,24,0,31379.408000
417.794944,99,1575,24,3.616000,0
417.798560,100,1590,25,3.616000,0
417.802176,101,1605,25,3.680000,0
417.805856,102,1620,25,3.712000,0
417.809568,103,1635,25,3.616000,0
417.813184,104,1650,26,3.616000,0
417.816800,105,1665,26,3.632000,0
417.820432,106,1680,26,3.648000,0
417.824080,107,1695,26,3.776000,0
417.827856,108,1710,27,3.632000,0
417.831488,109,1725,27,3.632000,0
417.835120,110,1740,27,3.776000,0
417.838896,111,1755,27,3.728000,0
417.842624,112,1770,28,3.776000,0
417.846400,113,1785,28,3.760000,0
417.850160,114,1800,28,3.712000,0
417.853872,115,1815,28,3.632000,0
417.857504,116,1830,29,3.648000,0
417.861152,117,1845,29,3.696000,0
417.864848,118,1860,29,3.712000,0
417.868560,119,1875,29,3.728000,0
417.872288,120,1890,30,0,31379.936000
449.252224,120,1905,30,3.728000,0
449.255952,121,1920,30,3.632000,0
449.259584,122,1935,30,3.664000,0
449.263248,123,1950,30,3.680000,0
449.266928,124,1965,31,3.776000,0
449.270704,125,1980,31,3.696000,0
449.274400,126,1995,31,3.648000,0
449.278048,127,2010,31,3.728000,0
449.281776,128,2025,32,3.696000,0
449.285472,129,2040,32,3.632000,0
449.289104,130,2055,32,3.648000,0
449.292752,131,2070,32,3.744000,0
449.296496,132,2085,33,3.760000,0
449.300256,133,2100,33,3.760000,0
449.304016,134,2115,33,3.776000,0
449.307792,135,2130,33,3.616000,0
449.311408,136,2145,34,3.792000,0
449.315200,137,2160,34,3.760000,0
449.318960,138,2175,34,3.648000,0
449.322608,139,2190,34,3.680000,0
449.326288,140,2205,35,3.632000,0
449.329920,141,2220,35,