Time,CovertPackets,AllPackets,BitsSent,PacketInterval;GTSInterval
30.615424,0,30,0,0,491.520000
31.106944,0,45,0,0,491.520000
31.598464,0,60,0,0,491.520000
32.089984,0,75,0,0,491.520000
32.581504,0,90,0,0,491.520000
33.073024,0,105,0,0,491.520000
33.564544,0,120,0,0,491.520000
34.056064,0,135,0,0,491.520000
34.547584,0,150,0,0,491.520000
35.039104,0,165,0,0,491.520000
35.530624,0,180,0,0,491.520000
36.022144,0,195,0,0,491.520000
36.513664,0,210,0,0,491.520000
37.005184,0,225,0,0,491.520000
37.496704,0,240,0,0,983.040000
38.479744,0,255,0,3.744000,0
38.483488,1,270,0,0,487.776000
38.971264,1,285,0,0,491.520000
39.462784,1,300,0,0,983.040000
40.445824,1,315,0,3.616000,0
40.449440,2,330,0,0,979.424000
41.428864,2,345,0,3.680000,0
41.432544,3,360,0,0,979.360000
42.411904,3,375,0,3.616000,0
42.415520,4,390,1,0,979.424000
43.394944,4,405,1,0,983.040000
44.377984,4,420,1,3.744000,0
44.381728,5,435,1,0,487.776000
44.869504,5,450,1,0,491.520000
45.361024,5,465,1,0,491.520000
45.852544,5,480,1,0,491.520000
46.344064,5,495,1,0,491.520000
46.835584,5,510,1,0,491.520000
47.327104,5,525,1,0,983.040000
48.310144,5,540,1,0,491.520000
48.801664,5,555,1,0,491.520000
49.293184,5,570,1,0,491.520000
49.784704,5,585,1,0,491.520000
50.276224,5,600,1,0,491.520000
50.767744,5,615,1,0,491.520000
51.259264,5,630,1,0,491.520000
51.750784,5,645,1,0,491.520000
52.242304,5,660,1,0,491.520000
52.733824,5,675,1,0,491.520000
53.225344,5,690,1,0,983.040000
54.208384,5,705,1,3.680000,0
54.212064,6,720,1,0,979.360000
55.191424,6,735,1,0,491.520000
55.682944,6,750,1,0,491.520000
56.174464,6,765,1,0,491.520000
56.665984,6,780,1,0,491.520000
57.157504,6,795,1,0,491.520000
57.649024,6,810,1,0,491.520000
58.140544,6,825,1,0,491.520000
58.632064,6,840,1,0,983.040000
59.615104,6,855,1,3.680000,0
59.618784,7,870,1,0,487.840000
60.106624,7,885,1,0,491.520000
60.598144,7,900,1,0,983.040000
61.581184,7,915,1,3.744000,0
61.584928,8,930,2,0,979.296000
62.564224,8,945,2,0,491.520000
63.055744,8,960,2,0,491.520000
63.547264,8,975,2,0,491.520000
64.038784,8,990,2,0,491.520000
64.530304,8,1005,2,0,491.520000
65.021824,8,1020,2,0,491.520000
65.513344,8,1035,2,0,491.520000
66.004864,8,1050,2,0,491.520000
66.496384,8,1065,2,0,491.520000
66.987904,8,1080,2,0,983.040000
67.970944,8,1095,2,0,491.520000
68.462464,8,1110,2,0,491.520000
68.953984,8,1125,2,3.680000,0
68.957664,9,1140,2,0,487.840000
69.445504,9,1155,2,0,983.040000
70.428544,9,1170,2,3.680000,0
70.432224,10,1185,2,0,487.840000
70.920064,10,1200,2,0,491.520000
71.411584,10,1215,2,0,491.520000
71.903104,10,1230,2,0,491.520000
72.394624,10,1245,2,0,491.520000
72.886144,10,1260,2,0,491.520000
73.377664,10,1275,2,0,491.520000
73.869184,10,1290,2,0,491.520000
74.360704,10,1305,2,0,491.520000
74.852224,10,1320,2,0,491.520000
75.343744,10,1335,2,0,491.520000
75.835264,10,1350,2,0,491.520000
76.326784,10,1365,2,0,491.520000
76.818304,10,1380,2,0,491.520000
77.309824,10,1395,2,0,491.520000
77.801344,10,1410,2,0,491.520000
78.292864,10,1425,2,0,491.520000
78.784384,10,1440,2,0,491.520000
79.275904,10,1455,2,3.744000,0
79.279648,11,1470,2,0,487.776000
79.767424,11,1485,2,0,491.520000
80.258944,11,1500,2,0,983.040000
81.241984,11,1515,2,0,491.520000
81.733504,11,1530,2,3.680000,0
81.737184,12,1545,3,0,487.840000
82.225024,12,1560,3,0,983.040000
83.208064,12,1575,3,3.744000,0
83.211808,13,1590,3,0,979.296000
84.191104,13,1605,3,0,491.520000
84.682624,13,1620,3,0,491.520000
85.174144,13,1635,3,0,491.520000
85.665664,13,1650,3,0,491.520000
86.157184,13,1665,3,0,491.520000
86.648704,13,1680,3,0,491.520000
87.140224,13,1695,3,0,491.520000
87.631744,13,1710,3,0,491.520000
88.123264,13,1725,3,0,491.520000
88.614784,13,1740,3,0,491.520000
89.106304,13,1755,3,0,491.520000
89.597824,13,1770,3,0,491.520000
90.089344,13,1785,3,0,491.520000
90.580864,13,1800,3,0,491.520000
91.072384,13,1815,3,0,491.520000
91.563904,13,1830,3,0,491.520000
92.055424,13,1845,3,0,491.520000
92.546944,13,1860,3,0,491.520000
93.038464,13,1875,3,0,491.520000
93.529984,13,1890,3,0,491.520000
94.021504,13,1905,3,3.616000,0
94.025120,14,1920,3,0,487.904000
94.513024,14,1935,3,0,491.520000
95.004544,14,1950,3,0,491.520000
95.496064,14,1965,3,0,491.520000
95.987584,14,1980,3,0,491.520000
96.479104,14,1995,3,0,983.040000
97.462144,14,2010,3,0,491.520000
97.953664,14,2025,3,0,491.520000
98.445184,14,2040,3,0,491.520000
98.936704,14,2055,3,0,491.520000
99.428224,14,2070,3,0,491.520000
99.919744,14,2085,3,0,491.520000
100.411264,14,2100,3,0,491.520000
100.902784,14,2115,3,0,491.520000
101.394304,14,2130,3,0,491.520000
101.885824,14,2145,3,0,491.520000
102.377344,14,2160,3,0,491.520000
102.868864,14,2175,3,0,491.520000
103.360384,14,2190,3,0,491.520000
103.851904,14,2205,3,0,983.040000
104.834944,14,2220,3,0,491.520000
105.326464,14,2235,3,3.680000,0
105.330144,15,2250,3,0,487.840000
105.817984,15,2265,3,0,491.520000
106.309504,15,2280,3,0,983.040000
107.292544,15,2295,3,0,491.520000
107.784064,15,2310,3,3.680000,0
107.787744,16,2325,4,0,487.840000
108.275584,16,2340,4,0,491.520000
108.767104,16,2355,4,0,491.520000
109.258624,16,2370,4,0,491.520000
109.750144,16,2385,4,0,491.520000
110.241664,16,2400,4,0,491.520000
110.733184,16,2415,4,0,491.520000
111.224704,16,2430,4,0,491.520000
111.716224,16,2445,4,0,491.520000
112.207744,16,2460,4,0,491.520000
112.699264,16,2475,4,0,491.520000
113.190784,16,2490,4,0,491.520000
113.682304,16,2505,4,0,491.520000
114.173824,16,2520,4,0,491.520000
114.665344,16,2535,4,0,491.520000
115.156864,16,2550,4,0,491.520000
115.648384,16,2565,4,0,491.520000
116.139904,16,2580,4,0,491.520000
116.631424,16,2595,4,0,491.520000
117.122944,16,2610,4,0,491.520000
117.614464,16,2625,4,0,491.520000
118.105984,16,2640,4,0,491.520000
118.597504,16,2655,4,0,491.520000
119.089024,16,2670,4,0,491.520000
119.580544,16,2685,4,0,491.520000
120.072064,16,2700,4,0,491.520000
120.563584,16,2715,4,0,491.520000
121.055104,16,2730,4,0,491.520000
121.546624,16,2745,4,0,491.520000
122.038144,16,2760,4,0,491.520000
122.529664,16,2775,4,0,491.520000
123.021184,16,2790,4,0,491.520000
123.512704,16,2805,4,3.680000,0
123.516384,17,2820,4,0,487.840000
124.004224,17,2835,4,0,983.040000
124.987264,17,2850,4,3.744000,0
124.991008,18,2865,4,0,979.296000
125.970304,18,2880,4,3.616000,0
125.973920,19,2895,4,0,487.904000
126.461824,19,2910,4,0,491.520000
126.953344,19,2925,4,0,491.520000
127.444864,19,2940,4,0,491.520000
127.936384,19,2955,4,0,491.520000
128.427904,19,2970,4,0,491.520000
128.919424,19,2985,4,0,491.520000
129.410944,19,3000,4,0,491.520000
129.902464,19,3015,4,0,491.520000
130.393984,19,3030,4,0,491.520000
130.885504,19,3045,4,0,491.520000
131.377024,19,3060,4,0,491.520000
131.868544,19,3075,4,0,491.520000
132.360064,19,3090,4,0,491.520000
132.851584,19,3105,4,0,491.520000
133.343104,19,3120,4,0,491.520000
133.834624,19,3135,4,0,491.520000
134.326144,19,3150,4,0,491.520000
134.817664,19,3165,4,0,491.520000
135.309184,19,3180,4,0,491.520000
135.800704,19,3195,4,0,491.520000
136.292224,19,3210,4,0,491.520000
136.783744,19,3225,4,0,491.520000
137.275264,19,3240,4,0,491.520000
137.766784,19,3255,4,0,491.520000
138.258304,19,3270,4,0,491.520000
138.749824,19,3285,4,0,491.520000
139.241344,19,3300,4,0,491.520000
139.732864,19,3315,4,0,491.520000
140.224384,19,3330,4,0,491.520000
140.715904,19,3345,4,0,491.520000
141.207424,19,3360,4,0,491.520000
141.698944,19,3375,4,0,491.520000
142.190464,19,3390,4,0,491.520000
142.681984,19,3405,4,0,491.520000
143.173504,19,3420,4,0,491.520000
143.665024,19,3435,4,0,491.520000
144.156544,19,3450,4,0,491.520000
144.648064,19,3465,4,0,491.520000
145.139584,19,3480,4,0,491.520000
145.631104,19,3495,4,0,491.520000
146.122624,19,3510,4,0,491.520000
146.614144,19,3525,4,0,491.520000
147.105664,19,3540,4,0,491.520000
147.597184,19,3555,4,0,491.520000
148.088704,19,3570,4,0,491.520000
148.580224,19,3585,4,0,983.040000
149.563264,19,3600,4,0,491.520000
150.054784,19,3615,4,0,491.520000
150.546304,19,3630,4,0,491.520000
151.037824,19,3645,4,0,491.520000
151.529344,19,3660,4,0,491.520000
152.020864,19,3675,4,0,491.520000
152.512384,19,3690,4,0,491.520000
153.003904,19,3705,4,0,983.040000
153.986944,19,3720,4,0,491.520000
154.478464,19,3735,4,0,491.520000
154.969984,19,3750,4,0,491.520000
155.461504,19,3765,4,0,491.520000
155.953024,19,3780,4,0,491.520000
156.444544,19,3795,4,0,491.520000
156.936064,19,3810,4,0,491.520000
157.427584,19,3825,4,0,491.520000
157.919104,19,3840,4,0,491.520000
158.410624,19,3855,4,0,491.520000
158.902144,19,3870,4,0,491.520000
159.393664,19,3885,4,0,491.520000
159.885184,19,3900,4,3.680000,0
159.888864,20,3915,5,0,487.840000
160.376704,20,3930,5,0,983.040000
161.359744,20,3945,5,0,491.520000
161.851264,20,3960,5,0,491.520000
162.342784,20,3975,5,0,491.520000
162.834304,20,3990,5,3.744000,0
162.838048,21,4005,5,0,979.296000
163.817344,21,4020,5,0,491.520000
164.308864,21,4035,5,3.680000,0
164.312544,22,4050,5,0,487.840000
164.800384,22,4065,5,0,491.520000
165.291904,22,4080,5,0,491.520000
165.783424,22,4095,5,0,491.520000
166.274944,22,4110,5,0,491.520000
166.766464,22,4125,5,0,491.520000
167.257984,22,4140,5,0,491.520000
167.749504,22,4155,5,3.680000,0
167.753184,23,4170,5,0,979.360000
168.732544,23,4185,5,0,491.520000
169.224064,23,4200,5,0,491.520000
169.715584,23,4215,5,0,491.520000
170.207104,23,4230,5,0,491.520000
170.698624,23,4245,5,0,491.520000
171.190144,23,4260,5,0,491.520000
171.681664,23,4275,5,0,491.520000
172.173184,23,4290,5,0,491.520000
172.664704,23,4305,5,0,491.520000
173.156224,23,4320,5,3.680000,0
173.159904,24,4335,6,0,487.840000
173.647744,24,4350,6,0,491.520000
174.139264,24,4365,6,0,491.520000
174.630784,24,4380,6,0,491.520000
175.122304,24,4395,6,0,491.520000
175.613824,24,4410,6,0,491.520000
176.105344,24,4425,6,0,491.520000
176.596864,24,4440,6,0,491.520000
177.088384,24,4455,6,0,491.520000
177.579904,24,4470,6,0,491.520000
178.071424,24,4485,6,0,491.520000
178.562944,24,4500,6,0,491.520000
179.054464,24,4515,6,0,983.040000
180.037504,24,4530,6,0,491.520000
180.529024,24,4545,6,0,491.520000
181.020544,24,4560,6,0,983.040000
182.003584,24,4575,6,0,491.520000
182.495104,24,4590,6,0,491.520000
182.986624,24,4605,6,0,491.520000
183.478144,24,4620,6,0,491.520000
183.969664,24,4635,6,0,491.520000
184.461184,24,4650,6,0,491.520000
184.952704,24,4665,6,3.616000,0
184.956320,25,4680,6,0,979.424000
185.935744,25,4695,6,0,491.520000
186.427264,25,4710,6,3.744000,0
186.431008,26,4725,6,0,487.776000
186.918784,26,4740,6,0,491.520000
187.410304,26,4755,6,0,491.520000
187.901824,26,4770,6,0,491.520000
188.393344,26,4785,6,0,491.520000
188.884864,26,4800,6,0,491.520000
189.376384,26,4815,6,0,491.520000
189.867904,26,4830,6,0,491.520000
190.359424,26,4845,6,0,491.520000
190.850944,26,4860,6,0,491.520000
191.342464,26,4875,6,0,491.520000
191.833984,26,4890,6,0,983.040000
192.817024,26,4905,6,3.744000,0
192.820768,27,4920,6,0,487.776000
193.308544,27,4935,6,0,491.520000
193.800064,27,4950,6,0,491.520000
194.291584,27,4965,6,0,491.520000
194.783104,27,4980,6,0,491.520000
195.274624,27,4995,6,0,491.520000
195.766144,27,5010,6,0,491.520000
196.257664,27,5025,6,0,491.520000
196.749184,27,5040,6,0,491.520000
197.240704,27,5055,6,0,491.520000
197.732224,27,5070,6,0,491.520000
198.223744,27,5085,6,0,491.520000
198.715264,27,5100,6,0,491.520000
199.206784,27,5115,6,0,491.520000
199.698304,27,5130,6,0,491.520000
200.189824,27,5145,6,0,491.520000
200.681344,27,5160,6,0,491.520000
201.172864,27,5175,6,0,491.520000
201.664384,27,5190,6,0,491.520000
202.155904,27,5205,6,0,491.520000
202.647424,27,5220,6,0,491.520000
203.138944,27,5235,6,0,983.040000
204.121984,27,5250,6,0,491.520000
204.613504,27,5265,6,0,491.520000
205.105024,27,5280,6,0,491.520000
205.596544,27,5295,6,3.680000,0
205.600224,28,5310,7,0,487.840000
206.088064,28,5325,7,0,491.520000
206.579584,28,5340,7,0,491.520000
207.071104,28,5355,7,0,491.520000
207.562624,28,5370,7,0,491.520000
208.054144,28,5385,7,0,491.520000
208.545664,28,5400,7,0,491.520000
209.037184,28,5415,7,3.616000,0
209.040800,29,5430,7,0,487.904000
209.528704,29,5445,7,0,491.520000
210.020224,29,5460,7,0,491.520000
210.511744,29,5475,7,0,491.520000
211.003264,29,5490,7,0,491.520000
211.494784,29,5505,7,0,491.520000
211.986304,29,5520,7,0,491.520000
212.477824,29,5535,7,0,491.520000
212.969344,29,5550,7,0,491.520000
213.460864,29,5565,7,0,491.520000
213.952384,29,5580,7,3.680000,0
213.956064,30,5595,7,0,487.840000
214.443904,30,5610,7,0,491.520000
214.935424,30,5625,7,0,491.520000
215.426944,30,5640,7,0,491.520000
215.918464,30,5655,7,0,491.520000
216.409984,30,5670,7,0,983.040000
217.393024,30,5685,7,3.616000,0
217.396640,31,5700,7,0,487.904000
217.884544,31,5715,7,0,491.520000
218.376064,31,5730,7,0,491.520000
218.867584,31,5745,7,0,491.520000
219.359104,31,5760,7,0,491.520000
219.850624,31,5775,7,0,983.040000
220.833664,31,5790,7,0,491.520000
221.325184,31,5805,7,0,491.520000
221.816704,31,5820,7,0,491.520000
222.308224,31,5835,7,0,491.520000
222.799744,31,5850,7,0,491.520000
223.291264,31,5865,7,0,491.520000
223.782784,31,5880,7,0,491.520000
224.274304,31,5895,7,0,491.520000
224.765824,31,5910,7,0,491.520000
225.257344,31,5925,7,0,491.520000
225.748864,31,5940,7,0,491.520000
226.240384,31,5955,7,0,491.520000
226.731904,31,5970,7,0,983.040000
227.714944,31,5985,7,3.616000,0
227.718560,32,6000,8,0,487.904000
228.206464,32,6015,8,0,491.520000
228.697984,32,6030,8,0,491.520000
229.189504,32,6045,8,0,491.520000
229.681024,32,6060,8,0,491.520000
230.172544,32,6075,8,0,491.520000
230.664064,32,6090,8,0,491.520000
231.155584,32,6105,8,0,491.520000
231.647104,32,6120,8,0,491.520000
232.138624,32,6135,8,0,491.520000
232.630144,32,6150,8,0,491.520000
233.121664,32,6165,8,0,491.520000
233.613184,32,6180,8,0,491.520000
234.104704,32,6195,8,0,491.520000
234.596224,32,6210,8,