Time,CovertPackets,AllPackets,BitsSent,PacketInterval;GTSInterval
30.130384,1,120,0,0,486.480000
30.616864,1,180,0,5.136000,0
30.622000,2,240,0,0,486.384000
31.108384,2,300,0,5.088000,0
31.113472,3,360,0,0,486.432000
31.599904,3,420,0,5.088000,0
31.604992,4,480,1,0,486.432000
32.091424,4,540,1,5.200000,0
32.096624,5,600,1,0,486.320000
32.582944,5,660,1,5.200000,0
32.588144,6,720,1,0,486.320000
33.074464,6,780,1,5.152000,0
33.079616,7,840,1,0,486.368000
33.565984,7,900,1,5.168000,0
33.571152,8,960,2,0,486.352000
34.057504,8,1020,2,5.152000,0
34.062656,9,1080,2,0,486.368000
34.549024,9,1140,2,5.200000,0
34.554224,10,1200,2,0,486.320000
35.040544,10,1260,2,5.216000,0
35.045760,11,1320,2,0,486.304000
35.532064,11,1380,2,5.072000,0
35.537136,12,1440,3,0,486.448000
36.023584,12,1500,3,5.216000,0
36.028800,13,1560,3,0,486.304000
36.515104,13,1620,3,5.072000,0
36.520176,14,1680,3,0,486.448000
37.006624,14,1740,3,5.088000,0
37.011712,15,1800,3,0,486.432000
37.498144,15,1860,3,5.168000,0
37.503312,16,1920,4,0,486.352000
37.989664,16,1980,4,5.168000,0
37.994832,17,2040,4,0,486.352000
38.481184,17,2100,4,5.200000,0
38.486384,18,2160,4,0,486.320000
38.972704,18,2220,4,5.104000,0
38.977808,19,2280,4,0,486.416000
39.464224,19,2340,4,5.120000,0
39.469344,20,2400,5,0,486.400000
39.955744,20,2460,5,5.088000,0
39.960832,21,2520,5,0,486.432000
40.447264,21,2580,5,5.072000,0
40.452336,22,2640,5,0,486.448000
40.938784,22,2700,5,5.216000,0
40.944000,23,2760,5,0,486.304000
41.430304,23,2820,5,5.168000,0
41.435472,24,2880,6,0,486.352000
41.921824,24,2940,6,5.200000,0
41.927024,25,3000,6,0,486.320000
42.413344,25,3060,6,5.136000,0
42.418480,26,3120,6,0,486.384000
42.904864,26,3180,6,5.152000,0
42.910016,27,3240,6,0,486.368000
43.396384,27,3300,6,5.184000,0
43.401568,28,3360,7,0,486.336000
43.887904,28,3420,7,5.136000,0
43.893040,29,3480,7,0,486.384000
44.379424,29,3540,7,5.136000,0
44.384560,30,3600,7,0,486.384000
44.870944,30,3660,7,5.152000,0
44.876096,31,3720,7,0,486.368000
45.362464,31,3780,7,5.184000,0
45.367648,32,3840,8,0,486.336000
45.853984,32,3900,8,5.232000,0
45.859216,33,3960,8,0,486.288000
46.345504,33,4020,8,5.200000,0
46.350704,34,4080,8,0,486.320000
46.837024,34,4140,8,5.152000,0
46.842176,35,4200,8,0,486.368000
47.328544,35,4260,8,5.120000,0
47.333664,36,4320,9,0,486.400000
47.820064,36,4380,9,5.072000,0
47.825136,37,4440,9,0,486.448000
48.311584,37,4500,9,5.200000,0
48.316784,38,4560,9,0,486.320000
48.803104,38,4620,9,5.216000,0
48.808320,39,4680,9,0,486.304000
49.294624,39,4740,9,5.232000,0
49.299856,40,4800,10,0,486.288000
49.786144,40,4860,10,5.168000,0
49.791312,41,4920,10,0,486.352000
50.277664,41,4980,10,5.120000,0
50.282784,42,5040,10,0,486.400000
50.769184,42,5100,10,5.216000,0
50.774400,43,5160,10,0,486.304000
51.260704,43,5220,10,5.120000,0
51.265824,44,5280,11,0,486.400000
51.752224,44,5340,11,5.120000,0
51.757344,45,5400,11,0,486.400000
52.243744,45,5460,11,5.136000,0
52.248880,46,5520,11,0,486.384000
52.735264,46,5580,11,5.216000,0
52.740480,47,5640,11,0,486.304000
53.226784,47,5700,11,5.120000,0
53.231904,48,5760,12,0,486.400000
53.718304,48,5820,12,5.232000,0
53.723536,49,5880,12,0,486.288000
54.209824,49,5940,12,5.136000,0
54.214960,50,6000,12,0,486.384000
54.701344,50,6060,12,5.216000,0
54.706560,51,6120,12,0,486.304000
55.192864,51,6180,12,5.232000,0
55.198096,52,6240,13,0,486.288000
55.684384,52,6300,13,5.232000,0
55.689616,53,6360,13,0,486.288000
56.175904,53,6420,13,5.072000,0
56.180976,54,6480,13,0,486.448000
56.667424,54,6540,13,5.216000,0
56.672640,55,6600,13,0,486.304000
57.158944,55,6660,13,5.168000,0
57.164112,56,6720,14,0,486.352000
57.650464,56,6780,14,5.152000,0
57.655616,57,6840,14,0,486.368000
58.141984,57,6900,14,5.136000,0
58.147120,58,6960,14,0,486.384000
58.633504,58,7020,14,5.152000,0
58.638656,59,7080,14,0,486.368000
59.125024,59,7140,14,5.072000,0
59.130096,60,7200,15,0,486.448000
59.616544,60,7260,15,5.216000,0
59.621760,61,7320,15,0,486.304000
60.108064,61,7380,15,5.136000,0
60.113200,62,7440,15,0,486.384000
60.599584,62,7500,15,5.152000,0
60.604736,63,7560,15,0,486.368000
61.091104,63,7620,15,5.216000,0
61.096320,64,7680,16,0,486.304000
61.582624,64,7740,16,5.200000,0
61.587824,65,7800,16,0,486.320000
62.074144,65,7860,16,5.136000,0
62.079280,66,7920,16,0,486.384000
62.565664,66,7980,16,5.088000,0
62.570752,67,8040,16,0,486.432000
63.057184,67,8100,16,5.200000,0
63.062384,68,8160,17,0,486.320000
63.548704,68,8220,17,5.056000,0
63.553760,69,8280,17,0,486.464000
64.040224,69,8340,17,5.072000,0
64.045296,70,8400,17,0,486.448000
64.531744,70,8460,17,5.216000,0
64.536960,71,8520,17,0,486.304000
65.023264,71,8580,17,5.200000,0
65.028464,72,8640,18,0,486.320000
65.514784,72,8700,18,5.072000,0
65.519856,73,8760,18,0,486.448000
66.006304,73,8820,18,5.072000,0
66.011376,74,8880,18,0,486.448000
66.497824,74,8940,18,5.152000,0
66.502976,75,9000,18,0,486.368000
66.989344,75,9060,18,5.168000,0
66.994512,76,9120,19,0,486.352000
67.480864,76,9180,19,5.216000,0
67.486080,77,9240,19,0,486.304000
67.972384,77,9300,19,5.200000,0
67.977584,78,9360,19,0,486.320000
68.463904,78,9420,19,5.152000,0
68.469056,79,9480,19,0,486.368000
68.955424,79,9540,19,5.056000,0
68.960480,80,9600,20,0,486.464000
69.446944,80,9660,20,5.168000,0
69.452112,81,9720,20,0,486.352000
69.938464,81,9780,20,5.072000,0
69.943536,82,9840,20,0,486.448000
70.429984,82,9900,20,5.152000,0
70.435136,83,9960,20,0,486.368000
70.921504,83,10020,20,5.152000,0
70.926656,84,10080,21,0,486.368000
71.413024,84,10140,21,5.136000,0
71.418160,85,10200,21,0,486.384000
71.904544,85,10260,21,5.072000,0
71.909616,86,10320,21,0,486.448000
72.396064,86,10380,21,5.216000,0
72.401280,87,10440,21,0,486.304000
72.887584,87,10500,21,5.056000,0
72.892640,88,10560,22,0,486.464000
73.379104,88,10620,22,5.136000,0
73.384240,89,10680,22,0,486.384000
73.870624,89,10740,22,5.136000,0
73.875760,90,10800,22,0,486.384000
74.362144,90,10860,22,5.088000,0
74.367232,91,10920,22,0,486.432000
74.853664,91,10980,22,5.168000,0
74.858832,92,11040,23,0,486.352000
75.345184,92,11100,23,5.056000,0
75.350240,93,11160,23,0,486.464000
75.836704,93,11220,23,5.184000,0
75.841888,94,11280,23,0,486.336000
76.328224,94,11340,23,5.216000,0
76.333440,95,11400,23,0,486.304000
76.819744,95,11460,23,5.120000,0
76.824864,96,11520,24,0,486.400000
77.311264,96,11580,24,5.056000,0
77.316320,97,11640,24,0,486.464000
77.802784,97,11700,24,5.120000,0
77.807904,98,11760,24,0,486.400000
78.294304,98,11820,24,5.088000,0
78.299392,99,11880,24,0,486.432000
78.785824,99,11940,24,5.120000,0
78.790944,100,12000,25,0,486.400000
79.277344,100,12060,25,5.056000,0
79.282400,101,12120,25,0,486.464000
79.768864,101,12180,25,5.120000,0
79.773984,102,12240,25,0,486.400000
80.260384,102,12300,25,5.216000,0
80.265600,103,12360,25,0,486.304000
80.751904,103,12420,25,5.184000,0
80.757088,104,12480,26,0,486.336000
81.243424,104,12540,26,5.184000,0
81.248608,105,12600,26,0,486.336000
81.734944,105,12660,26,5.056000,0
81.740000,106,12720,26,0,486.464000
82.226464,106,12780,26,5.120000,0
82.231584,107,12840,26,0,486.400000
82.717984,107,12900,26,5.056000,0
82.723040,108,12960,27,0,486.464000
83.209504,108,13020,27,5.120000,0
83.214624,109,13080,27,0,486.400000
83.701024,109,13140,27,5.056000,0
83.706080,110,13200,27,0,486.464000
84.192544,110,13260,27,5.056000,0
84.197600,111,13320,27,0,486.464000
84.684064,111,13380,27,5.184000,0
84.689248,112,13440,28,0,486.336000
85.175584,112,13500,28,5.120000,0
85.180704,113,13560,28,0,486.400000
85.667104,113,13620,28,5.120000,0
85.672224,114,13680,28,0,486.400000
86.158624,114,13740,28,5.184000,0
86.163808,115,13800,28,0,486.336000
86.650144,115,13860,28,5.120000,0
86.655264,116,13920,29,0,486.400000
87.141664,116,13980,29,5.120000,0
87.146784,117,14040,29,0,486.400000
87.633184,117,14100,29,5.184000,0
87.638368,118,14160,29,0,486.336000
88.124704,118,14220,29,5.056000,0
88.129760,119,14280,29,0,486.464000
88.616224,119,14340,29,5.120000,0
88.621344,120,14400,30,0,486.400000
89.107744,120,14460,30,5.120000,0
89.112864,121,14520,30,0,486.400000
89.599264,121,14580,30,5.184000,0
89.604448,122,14640,30,0,486.336000
90.090784,122,14700,30,5.056000,0
90.095840,123,14760,30,0,486.464000
90.582304,123,14820,30,5.184000,0
90.587488,124,14880,31,0,486.336000
91.073824,124,14940,31,5.184000,0
91.079008,125,15000,31,0,486.336000
91.565344,125,15060,31,5.184000,0
91.570528,126,15120,31,0,486.336000
92.056864,126,15180,31,5.056000,0
92.061920,127,15240,31,0,486.464000
92.548384,127,15300,31,5.056000,0
92.553440,128,15360,32,0,486.464000
93.039904,128,15420,32,5.056000,0
93.044960,129,15480,32,0,486.464000
93.531424,129,15540,32,5.120000,0
93.536544,130,15600,32,0,486.400000
94.022944,130,15660,32,5.120000,0
94.028064,131,15720,32,0,486.400000
94.514464,131,15780,32,5.184000,0
94.519648,132,15840,33,0,486.336000
95.005984,132,15900,33,5.120000,0
95.011104,133,15960,33,0,486.400000
95.497504,133,16020,33,5.120000,0
95.502624,134,16080,33,0,486.400000
95.989024,134,16140,33,5.056000,0
95.994080,135,16200,33,0,486.464000
96.480544,135,16260,33,5.120000,0
96.485664,136,16320,34,0,486.400000
96.972064,136,16380,34,5.120000,0
96.977184,137,16440,34,0,486.400000
97.463584,137,16500,34,5.184000,0
97.468768,138,16560,34,0,486.336000
97.955104,138,16620,34,5.184000,0
97.960288,139,16680,34,0,486.336000
98.446624,139,16740,34,5.184000,0
98.451808,140,16800,35,0,486.336000
98.938144,140,16860,35,5.184000,0
98.943328,141,16920,35,0,486.336000
99.429664,141,16980,35,5.056000,0
99.434720,142,17040,35,0,486.464000
99.921184,142,17100,35,5.056000,0
99.926240,143,17160,35,0,486.464000
100.412704,143,17220,35,5.056000,0
100.417760,144,17280,36,0,486.464000
100.904224,144,17340,36,5.184000,0
100.909408,145,17400,36,0,486.336000
101.395744,145,17460,36,5.056000,0
101.400800,146,17520,36,0,486.464000
101.887264,146,17580,36,5.184000,0
101.892448,147,17640,36,0,486.336000
102.378784,147,17700,36,5.184000,0
102.383968,148,17760,37,0,486.336000
102.870304,148,17820,37,5.056000,0
102.875360,149,17880,37,0,486.464000
103.361824,149,17940,37,5.184000,0
103.367008,150,18000,37,0,486.336000
103.853344,150,18060,37,5.056000,0
103.858400,151,18120,37,0,486.464000
104.344864,151,18180,37,5.120000,0
104.349984,152,18240,38,0,486.400000
104.836384,152,18300,38,5.184000,0
104.841568,153,18360,38,0,486.336000
105.327904,153,18420,38,5.056000,0
105.332960,154,18480,38,0,486.464000
105.819424,154,18540,38,5.056000,0
105.824480,155,18600,38,0,486.464000
106.310944,155,18660,38,5.120000,0
106.316064,156,18720,39,0,486.400000
106.802464,156,18780,39,5.120000,0
106.807584,157,18840,39,0,486.400000
107.293984,157,18900,39,5.184000,0
107.299168,158,18960,39,0,486.336000
107.785504,158,19020,39,5.056000,0
107.790560,159,19080,39,0,486.464000
108.277024,159,19140,39,5.184000,0
108.282208,160,19200,40,0,486.336000
108.768544,160,19260,40,5.056000,0
108.773600,161,19320,40,0,486.464000
109.260064,161,19380,40,5.120000,0
109.265184,162,19440,40,0,486.400000
109.751584,162,19500,40,5.120000,0
109.756704,163,19560,40,0,486.400000
110.243104,163,19620,40,5.184000,0
110.248288,164,19680,41,0,486.336000
110.734624,164,19740,41,5.056000,0
110.739680,165,19800,41,0,486.464000
111.226144,165,19860,41,5.056000,0
111.231200,166,19920,41,0,486.464000
111.717664,166,19980,41,5.056000,0
111.722720,167,20040,41,0,486.464000
112.209184,167,20100,41,5.056000,0
112.214240,168,20160,42,0,486.464000
112.700704,168,20220,42,5.056000,0
112.705760,169,20280,42,0,486.464000
113.192224,169,20340,42,5.120000,0
113.197344,170,20400,42,0,486.400000
113.683744,170,20460,42,5.184000,0
113.688928,171,20520,42,0,486.336000
114.175264,171,20580,42,5.120000,0
114.180384,172,20640,43,0,486.400000
114.666784,172,20700,43,5.056000,0
114.671840,173,20760,43,0,486.464000
115.158304,173,20820,43,5.056000,0
115.163360,174,20880,43,0,486.464000
115.649824,174,20940,43,5.120000,0
115.654944,175,21000,43,0,486.400000
116.141344,175,21060,43,5.184000,0
116.146528,176,21120,44,0,486.336000
116.632864,176,21180,44,5.056000,0
116.637920,177,21240,44,0,486.464000
117.124384,177,21300,44,5.120000,0
117.129504,178,21360,44,0,486.400000
117.615904,178,21420,44,5.056000,0
117.620960,179,21480,44,0,486.464000
118.107424,179,21540,44,5.184000,0
118.112608,180,21600,45,0,486.336000
118.598944,180,21660,45,5.120000,0
118.604064,181,21720,45,0,486.400000
119.090464,181,21780,45,5.184000,0
119.095648,182,21840,45,0,486.336000
119.581984,182,21900,45,5.184000,0
119.587168,183,21960,45,0,486.336000
120.073504,183,22020,45,5.056000,0
120.078560,184,22080,46,0,486.464000
120.565024,184,22140,46,5.120000,0
120.570144,185,22200,46,0,486.400000
121.056544,185,22260,46,5.184000,0
121.061728,186,22320,46,0,486.336000
121.548064,186,22380,46,5.056000,0
121.553120,187,22440,46,0,486.464000
122.039584,187,22500,46,5.120000,0
122.044704,188,22560,47,0,486.400000
122.531104,188,22620,47,5.120000,0
122.536224,189,22680,47,0,486.400000
123.022624,189,22740,47,5.184000,0
123.027808,190,22800,47,0,486.336000
123.514144,190,22860,47,5.120000,0
123.519264,191,22920,47,0,486.400000
124.005664,191,22980,47,5.120000,0
124.010784,192,23040,48,0,486.400000
124.497184,192,23100,48,5.056000,0
124.502240,193,23160,48,0,486.464000
124.988704,193,23220,48,5.184000,0
124.993888,194,23280,48,0,486.336000
125.480224,194,23340,48,5.120000,0
125.485344,195,23400,48,0,486.400000
125.971744,195,23460,48,5.120000,0
125.976864,196,23520,49,0,486.400000
126.463264,196,23580,49,5.056000,0
126.468320,197,23640,49,0,486.464000
126.954784,197,23700,49,5.184000,0
126.959968,198,23760,49,0,486.336000
127.446304,198,23820,49,5.184000,0
127.451488,199,23880,49,0,486.336000
127.937824,199,23940,49,5.056000,0
127.942880,200,24000,50,0,486.464000
128.429344,200,24060,50,5.056000,0
128.434400,201,24120,50,0,486.464000
128.920864,201,24180,50,5.184000,0
128.926048,202,24240,50,0,486.336000
129.412384,202,24300,50,5.056000,0
129.417440,203,24360,50,0,486.464000
129.903904,203,24420,50,5.184000,0
129.909088,204,24480,51,0,486.336000
130.395424,204,24540,51,5.184000,0
130.400608,205,24600,51,0,486.336000
130.886944,205,24660,51,5.056000,0
130.892000,206,24720,51,0,486.464000
131.378464,206,24780,51,5.120000,0
131.383584,207,24840,51,0,486.400000
131.869984,207,24900,51,5.056000,0
131.875040,208,24960,52,0,486.464000
132.361504,208,25020,52,5.184000,0
132.366688,209,25080,52,0,486.336000
132.853024,209,25140,52,5.120000,0
132.858144,210,25200,52,0,486.400000
133.344544,210,25260,52,5.120000,0
133.349664,211,25320,52,0,486.400000
133.836064,211,25380,52,5.184000,0
133.841248,212,25440,53,0,486.336000
134.327584,212,25500,53,5.184000,0
134.332768,213,25560,53,0,486.336000
134.819104,213,25620,53,5.120000,0
134.824224,214,25680,53,0,486.400000
135.310624,214,25740,53,5.184000,0
135.315808,215,25800,53,0,486.336000
135.802144,215,25860,53,5.056000,0
135.807200,216,25920,54,0,486.464000
136.293664,216,25980,54,5.184000,0
136.298848,217,26040,54,0,486.336000
136.785184,217,26100,54,5.056000,0
136.790240,218,26160,54,0,486.464000
137.276704,218,26220,54,5.056000,0
137.281760,219,26280,54,0,486.464000
137.768224,219,26340,54,5.056000,0
137.773280,220,26400,55,0,486.464000
138.259744,220,26460,55,5.120000,0
138.264864,221,26520,55,0,486.400000
138.751264,221,26580,55,5.120000,0
138.756384,222,26640,55,0,486.400000
139.242784,222,26700,55,5.120000,0
139.247904,223,26760,55,0,486.400000
139.734304,223,26820,55,5.184000,0
139.739488,224,26880,56,0,486.336000
140.225824,224,26940,56,5.120000,0
140.230944,225,27000,56,0,486.400000
140.717344,225,27060,56,5.120000,0
140.722464,226,27120,56,0,486.400000
141.208864,226,27180,56,5.184000,0
141.214048,227,27240,56,0,486.336000
141.700384,227,27300,56,5.120000,0
141.705504,228,27360,57,0,486.400000
142.191904,228,27420,57,5.120000,0
142.197024,229,27480,57,0,486.400000
142.683424,229,27540,57,5.184000,0
142.688608,230,27600,57,0,486.336000
143.174944,230,27660,57,5.184000,0
143.180128,231,27720,57,0,486.336000
143.666464,231,27780,57,5.120000,0
143.671584,232,27840,58,0,486.400000
144.157984,232,27900,58,5.184000,0
144.163168,233,27960,58,0,486.336000
144.649504,233,28020,58,5.120000,0
144.654624,234,28080,58,0,486.400000
145.141024,234,28140,58,5.056000,0
145.146080,235,28200,58,0,486.464000
145.632544,235,28260,58,5.120000,0
145.637664,236,28320,59,0,486.400000
146.124064,236,28380,59,5.184000,0
146.129248,237,28440,59,0,486.336000
146.615584,237,28500,59,5.056000,0
146.620640,238,28560,59,0,486.464000
147.107104,238,28620,59,5.184000,0
147.112288,239,28680,59,0,486.336000
147.598624,239,28740,59,5.056000,0
147.603680,240,28800,60,0,486.464000
148.090144,240,28860,60,5.120000,0
148.095264,241,28920,60,0,486.400000
148.581664,241,28980,60,5.184000,0
148.586848,242,29040,60,0,486.336000
149.073184,242,29100,60,5.120000,0
149.078304,243,29160,60,0,486.400000
149.564704,243,29220,60,5.184000,0
149.569888,244,29280,61,0,486.336000
150.056224,244,29340,61,5.056000,0
150.061280,245,29400,61,0,486.464000
150.547744,245,29460,61,5.120000,0
150.552864,246,29520,61,0,486.400000
151.039264,246,29580,61,5.120000,0
151.044384,247,29640,61,0,486.400000
151.530784,247,29700,61,5.120000,0
151.535904,248,29760,62,0,486.400000
152.022304,248,29820,62,5.056000,0
152.027360,249,29880,62,0,486.464000
152.513824,249,29940,62,5.184000,0
152.519008,250,30000,62,0,486.336000
153.005344,250,30060,62,5.120000,0
153.010464,251,30120,62,0,486.400000
153.496864,251,30180,62,5.056000,0
153.501920,252,30240,63,0,486.464000
153.988384,252,30300,63,5.120000,0
153.993504,253,30360,63,0,486.400000
154.479904,253,30420,63,5.184000,0
154.485088,254,30480,63,0,486.336000
154.971424,254,30540,63,5.056000,0
154.976480,255,30600,63,0,486.464000
155.462944,255,30660,63,5.184000,0
155.468128,256,30720,64,0,486.336000
155.954464,256,30780,64,5.120000,0
155.959584,257,30840,64,0,486.400000
156.445984,257,30900,64,5.056000,0
156.451040,258,30960,64,0,486.464000
156.937504,258,31020,64,5.184000,0
156.942688,259,31080,64,0,486.336000
157.429024,259,31140,64,5.056000,0
157.434080,260,31200,65,0,486.464000
157.920544,260,31260,65,5.184000,0
157.925728,261,31320,65,0,486.336000
158.412064,261,31380,65,5.056000,0
158.417120,262,31440,65,0,486.464000
158.903584,262,31500,65,5.120000,0
158.908704,263,31560,65,0,486.400000
159.395104,263,31620,65,5.056000,0
159.400160,264,31680,66,0,486.464000
159.886624,264,31740,66,5.184000,0
159.891808,265,31800,66,0,486.336000
160.378144,265,31860,66,5.184000,0
160.383328,266,31920,66,0,486.336000
160.869664,266,31980,66,5.120000,0
160.874784,267,32040,66,0,486.400000
161.361184,267,32100,66,5.120000,0
161.366304,268,32160,67,0,486.400000
161.852704,268,32220,67,5.184000,0
161.857888,269,32280,67,0,486.336000
162.344224,269,32340,67,5.056000,0
162.349280,270,32400,67,0,486.464000
162.835744,270,32460,67,5.184000,0
162.840928,271,32520,67,0,486.336000
163.327264,271,32580,67,5.056000,0
163.332320,272,32640,68,0,486.464000
163.818784,272,32700,68,5.184000,0
163.823968,273,32760,68,0,486.336000
164.310304,273,32820,68,5.120000,0
164.315424,274,32880,68,0,486.400000
164.801824,274,32940,68,5.056000,0
164.806880,275,33000,68,0,486.464000
165.293344,275,33060,68,5.056000,0
165.298400,276,33120,69,0,486.464000
165.784864,276,33180,69,5.056000,0
165.789920,277,33240,69,0,486.464000
166.276384,277,33300,69,5.120000,0
166.281504,278,33360,69,0,486.400000
166.767904,278,33420,69,5.184000,0
166.773088,279,33480,69,0,486.336000
167.259424,279,33540,69,5.184000,0
167.264608,280,33600,70,0,486.336000
167.750944,280,33660,70,5.120000,0
167.756064,281,33720,70,0,486.400000
168.242464,281,33780,70,5.056000,0
168.247520,282,33840,70,0,486.464000
168.733984,282,33900,70,5.184000,0
168.739168,283,33960,70,0,486.336000
169.225504,283,34020,70,5.120000,0
169.230624,284,34080,71,0,486.400000
169.717024,284,34140,71,5.120000,0
169.722144,285,34200,71,0,486.400000
170.208544,285,34260,71,5.184000,0
170.213728,286,34320,71,0,486.336000
170.700064,286,34380,71,5.184000,0
170.705248,287,34440,71,0,486.336000
171.191584,287,34500,71,5.120000,0
171.196704,288,34560,72,0,486.400000
171.683104,288,34620,72,5.056000,0
171.688160,289,34680,72,0,486.464000
172.174624,289,34740,72,5.184000,0
172.179808,290,34800,72,0,486.336000
172.666144,290,34860,72,5.056000,0
172.671200,291,34920,72,0,486.464000
173.157664,291,34980,72,5.120000,0
173.162784,292,35040,73,0,486.400000
173.649184,292,35100,73,5.184000,0
173.654368,293,35160,73,0,486.336000
174.140704,293,35220,73,5.120000,0
174.145824,294,35280,73,0,486.400000
174.632224,294,35340,73,5.056000,0
174.637280,295,35400,73,0,486.464000
175.123744,295,35460,73,5.184000,0
175.128928,296,35520,74,0,486.336000
175.615264,296,35580,74,5.120000,0
175.620384,297,35640,74,0,486.400000
176.106784,297,35700,74,5.184000,0
176.111968,298,35760,74,0,486.336000
176.598304,298,35820,74,5.056000,0
176.603360,299,35880,74,0,486.464000
177.089824,299,35940,74,5.184000,0
177.095008,300,36000,75,0,486.336000
177.581344,300,36060,75,5.184000,0
177.586528,301,36120,75,0,486.336000
178.072864,301,36180,75,5.120000,0
178.077984,302,36240,75,0,486.400000
178.564384,302,36300,75,5.120000,0
178.569504,303,36360,75,0,486.400000
179.055904,303,36420,75,5.056000,0
179.060960,304,36480,76,0,486.464000
179.547424,304,36540,76,5.056000,0
179.552480,305,36600,76,0,486.464000
180.038944,305,36660,76,5.056000,0
180.044000,306,36720,76,0,486.464000
180.530464,306,36780,76,5.184000,0
180.535648,307,36840,76,0,486.336000
181.021984,307,36900,76,5.184000,0
181.027168,308,36960,77,0,486.336000
181.513504,308,37020,77,5.120000,0
181.518624,309,37080,77,0,486.400000
182.005024,309,37140,77,5.056000,0
182.010080,310,37200,77,0,486.464000
182.496544,310,37260,77,5.184000,0
182.501728,311,37320,77,0,486.336000
182.988064,311,37380,77,5.184000,0
182.993248,312,37440,78,0,486.336000
183.479584,312,37500,78,5.120000,0
183.484704,313,37560,78,0,486.400000
183.971104,313,37620,78,5.184000,0
183.976288,314,37680,78,0,486.336000
184.462624,314,37740,78,5.184000,0
184.467808,315,37800,78,0,486.336000
184.954144,315,37860,78,5.120000,0
184.959264,316,37920,79,0,486.400000
185.445664,316,37980,79,5.184000,0
185.450848,317,38040,79,0,486.336000
185.937184,317,38100,79,5.056000,0
185.942240,318,38160,79,0,486.464000
186.428704,318,38220,79,5.056000,0
186.433760,319,38280,79,0,486.464000
186.920224,319,38340,79,5.120000,0
186.925344,320,38400,80,0,486.400000
187.411744,320,38460,80,5.120000,0
187.416864,321,38520,80,0,486.400000
187.903264,321,38580,80,5.120000,0
187.908384,322,38640,80,0,486.400000
188.394784,322,38700,80,5.184000,0
188.399968,323,38760,80,0,486.336000
188.886304,323,38820,80,5.184000,0
188.891488,324,38880,81,0,486.336000
189.377824,324,38940,81,5.120000,0
189.382944,325,39000,81,0,486.400000
189.869344,325,39060,81,5.120000,0
189.874464,326,39120,81,0,486.400000
190.360864,326,39180,81,5.120000,0
190.365984,327,39240,81,0,486.400000
190.852384,327,39300,81,5.056000,0
190.857440,328,39360,82,0,486.464000
191.343904,328,39420,82,5.056000,0
191.348960,329,39480,82,0,486.464000
191.835424,329,39540,82,5.184000,0
191.840608,330,39600,82,0,486.336000
192.326944,330,39660,82,5.120000,0
192.332064,331,39720,82,0,486.400000
192.818464,331,39780,82,5.120000,0
192.823584,332,39840,83,0,486.400000
193.309984,332,39900,83,5.056000,0
193.315040,333,39960,83,0,486.464000
193.801504,333,40020,83,5.120000,0
193.806624,334,40080,83,0,486.400000
194.293024,334,40140,83,5.184000,0
194.298208,335,40200,83,0,486.336000
194.784544,335,40260,83,5.184000,0
194.789728,336,40320,84,0,486.336000
195.276064,336,40380,84,5.120000,0
195.281184,337,40440,84,0,486.400000
195.767584,337,40500,84,5.184000,0
195.772768,338,40560,84,0,486.336000
196.259104,338,40620,84,5.184000,0
196.264288,339,40680,84,0,486.336000
196.750624,339,40740,84,5.120000,0
196.755744,340,40800,85,0,486.400000
197.242144,340,40860,85,5.184000,0
197.247328,341,40920,85,0,486.336000
197.733664,341,40980,85,5.056000,0
197.738720,342,41040,85,0,486.464000
198.225184,342,41100,85,5.120000,0
198.230304,343,41160,85,0,486.400000
198.716704,343,41220,85,5.056000,0
198.721760,344,41280,86,0,486.464000
199.208224,344,41340,86,5.120000,0
199.213344,345,41400,86,0,486.400000
199.699744,345,41460,86,5.056000,0
199.704800,346,41520,86,0,486.464000
200.191264,346,41580,86,5.056000,0
200.196320,347,41640,86,0,486.464000
200.682784,347,41700,86,5.056000,0
200.687840,348,41760,87,0,486.464000
201.174304,348,41820,87,5.120000,0
201.179424,349,41880,87,0,486.400000
201.665824,349,41940,87,5.120000,0
201.670944,350,42000,87,0,486.400000
202.157344,350,42060,87,5.184000,0
202.162528,351,42120,87,0,486.336000
202.648864,351,42180,87,5.056000,0
202.653920,352,42240,88,0,486.464000
203.140384,352,42300,88,5.184000,0
203.145568,353,42360,88,0,486.336000
203.631904,353,42420,88,5.056000,0
203.636960,354,42480,88,0,486.464000
204.123424,354,42540,88,5.056000,0
204.128480,355,42600,88,0,486.464000
204.614944,355,42660,88,5.056000,0
204.620000,356,42720,89,0,486.464000
205.106464,356,42780,89,5.184000,0
205.111648,357,42840,89,0,486.336000
205.597984,357,42900,89,5.056000,0
205.603040,358,42960,89,0,486.464000
206.089504,358,43020,89,5.120000,0
206.094624,359,43080,89,0,486.400000
206.581024,359,43140,89,5.056000,0
206.586080,360,43200,90,0,486.464000
207.072544,360,43260,90,5.184000,0
207.077728,361,43320,90,0,486.336000
207.564064,361,43380,90,5.120000,0
207.569184,362,43440,90,0,486.400000
208.055584,362,43500,90,5.120000,0
208.060704,363,43560,90,0,486.400000
208.547104,363,43620,90,5.120000,0
208.552224,364,43680,91,0,486.400000
209.038624,364,43740,91,5.120000,0
209.043744,365,43800,91,0,486.400000
209.530144,365,43860,91,5.120000,0
209.535264,366,43920,91,0,486.400000
210.021664,366,43980,91,5.184000,0
210.026848,367,44040,91,0,486.336000
210.513184,367,44100,91,5.056000,0
210.518240,368,44160,92,0,486.464000
211.004704,368,44220,92,5.184000,0
211.009888,369,44280,92,0,486.336000
211.496224,369,44340,92,5.120000,0
211.501344,370,44400,92,0,486.400000
211.987744,370,44460,92,5.120000,0
211.992864,371,44520,92,0,486.400000
212.479264,371,44580,92,5.184000,0
212.484448,372,44640,93,0,486.336000
212.970784,372,44700,93,5.184000,0
212.975968,373,44760,93,0,486.336000
213.462304,373,44820,93,5.120000,0
213.467424,374,44880,93,0,486.400000
213.953824,374,44940,93,5.056000,0
213.958880,375,45000,93,0,486.464000
214.445344,375,45060,93,5.120000,0
214.450464,376,45120,94,0,486.400000
214.936864,376,45180,94,5.120000,0
214.941984,377,45240,94,0,486.400000
215.428384,377,45300,94,5.056000,0
215.433440,378,45360,94,0,486.464000
215.919904,378,45420,94,5.056000,0
215.924960,379,45480,94,0,486.464000
216.411424,379,45540,94,5.056000,0
216.416480,380,45600,95,0,486.464000
216.902944,380,45660,95,5.184000,0
216.908128,381,45720,95,0,486.336000
217.394464,381,45780,95,5.056000,0
217.399520,382,45840,95,0,486.464000
217.885984,382,45900,95,5.056000,0
217.891040,383,45960,95,0,486.464000
218.377504,383,46020,95,5.056000,0
218.382560,384,46080,96,0,486.464000
218.869024,384,46140,96,5.120000,0
218.874144,385,46200,96,0,486.400000
219.360544,385,46260,96,5.056000,0
219.365600,386,46320,96,0,486.464000
219.852064,386,46380,96,5.120000,0
219.857184,387,46440,96,0,486.400000
220.343584,387,46500,96,5.056000,0
220.348640,388,46560,97,0,486.464000
220.835104,388,46620,97,5.056000,0
220.840160,389,46680,97,0,486.464000
221.326624,389,46740,97,5.120000,0
221.331744,390,46800,97,0,486.400000
221.818144,390,46860,97,5.184000,0
221.823328,391,46920,97,0,486.336000
222.309664,391,46980,97,5.184000,0
222.314848,392,47040,98,0,486.336000
222.801184,392,47100,98,5.184000,0
222.806368,393,47160,98,0,486.336000
223.292704,393,47220,98,5.056000,0
223.297760,394,47280,98,0,486.464000
223.784224,394,47340,98,5.184000,0
223.789408,395,47400,98,0,486.336000
224.275744,395,47460,98,5.184000,0
224.280928,396,47520,99,0,486.336000
224.767264,396,47580,99,5.184000,0
224.772448,397,47640,99,0,486.336000
225.258784,397,47700,99,5.056000,0
225.263840,398,47760,99,0,486.464000
225.750304,398,47820,99,5.056000,0
225.755360,399,47880,99,0,486.464000
226.241824,399,47940,99,5.120000,0
226.246944,400,48000,100,0,486.400000
226.733344,400,48060,100,5.056000,0
226.738400,401,48120,100,0,486.464000
227.224864,401,48180,100,5.056000,0
227.229920,402,48240,100,0,486.464000
227.716384,402,48300,100,5.120000,0
227.721504,403,48360,100,0,486.400000
228.207904,403,48420,100,5.056000,0
228.212960,404,48480,101,0,486.464000
228.699424,404,48540,101,5.120000,0
228.704544,405,48600,101,0,486.400000
229.190944,405,48660,101,5.056000,0
229.196000,406,48720,101,0,486.464000
229.682464,406,48780,101,5.056000,0
229.687520,407,48840,101,0,486.464000
230.173984,407,48900,101,5.120000,0
230.179104,408,48960,102,0,486.400000
230.665504,408,49020,102,5.056000,0
230.670560,409,49080,102,0,486.464000
231.157024,409,49140,102,5.056000,0
231.162080,410,49200,102,0,486.464000
231.648544,410,49260,102,5.184000,0
231.653728,411,49320,102,0,486.336000
232.140064,411,49380,102,5.056000,0
232.145120,412,49440,103,0,486.464000
232.631584,412,49500,103,5.184000,0
232.636768,413,49560,103,0,486.336000
233.123104,413,49620,103,5.120000,0
233.128224,414,49680,103,0,486.400000
233.614624,414,49740,103,5.056000,0
233.619680,415,49800,103,0,486.464000
234.106144,415,49860,103,5.120000,0
234.111264,416,49920,104,