Time,CovertPackets,AllPackets,BitsSent,PacketInterval;GTSInterval
32.020624,1,150,0,5.552000,0
32.026176,2,225,0,5.696000,0
32.031872,3,300,0,5.696000,0
32.037568,4,375,1,5.680000,0
32.043248,5,450,1,5.552000,0
32.048800,6,525,1,5.568000,0
32.054368,7,600,1,5.584000,0
32.059952,8,675,2,5.568000,0
32.065520,9,750,2,0,1915.664000
33.981184,9,825,2,5.616000,0
33.986800,10,900,2,5.568000,0
33.992368,11,975,2,5.552000,0
33.997920,12,1050,3,5.696000,0
34.003616,13,1125,3,5.616000,0
34.009232,14,1200,3,5.632000,0
34.014864,15,1275,3,5.584000,0
34.020448,16,1350,4,5.648000,0
34.026096,17,1425,4,5.680000,0
34.031776,18,1500,4,0,1915.488000
35.947264,18,1575,4,5.712000,0
35.952976,19,1650,4,5.536000,0
35.958512,20,1725,5,5.568000,0
35.964080,21,1800,5,5.616000,0
35.969696,22,1875,5,5.696000,0
35.975392,23,1950,5,5.712000,0
35.981104,24,2025,6,5.616000,0
35.986720,25,2100,6,5.616000,0
35.992336,26,2175,6,5.696000,0
35.998032,27,2250,6,0,1915.312000
37.913344,27,2325,6,5.536000,0
37.918880,28,2400,7,5.616000,0
37.924496,29,2475,7,5.680000,0
37.930176,30,2550,7,5.632000,0
37.935808,31,2625,7,5.536000,0
37.941344,32,2700,8,5.584000,0
37.946928,33,2775,8,5.616000,0
37.952544,34,2850,8,5.696000,0
37.958240,35,2925,8,5.664000,0
37.963904,36,3000,9,0,1915.520000
39.879424,36,3075,9,5.680000,0
39.885104,37,3150,9,5.552000,0
39.890656,38,3225,9,5.632000,0
39.896288,39,3300,9,5.584000,0
39.901872,40,3375,10,5.712000,0
39.907584,41,3450,10,5.536000,0
39.913120,42,3525,10,5.632000,0
39.918752,43,3600,10,5.536000,0
39.924288,44,3675,11,5.664000,0
39.929952,45,3750,11,0,1915.552000
41.845504,45,3825,11,5.616000,0
41.851120,46,3900,11,5.696000,0
41.856816,47,3975,11,5.536000,0
41.862352,48,4050,12,5.648000,0
41.868000,49,4125,12,5.616000,0
41.873616,50,4200,12,5.696000,0
41.879312,51,4275,12,5.648000,0
41.884960,52,4350,13,5.584000,0
41.890544,53,4425,13,5.680000,0
41.896224,54,4500,13,0,1915.360000
43.811584,54,4575,13,5.632000,0
43.817216,55,4650,13,5.648000,0
43.822864,56,4725,14,5.568000,0
43.828432,57,4800,14,5.680000,0
43.834112,58,4875,14,5.568000,0
43.839680,59,4950,14,5.680000,0
43.845360,60,5025,15,5.696000,0
43.851056,61,5100,15,5.552000,0
43.856608,62,5175,15,5.696000,0
43.862304,63,5250,15,0,1915.360000
45.777664,63,5325,15,5.696000,0
45.783360,64,5400,16,5.552000,0
45.788912,65,5475,16,5.680000,0
45.794592,66,5550,16,5.696000,0
45.800288,67,5625,16,5.680000,0
45.805968,68,5700,17,5.536000,0
45.811504,69,5775,17,5.552000,0
45.817056,70,5850,17,5.632000,0
45.822688,71,5925,17,5.680000,0
45.828368,72,6000,18,0,1915.376000
47.743744,72,6075,18,5.616000,0
47.749360,73,6150,18,5.552000,0
47.754912,74,6225,18,5.632000,0
47.760544,75,6300,18,5.712000,0
47.766256,76,6375,19,5.696000,0
47.771952,77,6450,19,5.616000,0
47.777568,78,6525,19,5.568000,0
47.783136,79,6600,19,5.664000,0
47.788800,80,6675,20,5.712000,0
47.794512,81,6750,20,0,1915.312000
49.709824,81,6825,20,5.616000,0
49.715440,82,6900,20,5.568000,0
49.721008,83,6975,20,5.632000,0
49.726640,84,7050,21,5.552000,0
49.732192,85,7125,21,5.552000,0
49.737744,86,7200,21,5.568000,0
49.743312,87,7275,21,5.664000,0
49.748976,88,7350,22,5.616000,0
49.754592,89,7425,22,5.680000,0
49.760272,90,7500,22,0,1915.632000
51.675904,90,7575,22,5.696000,0
51.681600,91,7650,22,5.584000,0
51.687184,92,7725,23,5.600000,0
51.692784,93,7800,23,5.600000,0
51.698384,94,7875,23,5.632000,0
51.704016,95,7950,23,5.664000,0
51.709680,96,8025,24,5.600000,0
51.715280,97,8100,24,5.600000,0
51.720880,98,8175,24,5.696000,0
51.726576,99,8250,24,0,1915.408000
53.641984,99,8325,24,5.600000,0
53.647584,100,8400,25,5.536000,0
53.653120,101,8475,25,5.600000,0
53.658720,102,8550,25,5.568000,0
53.664288,103,8625,25,5.600000,0
53.669888,104,8700,26,5.600000,0
53.675488,105,8775,26,5.552000,0
53.681040,106,8850,26,5.568000,0
53.686608,107,8925,26,5.632000,0
53.692240,108,9000,27,0,1915.824000
55.608064,108,9075,27,5.552000,0
55.613616,109,9150,27,5.680000,0
55.619296,110,9225,27,5.632000,0
55.624928,111,9300,27,5.712000,0
55.630640,112,9375,28,5.696000,0
55.636336,113,9450,28,5.616000,0
55.641952,114,9525,28,5.568000,0
55.647520,115,9600,28,5.680000,0
55.653200,116,9675,29,5.696000,0
55.658896,117,9750,29,0,1915.248000
57.574144,117,9825,29,5.680000,0
57.579824,118,9900,29,5.696000,0
57.585520,119,9975,29,5.712000,0
57.591232,120,10050,30,5.584000,0
57.596816,121,10125,30,5.616000,0
57.602432,122,10200,30,5.648000,0
57.608080,123,10275,30,5.600000,0
57.613680,124,10350,31,5.696000,0
57.619376,125,10425,31,5.616000,0
57.624992,126,10500,31,0,1915.232000
59.540224,126,10575,31,5.632000,0
59.545856,127,10650,31,5.584000,0
59.551440,128,10725,32,5.680000,0
59.557120,129,10800,32,5.616000,0
59.562736,130,10875,32,5.568000,0
59.568304,131,10950,32,5.600000,0
59.573904,132,11025,33,5.680000,0
59.579584,133,11100,33,5.680000,0
59.585264,134,11175,33,5.568000,0
59.590832,135,11250,33,0,1915.472000
61.506304,135,11325,33,5.536000,0
61.511840,136,11400,34,5.648000,0
61.517488,137,11475,34,5.616000,0
61.523104,138,11550,34,5.632000,0
61.528736,139,11625,34,5.600000,0
61.534336,140,11700,35,5.552000,0
61.539888,141,11775,35,5.680000,0
61.545568,142,11850,35,5.696000,0
61.551264,143,11925,35,5.712000,0
61.556976,144,12000,36,0,1915.408000
63.472384,144,12075,36,5.648000,0
63.478032,145,12150,36,5.664000,0
63.483696,146,12225,36,5.632000,0
63.489328,147,12300,36,5.600000,0
63.494928,148,12375,37,5.600000,0
63.500528,149,12450,37,5.680000,0
63.506208,150,12525,37,5.696000,0
63.511904,151,12600,37,5.536000,0
63.517440,152,12675,38,5.584000,0
63.523024,153,12750,38,0,1915.440000
65.438464,153,12825,38,5.616000,0
65.444080,154,12900,38,5.632000,0
65.449712,155,12975,38,5.584000,0
65.455296,156,13050,39,5.648000,0
65.460944,157,13125,39,5.552000,0
65.466496,158,13200,39,5.632000,0
65.472128,159,13275,39,5.584000,0
65.477712,160,13350,40,5.632000,0
65.483344,161,13425,40,5.680000,0
65.489024,162,13500,40,0,1915.520000
67.404544,162,13575,40,5.568000,0
67.410112,163,13650,40,5.616000,0
67.415728,164,13725,41,5.632000,0
67.421360,165,13800,41,5.680000,0
67.427040,166,13875,41,5.568000,0
67.432608,167,13950,41,5.696000,0
67.438304,168,14025,42,5.680000,0
67.443984,169,14100,42,5.552000,0
67.449536,170,14175,42,5.696000,0
67.455232,171,14250,42,0,1915.392000
69.370624,171,14325,42,5.680000,0
69.376304,172,14400,43,5.600000,0
69.381904,173,14475,43,5.680000,0
69.387584,174,14550,43,5.696000,0
69.393280,175,14625,43,5.616000,0
69.398896,176,14700,44,5.616000,0
69.404512,177,14775,44,5.680000,0
69.410192,178,14850,44,5.696000,0
69.415888,179,14925,44,5.584000,0
69.421472,180,15000,45,0,1915.232000
71.336704,180,15075,45,5.568000,0
71.342272,181,15150,45,5.616000,0
71.347888,182,15225,45,5.632000,0
71.353520,183,15300,45,5.664000,0
71.359184,184,15375,46,5.712000,0
71.364896,185,15450,46,5.552000,0
71.370448,186,15525,46,5.632000,0
71.376080,187,15600,46,5.632000,0
71.381712,188,15675,47,5.680000,0
71.387392,189,15750,47,0,1915.392000
73.302784,189,15825,47,5.680000,0
73.308464,190,15900,47,5.696000,0
73.314160,191,15975,47,5.664000,0
73.319824,192,16050,48,5.616000,0
73.325440,193,16125,48,5.680000,0
73.331120,194,16200,48,5.696000,0
73.336816,195,16275,48,5.648000,0
73.342464,196,16350,49,5.536000,0
73.348000,197,16425,49,5.536000,0
73.353536,198,16500,49,0,1915.328000
75.268864,198,16575,49,5.568000,0
75.274432,199,16650,49,5.536000,0
75.279968,200,16725,50,5.664000,0
75.285632,201,16800,50,5.600000,0
75.291232,202,16875,50,5.632000,0
75.296864,203,16950,50,5.600000,0
75.302464,204,17025,51,5.664000,0
75.308128,205,17100,51,5.664000,0
75.313792,206,17175,51,5.632000,0
75.319424,207,17250,51,0,1915.520000
77.234944,207,17325,51,5.600000,0
77.240544,208,17400,52,5.600000,0
77.246144,209,17475,52,5.680000,0
77.251824,210,17550,52,5.632000,0
77.257456,211,17625,52,5.696000,0
77.263152,212,17700,53,5.552000,0
77.268704,213,17775,53,5.552000,0
77.274256,214,17850,53,5.632000,0
77.279888,215,17925,53,5.712000,0
77.285600,216,18000,54,0,1915.424000
79.201024,216,18075,54,5.568000,0
79.206592,217,18150,54,5.680000,0
79.212272,218,18225,54,5.568000,0
79.217840,219,18300,54,5.680000,0
79.223520,220,18375,55,5.632000,0
79.229152,221,18450,55,5.552000,0
79.234704,222,18525,55,5.696000,0
79.240400,223,18600,55,5.584000,0
79.245984,224,18675,56,5.712000,0
79.251696,225,18750,56,0,1915.408000
81.167104,225,18825,56,5.552000,0
81.172656,226,18900,56,5.712000,0
81.178368,227,18975,56,5.664000,0
81.184032,228,19050,57,5.568000,0
81.189600,229,19125,57,5.552000,0
81.195152,230,19200,57,5.632000,0
81.200784,231,19275,57,5.648000,0
81.206432,232,19350,58,5.680000,0
81.212112,233,19425,58,5.616000,0
81.217728,234,19500,58,0,1915.456000
83.133184,234,19575,58,5.696000,0
83.138880,235,19650,58,5.664000,0
83.144544,236,19725,59,5.552000,0
83.150096,237,19800,59,5.552000,0
83.155648,238,19875,59,5.632000,0
83.161280,239,19950,59,5.536000,0
83.166816,240,20025,60,5.648000,0
83.172464,241,20100,60,5.616000,0
83.178080,242,20175,60,5.632000,0
83.183712,243,20250,60,0,1915.552000
85.099264,243,20325,60,5.600000,0
85.104864,244,20400,61,5.616000,0
85.110480,245,20475,61,5.552000,0
85.116032,246,20550,61,5.568000,0
85.121600,247,20625,61,5.712000,0
85.127312,248,20700,62,5.584000,0
85.132896,249,20775,62,5.664000,0
85.138560,250,20850,62,5.568000,0
85.144128,251,20925,62,5.664000,0
85.149792,252,21000,63,0,1915.552000
87.065344,252,21075,63,5.536000,0
87.070880,253,21150,63,5.552000,0
87.076432,254,21225,63,5.696000,0
87.082128,255,21300,63,5.536000,0
87.087664,256,21375,64,5.712000,0
87.093376,257,21450,64,5.680000,0
87.099056,258,21525,64,5.568000,0
87.104624,259,21600,64,5.648000,0
87.110272,260,21675,65,5.712000,0
87.115984,261,21750,65,0,1915.440000
89.031424,261,21825,65,5.680000,0
89.037104,262,21900,65,5.568000,0
89.042672,263,21975,65,5.584000,0
89.048256,264,22050,66,5.696000,0
89.053952,265,22125,66,5.552000,0
89.059504,266,22200,66,5.632000,0
89.065136,267,22275,66,5.616000,0
89.070752,268,22350,67,5.632000,0
89.076384,269,22425,67,5.680000,0
89.082064,270,22500,67,0,1915.440000
90.997504,270,22575,67,5.696000,0
91.003200,271,22650,67,5.696000,0
91.008896,272,22725,68,5.616000,0
91.014512,273,22800,68,5.680000,0
91.020192,274,22875,68,5.632000,0
91.025824,275,22950,68,5.616000,0
91.031440,276,23025,69,5.600000,0
91.037040,277,23100,69,5.552000,0
91.042592,278,23175,69,0,1920.992000
92.963584,278,23250,69,5.568000,0
92.969152,279,23325,69,5.616000,0
92.974768,280,23400,70,5.680000,0
92.980448,281,23475,70,5.552000,0
92.986000,282,23550,70,5.568000,0
92.991568,283,23625,70,5.648000,0
92.997216,284,23700,71,5.696000,0
93.002912,285,23775,71,5.680000,0
93.008592,286,23850,71,5.568000,0
93.014160,287,23925,71,0,1915.504000
94.929664,287,24000,71,5.600000,0
94.935264,288,24075,72,5.712000,0
94.940976,289,24150,72,5.552000,0
94.946528,290,24225,72,5.696000,0
94.952224,291,24300,72,5.632000,0
94.957856,292,24375,73,5.552000,0
94.963408,293,24450,73,5.616000,0
94.969024,294,24525,73,5.568000,0
94.974592,295,24600,73,5.664000,0
94.980256,296,24675,74,0,1915.488000
96.895744,296,24750,74,5.552000,0
96.901296,297,24825,74,5.552000,0
96.906848,298,24900,74,5.568000,0
96.912416,299,24975,74,5.648000,0
96.918064,300,25050,75,5.600000,0
96.923664,301,25125,75,5.600000,0
96.929264,302,25200,75,5.696000,0
96.934960,303,25275,75,5.600000,0
96.940560,304,25350,76,0,1921.264000
98.861824,304,25425,76,5.536000,0
98.867360,305,25500,76,5.664000,0
98.873024,306,25575,76,5.696000,0
98.878720,307,25650,76,5.536000,0
98.884256,308,25725,77,5.536000,0
98.889792,309,25800,77,5.600000,0
98.895392,310,25875,77,5.568000,0
98.900960,311,25950,77,5.664000,0
98.906624,312,26025,78,5.536000,0
98.912160,313,26100,78,0,1915.744000
100.827904,313,26175,78,5.680000,0
100.833584,314,26250,78,5.568000,0
100.839152,315,26325,78,5.696000,0
100.844848,316,26400,79,5.552000,0
100.850400,317,26475,79,5.616000,0
100.856016,318,26550,79,5.632000,0
100.861648,319,26625,79,5.584000,0
100.867232,320,26700,80,5.632000,0
100.872864,321,26775,80,5.616000,0
100.878480,322,26850,80,0,1915.504000
102.793984,322,26925,80,5.568000,0
102.799552,323,27000,80,5.616000,0
102.805168,324,27075,81,5.568000,0
102.810736,325,27150,81,5.680000,0
102.816416,326,27225,81,5.696000,0
102.822112,327,27300,81,5.584000,0
102.827696,328,27375,82,5.648000,0
102.833344,329,27450,82,5.616000,0
102.838960,330,27525,82,5.712000,0
102.844672,331,27600,82,0,1915.392000
104.760064,331,27675,82,5.664000,0
104.765728,332,27750,83,5.632000,0
104.771360,333,27825,83,5.616000,0
104.776976,334,27900,83,5.696000,0
104.782672,335,27975,83,5.648000,0
104.788320,336,28050,84,5.680000,0
104.794000,337,28125,84,5.552000,0
104.799552,338,28200,84,5.568000,0
104.805120,339,28275,84,5.536000,0
104.810656,340,28350,85,0,1915.488000
106.726144,340,28425,85,5.616000,0
106.731760,341,28500,85,5.552000,0
106.737312,342,28575,85,5.632000,0
106.742944,343,28650,85,5.536000,0
106.748480,344,28725,86,5.712000,0
106.754192,345,28800,86,5.552000,0
106.759744,346,28875,86,5.696000,0
106.765440,347,28950,86,5.664000,0
106.771104,348,29025,87,5.552000,0
106.776656,349,29100,87,0,1915.568000
108.692224,349,29175,87,5.552000,0
108.697776,350,29250,87,5.568000,0
108.703344,351,29325,87,5.712000,0
108.709056,352,29400,88,5.584000,0
108.714640,353,29475,88,5.536000,0
108.720176,354,29550,88,5.632000,0
108.725808,355,29625,88,5.664000,0
108.731472,356,29700,89,5.536000,0
108.737008,357,29775,89,5.552000,0
108.742560,358,29850,89,0,1915.744000
110.658304,358,29925,89,5.696000,0
110.664000,359,30000,89,5.600000,0
110.669600,360,30075,90,5.712000,0
110.675312,361,30150,90,5.680000,0
110.680992,362,30225,90,5.632000,0
110.686624,363,30300,90,5.712000,0
110.692336,364,30375,91,5.584000,0
110.697920,365,30450,91,5.552000,0
110.703472,366,30525,91,5.568000,0
110.709040,367,30600,91,0,1915.344000
112.624384,367,30675,91,5.712000,0
112.630096,368,30750,92,5.568000,0
112.635664,369,30825,92,5.616000,0
112.641280,370,30900,92,5.568000,0
112.646848,371,30975,92,5.552000,0
112.652400,372,31050,93,5.632000,0
112.658032,373,31125,93,5.552000,0
112.663584,374,31200,93,5.696000,0
112.669280,375,31275,93,5.568000,0
112.674848,376,31350,94,0,1915.616000
114.590464,376,31425,94,5.552000,0
114.596016,377,31500,94,5.552000,0
114.601568,378,31575,94,5.568000,0
114.607136,379,31650,94,5.552000,0
114.612688,380,31725,95,5.664000,0
114.618352,381,31800,95,5.616000,0
114.623968,382,31875,95,5.632000,0
114.629600,383,31950,95,5.616000,0
114.635216,384,32025,96,5.552000,0
114.640768,385,32100,96,0,1915.776000
116.556544,385,32175,96,5.616000,0
116.562160,386,32250,96,5.696000,0
116.567856,387,32325,96,5.584000,0
116.573440,388,32400,97,5.696000,0
116.579136,389,32475,97,5.616000,0
116.584752,390,32550,97,5.632000,0
116.590384,391,32625,97,5.664000,0
116.596048,392,32700,98,5.648000,0
116.601696,393,32775,98,5.680000,0
116.607376,394,32850,98,0,1915.248000
118.522624,394,32925,98,5.568000,0
118.528192,395,33000,98,5.632000,0
118.533824,396,33075,99,5.680000,0
118.539504,397,33150,99,5.616000,0
118.545120,398,33225,99,5.696000,0
118.550816,399,33300,99,5.600000,0
118.556416,400,33375,100,5.680000,0
118.562096,401,33450,100,5.616000,0
118.567712,402,33525,100,5.568000,0
118.573280,403,33600,100,0,1915.424000
120.488704,403,33675,100,5.584000,0
120.494288,404,33750,101,5.536000,0
120.499824,405,33825,101,5.600000,0
120.505424,406,33900,101,5.632000,0
120.511056,407,33975,101,5.536000,0
120.516592,408,34050,102,5.664000,0
120.522256,409,34125,102,5.664000,0
120.527920,410,34200,102,5.632000,0
120.533552,411,34275,102,5.600000,0
120.539152,412,34350,103,0,1915.632000
122.454784,412,34425,103,5.600000,0
122.460384,413,34500,103,5.600000,0
122.465984,414,34575,103,5.568000,0
122.471552,415,34650,103,5.600000,0
122.477152,416,34725,104,5.536000,0
122.482688,417,34800,104,5.552000,0
122.488240,418,34875,104,5.568000,0
122.493808,419,34950,104,5.568000,0
122.499376,420,35025,105,5.552000,0
122.504928,421,35100,105,0,1915.936000
124.420864,421,35175,105,5.616000,0
124.426480,422,35250,105,5.632000,0
124.432112,423,35325,105,5.584000,0
124.437696,424,35400,106,5.696000,0
124.443392,425,35475,106,5.680000,0
124.449072,426,35550,106,5.568000,0
124.454640,427,35625,106,5.616000,0
124.460256,428,35700,107,5.632000,0
124.465888,429,35775,107,5.680000,0
124.471568,430,35850,107,0,1915.376000
126.386944,430,35925,107,5.568000,0
126.392512,431,36000,107,5.712000,0
126.398224,432,36075,108,5.712000,0
126.403936,433,36150,108,5.552000,0
126.409488,434,36225,108,5.584000,0
126.415072,435,36300,108,5.664000,0
126.420736,436,36375,109,5.568000,0
126.426304,437,36450,109,5.616000,0
126.431920,438,36525,109,5.696000,0
126.437616,439,36600,109,0,1915.408000
128.353024,439,36675,109,5.584000,0
128.358608,440,36750,110,5.616000,0
128.364224,441,36825,110,5.680000,0
128.369904,442,36900,110,5.696000,0
128.375600,443,36975,110,5.536000,0
128.381136,444,37050,111,5.680000,0
128.386816,445,37125,111,5.552000,0
128.392368,446,37200,111,5.632000,0
128.398000,447,37275,111,5.664000,0
128.403664,448,37350,112,0,1915.440000
130.319104,448,37425,112,5.584000,0
130.324688,449,37500,112,5.616000,0
130.330304,450,37575,112,5.568000,0
130.335872,451,37650,112,5.664000,0
130.341536,452,37725,113,5.680000,0
130.347216,453,37800,113,5.680000,0
130.352896,454,37875,113,5.632000,0
130.358528,455,37950,113,5.648000,0
130.364176,456,38025,114,5.648000,0
130.369824,457,38100,114,0,1915.360000
132.285184,457,38175,114,5.664000,0
132.290848,458,38250,114,5.632000,0
132.296480,459,38325,114,5.600000,0
132.302080,460,38400,115,5.664000,0
132.307744,461,38475,115,5.552000,0
132.313296,462,38550,115,5.632000,0
132.318928,463,38625,115,5.536000,0
132.324464,464,38700,116,5.648000,0
132.330112,465,38775,116,5.680000,0
132.335792,466,38850,116,0,1915.472000
134.251264,466,38925,116,5.632000,0
134.256896,467,39000,116,5.584000,0
134.262480,468,39075,117,5.712000,0
134.268192,469,39150,117,5.552000,0
134.273744,470,39225,117,5.632000,0
134.279376,471,39300,117,5.648000,0
134.285024,472,39375,118,5.568000,0
134.290592,473,39450,118,5.616000,0
134.296208,474,39525,118,5.568000,0
134.301776,475,39600,118,0,1915.568000
136.217344,475,39675,118,5.552000,0
136.222896,476,39750,119,5.568000,0
136.228464,477,39825,119,5.680000,0
136.234144,478,39900,119,5.696000,0
136.239840,479,39975,119,5.696000,0
136.245536,480,40050,120,5.616000,0
136.251152,481,40125,120,5.552000,0
136.256704,482,40200,120,5.696000,0
136.262400,483,40275,120,5.616000,0
136.268016,484,40350,121,0,1915.408000
138.183424,484,40425,121,5.536000,0
138.188960,485,40500,121,5.616000,0
138.194576,486,40575,121,5.568000,0
138.200144,487,40650,121,5.616000,0
138.205760,488,40725,122,5.616000,0
138.211376,489,40800,122,5.552000,0
138.216928,490,40875,122,5.632000,0
138.222560,491,40950,122,5.712000,0
138.228272,492,41025,123,5.632000,0
138.233904,493,41100,123,0,1915.600000
140.149504,493,41175,123,5.616000,0
140.155120,494,41250,123,5.696000,0
140.160816,495,41325,123,5.536000,0
140.166352,496,41400,124,5.584000,0
140.171936,497,41475,124,5.616000,0
140.177552,498,41550,124,5.568000,0
140.183120,499,41625,124,5.568000,0
140.188688,500,41700,125,5.680000,0
140.194368,501,41775,125,5.552000,0
140.199920,502,41850,125,0,1915.664000
142.115584,502,41925,125,5.568000,0
142.121152,503,42000,125,5.536000,0
142.126688,504,42075,126,5.616000,0
142.132304,505,42150,126,5.616000,0
142.137920,506,42225,126,5.632000,0
142.143552,507,42300,126,5.648000,0
142.149200,508,42375,127,5.600000,0
142.154800,509,42450,127,5.600000,0
142.160400,510,42525,127,5.696000,0
142.166096,511,42600,127,0,1915.568000
144.081664,511,42675,127,5.536000,0
144.087200,512,42750,128,5.600000,0
144.092800,513,42825,128,5.600000,0
144.098400,514,42900,128,5.696000,0
144.104096,515,42975,128,5.600000,0
144.109696,516,43050,129,5.600000,0
144.115296,517,43125,129,5.664000,0
144.120960,518,43200,129,5.632000,0
144.126592,519,43275,129,5.664000,0
144.132256,520,43350,130,0,1915.488000
146.047744,520,43425,130,5.536000,0
146.053280,521,43500,130,5.600000,0
146.058880,522,43575,130,5.616000,0
146.064496,523,43650,130,5.632000,0
146.070128,524,43725,131,5.568000,0
146.075696,525,43800,131,5.680000,0
146.081376,526,43875,131,5.616000,0
146.086992,527,43950,131,5.568000,0
146.092560,528,44025,132,0,1921.264000
148.013824,528,44100,132,5.712000,0
148.019536,529,44175,132,5.568000,0
148.025104,530,44250,132,5.616000,0
148.030720,531,44325,132,5.696000,0
148.036416,532,44400,133,5.680000,0
148.042096,533,44475,133,5.632000,0
148.047728,534,44550,133,5.680000,0
148.053408,535,44625,133,5.568000,0
148.058976,536,44700,134,0,1920.928000
149.979904,536,44775,134,5.584000,0
149.985488,537,44850,134,5.648000,0
149.991136,538,44925,134,5.552000,0
149.996688,539,45000,134,5.712000,0
150.002400,540,45075,135,5.664000,0
150.008064,541,45150,135,5.632000,0
150.013696,542,45225,135,5.616000,0
150.019312,543,45300,135,5.696000,0
150.025008,544,45375,136,5.584000,0
150.030592,545,45450,136,0,1915.392000
151.945984,545,45525,136,5.552000,0
151.951536,546,45600,136,5.616000,0
151.957152,547,45675,136,5.632000,0
151.962784,548,45750,137,5.536000,0
151.968320,549,45825,137,5.616000,0
151.973936,550,45900,137,5.680000,0
151.979616,551,45975,137,5.632000,0
151.985248,552,46050,138,0,1926.816000
153.912064,552,46125,138,5.600000,0
153.917664,553,46200,138,5.648000,0
153.923312,554,46275,138,5.616000,0
153.928928,555,46350,138,5.568000,0
153.934496,556,46425,139,5.600000,0
153.940096,557,46500,139,5.680000,0
153.945776,558,46575,139,5.616000,0
153.951392,559,46650,139,5.632000,0
153.957024,560,46725,140,0,1921.120000
155.878144,560,46800,140,5.584000,0
155.883728,561,46875,140,5.712000,0
155.889440,562,46950,140,5.536000,0
155.894976,563,47025,140,5.568000,0
155.900544,564,47100,141,5.536000,0
155.906080,565,47175,141,5.536000,0
155.911616,566,47250,141,5.552000,0
155.917168,567,47325,141,0,1927.056000
157.844224,567,47400,141,5.568000,0
157.849792,568,47475,142,5.664000,0
157.855456,569,47550,142,5.712000,0
157.861168,570,47625,142,5.552000,0
157.866720,571,47700,142,5.568000,0
157.872288,572,47775,143,5.584000,0
157.877872,573,47850,143,5.712000,0
157.883584,574,47925,143,5.680000,0
157.889264,575,48000,143,5.696000,0
157.894960,576,48075,144,0,1915.344000
159.810304,576,48150,144,5.648000,0
159.815952,577,48225,144,5.632000,0
159.821584,578,48300,144,5.616000,0
159.827200,579,48375,144,5.568000,0
159.832768,580,48450,145,5.616000,0
159.838384,581,48525,145,5.632000,0
159.844016,582,48600,145,5.680000,0
159.849696,583,48675,145,5.568000,0
159.855264,584,48750,146,5.632000,0
159.860896,585,48825,146,0,1915.488000
161.776384,585,48900,146,5.616000,0
161.782000,586,48975,146,5.552000,0
161.787552,587,49050,146,5.568000,0
161.793120,588,49125,147,5.552000,0
161.798672,589,49200,147,5.536000,0
161.804208,590,49275,147,5.552000,0
161.809760,591,49350,147,5.632000,0
161.815392,592,49425,148,5.616000,0
161.821008,593,49500,148,5.680000,0
161.826688,594,49575,148,0,1915.776000
163.742464,594,49650,148,5.680000,0
163.748144,595,49725,148,5.568000,0
163.753712,596,49800,149,5.584000,0
163.759296,597,49875,149,5.568000,0
163.764864,598,49950,149,5.616000,0
163.770480,599,50025,149,5.632000,0
163.776112,600,50100,150,5.600000,0
163.781712,601,50175,150,5.584000,0
163.787296,602,50250,150,0,1921.248000
165.708544,602,50325,150,5.680000,0
165.714224,603,50400,150,5.696000,0
165.719920,604,50475,151,5.568000,0
165.725488,605,50550,151,5.616000,0
165.731104,606,50625,151,5.680000,0
165.736784,607,50700,151,5.632000,0
165.742416,608,50775,152,5.536000,0
165.747952,609,50850,152,5.616000,0
165.753568,610,50925,152,0,1921.056000
167.674624,610,51000,152,5.680000,0
167.680304,611,51075,152,5.696000,0
167.686000,612,51150,153,5.584000,0
167.691584,613,51225,153,5.600000,0
167.697184,614,51300,153,5.536000,0
167.702720,615,51375,153,5.632000,0
167.708352,616,51450,154,0,1932.352000
169.640704,616,51525,154,5.600000,0
169.646304,617,51600,154,5.664000,0
169.651968,618,51675,154,5.536000,0
169.657504,619,51750,154,5.696000,0
169.663200,620,51825,155,5.664000,0
169.668864,621,51900,155,5.536000,0
169.674400,622,51975,155,5.600000,0
169.680000,623,52050,155,5.696000,0
169.685696,624,52125,156,5.536000,0
169.691232,625,52200,156,0,1915.552000
171.606784,625,52275,156,5.536000,0
171.612320,626,52350,156,5.664000,0
171.617984,627,52425,156,5.552000,0
171.623536,628,52500,157,5.568000,0
171.629104,629,52575,157,5.568000,0
171.634672,630,52650,157,5.616000,0
171.640288,631,52725,157,5.680000,0
171.645968,632,52800,158,5.632000,0
171.651600,633,52875,158,0,1921.264000
173.572864,633,52950,158,5.648000,0
173.578512,634,53025,158,5.568000,0
173.584080,635,53100,158,5.616000,0
173.589696,636,53175,159,5.632000,0
173.595328,637,53250,159,5.552000,0
173.600880,638,53325,159,0,1938.064000
175.538944,638,53400,159,5.696000,0
175.544640,639,53475,159,5.552000,0
175.550192,640,53550,160,5.696000,0
175.555888,641,53625,160,5.648000,0
175.561536,642,53700,160,5.648000,0
175.567184,643,53775,160,5.616000,0
175.572800,644,53850,161,0,1932.224000
177.505024,644,53925,161,5.584000,0
177.510608,645,54000,161,5.600000,0
177.516208,646,54075,161,5.568000,0
177.521776,647,54150,161,5.680000,0
177.527456,648,54225,162,5.568000,0
177.533024,649,54300,162,5.584000,0
177.538608,650,54375,162,5.680000,0
177.544288,651,54450,162,0,1926.816000
179.471104,651,54525,162,5.552000,0
179.476656,652,54600,163,5.568000,0
179.482224,653,54675,163,5.600000,0
179.487824,654,54750,163,5.616000,0
179.493440,655,54825,163,5.552000,0
179.498992,656,54900,164,5.568000,0
179.504560,657,54975,164,5.664000,0
179.510224,658,55050,164,5.584000,0
179.515808,659,55125,164,5.616000,0
179.521424,660,55200,165,0,1915.760000
181.437184,660,55275,165,5.696000,0
181.442880,661,55350,165,5.536000,0
181.448416,662,55425,165,5.616000,0
181.454032,663,55500,165,5.552000,0
181.459584,664,55575,166,5.568000,0
181.465152,665,55650,166,5.712000,0
181.470864,666,55725,166,0,1932.400000
183.403264,666,55800,166,5.648000,0
183.408912,667,55875,166,5.536000,0
183.414448,668,55950,167,5.696000,0
183.420144,669,56025,167,5.600000,0
183.425744,670,56100,167,5.600000,0
183.431344,671,56175,167,5.552000,0
183.436896,672,56250,168,5.696000,0
183.442592,673,56325,168,5.600000,0
183.448192,674,56400,168,0,1921.152000
185.369344,674,56475,168,5.584000,0
185.374928,675,56550,168,5.616000,0
185.380544,676,56625,169,5.568000,0
185.386112,677,56700,169,5.712000,0
185.391824,678,56775,169,5.648000,0
185.397472,679,56850,169,5.680000,0
185.403152,680,56925,170,5.696000,0
185.408848,681,57000,170,0,1926.576000
187.335424,681,57075,170,5.712000,0
187.341136,682,57150,170,5.696000,0
187.346832,683,57225,170,5.680000,0
187.352512,684,57300,171,5.632000,0
187.358144,685,57375,171,5.552000,0
187.363696,686,57450,171,5.568000,0
187.369264,687,57525,171,5.552000,0
187.374816,688,57600,172,5.696000,0
187.380512,689,57675,172,5.568000,0
187.386080,690,57750,172,0,1915.424000
189.301504,690,57825,172,5.552000,0
189.307056,691,57900,172,5.616000,0
189.312672,692,57975,173,5.696000,0
189.318368,693,58050,173,5.680000,0
189.324048,694,58125,173,5.600000,0
189.329648,695,58200,173,5.616000,0
189.335264,696,58275,174,5.632000,0
189.340896,697,58350,174,5.616000,0
189.346512,698,58425,174,5.552000,0
189.352064,699,58500,174,0,1915.520000
191.267584,699,58575,174,5.552000,0
191.273136,700,58650,175,5.696000,0
191.278832,701,58725,175,5.648000,0
191.284480,702,58800,175,5.568000,0
191.290048,703,58875,175,5.616000,0
191.295664,704,58950,176,5.568000,0
191.301232,705,59025,176,5.536000,0
191.306768,706,59100,176,5.712000,0
191.312480,707,59175,176,0,1921.184000
193.233664,707,59250,176,5.616000,0
193.239280,708,59325,177,5.632000,0
193.244912,709,59400,177,5.696000,0
193.250608,710,59475,177,5.552000,0
193.256160,711,59550,177,5.680000,0
193.261840,712,59625,178,5.632000,0
193.267472,713,59700,178,5.664000,0
193.273136,714,59775,178,5.680000,0
193.278816,715,59850,178,5.552000,0
193.284368,716,59925,179,0,1915.376000
195.199744,716,60000,179,5.568000,0
195.205312,717,60075,179,5.648000,0
195.210960,718,60150,179,5.664000,0
195.216624,719,60225,179,5.536000,0
195.222160,720,60300,180,5.568000,0
195.227728,721,60375,180,0,1938.096000
197.165824,721,60450,180,5.600000,0
197.171424,722,60525,180,5.600000,0
197.177024,723,60600,180,5.664000,0
197.182688,724,60675,181,5.568000,0
197.188256,725,60750,181,5.664000,0
197.193920,726,60825,181,5.536000,0
197.199456,727,60900,181,5.664000,0
197.205120,728,60975,182,5.632000,0
197.210752,729,61050,182,0,1921.152000
199.131904,729,61125,182,5.600000,0
199.137504,730,61200,182,5.536000,0
199.143040,731,61275,182,5.680000,0
199.148720,732,61350,183,5.632000,0
199.154352,733,61425,183,5.632000,0
199.159984,734,61500,183,5.552000,0
199.165536,735,61575,183,5.616000,0
199.171152,736,61650,184,5.568000,0
199.176720,737,61725,184,5.584000,0
199.182304,738,61800,184,0,1915.680000
201.097984,738,61875,184,5.632000,0
201.103616,739,61950,184,5.616000,0
201.109232,740,62025,185,5.568000,0
201.114800,741,62100,185,5.552000,0
201.120352,742,62175,185,5.568000,0
201.125920,743,62250,185,5.616000,0
201.131536,744,62325,186,5.696000,0
201.137232,745,62400,186,5.712000,0
201.142944,746,62475,186,0,1921.120000
203.064064,746,62550,186,5.712000,0
203.069776,747,62625,186,5.680000,0
203.075456,748,62700,187,5.712000,0
203.081168,749,62775,187,5.600000,0
203.086768,750,62850,187,5.696000,0
203.092464,751,62925,187,0,1937.680000
205.030144,751,63000,187,5.552000,0
205.035696,752,63075,188,5.696000,0
205.041392,753,63150,188,5.648000,0
205.047040,754,63225,188,5.616000,0
205.052656,755,63300,188,5.616000,0
205.058272,756,63375,189,5.696000,0
205.063968,757,63450,189,5.664000,0
205.069632,758,63525,189,5.616000,0
205.075248,759,63600,189,0,1920.976000
206.996224,759,63675,189,5.552000,0
207.001776,760,63750,190,5.632000,0
207.007408,761,63825,190,5.536000,0
207.012944,762,63900,190,5.712000,0
207.018656,763,63975,190,5.616000,0
207.024272,764,64050,191,5.696000,0
207.029968,765,64125,191,5.600000,0
207.035568,766,64200,191,5.616000,0
207.041184,767,64275,191,5.616000,0
207.046800,768,64350,192,0,1915.504000
208.962304,768,64425,192,5.632000,0
208.967936,769,64500,192,5.712000,0
208.973648,770,64575,192,5.584000,0
208.979232,771,64650,192,5.536000,0
208.984768,772,64725,193,5.568000,0
208.990336,773,64800,193,5.664000,0
208.996000,774,64875,193,5.536000,0
209.001536,775,64950,193,5.616000,0
209.007152,776,65025,194,0,1921.232000
210.928384,776,65100,194,5.632000,0
210.934016,777,65175,194,5.536000,0
210.939552,778,65250,194,5.712000,0
210.945264,779,65325,194,5.680000,0
210.950944,780,65400,195,5.632000,0
210.956576,781,65475,195,5.584000,0
210.962160,782,65550,195,5.712000,0
210.967872,783,65625,195,0,1926.592000
212.894464,783,65700,195,5.680000,0
212.900144,784,65775,196,5.632000,0
212.905776,785,65850,196,5.712000,0
212.911488,786,65925,196,5.696000,0
212.917184,787,66000,196,5.680000,0
212.922864,788,66075,197,5.568000,0
212.928432,789,66150,197,5.680000,0
212.934112,790,66225,197,5.632000,0
212.939744,791,66300,197,5.680000,0
212.945424,792,66375,198,0,1915.120000
214.860544,792,66450,198,5.568000,0
214.866112,793,66525,198,5.696000,0
214.871808,794,66600,198,5.616000,0
214.877424,795,66675,198,5.552000,0
214.882976,796,66750,199,5.696000,0
214.888672,797,66825,199,5.680000,0
214.894352,798,66900,199,5.664000,0
214.900016,799,66975,199,0,1926.608000
216.826624,799,67050,199,5.616000,0
216.832240,800,67125,200,5.568000,0
216.837808,801,67200,200,5.616000,0
216.843424,802,67275,200,5.680000,0
216.849104,803,67350,200,5.680000,0
216.854784,804,67425,201,5.568000,0
216.860352,805,67500,201,5.712000,0
216.866064,806,67575,201,5.632000,0
216.871696,807,67650,201,5.552000,0
216.877248,808,67725,202,0,1915.456000
218.792704,808,67800,202,5.568000,0
218.798272,809,67875,202,5.600000,0
218.803872,810,67950,202,5.712000,0
218.809584,811,68025,202,5.552000,0
218.815136,812,68100,203,5.696000,0
218.820832,813,68175,203,5.696000,0
218.826528,814,68250,203,5.616000,0
218.832144,815,68325,203,5.680000,0
218.837824,816,68400,204,0,1920.960000
220.758784,816,68475,204,5.632000,0
220.764416,817,68550,204,5.536000,0
220.769952,818,68625,204,5.616000,0
220.775568,819,68700,204,5.616000,0
220.781184,820,68775,205,5.568000,0
220.786752,821,68850,205,5.712000,0
220.792464,822,68925,205,5.600000,0
220.798064,823,69000,205,5.536000,0
220.803600,824,69075,206,5.696000,0
220.809296,825,69150,206,0,1915.568000
222.724864,825,69225,206,5.600000,0
222.730464,826,69300,206,5.536000,0
222.736000,827,69375,206,5.664000,0
222.741664,828,69450,207,5.568000,0
222.747232,829,69525,207,5.664000,0
222.752896,830,69600,207,5.536000,0
222.758432,831,69675,207,5.600000,0
222.764032,832,69750,208,5.568000,0
222.769600,833,69825,208,5.536000,0
222.775136,834,69900,208,0,1915.808000
224.690944,834,69975,208,5.600000,0
224.696544,835,70050,208,5.664000,0
224.702208,836,70125,209,5.680000,0
224.707888,837,70200,209,5.568000,0
224.713456,838,70275,209,5.568000,0
224.719024,839,70350,209,5.616000,0
224.724640,840,70425,210,5.552000,0
224.730192,841,70500,210,5.696000,0
224.735888,842,70575,210,5.712000,0
224.741600,843,70650,210,0,1915.424000
226.657024,843,70725,210,5.696000,0
226.662720,844,70800,211,5.552000,0
226.668272,845,70875,211,5.696000,0
226.673968,846,70950,211,5.552000,0
226.679520,847,71025,211,5.568000,0
226.685088,848,71100,212,5.616000,0
226.690704,849,71175,212,5.632000,0
226.696336,850,71250,212,5.648000,0
226.701984,851,71325,212,5.712000,0
226.707696,852,71400,213,0,1915.408000
228.623104,852,71475,213,5.552000,0
228.628656,853,71550,213,5.584000,0
228.634240,854,71625,213,5.600000,0
228.639840,855,71700,213,5.632000,0
228.645472,856,71775,214,5.616000,0
228.651088,857,71850,214,5.632000,0
228.656720,858,71925,214,5.648000,0
228.662368,859,72000,214,5.616000,0
228.667984,860,72075,215,5.680000,0
228.673664,861,72150,215,0,1915.520000
230.589184,861,72225,215,5.568000,0
230.594752,862,72300,215,5.536000,0
230.600288,863,72375,215,5.616000,0
230.605904,864,72450,216,5.616000,0
230.611520,865,72525,216,5.568000,0
230.617088,866,72600,216,5.664000,0
230.622752,867,72675,216,5.584000,0
230.628336,868,72750,217,5.552000,0
230.633888,869,72825,217,5.696000,0
230.639584,870,72900,217,0,1915.680000
232.555264,870,72975,217,5.664000,0
232.560928,871,73050,217,5.680000,0
232.566608,872,73125,218,5.680000,0
232.572288,873,73200,218,5.568000,0
232.577856,874,73275,218,5.584000,0
232.583440,875,73350,218,5.712000,0
232.589152,876,73425,219,5.600000,0
232.594752,877,73500,219,5.696000,0
232.600448,878,73575,219,5.664000,0
232.606112,879,73650,219,0,1915.232000
234.521344,879,73725,219,5.600000,0
234.526944,880,73800,220,5.616000,0
234.532560,881,73875,220,5.696000,0
234.538256,882,73950,220,5.664000,0
234.543920,883,74025,220,5.584000,0
234.549504,884,74100,221,5.680000,0
234.555184,885,74175,221,5.696000,0
234.560880,886,74250,221,5.584000,0
234.566464,887,74325,221,5.584000,0
234.572048,888,74400,222,