Time,CovertPackets,AllPackets,BitsSent,PacketInterval;GTSInterval
30.756368,1,2,8,4.848000,0
30.761216,2,3,16,0,975.040000
31.736256,2,4,16,4.928000,0
31.741184,3,5,24,4.800000,0
31.745984,4,6,32,4.944000,0
31.750928,5,7,40,4.992000,0
31.755920,6,8,48,0,963.376000
32.719296,6,9,48,4.912000,0
32.724208,7,10,56,4.720000,0
32.728928,8,11,64,4.752000,0
32.733680,9,12,72,4.720000,0
32.738400,10,13,80,0,963.936000
33.702336,10,14,80,4.944000,0
33.707280,11,15,88,3.680000,0
33.710960,12,16,96,4.752000,0
33.715712,13,17,104,4.944000,0
33.720656,14,18,112,4.928000,0
33.725584,15,19,120,0,959.792000
34.685376,15,20,120,4.800000,0
34.690176,16,21,128,4.848000,0
34.695024,17,22,136,4.768000,0
34.699792,18,23,144,4.784000,0
34.704576,19,24,152,0,963.840000
35.668416,19,25,152,4.928000,0
35.673344,20,26,160,4.752000,0
35.678096,21,27,168,4.848000,0
35.682944,22,28,176,4.720000,0
35.687664,23,29,184,0,963.792000
36.651456,23,30,184,4.896000,0
36.656352,24,31,192,3.680000,0
36.660032,25,32,200,3.680000,0
36.663712,26,33,208,3.680000,0
36.667392,27,34,216,4.848000,0
36.672240,28,35,224,0,962.256000
37.634496,28,36,224,4.928000,0
37.639424,29,37,232,4.800000,0
37.644224,30,38,240,4.944000,0
37.649168,31,39,248,4.992000,0
37.654160,32,40,256,0,963.376000
38.617536,32,41,256,4.912000,0
38.622448,33,42,264,4.720000,0
38.627168,34,43,272,4.752000,0
38.631920,35,44,280,4.720000,0
38.636640,36,45,288,0,963.936000
39.600576,36,46,288,4.944000,0
39.605520,37,47,296,3.680000,0
39.609200,38,48,304,4.752000,0
39.613952,39,49,312,4.944000,0
39.618896,40,50,320,4.928000,0
39.623824,41,51,328,0,959.792000
40.583616,41,52,328,4.800000,0
40.588416,42,53,336,4.848000,0
40.593264,43,54,344,4.768000,0
40.598032,44,55,352,4.784000,0
40.602816,45,56,360,0,963.840000
41.566656,45,57,360,4.928000,0
41.571584,46,58,368,4.752000,0
41.576336,47,59,376,4.848000,0
41.581184,48,60,384,4.720000,0
41.585904,49,61,392,0,963.792000
42.549696,49,62,392,4.896000,0
42.554592,50,63,400,3.680000,0
42.558272,51,64,408,3.680000,0
42.561952,52,65,416,3.680000,0
42.565632,53,66,424,4.848000,0
42.570480,54,67,432,0,962.256000
43.532736,54,68,432,4.928000,0
43.537664,55,69,440,4.800000,0
43.542464,56,70,448,4.944000,0
43.547408,57,71,456,4.992000,0
43.552400,58,72,464,0,963.376000
44.515776,58,73,464,4.912000,0
44.520688,59,74,472,4.720000,0
44.525408,60,75,480,4.752000,0
44.530160,61,76,488,4.720000,0
44.534880,62,77,496,0,963.936000
45.498816,62,78,496,4.944000,0
45.503760,63,79,504,3.680000,0
45.507440,64,80,512,4.752000,0
45.512192,65,81,520,4.944000,0
45.517136,66,82,528,4.928000,0
45.522064,67,83,536,0,959.792000
46.481856,67,84,536,4.800000,0
46.486656,68,85,544,4.848000,0
46.491504,69,86,552,4.768000,0
46.496272,70,87,560,4.784000,0
46.501056,71,88,568,0,963.840000
47.464896,71,89,568,4.928000,0
47.469824,72,90,576,4.752000,0
47.474576,73,91,584,4.848000,0
47.479424,74,92,592,4.720000,0
47.484144,75,93,600,0,963.792000
48.447936,75,94,600,4.896000,0
48.452832,76,95,608,3.680000,0
48.456512,77,96,616,3.680000,0
48.460192,78,97,624,3.680000,0
48.463872,79,98,632,4.848000,0
48.468720,80,99,640,0,962.256000
49.430976,80,100,640,4.928000,0
49.435904,81,101,648,4.800000,0
49.440704,82,102,656,4.944000,0
49.445648,83,103,664,4.992000,0
49.450640,84,104,672,0,963.376000
50.414016,84,105,672,4.912000,0
50.418928,85,106,680,4.720000,0
50.423648,86,107,688,4.752000,0
50.428400,87,108,696,4.720000,0
50.433120,88,109,704,0,963.936000
51.397056,88,110,704,4.944000,0
51.402000,89,111,712,3.680000,0
51.405680,90,112,720,4.752000,0
51.410432,91,113,728,4.944000,0
51.415376,92,114,736,4.928000,0
51.420304,93,115,744,0,959.792000
52.380096,93,116,744,4.800000,0
52.384896,94,117,752,4.848000,0
52.389744,95,118,760,4.768000,0
52.394512,96,119,768,4.784000,0
52.399296,97,120,776,0,963.840000
53.363136,97,121,776,4.928000,0
53.368064,98,122,784,4.752000,0
53.372816,99,123,792,4.848000,0
53.377664,100,124,800,4.720000,0
53.382384,101,125,808,0,963.792000
54.346176,101,126,808,4.896000,0
54.351072,102,127,816,3.680000,0
54.354752,103,128,824,3.680000,0
54.358432,104,129,832,3.680000,0
54.362112,105,130,840,4.848000,0
54.366960,106,131,848,0,962.256000
55.329216,106,132,848,4.928000,0
55.334144,107,133,856,4.800000,0
55.338944,108,134,864,4.944000,0
55.343888,109,135,872,4.992000,0
55.348880,110,136,880,0,963.376000
56.312256,110,137,880,4.912000,0
56.317168,111,138,888,4.720000,0
56.321888,112,139,896,4.752000,0
56.326640,113,140,904,4.720000,0
56.331360,114,141,912,0,963.936000
57.295296,114,142,912,4.944000,0
57.300240,115,143,920,3.680000,0
57.303920,116,144,928,4.752000,0
57.308672,117,145,936,4.944000,0
57.313616,118,146,944,4.928000,0
57.318544,119,147,952,0,959.792000
58.278336,119,148,952,4.800000,0
58.283136,120,149,960,4.848000,0
58.287984,121,150,968,0,973.392000
59.261376,121,151,968,4.768000,0
59.266144,122,152,976,4.784000,0
59.270928,123,153,984,4.928000,0
59.275856,124,154,992,4.752000,0
59.280608,125,155,1000,0,963.808000
60.244416,125,156,1000,4.848000,0
60.249264,126,157,1008,4.720000,0
60.253984,127,158,1016,4.896000,0
60.258880,128,159,1024,3.680000,0
60.262560,129,160,1032,0,964.896000
61.227456,129,161,1032,3.680000,0
61.231136,130,162,1040,3.680000,0
61.234816,131,163,1048,4.848000,0
61.239664,132,164,1056,4.928000,0
61.244592,133,165,1064,0,965.904000
62.210496,133,166,1064,4.800000,0
62.215296,134,167,1072,4.944000,0
62.220240,135,168,1080,4.992000,0
62.225232,136,169,1088,0,968.304000
63.193536,136,170,1088,4.912000,0
63.198448,137,171,1096,4.720000,0
63.203168,138,172,1104,0,973.408000
64.176576,138,173,1104,4.752000,0
64.181328,139,174,1112,0,978.288000
65.159616,139,175,1112,4.720000,0
65.164336,140,176,1120,4.944000,0
65.169280,141,177,1128,0,973.376000
66.142656,141,178,1128,3.680000,0
66.146336,142,179,1136,4.752000,0
66.151088,143,180,1144,4.944000,0
66.156032,144,181,1152,0,969.664000
67.125696,144,182,1152,4.928000,0
67.130624,145,183,1160,4.800000,0
67.135424,146,184,1168,4.848000,0
67.140272,147,185,1176,4.768000,0
67.145040,148,186,1184,0,963.696000
68.108736,148,187,1184,4.784000,0
68.113520,149,188,1192,4.928000,0
68.118448,150,189,1200,4.752000,0
68.123200,151,190,1208,4.848000,0
68.128048,152,191,1216,0,963.728000
69.091776,152,192,1216,4.720000,0
69.096496,153,193,1224,4.896000,0
69.101392,154,194,1232,3.680000,0
69.105072,155,195,1240,3.680000,0
69.108752,156,196,1248,0,966.064000
70.074816,156,197,1248,3.680000,0
70.078496,157,198,1256,4.848000,0
70.083344,158,199,1264,4.928000,0
70.088272,159,200,1272,4.800000,0
70.093072,160,201,1280,0,964.784000
71.057856,160,202,1280,4.944000,0
71.062800,161,203,1288,4.992000,0
71.067792,162,204,1296,4.912000,0
71.072704,163,205,1304,0,968.192000
72.040896,163,206,1304,4.720000,0
72.045616,164,207,1312,4.752000,0
72.050368,165,208,1320,4.720000,0
72.055088,166,209,1328,4.944000,0
72.060032,167,210,1336,3.680000,0
72.063712,168,211,1344,0,960.224000
73.023936,168,212,1344,4.752000,0
73.028688,169,213,1352,4.944000,0
73.033632,170,214,1360,4.928000,0
73.038560,171,215,1368,4.800000,0
73.043360,172,216,1376,0,963.616000
74.006976,172,217,1376,4.848000,0
74.011824,173,218,1384,4.768000,0
74.016592,174,219,1392,4.784000,0
74.021376,175,220,1400,4.928000,0
74.026304,176,221,1408,0,963.712000
74.990016,176,222,1408,4.752000,0
74.994768,177,223,1416,4.848000,0
74.999616,178,224,1424,4.720000,0
75.004336,179,225,1432,4.896000,0
75.009232,180,226,1440,3.680000,0
75.012912,181,227,1448,0,960.144000
75.973056,181,228,1448,3.680000,0
75.976736,182,229,1456,3.680000,0
75.980416,183,230,1464,4.848000,0
75.985264,184,231,1472,4.928000,0
75.990192,185,232,1480,4.800000,0
75.994992,186,233,1488,0,961.104000
76.956096,186,234,1488,4.944000,0
76.961040,187,235,1496,4.992000,0
76.966032,188,236,1504,4.912000,0
76.970944,189,237,1512,4.720000,0
76.975664,190,238,1520,0,963.472000
77.939136,190,239,1520,4.752000,0
77.943888,191,240,1528,4.720000,0
77.948608,192,241,1536,0,973.568000
78.922176,192,242,1536,4.944000,0
78.927120,193,243,1544,3.680000,0
78.930800,194,244,1552,4.752000,0
78.935552,195,245,1560,4.944000,0
78.940496,196,246,1568,4.928000,0
78.945424,197,247,1576,0,959.792000
79.905216,197,248,1576,4.800000,0
79.910016,198,249,1584,4.848000,0
79.914864,199,250,1592,4.768000,0
79.919632,200,251,1600,4.784000,0
79.924416,201,252,1608,0,963.840000
80.888256,201,253,1608,4.928000,0
80.893184,202,254,1616,4.752000,0
80.897936,203,255,1624,4.848000,0
80.902784,204,256,1632,4.720000,0
80.907504,205,257,1640,0,963.792000
81.871296,205,258,1640,4.896000,0
81.876192,206,259,1648,3.680000,0
81.879872,207,260,1656,3.680000,0
81.883552,208,261,1664,0,970.784000
82.854336,208,262,1664,3.680000,0
82.858016,209,263,1672,4.848000,0
82.862864,210,264,1680,4.928000,0
82.867792,211,265,1688,4.800000,0
82.872592,212,266,1696,0,964.784000
83.837376,212,267,1696,4.944000,0
83.842320,213,268,1704,4.992000,0
83.847312,214,269,1712,0,973.104000
84.820416,214,270,1712,4.912000,0
84.825328,215,271,1720,4.720000,0
84.830048,216,272,1728,4.752000,0
84.834800,217,273,1736,4.720000,0
84.839520,218,274,1744,0,963.936000
85.803456,218,275,1744,4.944000,0
85.808400,219,276,1752,3.680000,0
85.812080,220,277,1760,4.752000,0
85.816832,221,278,1768,4.944000,0
85.821776,222,279,1776,4.928000,0
85.826704,223,280,1784,0,959.792000
86.786496,223,281,1784,4.800000,0
86.791296,224,282,1792,4.848000,0
86.796144,225,283,1800,4.768000,0
86.800912,226,284,1808,4.784000,0
86.805696,227,285,1816,0,963.840000
87.769536,227,286,1816,4.928000,0
87.774464,228,287,1824,4.752000,0
87.779216,229,288,1832,4.848000,0
87.784064,230,289,1840,4.720000,0
87.788784,231,290,1848,0,963.792000
88.752576,231,291,1848,4.896000,0
88.757472,232,292,1856,3.680000,0
88.761152,233,293,1864,3.680000,0
88.764832,234,294,1872,3.680000,0
88.768512,235,295,1880,4.848000,0
88.773360,236,296,1888,0,962.256000
89.735616,236,297,1888,4.928000,0
89.740544,237,298,1896,4.800000,0
89.745344,238,299,1904,4.944000,0
89.750288,239,300,1912,4.992000,0
89.755280,240,301,1920,0,963.376000
90.718656,240,302,1920,4.912000,0
90.723568,241,303,1928,4.720000,0
90.728288,242,304,1936,4.752000,0
90.733040,243,305,1944,4.720000,0
90.737760,244,306,1952,0,963.936000
91.701696,244,307,1952,4.944000,0
91.706640,245,308,1960,3.680000,0
91.710320,246,309,1968,4.752000,0
91.715072,247,310,1976,4.944000,0
91.720016,248,311,1984,4.928000,0
91.724944,249,312,1992,0,959.792000
92.684736,249,313,1992,4.800000,0
92.689536,250,314,2000,4.848000,0
92.694384,251,315,2008,4.768000,0
92.699152,252,316,2016,4.784000,0
92.703936,253,317,2024,0,963.840000
93.667776,253,318,2024,4.928000,0
93.672704,254,319,2032,4.752000,0
93.677456,255,320,2040,4.848000,0
93.682304,256,321,2048,4.720000,0
93.687024,257,322,2056,0,963.792000
94.650816,257,323,2056,4.896000,0
94.655712,258,324,2064,3.680000,0
94.659392,259,325,2072,3.680000,0
94.663072,260,326,2080,3.680000,0
94.666752,261,327,2088,4.848000,0
94.671600,262,328,2096,0,962.256000
95.633856,262,329,2096,4.928000,0
95.638784,263,330,2104,4.800000,0
95.643584,264,331,2112,4.944000,0
95.648528,265,332,2120,4.992000,0
95.653520,266,333,2128,0,963.376000
96.616896,266,334,2128,4.912000,0
96.621808,267,335,2136,4.720000,0
96.626528,268,336,2144,4.752000,0
96.631280,269,337,2152,4.720000,0
96.636000,270,338,2160,0,963.936000
97.599936,270,339,2160,4.944000,0
97.604880,271,340,2168,3.680000,0
97.608560,272,341,2176,4.752000,0
97.613312,273,342,2184,4.944000,0
97.618256,274,343,2192,4.928000,0
97.623184,275,344,2200,0,959.792000
98.582976,275,345,2200,4.800000,0
98.587776,276,346,2208,4.848000,0
98.592624,277,347,2216,4.768000,0
98.597392,278,348,2224,4.784000,0
98.602176,279,349,2232,0,963.840000
99.566016,279,350,2232,4.928000,0
99.570944,280,351,2240,4.752000,0
99.575696,281,352,2248,4.848000,0
99.580544,282,353,2256,0,968.512000
100.549056,282,354,2256,4.720000,0
100.553776,283,355,2264,4.896000,0
100.558672,284,356,2272,3.680000,0
100.562352,285,357,2280,0,969.744000
101.532096,285,358,2280,3.680000,0
101.535776,286,359,2288,3.680000,0
101.539456,287,360,2296,4.848000,0
101.544304,288,361,2304,4.928000,0
101.549232,289,362,2312,4.800000,0
101.554032,290,363,2320,0,961.104000
102.515136,290,364,2320,4.944000,0
102.520080,291,365,2328,4.992000,0
102.525072,292,366,2336,4.912000,0
102.529984,293,367,2344,4.720000,0
102.534704,294,368,2352,0,963.472000
103.498176,294,369,2352,4.752000,0
103.502928,295,370,2360,4.720000,0
103.507648,296,371,2368,4.944000,0
103.512592,297,372,2376,3.680000,0
103.516272,298,373,2384,4.752000,0
103.521024,299,374,2392,0,960.192000
104.481216,299,375,2392,4.944000,0
104.486160,300,376,2400,4.928000,0
104.491088,301,377,2408,4.800000,0
104.495888,302,378,2416,4.848000,0
104.500736,303,379,2424,0,963.520000
105.464256,303,380,2424,4.768000,0
105.469024,304,381,2432,4.784000,0
105.473808,305,382,2440,4.928000,0
105.478736,306,383,2448,4.752000,0
105.483488,307,384,2456,0,963.808000
106.447296,307,385,2456,4.848000,0
106.452144,308,386,2464,4.720000,0
106.456864,309,387,2472,4.896000,0
106.461760,310,388,2480,3.680000,0
106.465440,311,389,2488,3.680000,0
106.469120,312,390,2496,0,961.216000
107.430336,312,391,2496,3.680000,0
107.434016,313,392,2504,4.848000,0
107.438864,314,393,2512,4.928000,0
107.443792,315,394,2520,4.800000,0
107.448592,316,395,2528,4.944000,0
107.453536,317,396,2536,0,959.840000
108.413376,317,397,2536,4.992000,0
108.418368,318,398,2544,4.912000,0
108.423280,319,399,2552,4.720000,0
108.428000,320,400,2560,0,968.416000
109.396416,320,401,2560,4.752000,0
109.401168,321,402,2568,4.720000,0
109.405888,322,403,2576,4.944000,0
109.410832,323,404,2584,3.680000,0
109.414512,324,405,2592,0,964.944000
110.379456,324,406,2592,4.752000,0
110.384208,325,407,2600,4.944000,0
110.389152,326,408,2608,4.928000,0
110.394080,327,409,2616,4.800000,0
110.398880,328,410,2624,0,963.616000
111.362496,328,411,2624,4.848000,0
111.367344,329,412,2632,4.768000,0
111.372112,330,413,2640,4.784000,0
111.376896,331,414,2648,4.928000,0
111.381824,332,415,2656,0,963.712000
112.345536,332,416,2656,4.752000,0
112.350288,333,417,2664,4.848000,0
112.355136,334,418,2672,0,973.440000
113.328576,334,419,2672,4.720000,0
113.333296,335,420,2680,4.896000,0
113.338192,336,421,2688,3.680000,0
113.341872,337,422,2696,3.680000,0
113.345552,338,423,2704,0,966.064000
114.311616,338,424,2704,3.680000,0
114.315296,339,425,2712,4.848000,0
114.320144,340,426,2720,4.928000,0
114.325072,341,427,2728,0,969.584000
115.294656,341,428,2728,4.800000,0
115.299456,342,429,2736,4.944000,0
115.304400,343,430,2744,4.992000,0
115.309392,344,431,2752,4.912000,0
115.314304,345,432,2760,0,963.392000
116.277696,345,433,2760,4.720000,0
116.282416,346,434,2768,4.752000,0
116.287168,347,435,2776,4.720000,0
116.291888,348,436,2784,4.944000,0
116.296832,349,437,2792,0,963.904000
117.260736,349,438,2792,3.680000,0
117.264416,350,439,2800,4.752000,0
117.269168,351,440,2808,4.944000,0
117.274112,352,441,2816,4.928000,0
117.279040,353,442,2824,4.800000,0
117.283840,354,443,2832,0,959.936000
118.243776,354,444,2832,4.848000,0
118.248624,355,445,2840,4.768000,0
118.253392,356,446,2848,4.784000,0
118.258176,357,447,2856,4.928000,0
118.263104,358,448,2864,0,963.712000
119.226816,358,449,2864,4.752000,0
119.231568,359,450,2872,4.848000,0
119.236416,360,451,2880,0,973.440000
120.209856,360,452,2880,4.720000,0
120.214576,361,453,2888,4.896000,0
120.219472,362,454,2896,3.680000,0
120.223152,363,455,2904,3.680000,0
120.226832,364,456,2912,0,966.064000
121.192896,364,457,2912,3.680000,0
121.196576,365,458,2920,4.848000,0
121.201424,366,459,2928,4.928000,0
121.206352,367,460,2936,4.800000,0
121.211152,368,461,2944,0,964.784000
122.175936,368,462,2944,4.944000,0
122.180880,369,463,2952,4.992000,0
122.185872,370,464,2960,4.912000,0
122.190784,371,465,2968,4.720000,0
122.195504,372,466,2976,0,963.472000
123.158976,372,467,2976,4.752000,0
123.163728,373,468,2984,4.720000,0
123.168448,374,469,2992,4.944000,0
123.173392,375,470,3000,3.680000,0
123.177072,376,471,3008,0,964.944000
124.142016,376,472,3008,4.752000,0
124.146768,377,473,3016,4.944000,0
124.151712,378,474,3024,4.928000,0
124.156640,379,475,3032,4.800000,0
124.161440,380,476,3040,0,963.616000
125.125056,380,477,3040,4.848000,0
125.129904,381,478,3048,4.768000,0
125.134672,382,479,3056,4.784000,0
125.139456,383,480,3064,4.928000,0
125.144384,384,481,3072,0,963.712000
126.108096,384,482,3072,4.752000,0
126.112848,385,483,3080,4.848000,0
126.117696,386,484,3088,4.720000,0
126.122416,387,485,3096,4.896000,0
126.127312,388,486,3104,3.680000,0
126.130992,389,487,3112,0,960.144000
127.091136,389,488,3112,3.680000,0
127.094816,390,489,3120,3.680000,0
127.098496,391,490,3128,4.848000,0
127.103344,392,491,3136,0,970.832000
128.074176,392,492,3136,4.928000,0
128.079104,393,493,3144,4.800000,0
128.083904,394,494,3152,4.944000,0
128.088848,395,495,3160,4.992000,0
128.093840,396,496,3168,0,963.376000
129.057216,396,497,3168,4.912000,0
129.062128,397,498,3176,4.720000,0
129.066848,398,499,3184,4.752000,0
129.071600,399,500,3192,0,968.656000
130.040256,399,501,3192,4.720000,0
130.044976,400,502,3200,4.944000,0
130.049920,401,503,3208,0,973.376000
131.023296,401,504,3208,3.680000,0
131.026976,402,505,3216,4.752000,0
131.031728,403,506,3224,4.944000,0
131.036672,404,507,3232,0,969.664000
132.006336,404,508,3232,4.928000,0
132.011264,405,509,3240,4.800000,0
132.016064,406,510,3248,4.848000,0
132.020912,407,511,3256,4.768000,0
132.025680,408,512,3264,0,963.696000
132.989376,408,513,3264,4.784000,0
132.994160,409,514,3272,4.928000,0
132.999088,410,515,3280,4.752000,0
133.003840,411,516,3288,4.848000,0
133.008688,412,517,3296,0,963.728000
133.972416,412,518,3296,4.720000,0
133.977136,413,519,3304,4.896000,0
133.982032,414,520,3312,3.680000,0
133.985712,415,521,3320,3.680000,0
133.989392,416,522,3328,3.680000,0
133.993072,417,523,3336,0,962.384000
134.955456,417,524,3336,4.848000,0
134.960304,418,525,3344,4.928000,0
134.965232,419,526,3352,4.800000,0
134.970032,420,527,3360,4.944000,0
134.974976,421,528,3368,0,963.520000
135.938496,421,529,3368,4.992000,0
135.943488,422,530,3376,4.912000,0
135.948400,423,531,3384,4.720000,0
135.953120,424,532,3392,4.752000,0
135.957872,425,533,3400,0,963.664000
136.921536,425,534,3400,4.720000,0
136.926256,426,535,3408,4.944000,0
136.931200,427,536,3416,3.680000,0
136.934880,428,537,3424,4.752000,0
136.939632,429,538,3432,4.944000,0
136.944576,430,539,3440,0,960.000000
137.904576,430,540,3440,4.928000,0
137.909504,431,541,3448,4.800000,0
137.914304,432,542,3456,4.848000,0
137.919152,433,543,3464,4.768000,0
137.923920,434,544,3472,0,963.696000
138.887616,434,545,3472,4.784000,0
138.892400,435,546,3480,4.928000,0
138.897328,436,547,3488,4.752000,0
138.902080,437,548,3496,4.848000,0
138.906928,438,549,3504,0,963.728000
139.870656,438,550,3504,4.720000,0
139.875376,439,551,3512,4.896000,0
139.880272,440,552,3520,3.680000,0
139.883952,441,553,3528,3.680000,0
139.887632,442,554,3536,3.680000,0
139.891312,443,555,3544,0,962.384000
140.853696,443,556,3544,4.848000,0
140.858544,444,557,3552,4.928000,0
140.863472,445,558,3560,4.800000,0
140.868272,446,559,3568,4.944000,0
140.873216,447,560,3576,0,963.520000
141.836736,447,561,3576,4.992000,0
141.841728,448,562,3584,4.912000,0
141.846640,449,563,3592,4.720000,0
141.851360,450,564,3600,4.752000,0
141.856112,451,565,3608,0,963.664000
142.819776,451,566,3608,4.720000,0
142.824496,452,567,3616,4.944000,0
142.829440,453,568,3624,3.680000,0
142.833120,454,569,3632,4.752000,0
142.837872,455,570,3640,4.944000,0
142.842816,456,571,3648,0,960.000000
143.802816,456,572,3648,4.928000,0
143.807744,457,573,3656,4.800000,0
143.812544,458,574,3664,4.848000,0
143.817392,459,575,3672,4.768000,0
143.822160,460,576,3680,0,963.696000
144.785856,460,577,3680,4.784000,0
144.790640,461,578,3688,4.928000,0
144.795568,462,579,3696,4.752000,0
144.800320,463,580,3704,0,968.576000
145.768896,463,581,3704,4.848000,0
145.773744,464,582,3712,4.720000,0
145.778464,465,583,3720,4.896000,0
145.783360,466,584,3728,0,968.576000
146.751936,466,585,3728,3.680000,0
146.755616,467,586,3736,3.680000,0
146.759296,468,587,3744,3.680000,0
146.762976,469,588,3752,4.848000,0
146.767824,470,589,3760,0,967.152000
147.734976,470,590,3760,4.928000,0
147.739904,471,591,3768,4.800000,0
147.744704,472,592,3776,4.944000,0
147.749648,473,593,3784,4.992000,0
147.754640,474,594,3792,0,963.376000
148.718016,474,595,3792,0,983.040000
149.701056,474,596,3792,4.912000,0
149.705968,475,597,3800,4.720000,0
149.710688,476,598,3808,4.752000,0
149.715440,477,599,3816,4.720000,0
149.720160,478,600,3824,0,963.936000
150.684096,478,601,3824,4.944000,0
150.689040,479,602,3832,3.680000,0
150.692720,480,603,3840,4.752000,0
150.697472,481,604,3848,4.944000,0
150.702416,482,605,3856,4.928000,0
150.707344,483,606,3864,0,959.792000
151.667136,483,607,3864,4.800000,0
151.671936,484,608,3872,4.848000,0
151.676784,485,609,3880,4.768000,0
151.681552,486,610,3888,4.784000,0
151.686336,487,611,3896,0,963.840000
152.650176,487,612,3896,4.928000,0
152.655104,488,613,3904,4.752000,0
152.659856,489,614,3912,4.848000,0
152.664704,490,615,3920,4.720000,0
152.669424,491,616,3928,0,963.792000
153.633216,491,617,3928,4.896000,0
153.638112,492,618,3936,3.680000,0
153.641792,493,619,3944,3.680000,0
153.645472,494,620,3952,3.680000,0
153.649152,495,621,3960,4.848000,0
153.654000,496,622,3968,0,962.256000
154.616256,496,623,3968,4.928000,0
154.621184,497,624,3976,4.800000,0
154.625984,498,625,3984,4.944000,0
154.630928,499,626,3992,4.992000,0
154.635920,500,627,4000,0,963.376000
155.599296,500,628,4000,4.912000,0
155.604208,501,629,4008,4.720000,0
155.608928,502,630,4016,4.752000,0
155.613680,503,631,4024,4.720000,0
155.618400,504,632,4032,0,963.936000
156.582336,504,633,4032,4.944000,0
156.587280,505,634,4040,3.680000,0
156.590960,506,635,4048,4.752000,0
156.595712,507,636,4056,4.944000,0
156.600656,508,637,4064,0,964.720000
157.565376,508,638,4064,4.928000,0
157.570304,509,639,4072,4.800000,0
157.575104,510,640,4080,4.848000,0
157.579952,511,641,4088,4.768000,0
157.584720,512,642,4096,0,963.696000
158.548416,512,643,4096,4.784000,0
158.553200,513,644,4104,4.928000,0
158.558128,514,645,4112,4.752000,0
158.562880,515,646,4120,4.848000,0
158.567728,516,647,4128,0,963.728000
159.531456,516,648,4128,4.720000,0
159.536176,517,649,4136,4.896000,0
159.541072,518,650,4144,3.680000,0
159.544752,519,651,4152,3.680000,0
159.548432,520,652,4160,3.680000,0
159.552112,521,653,4168,0,962.384000
160.514496,521,654,4168,4.848000,0
160.519344,522,655,4176,4.928000,0
160.524272,523,656,4184,4.800000,0
160.529072,524,657,4192,4.944000,0
160.534016,525,658,4200,0,963.520000
161.497536,525,659,4200,4.992000,0
161.502528,526,660,4208,4.912000,0
161.507440,527,661,4216,0,973.136000
162.480576,527,662,4216,4.720000,0
162.485296,528,663,4224,4.752000,0
162.490048,529,664,4232,4.720000,0
162.494768,530,665,4240,4.944000,0
162.499712,531,666,4248,0,963.904000
163.463616,531,667,4248,3.680000,0
163.467296,532,668,4256,4.752000,0
163.472048,533,669,4264,4.944000,0
163.476992,534,670,4272,4.928000,0
163.481920,535,671,4280,0,964.736000
164.446656,535,672,4280,4.800000,0
164.451456,536,673,4288,4.848000,0
164.456304,537,674,4296,4.768000,0
164.461072,538,675,4304,0,968.624000
165.429696,538,676,4304,4.784000,0
165.434480,539,677,4312,4.928000,0
165.439408,540,678,4320,4.752000,0
165.444160,541,679,4328,4.848000,0
165.449008,542,680,4336,0,963.728000
166.412736,542,681,4336,4.720000,0
166.417456,543,682,4344,4.896000,0
166.422352,544,683,4352,3.680000,0
166.426032,545,684,4360,3.680000,0
166.429712,546,685,4368,3.680000,0
166.433392,547,686,4376,0,962.384000
167.395776,547,687,4376,4.848000,0
167.400624,548,688,4384,4.928000,0
167.405552,549,689,4392,4.800000,0
167.410352,550,690,4400,4.944000,0
167.415296,551,691,4408,0,963.520000
168.378816,551,692,4408,4.992000,0
168.383808,552,693,4416,4.912000,0
168.388720,553,694,4424,0,973.136000
169.361856,553,695,4424,4.720000,0
169.366576,554,696,4432,4.752000,0
169.371328,555,697,4440,4.720000,0
169.376048,556,698,4448,4.944000,0
169.380992,557,699,4456,3.680000,0
169.384672,558,700,4464,0,960.224000
170.344896,558,701,4464,4.752000,0
170.349648,559,702,4472,4.944000,0
170.354592,560,703,4480,4.928000,0
170.359520,561,704,4488,4.800000,0
170.364320,562,705,4496,0,963.616000
171.327936,562,706,4496,4.848000,0
171.332784,563,707,4504,4.768000,0
171.337552,564,708,4512,4.784000,0
171.342336,565,709,4520,4.928000,0
171.347264,566,710,4528,0,963.712000
172.310976,566,711,4528,4.752000,0
172.315728,567,712,4536,4.848000,0
172.320576,568,713,4544,4.720000,0
172.325296,569,714,4552,4.896000,0
172.330192,570,715,4560,3.680000,0
172.333872,571,716,4568,0,960.144000
173.294016,571,717,4568,3.680000,0
173.297696,572,718,4576,3.680000,0
173.301376,573,719,4584,4.848000,0
173.306224,574,720,4592,4.928000,0
173.311152,575,721,4600,4.800000,0
173.315952,576,722,4608,0,961.104000
174.277056,576,723,4608,4.944000,0
174.282000,577,724,4616,4.992000,0
174.286992,578,725,4624,0,973.104000
175.260096,578,726,4624,4.912000,0
175.265008,579,727,4632,4.720000,0
175.269728,580,728,4640,4.752000,0
175.274480,581,729,4648,4.720000,0
175.279200,582,730,4656,0,963.936000
176.243136,582,731,4656,4.944000,0
176.248080,583,732,4664,3.680000,0
176.251760,584,733,4672,4.752000,0
176.256512,585,734,4680,4.944000,0
176.261456,586,735,4688,0,964.720000
177.226176,586,736,4688,4.928000,0
177.231104,587,737,4696,4.800000,0
177.235904,588,738,4704,4.848000,0
177.240752,589,739,4712,0,968.464000
178.209216,589,740,4712,4.768000,0
178.213984,590,741,4720,4.784000,0
178.218768,591,742,4728,4.928000,0
178.223696,592,743,4736,4.752000,0
178.228448,593,744,4744,0,963.808000
179.192256,593,745,4744,4.848000,0
179.197104,594,746,4752,4.720000,0
179.201824,595,747,4760,4.896000,0
179.206720,596,748,4768,3.680000,0
179.210400,597,749,4776,0,964.896000
180.175296,597,750,4776,3.680000,0
180.178976,598,751,4784,3.680000,0
180.182656,599,752,4792,0,975.680000
181.158336,599,753,4792,4.848000,0
181.163184,600,754,4800,4.928000,0
181.168112,601,755,4808,4.800000,0
181.172912,602,756,4816,4.944000,0
181.177856,603,757,4824,0,963.520000
182.141376,603,758,4824,4.992000,0
182.146368,604,759,4832,4.912000,0
182.151280,605,760,4840,4.720000,0
182.156000,606,761,4848,4.752000,0
182.160752,607,762,4856,0,963.664000
183.124416,607,763,4856,4.720000,0
183.129136,608,764,4864,4.944000,0
183.134080,609,765,4872,0,973.376000
184.107456,609,766,4872,3.680000,0
184.111136,610,767,4880,4.752000,0
184.115888,611,768,4888,4.944000,0
184.120832,612,769,4896,4.928000,0
184.125760,613,770,4904,0,964.736000
185.090496,613,771,4904,4.800000,0
185.095296,614,772,4912,4.848000,0
185.100144,615,773,4920,4.768000,0
185.104912,616,774,4928,0,968.624000
186.073536,616,775,4928,4.784000,0
186.078320,617,776,4936,4.928000,0
186.083248,618,777,4944,4.752000,0
186.088000,619,778,4952,4.848000,0
186.092848,620,779,4960,0,963.728000
187.056576,620,780,4960,4.720000,0
187.061296,621,781,4968,4.896000,0
187.066192,622,782,4976,3.680000,0
187.069872,623,783,4984,3.680000,0
187.073552,624,784,4992,0,966.064000
188.039616,624,785,4992,3.680000,0
188.043296,625,786,5000,4.848000,0
188.048144,626,787,5008,4.928000,0
188.053072,627,788,5016,4.800000,0
188.057872,628,789,5024,4.944000,0
188.062816,629,790,5032,0,959.840000
189.022656,629,791,5032,4.992000,0
189.027648,630,792,5040,0,978.048000
190.005696,630,793,5040,4.912000,0
190.010608,631,794,5048,0,978.128000
190.988736,631,795,5048,4.720000,0
190.993456,632,796,5056,4.752000,0
190.998208,633,797,5064,0,973.568000
191.971776,633,798,5064,4.720000,0
191.976496,634,799,5072,4.944000,0
191.981440,635,800,5080,0,973.376000
192.954816,635,801,5080,3.680000,0
192.958496,636,802,5088,4.752000,0
192.963248,637,803,5096,4.944000,0
192.968192,638,804,5104,4.928000,0
192.973120,639,805,5112,0,964.736000
193.937856,639,806,5112,4.800000,0
193.942656,640,807,5120,4.848000,0
193.947504,641,808,5128,4.768000,0
193.952272,642,809,5136,0,968.624000
194.920896,642,810,5136,4.784000,0
194.925680,643,811,5144,4.928000,0
194.930608,644,812,5152,4.752000,0
194.935360,645,813,5160,4.848000,0
194.940208,646,814,5168,0,963.728000
195.903936,646,815,5168,4.720000,0
195.908656,647,816,5176,4.896000,0
195.913552,648,817,5184,3.680000,0
195.917232,649,818,5192,3.680000,0
195.920912,650,819,5200,3.680000,0
195.924592,651,820,5208,0,962.384000
196.886976,651,821,5208,4.848000,0
196.891824,652,822,5216,4.928000,0
196.896752,653,823,5224,0,973.264000
197.870016,653,824,5224,4.800000,0
197.874816,654,825,5232,4.944000,0
197.879760,655,826,5240,4.992000,0
197.884752,656,827,5248,0,968.304000
198.853056,656,828,5248,4.912000,0
198.857968,657,829,5256,4.720000,0
198.862688,658,830,5264,4.752000,0
198.867440,659,831,5272,4.720000,0
198.872160,660,832,5280,0,963.936000
199.836096,660,833,5280,4.944000,0
199.841040,661,834,5288,3.680000,0
199.844720,662,835,5296,4.752000,0
199.849472,663,836,5304,4.944000,0
199.854416,664,837,5312,4.928000,0
199.859344,665,838,5320,0,959.792000
200.819136,665,839,5320,4.800000,0
200.823936,666,840,5328,4.848000,0
200.828784,667,841,5336,4.768000,0
200.833552,668,842,5344,4.784000,0
200.838336,669,843,5352,0,963.840000
201.802176,669,844,5352,4.928000,0
201.807104,670,845,5360,4.752000,0
201.811856,671,846,5368,4.848000,0
201.816704,672,847,5376,4.720000,0
201.821424,673,848,5384,0,963.792000
202.785216,673,849,5384,4.896000,0
202.790112,674,850,5392,3.680000,0
202.793792,675,851,5400,3.680000,0
202.797472,676,852,5408,3.680000,0
202.801152,677,853,5416,4.848000,0
202.806000,678,854,5424,0,962.256000
203.768256,678,855,5424,4.928000,0
203.773184,679,856,5432,4.800000,0
203.777984,680,857,5440,4.944000,0
203.782928,681,858,5448,0,968.368000
204.751296,681,859,5448,4.992000,0
204.756288,682,860,5456,4.912000,0
204.761200,683,861,5464,4.720000,0
204.765920,684,862,5472,4.752000,0
204.770672,685,863,5480,0,963.664000
205.734336,685,864,5480,4.720000,0
205.739056,686,865,5488,4.944000,0
205.744000,687,866,5496,3.680000,0
205.747680,688,867,5504,4.752000,0
205.752432,689,868,5512,4.944000,0
205.757376,690,869,5520,0,960.000000
206.717376,690,870,5520,4.928000,0
206.722304,691,871,5528,4.800000,0
206.727104,692,872,5536,4.848000,0
206.731952,693,873,5544,0,968.464000
207.700416,693,874,5544,4.768000,0
207.705184,694,875,5552,4.784000,0
207.709968,695,876,5560,4.928000,0
207.714896,696,877,5568,4.752000,0
207.719648,697,878,5576,0,963.808000
208.683456,697,879,5576,4.848000,0
208.688304,698,880,5584,4.720000,0
208.693024,699,881,5592,4.896000,0
208.697920,700,882,5600,3.680000,0
208.701600,701,883,5608,3.680000,0
208.705280,702,884,5616,0,961.216000
209.666496,702,885,5616,3.680000,0
209.670176,703,886,5624,4.848000,0
209.675024,704,887,5632,4.928000,0
209.679952,705,888,5640,0,969.584000
210.649536,705,889,5640,4.800000,0
210.654336,706,890,5648,4.944000,0
210.659280,707,891,5656,4.992000,0
210.664272,708,892,5664,4.912000,0
210.669184,709,893,5672,0,963.392000
211.632576,709,894,5672,4.720000,0
211.637296,710,895,5680,4.752000,0
211.642048,711,896,5688,4.720000,0
211.646768,712,897,5696,4.944000,0
211.651712,713,898,5704,3.680000,0
211.655392,714,899,5712,0,960.224000
212.615616,714,900,5712,4.752000,0
212.620368,715,901,5720,4.944000,0
212.625312,716,902,5728,4.928000,0
212.630240,717,903,5736,4.800000,0
212.635040,718,904,5744,0,963.616000
213.598656,718,905,5744,4.848000,0
213.603504,719,906,5752,4.768000,0
213.608272,720,907,5760,4.784000,0
213.613056,721,908,5768,4.928000,0
213.617984,722,909,5776,0,963.712000
214.581696,722,910,5776,4.752000,0
214.586448,723,911,5784,4.848000,0
214.591296,724,912,5792,4.720000,0
214.596016,725,913,5800,4.896000,0
214.600912,726,914,5808,3.680000,0
214.604592,727,915,5816,0,960.144000
215.564736,727,916,5816,3.680000,0
215.568416,728,917,5824,3.680000,0
215.572096,729,918,5832,4.848000,0
215.576944,730,919,5840,0,970.832000
216.547776,730,920,5840,4.928000,0
216.552704,731,921,5848,4.800000,0
216.557504,732,922,5856,4.944000,0
216.562448,733,923,5864,0,968.368000
217.530816,733,924,5864,4.992000,0
217.535808,734,925,5872,4.912000,0
217.540720,735,926,5880,4.720000,0
217.545440,736,927,5888,4.752000,0
217.550192,737,928,5896,0,963.664000
218.513856,737,929,5896,4.720000,0
218.518576,738,930,5904,4.944000,0
218.523520,739,931,5912,3.680000,0
218.527200,740,932,5920,4.752000,0
218.531952,741,933,5928,0,964.944000
219.496896,741,934,5928,4.944000,0
219.501840,742,935,5936,4.928000,0
219.506768,743,936,5944,4.800000,0
219.511568,744,937,5952,0,968.368000
220.479936,744,938,5952,4.848000,0
220.484784,745,939,5960,4.768000,0
220.489552,746,940,5968,4.784000,0
220.494336,747,941,5976,0,968.640000
221.462976,747,942,5976,4.928000,0
221.467904,748,943,5984,4.752000,0
221.472656,749,944,5992,4.848000,0
221.477504,750,945,6000,4.720000,0
221.482224,751,946,6008,0,963.792000
222.446016,751,947,6008,4.896000,0
222.450912,752,948,6016,3.680000,0
222.454592,753,949,6024,3.680000,0
222.458272,754,950,6032,3.680000,0
222.461952,755,951,6040,0,967.104000
223.429056,755,952,6040,4.848000,0
223.433904,756,953,6048,4.928000,0
223.438832,757,954,6056,4.800000,0
223.443632,758,955,6064,0,968.464000
224.412096,758,956,6064,4.944000,0
224.417040,759,957,6072,4.992000,0
224.422032,760,958,6080,4.912000,0
224.426944,761,959,6088,0,968.192000
225.395136,761,960,6088,4.720000,0
225.399856,762,961,6096,4.752000,0
225.404608,763,962,6104,4.720000,0
225.409328,764,963,6112,4.944000,0
225.414272,765,964,6120,0,963.904000
226.378176,765,965,6120,3.680000,0
226.381856,766,966,6128,4.752000,0
226.386608,767,967,6136,4.944000,0
226.391552,768,968,6144,4.928000,0
226.396480,769,969,6152,4.800000,0
226.401280,770,970,6160,0,959.936000
227.361216,770,971,6160,4.848000,0
227.366064,771,972,6168,4.768000,0
227.370832,772,973,6176,4.784000,0
227.375616,773,974,6184,4.928000,0
227.380544,774,975,6192,0,963.712000
228.344256,774,976,6192,4.752000,0
228.349008,775,977,6200,4.848000,0
228.353856,776,978,6208,4.720000,0
228.358576,777,979,6216,4.896000,0
228.363472,778,980,6224,3.680000,0
228.367152,779,981,6232,0,960.144000
229.327296,779,982,6232,3.680000,0
229.330976,780,983,6240,3.680000,0
229.334656,781,984,6248,4.848000,0
229.339504,782,985,6256,4.928000,0
229.344432,783,986,6264,4.800000,0
229.349232,784,987,6272,0,961.104000
230.310336,784,988,6272,4.944000,0
230.315280,785,989,6280,4.992000,0
230.320272,786,990,6288,4.912000,0
230.325184,787,991,6296,4.720000,0
230.329904,788,992,6304,0,963.472000
231.293376,788,993,6304,4.752000,0
231.298128,789,994,6312,4.720000,0
231.302848,790,995,6320,4.944000,0
231.307792,791,996,6328,3.680000,0
231.311472,792,997,6336,