Time,CovertPackets,AllPackets,BitsSent,PacketInterval;GTSInterval
65.132048,1,2,8,0,7861.168000
72.993216,1,3,8,4.848000,0
72.998064,2,4,16,4.928000,0
73.002992,3,5,24,4.800000,0
73.007792,4,6,32,4.944000,0
73.012736,5,7,40,4.992000,0
73.017728,6,8,48,4.912000,0
73.022640,7,9,56,4.720000,0
73.027360,8,10,64,4.752000,0
73.032112,9,11,72,4.720000,0
73.036832,10,12,80,0,7820.704000
80.857536,10,13,80,4.944000,0
80.862480,11,14,88,3.680000,0
80.866160,12,15,96,4.752000,0
80.870912,13,16,104,4.944000,0
80.875856,14,17,112,4.928000,0
80.880784,15,18,120,4.800000,0
80.885584,16,19,128,4.848000,0
80.890432,17,20,136,4.768000,0
80.895200,18,21,144,4.784000,0
80.899984,19,22,152,4.928000,0
80.904912,20,23,160,0,7816.944000
88.721856,20,24,160,4.752000,0
88.726608,21,25,168,4.848000,0
88.731456,22,26,176,4.720000,0
88.736176,23,27,184,4.896000,0
88.741072,24,28,192,3.680000,0
88.744752,25,29,200,3.680000,0
88.748432,26,30,208,3.680000,0
88.752112,27,31,216,4.848000,0
88.756960,28,32,224,0,7829.216000
96.586176,28,33,224,4.928000,0
96.591104,29,34,232,4.800000,0
96.595904,30,35,240,4.944000,0
96.600848,31,36,248,4.992000,0
96.605840,32,37,256,4.912000,0
96.610752,33,38,264,4.720000,0
96.615472,34,39,272,4.752000,0
96.620224,35,40,280,4.720000,0
96.624944,36,41,288,4.944000,0
96.629888,37,42,296,3.680000,0
96.633568,38,43,304,0,7816.928000
104.450496,38,44,304,4.752000,0
104.455248,39,45,312,4.944000,0
104.460192,40,46,320,4.928000,0
104.465120,41,47,328,4.800000,0
104.469920,42,48,336,4.848000,0
104.474768,43,49,344,4.768000,0
104.479536,44,50,352,4.784000,0
104.484320,45,51,360,4.928000,0
104.489248,46,52,368,4.752000,0
104.494000,47,53,376,0,7820.816000
112.314816,47,54,376,4.848000,0
112.319664,48,55,384,4.720000,0
112.324384,49,56,392,4.896000,0
112.329280,50,57,400,3.680000,0
112.332960,51,58,408,3.680000,0
112.336640,52,59,416,3.680000,0
112.340320,53,60,424,4.848000,0
112.345168,54,61,432,4.928000,0
112.350096,55,62,440,4.800000,0
112.354896,56,63,448,0,7824.240000
120.179136,56,64,448,4.944000,0
120.184080,57,65,456,4.992000,0
120.189072,58,66,464,4.912000,0
120.193984,59,67,472,4.720000,0
120.198704,60,68,480,4.752000,0
120.203456,61,69,488,4.720000,0
120.208176,62,70,496,4.944000,0
120.213120,63,71,504,3.680000,0
120.216800,64,72,512,4.752000,0
120.221552,65,73,520,0,7821.904000
128.043456,65,74,520,4.944000,0
128.048400,66,75,528,4.928000,0
128.053328,67,76,536,4.800000,0
128.058128,68,77,544,4.848000,0
128.062976,69,78,552,4.768000,0
128.067744,70,79,560,4.784000,0
128.072528,71,80,568,4.928000,0
128.077456,72,81,576,4.752000,0
128.082208,73,82,584,0,7825.568000
135.907776,73,83,584,4.848000,0
135.912624,74,84,592,4.720000,0
135.917344,75,85,600,4.896000,0
135.922240,76,86,608,3.680000,0
135.925920,77,87,616,3.680000,0
135.929600,78,88,624,3.680000,0
135.933280,79,89,632,4.848000,0
135.938128,80,90,640,4.928000,0
135.943056,81,91,648,4.800000,0
135.947856,82,92,656,0,7824.240000
143.772096,82,93,656,4.944000,0
143.777040,83,94,664,4.992000,0
143.782032,84,95,672,4.912000,0
143.786944,85,96,680,4.720000,0
143.791664,86,97,688,4.752000,0
143.796416,87,98,696,4.720000,0
143.801136,88,99,704,4.944000,0
143.806080,89,100,712,3.680000,0
143.809760,90,101,720,4.752000,0
143.814512,91,102,728,0,7821.904000
151.636416,91,103,728,4.944000,0
151.641360,92,104,736,4.928000,0
151.646288,93,105,744,4.800000,0
151.651088,94,106,752,4.848000,0
151.655936,95,107,760,4.768000,0
151.660704,96,108,768,4.784000,0
151.665488,97,109,776,4.928000,0
151.670416,98,110,784,4.752000,0
151.675168,99,111,792,4.848000,0
151.680016,100,112,800,0,7820.720000
159.500736,100,113,800,4.720000,0
159.505456,101,114,808,4.896000,0
159.510352,102,115,816,3.680000,0
159.514032,103,116,824,3.680000,0
159.517712,104,117,832,3.680000,0
159.521392,105,118,840,4.848000,0
159.526240,106,119,848,4.928000,0
159.531168,107,120,856,4.800000,0
159.535968,108,121,864,4.944000,0
159.540912,109,122,872,0,7824.144000
167.365056,109,123,872,4.992000,0
167.370048,110,124,880,4.912000,0
167.374960,111,125,888,4.720000,0
167.379680,112,126,896,4.752000,0
167.384432,113,127,904,4.720000,0
167.389152,114,128,912,4.944000,0
167.394096,115,129,920,3.680000,0
167.397776,116,130,928,4.752000,0
167.402528,117,131,936,0,7826.848000
175.229376,117,132,936,4.944000,0
175.234320,118,133,944,4.928000,0
175.239248,119,134,952,4.800000,0
175.244048,120,135,960,4.848000,0
175.248896,121,136,968,4.768000,0
175.253664,122,137,976,4.784000,0
175.258448,123,138,984,4.928000,0
175.263376,124,139,992,4.752000,0
175.268128,125,140,1000,4.848000,0
175.272976,126,141,1008,0,7820.720000
183.093696,126,142,1008,4.720000,0
183.098416,127,143,1016,4.896000,0
183.103312,128,144,1024,3.680000,0
183.106992,129,145,1032,3.680000,0
183.110672,130,146,1040,3.680000,0
183.114352,131,147,1048,4.848000,0
183.119200,132,148,1056,4.928000,0
183.124128,133,149,1064,4.800000,0
183.128928,134,150,1072,4.944000,0
183.133872,135,151,1080,0,7824.144000
190.958016,135,152,1080,4.992000,0
190.963008,136,153,1088,4.912000,0
190.967920,137,154,1096,4.720000,0
190.972640,138,155,1104,4.752000,0
190.977392,139,156,1112,4.720000,0
190.982112,140,157,1120,4.944000,0
190.987056,141,158,1128,3.680000,0
190.990736,142,159,1136,4.752000,0
190.995488,143,160,1144,4.944000,0
191.000432,144,161,1152,0,7821.904000
198.822336,144,162,1152,4.928000,0
198.827264,145,163,1160,4.800000,0
198.832064,146,164,1168,4.848000,0
198.836912,147,165,1176,4.768000,0
198.841680,148,166,1184,4.784000,0
198.846464,149,167,1192,4.928000,0
198.851392,150,168,1200,4.752000,0
198.856144,151,169,1208,4.848000,0
198.860992,152,170,1216,0,7825.664000
206.686656,152,171,1216,4.720000,0
206.691376,153,172,1224,4.896000,0
206.696272,154,173,1232,3.680000,0
206.699952,155,174,1240,3.680000,0
206.703632,156,175,1248,3.680000,0
206.707312,157,176,1256,4.848000,0
206.712160,158,177,1264,4.928000,0
206.717088,159,178,1272,4.800000,0
206.721888,160,179,1280,4.944000,0
206.726832,161,180,1288,0,7824.144000
214.550976,161,181,1288,4.992000,0
214.555968,162,182,1296,4.912000,0
214.560880,163,183,1304,4.720000,0
214.565600,164,184,1312,4.752000,0
214.570352,165,185,1320,4.720000,0
214.575072,166,186,1328,4.944000,0
214.580016,167,187,1336,3.680000,0
214.583696,168,188,1344,4.752000,0
214.588448,169,189,1352,4.944000,0
214.593392,170,190,1360,0,7821.904000
222.415296,170,191,1360,4.928000,0
222.420224,171,192,1368,4.800000,0
222.425024,172,193,1376,4.848000,0
222.429872,173,194,1384,4.768000,0
222.434640,174,195,1392,4.784000,0
222.439424,175,196,1400,4.928000,0
222.444352,176,197,1408,4.752000,0
222.449104,177,198,1416,4.848000,0
222.453952,178,199,1424,4.720000,0
222.458672,179,200,1432,0,7820.944000
230.279616,179,201,1432,4.896000,0
230.284512,180,202,1440,3.680000,0
230.288192,181,203,1448,3.680000,0
230.291872,182,204,1456,3.680000,0
230.295552,183,205,1464,4.848000,0
230.300400,184,206,1472,4.928000,0
230.305328,185,207,1480,4.800000,0
230.310128,186,208,1488,4.944000,0
230.315072,187,209,1496,0,7828.864000
238.143936,187,210,1496,4.992000,0
238.148928,188,211,1504,4.912000,0
238.153840,189,212,1512,4.720000,0
238.158560,190,213,1520,4.752000,0
238.163312,191,214,1528,4.720000,0
238.168032,192,215,1536,4.944000,0
238.172976,193,216,1544,3.680000,0
238.176656,194,217,1552,4.752000,0
238.181408,195,218,1560,4.944000,0
238.186352,196,219,1568,0,7821.904000
246.008256,196,220,1568,4.928000,0
246.013184,197,221,1576,4.800000,0
246.017984,198,222,1584,4.848000,0
246.022832,199,223,1592,4.768000,0
246.027600,200,224,1600,4.784000,0
246.032384,201,225,1608,4.928000,0
246.037312,202,226,1616,4.752000,0
246.042064,203,227,1624,4.848000,0
246.046912,204,228,1632,4.720000,0
246.051632,205,229,1640,4.896000,0
246.056528,206,230,1648,0,7816.048000
253.872576,206,231,1648,3.680000,0
253.876256,207,232,1656,3.680000,0
253.879936,208,233,1664,3.680000,0
253.883616,209,234,1672,4.848000,0
253.888464,210,235,1680,4.928000,0
253.893392,211,236,1688,4.800000,0
253.898192,212,237,1696,4.944000,0
253.903136,213,238,1704,4.992000,0
253.908128,214,239,1712,4.912000,0
253.913040,215,240,1720,0,7823.856000
261.736896,215,241,1720,4.720000,0
261.741616,216,242,1728,4.752000,0
261.746368,217,243,1736,4.720000,0
261.751088,218,244,1744,4.944000,0
261.756032,219,245,1752,3.680000,0
261.759712,220,246,1760,4.752000,0
261.764464,221,247,1768,4.944000,0
261.769408,222,248,1776,4.928000,0
261.774336,223,249,1784,0,7826.880000
269.601216,223,250,1784,4.800000,0
269.606016,224,251,1792,4.848000,0
269.610864,225,252,1800,4.768000,0
269.615632,226,253,1808,4.784000,0
269.620416,227,254,1816,4.928000,0
269.625344,228,255,1824,4.752000,0
269.630096,229,256,1832,4.848000,0
269.634944,230,257,1840,4.720000,0
269.639664,231,258,1848,4.896000,0
269.644560,232,259,1856,3.680000,0
269.648240,233,260,1864,