Time,CovertPackets,AllPackets,BitsSent,PacketInterval,GTSInterval
104.456464,1,90,8,0,7859.760000
112.316224,1,135,8,6.256000,0
112.322480,2,180,16,6.336000,0
112.328816,3,225,24,6.208000,0
112.335024,4,270,32,6.352000,0
112.341376,5,315,40,6.400000,0
112.347776,6,360,48,6.320000,0
112.354096,7,405,56,0,7826.448000
120.180544,7,450,56,6.128000,0
120.186672,8,495,64,6.160000,0
120.192832,9,540,72,6.128000,0
120.198960,10,585,80,6.352000,0
120.205312,11,630,88,5.088000,0
120.210400,12,675,96,6.160000,0
120.216560,13,720,104,6.352000,0
120.222912,14,765,112,0,7821.952000
128.044864,14,810,112,6.336000,0
128.051200,15,855,120,6.208000,0
128.057408,16,900,128,6.256000,0
128.063664,17,945,136,6.176000,0
128.069840,18,990,144,6.192000,0
128.076032,19,1035,152,6.336000,0
128.082368,20,1080,160,0,7826.816000
135.909184,20,1125,160,6.160000,0
135.915344,21,1170,168,6.256000,0
135.921600,22,1215,176,6.128000,0
135.927728,23,1260,184,6.304000,0
135.934032,24,1305,192,5.088000,0
135.939120,25,1350,200,5.088000,0
135.944208,26,1395,208,0,7829.296000
143.773504,26,1440,208,5.088000,0
143.778592,27,1485,216,6.256000,0
143.784848,28,1530,224,6.336000,0
143.791184,29,1575,232,6.208000,0
143.797392,30,1620,240,6.352000,0
143.803744,31,1665,248,6.400000,0
143.810144,32,1710,256,6.320000,0
143.816464,33,1755,264,0,7821.360000
151.637824,33,1800,264,6.128000,0
151.643952,34,1845,272,6.160000,0
151.650112,35,1890,280,6.128000,0
151.656240,36,1935,288,6.352000,0
151.662592,37,1980,296,5.088000,0
151.667680,38,2025,304,6.160000,0
151.673840,39,2070,312,0,7828.304000
159.502144,39,2115,312,6.352000,0
159.508496,40,2160,320,6.336000,0
159.514832,41,2205,328,6.208000,0
159.521040,42,2250,336,6.256000,0
159.527296,43,2295,344,6.176000,0
159.533472,44,2340,352,6.192000,0
159.539664,45,2385,360,0,7826.800000
167.366464,45,2430,360,6.336000,0
167.372800,46,2475,368,6.160000,0
167.378960,47,2520,376,6.256000,0
167.385216,48,2565,384,6.128000,0
167.391344,49,2610,392,6.304000,0
167.397648,50,2655,400,5.088000,0
167.402736,51,2700,408,5.088000,0
167.407824,52,2745,416,0,7822.960000
175.230784,52,2790,416,5.088000,0
175.235872,53,2835,424,6.256000,0
175.242128,54,2880,432,6.336000,0
175.248464,55,2925,440,6.208000,0
175.254672,56,2970,448,6.352000,0
175.261024,57,3015,456,6.400000,0
175.267424,58,3060,464,0,7827.680000
183.095104,58,3105,464,6.320000,0
183.101424,59,3150,472,6.128000,0
183.107552,60,3195,480,6.160000,0
183.113712,61,3240,488,6.128000,0
183.119840,62,3285,496,6.352000,0
183.126192,63,3330,504,5.088000,0
183.131280,64,3375,512,0,7828.144000
190.959424,64,3420,512,6.160000,0
190.965584,65,3465,520,6.352000,0
190.971936,66,3510,528,6.336000,0
190.978272,67,3555,536,6.208000,0
190.984480,68,3600,544,6.256000,0
190.990736,69,3645,552,6.176000,0
190.996912,70,3690,560,0,7826.832000
198.823744,70,3735,560,6.192000,0
198.829936,71,3780,568,6.336000,0
198.836272,72,3825,576,6.160000,0
198.842432,73,3870,584,6.256000,0
198.848688,74,3915,592,6.128000,0
198.854816,75,3960,600,6.304000,0
198.861120,76,4005,608,0,7826.944000
206.688064,76,4050,608,5.088000,0
206.693152,77,4095,616,5.088000,0
206.698240,78,4140,624,5.088000,0
206.703328,79,4185,632,6.256000,0
206.709584,80,4230,640,6.336000,0
206.715920,81,4275,648,6.208000,0
206.722128,82,4320,656,0,7830.256000
214.552384,82,4365,656,6.352000,0
214.558736,83,4410,664,6.400000,0
214.565136,84,4455,672,6.320000,0
214.571456,85,4500,680,6.128000,0
214.577584,86,4545,688,6.160000,0
214.583744,87,4590,696,6.128000,0
214.589872,88,4635,704,6.352000,0
214.596224,89,4680,712,0,7820.480000
222.416704,89,4725,712,5.088000,0
222.421792,90,4770,720,6.160000,0
222.427952,91,4815,728,6.352000,0
222.434304,92,4860,736,6.336000,0
222.440640,93,4905,744,6.208000,0
222.446848,94,4950,752,0,7834.176000
230.281024,94,4995,752,6.256000,0
230.287280,95,5040,760,6.176000,0
230.293456,96,5085,768,6.192000,0
230.299648,97,5130,776,6.336000,0
230.305984,98,5175,784,6.160000,0
230.312144,99,5220,792,6.256000,0
230.318400,100,5265,800,0,7826.944000
238.145344,100,5310,800,6.128000,0
238.151472,101,5355,808,6.304000,0
238.157776,102,5400,816,5.088000,0
238.162864,103,5445,824,5.088000,0
238.167952,104,5490,832,5.088000,0
238.173040,105,5535,840,6.256000,0
238.179296,106,5580,848,0,7830.368000
246.009664,106,5625,848,6.336000,0
246.016000,107,5670,856,6.208000,0
246.022208,108,5715,864,6.352000,0
246.028560,109,5760,872,6.400000,0
246.034960,110,5805,880,6.320000,0
246.041280,111,5850,888,6.128000,0
246.047408,112,5895,896,6.160000,0
246.053568,113,5940,904,0,7820.416000
253.873984,113,5985,904,6.128000,0
253.880112,114,6030,912,6.352000,0
253.886464,115,6075,920,5.088000,0
253.891552,116,6120,928,6.160000,0
253.897712,117,6165,936,6.352000,0
253.904064,118,6210,944,6.336000,0
253.910400,119,6255,952,0,7827.904000
261.738304,119,6300,952,6.208000,0
261.744512,120,6345,960,6.256000,0
261.750768,121,6390,968,6.176000,0
261.756944,122,6435,976,6.192000,0
261.763136,123,6480,984,6.336000,0
261.769472,124,6525,992,6.160000,0
261.775632,125,6570,1000,0,7826.992000
269.602624,125,6615,1000,6.256000,0
269.608880,126,6660,1008,6.128000,0
269.615008,127,6705,1016,6.304000,0
269.621312,128,6750,1024,5.088000,0
269.626400,129,6795,1032,5.088000,0
269.631488,130,6840,1040,5.088000,0
269.636576,131,6885,1048,6.256000,0
269.642832,132,6930,1056,0,7824.112000
277.466944,132,6975,1056,6.336000,0
277.473280,133,7020,1064,6.208000,0
277.479488,134,7065,1072,6.352000,0
277.485840,135,7110,1080,6.400000,0
277.492240,136,7155,1088,6.320000,0
277.498560,137,7200,1096,6.128000,0
277.504688,138,7245,1104,0,7826.576000
285.331264,138,7290,1104,6.160000,0
285.337424,139,7335,1112,6.128000,0
285.343552,140,7380,1120,6.352000,0
285.349904,141,7425,1128,5.088000,0
285.354992,142,7470,1136,6.160000,0
285.361152,143,7515,1144,0,7834.432000
293.195584,143,7560,1144,6.352000,0
293.201936,144,7605,1152,6.336000,0
293.208272,145,7650,1160,6.208000,0
293.214480,146,7695,1168,6.256000,0
293.220736,147,7740,1176,6.176000,0
293.226912,148,7785,1184,6.192000,0
293.233104,149,7830,1192,0,7826.800000
301.059904,149,7875,1192,6.336000,0
301.066240,150,7920,1200,6.160000,0
301.072400,151,7965,1208,6.256000,0
301.078656,152,8010,1216,6.128000,0
301.084784,153,8055,1224,6.304000,0
301.091088,154,8100,1232,5.088000,0
301.096176,155,8145,1240,5.088000,0
301.101264,156,8190,1248,0,7822.960000
308.924224,156,8235,1248,5.088000,0
308.929312,157,8280,1256,6.256000,0
308.935568,158,8325,1264,6.336000,0
308.941904,159,8370,1272,6.208000,0
308.948112,160,8415,1280,6.352000,0
308.954464,161,8460,1288,6.400000,0
308.960864,162,8505,1296,0,7827.680000
