Time,CovertPackets,AllPackets,BitsSent,PacketInterval;GTSInterval
32.568848,1,2,8,4.848000,0
32.573696,2,3,16,4.928000,0
32.578624,3,4,24,4.800000,0
32.583424,4,5,32,4.944000,0
32.588368,5,6,40,0,3909.488000
36.497856,5,7,40,4.992000,0
36.502848,6,8,48,4.912000,0
36.507760,7,9,56,4.720000,0
36.512480,8,10,64,4.752000,0
36.517232,9,11,72,4.720000,0
36.521952,10,12,80,4.944000,0
36.526896,11,13,88,3.680000,0
36.530576,12,14,96,4.752000,0
36.535328,13,15,104,4.944000,0
36.540272,14,16,112,4.928000,0
36.545200,15,17,120,4.800000,0
36.550000,16,18,128,4.848000,0
36.554848,17,19,136,4.768000,0
36.559616,18,20,144,4.784000,0
36.564400,19,21,152,4.928000,0
36.569328,20,22,160,4.752000,0
36.574080,21,23,168,4.848000,0
36.578928,22,24,176,4.720000,0
36.583648,23,25,184,4.896000,0
36.588544,24,26,192,0,3841.472000
40.430016,24,27,192,3.680000,0
40.433696,25,28,200,3.680000,0
40.437376,26,29,208,3.680000,0
40.441056,27,30,216,4.848000,0
40.445904,28,31,224,4.928000,0
40.450832,29,32,232,4.800000,0
40.455632,30,33,240,4.944000,0
40.460576,31,34,248,4.992000,0
40.465568,32,35,256,4.912000,0
40.470480,33,36,264,4.720000,0
40.475200,34,37,272,4.752000,0
40.479952,35,38,280,4.720000,0
40.484672,36,39,288,4.944000,0
40.489616,37,40,296,3.680000,0
40.493296,38,41,304,4.752000,0
40.498048,39,42,312,4.944000,0
40.502992,40,43,320,4.928000,0
40.507920,41,44,328,4.800000,0
40.512720,42,45,336,0,3849.456000
44.362176,42,46,336,4.848000,0
44.367024,43,47,344,4.768000,0
44.371792,44,48,352,4.784000,0
44.376576,45,49,360,4.928000,0
44.381504,46,50,368,4.752000,0
44.386256,47,51,376,4.848000,0
44.391104,48,52,384,4.720000,0
44.395824,49,53,392,4.896000,0
44.400720,50,54,400,3.680000,0
44.404400,51,55,408,3.680000,0
44.408080,52,56,416,3.680000,0
44.411760,53,57,424,4.848000,0
44.416608,54,58,432,4.928000,0
44.421536,55,59,440,4.800000,0
44.426336,56,60,448,4.944000,0
44.431280,57,61,456,4.992000,0
44.436272,58,62,464,4.912000,0
44.441184,59,63,472,4.720000,0
44.445904,60,64,480,4.752000,0
44.450656,61,65,488,4.720000,0
44.455376,62,66,496,4.944000,0
44.460320,63,67,504,3.680000,0
44.464000,64,68,512,0,3830.336000
48.294336,64,69,512,4.752000,0
48.299088,65,70,520,4.944000,0
48.304032,66,71,528,4.928000,0
48.308960,67,72,536,4.800000,0
48.313760,68,73,544,4.848000,0
48.318608,69,74,552,4.768000,0
48.323376,70,75,560,4.784000,0
48.328160,71,76,568,4.928000,0
48.333088,72,77,576,4.752000,0
48.337840,73,78,584,4.848000,0
48.342688,74,79,592,4.720000,0
48.347408,75,80,600,4.896000,0
48.352304,76,81,608,3.680000,0
48.355984,77,82,616,3.680000,0
48.359664,78,83,624,3.680000,0
48.363344,79,84,632,0,3863.152000
52.226496,79,85,632,4.848000,0
52.231344,80,86,640,4.928000,0
52.236272,81,87,648,4.800000,0
52.241072,82,88,656,4.944000,0
52.246016,83,89,664,4.992000,0
52.251008,84,90,672,4.912000,0
52.255920,85,91,680,4.720000,0
52.260640,86,92,688,4.752000,0
52.265392,87,93,696,4.720000,0
52.270112,88,94,704,4.944000,0
52.275056,89,95,712,3.680000,0
52.278736,90,96,720,4.752000,0
52.283488,91,97,728,4.944000,0
52.288432,92,98,736,4.928000,0
52.293360,93,99,744,4.800000,0
52.298160,94,100,752,4.848000,0
52.303008,95,101,760,4.768000,0
52.307776,96,102,768,4.784000,0
52.312560,97,103,776,0,3846.096000
56.158656,97,104,776,4.928000,0
56.163584,98,105,784,4.752000,0
56.168336,99,106,792,4.848000,0
56.173184,100,107,800,4.720000,0
56.177904,101,108,808,4.896000,0
56.182800,102,109,816,3.680000,0
56.186480,103,110,824,3.680000,0
56.190160,104,111,832,3.680000,0
56.193840,105,112,840,4.848000,0
56.198688,106,113,848,4.928000,0
56.203616,107,114,856,4.800000,0
56.208416,108,115,864,4.944000,0
56.213360,109,116,872,4.992000,0
56.218352,110,117,880,4.912000,0
56.223264,111,118,888,4.720000,0
56.227984,112,119,896,4.752000,0
56.232736,113,120,904,4.720000,0
56.237456,114,121,912,4.944000,0
56.242400,115,122,920,3.680000,0
56.246080,116,123,928,4.752000,0
56.250832,117,124,936,0,3839.984000
60.090816,117,125,936,4.944000,0
60.095760,118,126,944,4.928000,0
60.100688,119,127,952,4.800000,0
60.105488,120,128,960,4.848000,0
60.110336,121,129,968,4.768000,0
60.115104,122,130,976,4.784000,0
60.119888,123,131,984,4.928000,0
60.124816,124,132,992,4.752000,0
60.129568,125,133,1000,4.848000,0
60.134416,126,134,1008,4.720000,0
60.139136,127,135,1016,4.896000,0
60.144032,128,136,1024,3.680000,0
60.147712,129,137,1032,3.680000,0
60.151392,130,138,1040,3.680000,0
60.155072,131,139,1048,4.848000,0
60.159920,132,140,1056,4.928000,0
60.164848,133,141,1064,4.800000,0
60.169648,134,142,1072,4.944000,0
60.174592,135,143,1080,4.992000,0
60.179584,136,144,1088,4.912000,0
60.184496,137,145,1096,4.720000,0
60.189216,138,146,1104,0,3833.760000
64.022976,138,147,1104,4.752000,0
64.027728,139,148,1112,4.720000,0
64.032448,140,149,1120,4.944000,0
64.037392,141,150,1128,3.680000,0
64.041072,142,151,1136,4.752000,0
64.045824,143,152,1144,4.944000,0
64.050768,144,153,1152,4.928000,0
64.055696,145,154,1160,4.800000,0
64.060496,146,155,1168,4.848000,0
64.065344,147,156,1176,4.768000,0
64.070112,148,157,1184,4.784000,0
64.074896,149,158,1192,4.928000,0
64.079824,150,159,1200,4.752000,0
64.084576,151,160,1208,4.848000,0
64.089424,152,161,1216,4.720000,0
64.094144,153,162,1224,4.896000,0
64.099040,154,163,1232,3.680000,0
64.102720,155,164,1240,3.680000,0
64.106400,156,165,1248,0,3848.736000
67.955136,156,166,1248,3.680000,0
67.958816,157,167,1256,4.848000,0
67.963664,158,168,1264,4.928000,0
67.968592,159,169,1272,4.800000,0
67.973392,160,170,1280,4.944000,0
67.978336,161,171,1288,4.992000,0
67.983328,162,172,1296,4.912000,0
67.988240,163,173,1304,4.720000,0
67.992960,164,174,1312,4.752000,0
67.997712,165,175,1320,4.720000,0
68.002432,166,176,1328,4.944000,0
68.007376,167,177,1336,3.680000,0
68.011056,168,178,1344,4.752000,0
68.015808,169,179,1352,4.944000,0
68.020752,170,180,1360,4.928000,0
68.025680,171,181,1368,4.800000,0
68.030480,172,182,1376,4.848000,0
68.035328,173,183,1384,4.768000,0
68.040096,174,184,1392,0,3847.200000
71.887296,174,185,1392,4.784000,0
71.892080,175,186,1400,4.928000,0
71.897008,176,187,1408,4.752000,0
71.901760,177,188,1416,4.848000,0
71.906608,178,189,1424,4.720000,0
71.911328,179,190,1432,4.896000,0
71.916224,180,191,1440,3.680000,0
71.919904,181,192,1448,3.680000,0
71.923584,182,193,1456,3.680000,0
71.927264,183,194,1464,4.848000,0
71.932112,184,195,1472,4.928000,0
71.937040,185,196,1480,4.800000,0
71.941840,186,197,1488,4.944000,0
71.946784,187,198,1496,4.992000,0
71.951776,188,199,1504,4.912000,0
71.956688,189,200,1512,4.720000,0
71.961408,190,201,1520,4.752000,0
71.966160,191,202,1528,4.720000,0
71.970880,192,203,1536,0,3848.576000
75.819456,192,204,1536,4.944000,0
75.824400,193,205,1544,3.680000,0
75.828080,194,206,1552,4.752000,0
75.832832,195,207,1560,4.944000,0
75.837776,196,208,1568,4.928000,0
75.842704,197,209,1576,4.800000,0
75.847504,198,210,1584,4.848000,0
75.852352,199,211,1592,4.768000,0
75.857120,200,212,1600,4.784000,0
75.861904,201,213,1608,4.928000,0
75.866832,202,214,1616,4.752000,0
75.871584,203,215,1624,4.848000,0
75.876432,204,216,1632,4.720000,0
75.881152,205,217,1640,4.896000,0
75.886048,206,218,1648,3.680000,0
75.889728,207,219,1656,3.680000,0
75.893408,208,220,1664,3.680000,0
75.897088,209,221,1672,4.848000,0
75.901936,210,222,1680,4.928000,0
75.906864,211,223,1688,4.800000,0
75.911664,212,224,1696,4.944000,0
75.916608,213,225,1704,4.992000,0
75.921600,214,226,1712,0,3830.016000
79.751616,214,227,1712,4.912000,0
79.756528,215,228,1720,4.720000,0
79.761248,216,229,1728,4.752000,0
79.766000,217,230,1736,4.720000,0
79.770720,218,231,1744,4.944000,0
79.775664,219,232,1752,3.680000,0
79.779344,220,233,1760,4.752000,0
79.784096,221,234,1768,4.944000,0
79.789040,222,235,1776,4.928000,0
79.793968,223,236,1784,4.800000,0
79.798768,224,237,1792,4.848000,0
79.803616,225,238,1800,4.768000,0
79.808384,226,239,1808,4.784000,0
79.813168,227,240,1816,4.928000,0
79.818096,228,241,1824,4.752000,0
79.822848,229,242,1832,4.848000,0
79.827696,230,243,1840,4.720000,0
79.832416,231,244,1848,4.896000,0
79.837312,232,245,1856,0,3846.464000
83.683776,232,246,1856,3.680000,0
83.687456,233,247,1864,3.680000,0
83.691136,234,248,1872,3.680000,0
83.694816,235,249,1880,4.848000,0
83.699664,236,250,1888,4.928000,0
83.704592,237,251,1896,4.800000,0
83.709392,238,252,1904,4.944000,0
83.714336,239,253,1912,4.992000,0
83.719328,240,254,1920,4.912000,0
83.724240,241,255,1928,4.720000,0
83.728960,242,256,1936,4.752000,0
83.733712,243,257,1944,4.720000,0
83.738432,244,258,1952,4.944000,0
83.743376,245,259,1960,3.680000,0
83.747056,246,260,1968,4.752000,0
83.751808,247,261,1976,4.944000,0
83.756752,248,262,1984,0,3859.184000
87.615936,248,263,1984,4.928000,0
87.620864,249,264,1992,4.800000,0
87.625664,250,265,2000,4.848000,0
87.630512,251,266,2008,4.768000,0
87.635280,252,267,2016,4.784000,0
87.640064,253,268,2024,4.928000,0
87.644992,254,269,2032,4.752000,0
87.649744,255,270,2040,4.848000,0
87.654592,256,271,2048,4.720000,0
87.659312,257,272,2056,4.896000,0
87.664208,258,273,2064,3.680000,0
87.667888,259,274,2072,3.680000,0
87.671568,260,275,2080,3.680000,0
87.675248,261,276,2088,4.848000,0
87.680096,262,277,2096,4.928000,0
87.685024,263,278,2104,4.800000,0
87.689824,264,279,2112,4.944000,0
87.694768,265,280,2120,4.992000,0
87.699760,266,281,2128,4.912000,0
87.704672,267,282,2136,4.720000,0
87.709392,268,283,2144,4.752000,0
87.714144,269,284,2152,0,3833.952000
91.548096,269,285,2152,4.720000,0
91.552816,270,286,2160,4.944000,0
91.557760,271,287,2168,3.680000,0
91.561440,272,288,2176,4.752000,0
91.566192,273,289,2184,4.944000,0
91.571136,274,290,2192,4.928000,0
91.576064,275,291,2200,4.800000,0
91.580864,276,292,2208,4.848000,0
91.585712,277,293,2216,4.768000,0
91.590480,278,294,2224,4.784000,0
91.595264,279,295,2232,4.928000,0
91.600192,280,296,2240,4.752000,0
91.604944,281,297,2248,4.848000,0
91.609792,282,298,2256,4.720000,0
91.614512,283,299,2264,4.896000,0
91.619408,284,300,2272,3.680000,0
91.623088,285,301,2280,3.680000,0
91.626768,286,302,2288,0,3853.488000
95.480256,286,303,2288,3.680000,0
95.483936,287,304,2296,4.848000,0
95.488784,288,305,2304,4.928000,0
95.493712,289,306,2312,4.800000,0
95.498512,290,307,2320,4.944000,0
95.503456,291,308,2328,4.992000,0
95.508448,292,309,2336,4.912000,0
95.513360,293,310,2344,4.720000,0
95.518080,294,311,2352,4.752000,0
95.522832,295,312,2360,4.720000,0
95.527552,296,313,2368,4.944000,0
95.532496,297,314,2376,3.680000,0
95.536176,298,315,2384,4.752000,0
95.540928,299,316,2392,4.944000,0
95.545872,300,317,2400,4.928000,0
95.550800,301,318,2408,4.800000,0
95.555600,302,319,2416,4.848000,0
95.560448,303,320,2424,0,3851.968000
99.412416,303,321,2424,4.768000,0
99.417184,304,322,2432,4.784000,0
99.421968,305,323,2440,4.928000,0
99.426896,306,324,2448,4.752000,0
99.431648,307,325,2456,4.848000,0
99.436496,308,326,2464,4.720000,0
99.441216,309,327,2472,4.896000,0
99.446112,310,328,2480,3.680000,0
99.449792,311,329,2488,3.680000,0
99.453472,312,330,2496,3.680000,0
99.457152,313,331,2504,4.848000,0
99.462000,314,332,2512,4.928000,0
99.466928,315,333,2520,4.800000,0
99.471728,316,334,2528,4.944000,0
99.476672,317,335,2536,4.992000,0
99.481664,318,336,2544,4.912000,0
99.486576,319,337,2552,4.720000,0
99.491296,320,338,2560,0,3853.280000
103.344576,320,339,2560,4.752000,0
103.349328,321,340,2568,4.720000,0
103.354048,322,341,2576,4.944000,0
103.358992,323,342,2584,3.680000,0
103.362672,324,343,2592,4.752000,0
103.367424,325,344,2600,4.944000,0
103.372368,326,345,2608,4.928000,0
103.377296,327,346,2616,4.800000,0
103.382096,328,347,2624,4.848000,0
103.386944,329,348,2632,4.768000,0
103.391712,330,349,2640,4.784000,0
103.396496,331,350,2648,4.928000,0
103.401424,332,351,2656,4.752000,0
103.406176,333,352,2664,4.848000,0
103.411024,334,353,2672,4.720000,0
103.415744,335,354,2680,4.896000,0
103.420640,336,355,2688,3.680000,0
103.424320,337,356,2696,3.680000,0
103.428000,338,357,2704,3.680000,0
103.431680,339,358,2712,0,3845.056000
107.276736,339,359,2712,4.848000,0
107.281584,340,360,2720,4.928000,0
107.286512,341,361,2728,4.800000,0
107.291312,342,362,2736,4.944000,0
107.296256,343,363,2744,4.992000,0
107.301248,344,364,2752,4.912000,0
107.306160,345,365,2760,4.720000,0
107.310880,346,366,2768,4.752000,0
107.315632,347,367,2776,4.720000,0
107.320352,348,368,2784,4.944000,0
107.325296,349,369,2792,3.680000,0
107.328976,350,370,2800,4.752000,0
107.333728,351,371,2808,4.944000,0
107.338672,352,372,2816,4.928000,0
107.343600,353,373,2824,4.800000,0
107.348400,354,374,2832,4.848000,0
107.353248,355,375,2840,4.768000,0
107.358016,356,376,2848,4.784000,0
107.362800,357,377,2856,4.928000,0
107.367728,358,378,2864,0,3841.168000
111.208896,358,379,2864,4.752000,0
111.213648,359,380,2872,4.848000,0
111.218496,360,381,2880,4.720000,0
111.223216,361,382,2888,4.896000,0
111.228112,362,383,2896,3.680000,0
111.231792,363,384,2904,3.680000,0
111.235472,364,385,2912,3.680000,0
111.239152,365,386,2920,4.848000,0
111.244000,366,387,2928,4.928000,0
111.248928,367,388,2936,4.800000,0
111.253728,368,389,2944,4.944000,0
111.258672,369,390,2952,4.992000,0
111.263664,370,391,2960,4.912000,0
111.268576,371,392,2968,4.720000,0
111.273296,372,393,2976,4.752000,0
111.278048,373,394,2984,4.720000,0
111.282768,374,395,2992,0,3858.288000
115.141056,374,396,2992,4.944000,0
115.146000,375,397,3000,3.680000,0
115.149680,376,398,3008,4.752000,0
115.154432,377,399,3016,4.944000,0
115.159376,378,400,3024,4.928000,0
115.164304,379,401,3032,4.800000,0
115.169104,380,402,3040,4.848000,0
115.173952,381,403,3048,4.768000,0
115.178720,382,404,3056,4.784000,0
115.183504,383,405,3064,4.928000,0
115.188432,384,406,3072,4.752000,0
115.193184,385,407,3080,4.848000,0
115.198032,386,408,3088,4.720000,0
115.202752,387,409,3096,4.896000,0
115.207648,388,410,3104,3.680000,0
115.211328,389,411,3112,3.680000,0
115.215008,390,412,3120,3.680000,0
115.218688,391,413,3128,4.848000,0
115.223536,392,414,3136,0,3849.680000
119.073216,392,415,3136,4.928000,0
119.078144,393,416,3144,4.800000,0
119.082944,394,417,3152,4.944000,0
119.087888,395,418,3160,4.992000,0
119.092880,396,419,3168,4.912000,0
119.097792,397,420,3176,4.720000,0
119.102512,398,421,3184,4.752000,0
119.107264,399,422,3192,4.720000,0
119.111984,400,423,3200,4.944000,0
119.116928,401,424,3208,3.680000,0
119.120608,402,425,3216,4.752000,0
119.125360,403,426,3224,4.944000,0
119.130304,404,427,3232,4.928000,0
119.135232,405,428,3240,4.800000,0
119.140032,406,429,3248,4.848000,0
119.144880,407,430,3256,4.768000,0
119.149648,408,431,3264,4.784000,0
119.154432,409,432,3272,4.928000,0
119.159360,410,433,3280,4.752000,0
119.164112,411,434,3288,0,3841.264000
123.005376,411,435,3288,4.848000,0
123.010224,412,436,3296,4.720000,0
123.014944,413,437,3304,4.896000,0
123.019840,414,438,3312,3.680000,0
123.023520,415,439,3320,3.680000,0
123.027200,416,440,3328,3.680000,0
123.030880,417,441,3336,4.848000,0
123.035728,418,442,3344,4.928000,0
123.040656,419,443,3352,4.800000,0
123.045456,420,444,3360,4.944000,0
123.050400,421,445,3368,4.992000,0
123.055392,422,446,3376,4.912000,0
123.060304,423,447,3384,4.720000,0
123.065024,424,448,3392,4.752000,0
123.069776,425,449,3400,4.720000,0
123.074496,426,450,3408,4.944000,0
123.079440,427,451,3416,3.680000,0
123.083120,428,452,3424,4.752000,0
123.087872,429,453,3432,4.944000,0
123.092816,430,454,3440,4.928000,0
123.097744,431,455,3448,4.800000,0
123.102544,432,456,3456,4.848000,0
123.107392,433,457,3464,0,3830.144000
126.937536,433,458,3464,4.768000,0
126.942304,434,459,3472,4.784000,0
126.947088,435,460,3480,4.928000,0
126.952016,436,461,3488,4.752000,0
126.956768,437,462,3496,4.848000,0
126.961616,438,463,3504,4.720000,0
126.966336,439,464,3512,4.896000,0
126.971232,440,465,3520,3.680000,0
126.974912,441,466,3528,3.680000,0
126.978592,442,467,3536,3.680000,0
126.982272,443,468,3544,4.848000,0
126.987120,444,469,3552,4.928000,0
126.992048,445,470,3560,4.800000,0
126.996848,446,471,3568,4.944000,0
127.001792,447,472,3576,4.992000,0
127.006784,448,473,3584,4.912000,0
127.011696,449,474,3592,4.720000,0
127.016416,450,475,3600,4.752000,0
127.021168,451,476,3608,4.720000,0
127.025888,452,477,3616,4.944000,0
127.030832,453,478,3624,3.680000,0
127.034512,454,479,3632,0,3835.184000
130.869696,454,480,3632,4.752000,0
130.874448,455,481,3640,4.944000,0
130.879392,456,482,3648,4.928000,0
130.884320,457,483,3656,4.800000,0
130.889120,458,484,3664,4.848000,0
130.893968,459,485,3672,4.768000,0
130.898736,460,486,3680,4.784000,0
130.903520,461,487,3688,4.928000,0
130.908448,462,488,3696,4.752000,0
130.913200,463,489,3704,4.848000,0
130.918048,464,490,3712,4.720000,0
130.922768,465,491,3720,4.896000,0
130.927664,466,492,3728,3.680000,0
130.931344,467,493,3736,3.680000,0
130.935024,468,494,3744,3.680000,0
130.938704,469,495,3752,4.848000,0
130.943552,470,496,3760,4.928000,0
130.948480,471,497,3768,4.800000,0
130.953280,472,498,3776,4.944000,0
130.958224,473,499,3784,0,3843.632000
134.801856,473,500,3784,4.992000,0
134.806848,474,501,3792,4.912000,0
134.811760,475,502,3800,4.720000,0
134.816480,476,503,3808,4.752000,0
134.821232,477,504,3816,4.720000,0
134.825952,478,505,3824,4.944000,0
134.830896,479,506,3832,3.680000,0
134.834576,480,507,3840,4.752000,0
134.839328,481,508,3848,4.944000,0
134.844272,482,509,3856,4.928000,0
134.849200,483,510,3864,4.800000,0
134.854000,484,511,3872,4.848000,0
134.858848,485,512,3880,4.768000,0
134.863616,486,513,3888,4.784000,0
134.868400,487,514,3896,4.928000,0
134.873328,488,515,3904,4.752000,0
134.878080,489,516,3912,4.848000,0
134.882928,490,517,3920,0,3851.088000
138.734016,490,518,3920,4.720000,0
138.738736,491,519,3928,4.896000,0
138.743632,492,520,3936,3.680000,0
138.747312,493,521,3944,3.680000,0
138.750992,494,522,3952,3.680000,0
138.754672,495,523,3960,4.848000,0
138.759520,496,524,3968,4.928000,0
138.764448,497,525,3976,4.800000,0
138.769248,498,526,3984,4.944000,0
138.774192,499,527,3992,4.992000,0
138.779184,500,528,4000,4.912000,0
138.784096,501,529,4008,4.720000,0
138.788816,502,530,4016,4.752000,0
138.793568,503,531,4024,4.720000,0
138.798288,504,532,4032,4.944000,0
138.803232,505,533,4040,3.680000,0
138.806912,506,534,4048,4.752000,0
138.811664,507,535,4056,4.944000,0
138.816608,508,536,4064,4.928000,0
138.821536,509,537,4072,4.800000,0
138.826336,510,538,4080,0,3839.840000
142.666176,510,539,4080,4.848000,0
142.671024,511,540,4088,4.768000,0
142.675792,512,541,4096,4.784000,0
142.680576,513,542,4104,4.928000,0
142.685504,514,543,4112,4.752000,0
142.690256,515,544,4120,4.848000,0
142.695104,516,545,4128,4.720000,0
142.699824,517,546,4136,4.896000,0
142.704720,518,547,4144,3.680000,0
142.708400,519,548,4152,3.680000,0
142.712080,520,549,4160,3.680000,0
142.715760,521,550,4168,4.848000,0
142.720608,522,551,4176,4.928000,0
142.725536,523,552,4184,4.800000,0
142.730336,524,553,4192,4.944000,0
142.735280,525,554,4200,4.992000,0
142.740272,526,555,4208,4.912000,0
142.745184,527,556,4216,4.720000,0
142.749904,528,557,4224,4.752000,0
142.754656,529,558,4232,4.720000,0
142.759376,530,559,4240,4.944000,0
142.764320,531,560,4248,3.680000,0
142.768000,532,561,4256,0,3830.336000
146.598336,532,562,4256,4.752000,0
146.603088,533,563,4264,4.944000,0
146.608032,534,564,4272,4.928000,0
146.612960,535,565,4280,4.800000,0
146.617760,536,566,4288,4.848000,0
146.622608,537,567,4296,4.768000,0
146.627376,538,568,4304,4.784000,0
146.632160,539,569,4312,4.928000,0
146.637088,540,570,4320,4.752000,0
146.641840,541,571,4328,4.848000,0
146.646688,542,572,4336,4.720000,0
146.651408,543,573,4344,4.896000,0
146.656304,544,574,4352,3.680000,0
146.659984,545,575,4360,3.680000,0
146.663664,546,576,4368,3.680000,0
146.667344,547,577,4376,4.848000,0
146.672192,548,578,4384,4.928000,0
146.677120,549,579,4392,4.800000,0
146.681920,550,580,4400,4.944000,0
146.686864,551,581,4408,4.992000,0
146.691856,552,582,4416,0,3838.640000
150.530496,552,583,4416,4.912000,0
150.535408,553,584,4424,4.720000,0
150.540128,554,585,4432,4.752000,0
150.544880,555,586,4440,4.720000,0
150.549600,556,587,4448,4.944000,0
150.554544,557,588,4456,3.680000,0
150.558224,558,589,4464,4.752000,0
150.562976,559,590,4472,4.944000,0
150.567920,560,591,4480,4.928000,0
150.572848,561,592,4488,4.800000,0
150.577648,562,593,4496,4.848000,0
150.582496,563,594,4504,4.768000,0
150.587264,564,595,4512,4.784000,0
150.592048,565,596,4520,4.928000,0
150.596976,566,597,4528,4.752000,0
150.601728,567,598,4536,4.848000,0
150.606576,568,599,4544,4.720000,0
150.611296,569,600,4552,4.896000,0
150.616192,570,601,4560,0,3846.464000
154.462656,570,602,4560,3.680000,0
154.466336,571,603,4568,3.680000,0
154.470016,572,604,4576,3.680000,0
154.473696,573,605,4584,4.848000,0
154.478544,574,606,4592,4.928000,0
154.483472,575,607,4600,4.800000,0
154.488272,576,608,4608,4.944000,0
154.493216,577,609,4616,4.992000,0
154.498208,578,610,4624,4.912000,0
154.503120,579,611,4632,4.720000,0
154.507840,580,612,4640,4.752000,0
154.512592,581,613,4648,4.720000,0
154.517312,582,614,4656,4.944000,0
154.522256,583,615,4664,3.680000,0
154.525936,584,616,4672,4.752000,0
154.530688,585,617,4680,4.944000,0
154.535632,586,618,4688,4.928000,0
154.540560,587,619,4696,4.800000,0
154.545360,588,620,4704,4.848000,0
154.550208,589,621,4712,4.768000,0
154.554976,590,622,4720,4.784000,0
154.559760,591,623,4728,4.928000,0
154.564688,592,624,4736,0,3830.128000
158.394816,592,625,4736,4.752000,0
158.399568,593,626,4744,4.848000,0
158.404416,594,627,4752,4.720000,0
158.409136,595,628,4760,4.896000,0
158.414032,596,629,4768,3.680000,0
158.417712,597,630,4776,3.680000,0
158.421392,598,631,4784,3.680000,0
158.425072,599,632,4792,4.848000,0
158.429920,600,633,4800,4.928000,0
158.434848,601,634,4808,4.800000,0
158.439648,602,635,4816,4.944000,0
158.444592,603,636,4824,4.992000,0
158.449584,604,637,4832,4.912000,0
158.454496,605,638,4840,4.720000,0
158.459216,606,639,4848,4.752000,0
158.463968,607,640,4856,0,3863.008000
162.326976,607,641,4856,4.720000,0
162.331696,608,642,4864,4.944000,0
162.336640,609,643,4872,3.680000,0
162.340320,610,644,4880,4.752000,0
162.345072,611,645,4888,4.944000,0
162.350016,612,646,4896,4.928000,0
162.354944,613,647,4904,4.800000,0
162.359744,614,648,4912,4.848000,0
162.364592,615,649,4920,4.768000,0
162.369360,616,650,4928,4.784000,0
162.374144,617,651,4936,4.928000,0
162.379072,618,652,4944,4.752000,0
162.383824,619,653,4952,4.848000,0
162.388672,620,654,4960,4.720000,0
162.393392,621,655,4968,4.896000,0
162.398288,622,656,4976,3.680000,0
162.401968,623,657,4984,3.680000,0
162.405648,624,658,4992,3.680000,0
162.409328,625,659,5000,4.848000,0
162.414176,626,660,5008,4.928000,0
162.419104,627,661,5016,4.800000,0
162.423904,628,662,5024,0,3835.232000
166.259136,628,663,5024,4.944000,0
166.264080,629,664,5032,4.992000,0
166.269072,630,665,5040,4.912000,0
166.273984,631,666,5048,4.720000,0
166.278704,632,667,5056,4.752000,0
166.283456,633,668,5064,4.720000,0
166.288176,634,669,5072,4.944000,0
166.293120,635,670,5080,3.680000,0
166.296800,636,671,5088,4.752000,0
166.301552,637,672,5096,4.944000,0
166.306496,638,673,5104,4.928000,0
166.311424,639,674,5112,4.800000,0
166.316224,640,675,5120,4.848000,0
166.321072,641,676,5128,4.768000,0
166.325840,642,677,5136,4.784000,0
166.330624,643,678,5144,4.928000,0
166.335552,644,679,5152,4.752000,0
166.340304,645,680,5160,0,3850.992000
170.191296,645,681,5160,4.848000,0
170.196144,646,682,5168,4.720000,0
170.200864,647,683,5176,4.896000,0
170.205760,648,684,5184,3.680000,0
170.209440,649,685,5192,3.680000,0
170.213120,650,686,5200,3.680000,0
170.216800,651,687,5208,4.848000,0
170.221648,652,688,5216,4.928000,0
170.226576,653,689,5224,4.800000,0
170.231376,654,690,5232,4.944000,0
170.236320,655,691,5240,4.992000,0
170.241312,656,692,5248,4.912000,0
170.246224,657,693,5256,4.720000,0
170.250944,658,694,5264,4.752000,0
170.255696,659,695,5272,4.720000,0
170.260416,660,696,5280,4.944000,0
170.265360,661,697,5288,3.680000,0
170.269040,662,698,5296,4.752000,0
170.273792,663,699,5304,0,3849.664000
174.123456,663,700,5304,4.944000,0
174.128400,664,701,5312,4.928000,0
174.133328,665,702,5320,4.800000,0
174.138128,666,703,5328,4.848000,0
174.142976,667,704,5336,4.768000,0
174.147744,668,705,5344,4.784000,0
174.152528,669,706,5352,4.928000,0
174.157456,670,707,5360,4.752000,0
174.162208,671,708,5368,4.848000,0
174.167056,672,709,5376,4.720000,0
174.171776,673,710,5384,4.896000,0
174.176672,674,711,5392,3.680000,0
174.180352,675,712,5400,3.680000,0
174.184032,676,713,5408,3.680000,0
174.187712,677,714,5416,4.848000,0
174.192560,678,715,5424,4.928000,0
174.197488,679,716,5432,0,3858.128000
178.055616,679,717,5432,4.800000,0
178.060416,680,718,5440,4.944000,0
178.065360,681,719,5448,4.992000,0
178.070352,682,720,5456,4.912000,0
178.075264,683,721,5464,4.720000,0
178.079984,684,722,5472,4.752000,0
178.084736,685,723,5480,4.720000,0
178.089456,686,724,5488,4.944000,0
178.094400,687,725,5496,3.680000,0
178.098080,688,726,5504,4.752000,0
178.102832,689,727,5512,4.944000,0
178.107776,690,728,5520,4.928000,0
178.112704,691,729,5528,4.800000,0
178.117504,692,730,5536,4.848000,0
178.122352,693,731,5544,4.768000,0
178.127120,694,732,5552,4.784000,0
178.131904,695,733,5560,4.928000,0
178.136832,696,734,5568,0,3850.944000
181.987776,696,735,5568,4.752000,0
181.992528,697,736,5576,4.848000,0
181.997376,698,737,5584,4.720000,0
182.002096,699,738,5592,4.896000,0
182.006992,700,739,5600,3.680000,0
182.010672,701,740,5608,3.680000,0
182.014352,702,741,5616,3.680000,0
182.018032,703,742,5624,4.848000,0
182.022880,704,743,5632,4.928000,0
182.027808,705,744,5640,4.800000,0
182.032608,706,745,5648,4.944000,0
182.037552,707,746,5656,4.992000,0
182.042544,708,747,5664,4.912000,0
182.047456,709,748,5672,4.720000,0
182.052176,710,749,5680,4.752000,0
182.056928,711,750,5688,4.720000,0
182.061648,712,751,5696,0,3858.288000
185.919936,712,752,5696,4.944000,0
185.924880,713,753,5704,3.680000,0
185.928560,714,754,5712,4.752000,0
185.933312,715,755,5720,4.944000,0
185.938256,716,756,5728,4.928000,0
185.943184,717,757,5736,4.800000,0
185.947984,718,758,5744,4.848000,0
185.952832,719,759,5752,4.768000,0
185.957600,720,760,5760,4.784000,0
185.962384,721,761,5768,4.928000,0
185.967312,722,762,5776,4.752000,0
185.972064,723,763,5784,4.848000,0
185.976912,724,764,5792,4.720000,0
185.981632,725,765,5800,4.896000,0
185.986528,726,766,5808,3.680000,0
185.990208,727,767,5816,3.680000,0
185.993888,728,768,5824,0,3858.208000
189.852096,728,769,5824,3.680000,0
189.855776,729,770,5832,4.848000,0
189.860624,730,771,5840,4.928000,0
189.865552,731,772,5848,4.800000,0
189.870352,732,773,5856,4.944000,0
189.875296,733,774,5864,4.992000,0
189.880288,734,775,5872,4.912000,0
189.885200,735,776,5880,4.720000,0
189.889920,736,777,5888,4.752000,0
189.894672,737,778,5896,4.720000,0
189.899392,738,779,5904,4.944000,0
189.904336,739,780,5912,3.680000,0
189.908016,740,781,5920,4.752000,0
189.912768,741,782,5928,4.944000,0
189.917712,742,783,5936,4.928000,0
189.922640,743,784,5944,4.800000,0
189.927440,744,785,5952,4.848000,0
189.932288,745,786,5960,4.768000,0
189.937056,746,787,5968,0,3847.200000
193.784256,746,788,5968,4.784000,0
193.789040,747,789,5976,4.928000,0
193.793968,748,790,5984,4.752000,0
193.798720,749,791,5992,4.848000,0
193.803568,750,792,6000,4.720000,0
193.808288,751,793,6008,4.896000,0
193.813184,752,794,6016,3.680000,0
193.816864,753,795,6024,3.680000,0
193.820544,754,796,6032,3.680000,0
193.824224,755,797,6040,4.848000,0
193.829072,756,798,6048,4.928000,0
193.834000,757,799,6056,4.800000,0
193.838800,758,800,6064,4.944000,0
193.843744,759,801,6072,4.992000,0
193.848736,760,802,6080,4.912000,0
193.853648,761,803,6088,4.720000,0
193.858368,762,804,6096,4.752000,0
193.863120,763,805,6104,4.720000,0
193.867840,764,806,6112,4.944000,0
193.872784,765,807,6120,0,3843.632000
197.716416,765,808,6120,3.680000,0
197.720096,766,809,6128,4.752000,0
197.724848,767,810,6136,4.944000,0
197.729792,768,811,6144,4.928000,0
197.734720,769,812,6152,4.800000,0
197.739520,770,813,6160,4.848000,0
197.744368,771,814,6168,4.768000,0
197.749136,772,815,6176,4.784000,0
197.753920,773,816,6184,4.928000,0
197.758848,774,817,6192,4.752000,0
197.763600,775,818,6200,4.848000,0
197.768448,776,819,6208,4.720000,0
197.773168,777,820,6216,4.896000,0
197.778064,778,821,6224,3.680000,0
197.781744,779,822,6232,3.680000,0
197.785424,780,823,6240,0,3863.152000
201.648576,780,824,6240,3.680000,0
201.652256,781,825,6248,4.848000,0
201.657104,782,826,6256,4.928000,0
201.662032,783,827,6264,4.800000,0
201.666832,784,828,6272,4.944000,0
201.671776,785,829,6280,4.992000,0
201.676768,786,830,6288,4.912000,0
201.681680,787,831,6296,4.720000,0
201.686400,788,832,6304,4.752000,0
201.691152,789,833,6312,4.720000,0
201.695872,790,834,6320,4.944000,0
201.700816,791,835,6328,3.680000,0
201.704496,792,836,6336,4.752000,0
201.709248,793,837,6344,4.944000,0
201.714192,794,838,6352,4.928000,0
201.719120,795,839,6360,4.800000,0
201.723920,796,840,6368,4.848000,0
201.728768,797,841,6376,4.768000,0
201.733536,798,842,6384,4.784000,0
201.738320,799,843,6392,4.928000,0
201.743248,800,844,6400,0,3837.488000
205.580736,800,845,6400,4.752000,0
205.585488,801,846,6408,4.848000,0
205.590336,802,847,6416,4.720000,0
205.595056,803,848,6424,4.896000,0
205.599952,804,849,6432,3.680000,0
205.603632,805,850,6440,3.680000,0
205.607312,806,851,6448,3.680000,0
205.610992,807,852,6456,4.848000,0
205.615840,808,853,6464,4.928000,0
205.620768,809,854,6472,4.800000,0
205.625568,810,855,6480,4.944000,0
205.630512,811,856,6488,4.992000,0
205.635504,812,857,6496,4.912000,0
205.640416,813,858,6504,4.720000,0
205.645136,814,859,6512,4.752000,0
205.649888,815,860,6520,4.720000,0
205.654608,816,861,6528,4.944000,0
205.659552,817,862,6536,3.680000,0
205.663232,818,863,6544,4.752000,0
205.667984,819,864,6552,4.944000,0
205.672928,820,865,6560,0,3839.968000
209.512896,820,866,6560,4.928000,0
209.517824,821,867,6568,4.800000,0
209.522624,822,868,6576,4.848000,0
209.527472,823,869,6584,4.768000,0
209.532240,824,870,6592,4.784000,0
209.537024,825,871,6600,4.928000,0
209.541952,826,872,6608,4.752000,0
209.546704,827,873,6616,4.848000,0
209.551552,828,874,6624,4.720000,0
209.556272,829,875,6632,4.896000,0
209.561168,830,876,6640,3.680000,0
209.564848,831,877,6648,3.680000,0
209.568528,832,878,6656,3.680000,0
209.572208,833,879,6664,4.848000,0
209.577056,834,880,6672,4.928000,0
209.581984,835,881,6680,4.800000,0
209.586784,836,882,6688,4.944000,0
209.591728,837,883,6696,0,3853.328000
213.445056,837,884,6696,4.992000,0
213.450048,838,885,6704,4.912000,0
213.454960,839,886,6712,4.720000,0
213.459680,840,887,6720,4.752000,0
213.464432,841,888,6728,4.720000,0
213.469152,842,889,6736,4.944000,0
213.474096,843,890,6744,3.680000,0
213.477776,844,891,6752,4.752000,0
213.482528,845,892,6760,4.944000,0
213.487472,846,893,6768,4.928000,0
213.492400,847,894,6776,4.800000,0
213.497200,848,895,6784,4.848000,0
213.502048,849,896,6792,4.768000,0
213.506816,850,897,6800,4.784000,0
213.511600,851,898,6808,4.928000,0
213.516528,852,899,6816,0,3860.688000
217.377216,852,900,6816,4.752000,0
217.381968,853,901,6824,4.848000,0
217.386816,854,902,6832,4.720000,0
217.391536,855,903,6840,4.896000,0
217.396432,856,904,6848,3.680000,0
217.400112,857,905,6856,3.680000,0
217.403792,858,906,6864,3.680000,0
217.407472,859,907,6872,4.848000,0
217.412320,860,908,6880,4.928000,0
217.417248,861,909,6888,4.800000,0
217.422048,862,910,6896,4.944000,0
217.426992,863,911,6904,4.992000,0
217.431984,864,912,6912,4.912000,0
217.436896,865,913,6920,4.720000,0
217.441616,866,914,6928,4.752000,0
217.446368,867,915,6936,4.720000,0
217.451088,868,916,6944,4.944000,0
217.456032,869,917,6952,3.680000,0
217.459712,870,918,6960,4.752000,0
217.464464,871,919,6968,4.944000,0
217.469408,872,920,6976,0,3839.968000
221.309376,872,921,6976,4.928000,0
221.314304,873,922,6984,4.800000,0
221.319104,874,923,6992,4.848000,0
221.323952,875,924,7000,4.768000,0
221.328720,876,925,7008,4.784000,0
221.333504,877,926,7016,4.928000,0
221.338432,878,927,7024,4.752000,0
221.343184,879,928,7032,4.848000,0
221.348032,880,929,7040,4.720000,0
221.352752,881,930,7048,4.896000,0
221.357648,882,931,7056,3.680000,0
221.361328,883,932,7064,3.680000,0
221.365008,884,933,7072,3.680000,0
221.368688,885,934,7080,4.848000,0
221.373536,886,935,7088,4.928000,0
221.378464,887,936,7096,4.800000,0
221.383264,888,937,7104,4.944000,0
221.388208,889,938,7112,4.992000,0
221.393200,890,939,7120,4.912000,0
221.398112,891,940,7128,0,3843.424000
225.241536,891,941,7128,4.720000,0
225.246256,892,942,7136,4.752000,0
225.251008,893,943,7144,4.720000,0
225.255728,894,944,7152,4.944000,0
225.260672,895,945,7160,3.680000,0
225.264352,896,946,7168,4.752000,0
225.269104,897,947,7176,4.944000,0
225.274048,898,948,7184,4.928000,0
225.278976,899,949,7192,4.800000,0
225.283776,900,950,7200,4.848000,0
225.288624,901,951,7208,4.768000,0
225.293392,902,952,7216,4.784000,0
225.298176,903,953,7224,4.928000,0
225.303104,904,954,7232,4.752000,0
225.307856,905,955,7240,4.848000,0
225.312704,906,956,7248,4.720000,0
225.317424,907,957,7256,4.896000,0
225.322320,908,958,7264,3.680000,0
225.326000,909,959,7272,3.680000,0
225.329680,910,960,7280,0,3844.016000
229.173696,910,961,7280,3.680000,0
229.177376,911,962,7288,4.848000,0
229.182224,912,963,7296,4.928000,0
229.187152,913,964,7304,4.800000,0
229.191952,914,965,7312,4.944000,0
229.196896,915,966,7320,4.992000,0
229.201888,916,967,7328,4.912000,0
229.206800,917,968,7336,4.720000,0
229.211520,918,969,7344,4.752000,0
229.216272,919,970,7352,4.720000,0
229.220992,920,971,7360,4.944000,0
229.225936,921,972,7368,3.680000,0
229.229616,922,973,7376,4.752000,0
229.234368,923,974,7384,4.944000,0
229.239312,924,975,7392,0,3866.544000
233.105856,924,976,7392,4.928000,0
233.110784,925,977,7400,4.800000,0
233.115584,926,978,7408,4.848000,0
233.120432,927,979,7416,4.768000,0
233.125200,928,980,7424,4.784000,0
233.129984,929,981,7432,4.928000,0
233.134912,930,982,7440,4.752000,0
233.139664,931,983,7448,4.848000,0
233.144512,932,984,7456,4.720000,0
233.149232,933,985,7464,4.896000,0
233.154128,934,986,7472,3.680000,0
233.157808,935,987,7480,3.680000,0
233.161488,936,988,7488,3.680000,0
233.165168,937,989,7496,4.848000,0
233.170016,938,990,7504,4.928000,0
233.174944,939,991,7512,4.800000,0
233.179744,940,992,7520,