Time,CovertPackets,AllPackets,BitsSent,PacketInterval;GTSInterval
32.015888,1,2,8,4.848000,0
32.020736,2,3,16,0,1958.080000
33.978816,2,4,16,4.928000,0
33.983744,3,5,24,0,1961.152000
35.944896,3,6,24,4.800000,0
35.949696,4,7,32,4.944000,0
35.954640,5,8,40,0,1956.336000
37.910976,5,9,40,4.992000,0
37.915968,6,10,48,0,1961.088000
39.877056,6,11,48,4.912000,0
39.881968,7,12,56,4.720000,0
39.886688,8,13,64,0,1956.448000
41.843136,8,14,64,4.752000,0
41.847888,9,15,72,0,1961.328000
43.809216,9,16,72,4.720000,0
43.813936,10,17,80,4.944000,0
43.818880,11,18,88,0,1956.416000
45.775296,11,19,88,3.680000,0
45.778976,12,20,96,0,1962.400000
47.741376,12,21,96,4.752000,0
47.746128,13,22,104,0,1961.328000
49.707456,13,23,104,4.944000,0
49.712400,14,24,112,0,1961.136000
51.673536,14,25,112,4.928000,0
51.678464,15,26,120,4.800000,0
51.683264,16,27,128,0,1956.352000
53.639616,16,28,128,4.848000,0
53.644464,17,29,136,0,1961.232000
55.605696,17,30,136,4.768000,0
55.610464,18,31,144,4.784000,0
55.615248,19,32,152,0,1956.528000
57.571776,19,33,152,4.928000,0
57.576704,20,34,160,0,1961.152000
59.537856,20,35,160,4.752000,0
59.542608,21,36,168,0,1961.328000
61.503936,21,37,168,4.848000,0
61.508784,22,38,176,4.720000,0
61.513504,23,39,184,0,1956.512000
63.470016,23,40,184,4.896000,0
63.474912,24,41,192,3.680000,0
63.478592,25,42,200,0,1957.504000
65.436096,25,43,200,3.680000,0
65.439776,26,44,208,0,1962.400000
67.402176,26,45,208,3.680000,0
67.405856,27,46,216,4.848000,0
67.410704,28,47,224,0,1957.552000
69.368256,28,48,224,4.928000,0
69.373184,29,49,232,4.800000,0
69.377984,30,50,240,0,1956.352000
71.334336,30,51,240,4.944000,0
71.339280,31,52,248,0,1961.136000
73.300416,31,53,248,4.992000,0
73.305408,32,54,256,0,1961.088000
75.266496,32,55,256,4.912000,0
75.271408,33,56,264,0,1961.168000
77.232576,33,57,264,4.720000,0
77.237296,34,58,272,4.752000,0
77.242048,35,59,280,0,1956.608000
79.198656,35,60,280,4.720000,0
79.203376,36,61,288,4.944000,0
79.208320,37,62,296,0,1956.416000
81.164736,37,63,296,3.680000,0
81.168416,38,64,304,0,1962.400000
83.130816,38,65,304,4.752000,0
83.135568,39,66,312,0,1961.328000
85.096896,39,67,312,4.944000,0
85.101840,40,68,320,4.928000,0
85.106768,41,69,328,0,1956.208000
87.062976,41,70,328,4.800000,0
87.067776,42,71,336,0,1961.280000
89.029056,42,72,336,4.848000,0
89.033904,43,73,344,0,1961.232000
90.995136,43,74,344,4.768000,0
90.999904,44,75,352,4.784000,0
91.004688,45,76,360,0,1956.528000
92.961216,45,77,360,4.928000,0
92.966144,46,78,368,0,1961.152000
94.927296,46,79,368,4.752000,0
94.932048,47,80,376,4.848000,0
94.936896,48,81,384,0,1956.480000
96.893376,48,82,384,4.720000,0
96.898096,49,83,392,4.896000,0
96.902992,50,84,400,0,1956.464000
98.859456,50,85,400,3.680000,0
98.863136,51,86,408,0,1962.400000
100.825536,51,87,408,3.680000,0
100.829216,52,88,416,3.680000,0
100.832896,53,89,424,0,1958.720000
102.791616,53,90,424,4.848000,0
102.796464,54,91,432,0,1961.232000
104.757696,54,92,432,4.928000,0
104.762624,55,93,440,4.800000,0
104.767424,56,94,448,0,1956.352000
106.723776,56,95,448,4.944000,0
106.728720,57,96,456,0,1961.136000
108.689856,57,97,456,4.992000,0
108.694848,58,98,464,0,1961.088000
110.655936,58,99,464,4.912000,0
110.660848,59,100,472,4.720000,0
110.665568,60,101,480,0,1956.448000
112.622016,60,102,480,4.752000,0
112.626768,61,103,488,4.720000,0
112.631488,62,104,496,0,1956.608000
114.588096,62,105,496,4.944000,0
114.593040,63,106,504,0,1961.136000
116.554176,63,107,504,3.680000,0
116.557856,64,108,512,4.752000,0
116.562608,65,109,520,0,1957.648000
118.520256,65,110,520,4.944000,0
118.525200,66,111,528,0,1961.136000
120.486336,66,112,528,4.928000,0
120.491264,67,113,536,4.800000,0
120.496064,68,114,544,0,1956.352000
122.452416,68,115,544,4.848000,0
122.457264,69,116,552,0,1961.232000
124.418496,69,117,552,4.768000,0
124.423264,70,118,560,4.784000,0
124.428048,71,119,568,0,1956.528000
126.384576,71,120,568,4.928000,0
126.389504,72,121,576,0,1961.152000
128.350656,72,122,576,4.752000,0
128.355408,73,123,584,0,1961.328000
130.316736,73,124,584,4.848000,0
130.321584,74,125,592,4.720000,0
130.326304,75,126,600,0,1956.512000
132.282816,75,127,600,4.896000,0
132.287712,76,128,608,0,1961.184000
134.248896,76,129,608,3.680000,0
134.252576,77,130,616,3.680000,0
134.256256,78,131,624,0,1958.720000
136.214976,78,132,624,3.680000,0
136.218656,79,133,632,4.848000,0
136.223504,80,134,640,0,1957.552000
138.181056,80,135,640,4.928000,0
138.185984,81,136,648,0,1961.152000
140.147136,81,137,648,4.800000,0
140.151936,82,138,656,0,1961.280000
142.113216,82,139,656,4.944000,0
142.118160,83,140,664,4.992000,0
142.123152,84,141,672,0,1956.144000
144.079296,84,142,672,4.912000,0
144.084208,85,143,680,0,1961.168000
146.045376,85,144,680,4.720000,0
146.050096,86,145,688,4.752000,0
146.054848,87,146,696,0,1956.608000
148.011456,87,147,696,4.720000,0
148.016176,88,148,704,4.944000,0
148.021120,89,149,712,0,1956.416000
149.977536,89,150,712,3.680000,0
149.981216,90,151,720,0,1962.400000
151.943616,90,152,720,4.752000,0
151.948368,91,153,728,4.944000,0
151.953312,92,154,736,0,1956.384000
153.909696,92,155,736,4.928000,0
153.914624,93,156,744,0,1961.152000
155.875776,93,157,744,4.800000,0
155.880576,94,158,752,4.848000,0
155.885424,95,159,760,0,1956.432000
157.841856,95,160,760,4.768000,0
157.846624,96,161,768,0,1961.312000
159.807936,96,162,768,4.784000,0
159.812720,97,163,776,0,1961.296000
161.774016,97,164,776,4.928000,0
161.778944,98,165,784,4.752000,0
161.783696,99,166,792,0,1956.400000
163.740096,99,167,792,4.848000,0
163.744944,100,168,800,0,1961.232000
165.706176,100,169,800,4.720000,0
165.710896,101,170,808,4.896000,0
165.715792,102,171,816,0,1956.464000
167.672256,102,172,816,3.680000,0
167.675936,103,173,824,0,1962.400000
169.638336,103,174,824,3.680000,0
169.642016,104,175,832,0,1962.400000
171.604416,104,176,832,3.680000,0
171.608096,105,177,840,0,1962.400000
173.570496,105,178,840,4.848000,0
173.575344,106,179,848,4.928000,0
173.580272,107,180,856,0,1956.304000
175.536576,107,181,856,4.800000,0
175.541376,108,182,864,4.944000,0
175.546320,109,183,872,0,1956.336000
177.502656,109,184,872,4.992000,0
177.507648,110,185,880,0,1961.088000
179.468736,110,186,880,4.912000,0
179.473648,111,187,888,4.720000,0
179.478368,112,188,896,0,1956.448000
181.434816,112,189,896,4.752000,0
181.439568,113,190,904,0,1961.328000
183.400896,113,191,904,4.720000,0
183.405616,114,192,912,0,1961.360000
185.366976,114,193,912,4.944000,0
185.371920,115,194,920,3.680000,0
185.375600,116,195,928,0,1957.456000
187.333056,116,196,928,4.752000,0
187.337808,117,197,936,0,1961.328000
189.299136,117,198,936,4.944000,0
189.304080,118,199,944,4.928000,0
189.309008,119,200,952,0,1956.208000
191.265216,119,201,952,4.800000,0
191.270016,120,202,960,0,1961.280000
193.231296,120,203,960,4.848000,0
193.236144,121,204,968,0,1961.232000
195.197376,121,205,968,4.768000,0
195.202144,122,206,976,0,1961.312000
197.163456,122,207,976,4.784000,0
197.168240,123,208,984,4.928000,0
197.173168,124,209,992,0,1956.368000
199.129536,124,210,992,4.752000,0
199.134288,125,211,1000,4.848000,0
199.139136,126,212,1008,0,1956.480000
201.095616,126,213,1008,4.720000,0
201.100336,127,214,1016,0,1961.360000
203.061696,127,215,1016,4.896000,0
203.066592,128,216,1024,0,1961.184000
205.027776,128,217,1024,3.680000,0
205.031456,129,218,1032,3.680000,0
205.035136,130,219,1040,0,1958.720000
206.993856,130,220,1040,3.680000,0
206.997536,131,221,1048,0,1962.400000
208.959936,131,222,1048,4.848000,0
208.964784,132,223,1056,4.928000,0
208.969712,133,224,1064,0,1956.304000
210.926016,133,225,1064,4.800000,0
210.930816,134,226,1072,0,1961.280000
212.892096,134,227,1072,4.944000,0
212.897040,135,228,1080,4.992000,0
212.902032,136,229,1088,0,1956.144000
214.858176,136,230,1088,4.912000,0
214.863088,137,231,1096,4.720000,0
214.867808,138,232,1104,0,1956.448000
216.824256,138,233,1104,4.752000,0
216.829008,139,234,1112,0,1961.328000
218.790336,139,235,1112,4.720000,0
218.795056,140,236,1120,4.944000,0
218.800000,141,237,1128,0,1956.416000
220.756416,141,238,1128,3.680000,0
220.760096,142,239,1136,0,1962.400000
222.722496,142,240,1136,4.752000,0
222.727248,143,241,1144,0,1961.328000
224.688576,143,242,1144,4.944000,0
224.693520,144,243,1152,4.928000,0
224.698448,145,244,1160,0,1956.208000
226.654656,145,245,1160,4.800000,0
226.659456,146,246,1168,0,1961.280000
228.620736,146,247,1168,4.848000,0
228.625584,147,248,1176,4.768000,0
228.630352,148,249,1184,0,1956.464000
230.586816,148,250,1184,4.784000,0
230.591600,149,251,1192,0,1961.296000
232.552896,149,252,1192,4.928000,0
232.557824,150,253,1200,4.752000,0
232.562576,151,254,1208,