Time,CovertPackets,AllPackets,BitsSent,PacketInterval;GTSInterval
260.511248,1,2,8,4.848000,0
260.516096,2,3,16,4.928000,0
260.521024,3,4,24,4.800000,0
260.525824,4,5,32,4.944000,0
260.530768,5,6,40,4.992000,0
260.535760,6,7,48,4.912000,0
260.540672,7,8,56,4.720000,0
260.545392,8,9,64,4.752000,0
260.550144,9,10,72,4.720000,0
260.554864,10,11,80,4.944000,0
260.559808,11,12,88,3.680000,0
260.563488,12,13,96,4.752000,0
260.568240,13,14,104,4.944000,0
260.573184,14,15,112,4.928000,0
260.578112,15,16,120,4.800000,0
260.582912,16,17,128,4.848000,0
260.587760,17,18,136,4.768000,0
260.592528,18,19,144,4.784000,0
260.597312,19,20,152,4.928000,0
260.602240,20,21,160,4.752000,0
260.606992,21,22,168,0,31358.384000
291.965376,21,23,168,4.848000,0
291.970224,22,24,176,4.720000,0
291.974944,23,25,184,4.896000,0
291.979840,24,26,192,3.680000,0
291.983520,25,27,200,3.680000,0
291.987200,26,28,208,3.680000,0
291.990880,27,29,216,4.848000,0
291.995728,28,30,224,4.928000,0
292.000656,29,31,232,4.800000,0
292.005456,30,32,240,4.944000,0
292.010400,31,33,248,4.992000,0
292.015392,32,34,256,4.912000,0
292.020304,33,35,264,4.720000,0
292.025024,34,36,272,4.752000,0
292.029776,35,37,280,4.720000,0
292.034496,36,38,288,4.944000,0
292.039440,37,39,296,3.680000,0
292.043120,38,40,304,4.752000,0
292.047872,39,41,312,4.944000,0
292.052816,40,42,320,4.928000,0
292.057744,41,43,328,4.800000,0
292.062544,42,44,336,0,31360.112000
323.422656,42,45,336,4.848000,0
323.427504,43,46,344,4.768000,0
323.432272,44,47,352,4.784000,0
323.437056,45,48,360,4.928000,0
323.441984,46,49,368,4.752000,0
323.446736,47,50,376,4.848000,0
323.451584,48,51,384,4.720000,0
323.456304,49,52,392,4.896000,0
323.461200,50,53,400,3.680000,0
323.464880,51,54,408,3.680000,0
323.468560,52,55,416,3.680000,0
323.472240,53,56,424,4.848000,0
323.477088,54,57,432,4.928000,0
323.482016,55,58,440,4.800000,0
323.486816,56,59,448,4.944000,0
323.491760,57,60,456,4.992000,0
323.496752,58,61,464,4.912000,0
323.501664,59,62,472,4.720000,0
323.506384,60,63,480,4.752000,0
323.511136,61,64,488,4.720000,0
323.515856,62,65,496,4.944000,0
323.520800,63,66,504,0,31359.136000
354.879936,63,67,504,3.680000,0
354.883616,64,68,512,4.752000,0
354.888368,65,69,520,4.944000,0
354.893312,66,70,528,4.928000,0
354.898240,67,71,536,4.800000,0
354.903040,68,72,544,4.848000,0
354.907888,69,73,552,4.768000,0
354.912656,70,74,560,4.784000,0
354.917440,71,75,568,4.928000,0
354.922368,72,76,576,4.752000,0
354.927120,73,77,584,4.848000,0
354.931968,74,78,592,4.720000,0
354.936688,75,79,600,4.896000,0
354.941584,76,80,608,3.680000,0
354.945264,77,81,616,3.680000,0
354.948944,78,82,624,3.680000,0
354.952624,79,83,632,4.848000,0
354.957472,80,84,640,4.928000,0
354.962400,81,85,648,4.800000,0
354.967200,82,86,656,4.944000,0
354.972144,83,87,664,4.992000,0
354.977136,84,88,672,0,31360.080000
386.337216,84,89,672,4.912000,0
386.342128,85,90,680,4.720000,0
386.346848,86,91,688,4.752000,0
386.351600,87,92,696,4.720000,0
386.356320,88,93,704,4.944000,0
386.361264,89,94,712,3.680000,0
386.364944,90,95,720,4.752000,0
386.369696,91,96,728,4.944000,0
386.374640,92,97,736,4.928000,0
386.379568,93,98,744,4.800000,0
386.384368,94,99,752,4.848000,0
386.389216,95,100,760,4.768000,0
386.393984,96,101,768,4.784000,0
386.398768,97,102,776,4.928000,0
386.403696,98,103,784,4.752000,0
386.408448,99,104,792,4.848000,0
386.413296,100,105,800,4.720000,0
386.418016,101,106,808,4.896000,0
386.422912,102,107,816,3.680000,0
386.426592,103,108,824,3.680000,0
386.430272,104,109,832,3.680000,0
386.433952,105,110,840,4.848000,0
386.438800,106,111,848,4.928000,0
386.443728,107,112,856,0,31350.768000
417.794496,107,113,856,4.800000,0
417.799296,108,114,864,4.944000,0
417.804240,109,115,872,4.992000,0
417.809232,110,116,880,4.912000,0
417.814144,111,117,888,4.720000,0
417.818864,112,118,896,4.752000,0
417.823616,113,119,904,4.720000,0
417.828336,114,120,912,4.944000,0
417.833280,115,121,920,3.680000,0
417.836960,116,122,928,4.752000,0
417.841712,117,123,936,4.944000,0
417.846656,118,124,944,4.928000,0
417.851584,119,125,952,4.800000,0
417.856384,120,126,960,4.848000,0
417.861232,121,127,968,4.768000,0
417.866000,122,128,976,4.784000,0
417.870784,123,129,984,4.928000,0
417.875712,124,130,992,4.752000,0
417.880464,125,131,1000,4.848000,0
417.885312,126,132,1008,4.720000,0
417.890032,127,133,1016,4.896000,0
417.894928,128,134,1024,3.680000,0
417.898608,129,135,1032,0,31353.168000
449.251776,129,136,1032,3.680000,0
449.255456,130,137,1040,3.680000,0
449.259136,131,138,1048,4.848000,0
449.263984,132,139,1056,4.928000,0
449.268912,133,140,1064,4.800000,0
449.273712,134,141,1072,4.944000,0
449.278656,135,142,1080,4.992000,0
449.283648,136,143,1088,4.912000,0
449.288560,137,144,1096,4.720000,0
449.293280,138,145,1104,4.752000,0
449.298032,139,146,1112,4.720000,0
449.302752,140,147,1120,4.944000,0
449.307696,141,148,1128,3.680000,0
449.311376,142,149,1136,4.752000,0
449.316128,143,150,1144,4.944000,0
449.321072,144,151,1152,4.928000,0
449.326000,145,152,1160,4.800000,0
449.330800,146,153,1168,4.848000,0
449.335648,147,154,1176,4.768000,0
449.340416,148,155,1184,4.784000,0
449.345200,149,156,1192,4.928000,0
449.350128,150,157,1200,4.752000,0
449.354880,151,158,1208,