Time,CovertPackets,AllPackets,BitsSent,PacketInterval;GTSInterval
260.511248,1,2,8,4.848000,0
260.516096,2,3,16,4.928000,0
260.521024,3,4,24,4.800000,0
260.525824,4,5,32,4.944000,0
260.530768,5,6,40,4.992000,0
260.535760,6,7,48,4.912000,0
260.540672,7,8,56,4.720000,0
260.545392,8,9,64,4.752000,0
260.550144,9,10,72,4.720000,0
260.554864,10,11,80,4.944000,0
260.559808,11,12,88,3.680000,0
260.563488,12,13,96,4.752000,0
260.568240,13,14,104,4.944000,0
260.573184,14,15,112,4.928000,0
260.578112,15,16,120,4.800000,0
260.582912,16,17,128,4.848000,0
260.587760,17,18,136,4.768000,0
260.592528,18,19,144,4.784000,0
260.597312,19,20,152,4.928000,0
260.602240,20,21,160,4.752000,0
260.606992,21,22,168,0,31358.384000
291.965376,21,23,168,4.848000,0
291.970224,22,24,176,4.720000,0
291.974944,23,25,184,4.896000,0
291.979840,24,26,192,3.680000,0
291.983520,25,27,200,3.680000,0
291.987200,26,28,208,3.680000,0
291.990880,27,29,216,4.848000,0
291.995728,28,30,224,4.928000,0
292.000656,29,31,232,4.800000,0
292.005456,30,32,240,4.944000,0
292.010400,31,33,248,4.992000,0
292.015392,32,34,256,4.912000,0
292.020304,33,35,264,4.720000,0
292.025024,34,36,272,4.752000,0
292.029776,35,37,280,4.720000,0
292.034496,36,38,288,4.944000,0
292.039440,37,39,296,3.680000,0
292.043120,38,40,304,4.752000,0
292.047872,39,41,312,4.944000,0
292.052816,40,42,320,4.928000,0
292.057744,41,43,328,4.800000,0
292.062544,42,44,336,4.848000,0
292.067392,43,45,344,0,31355.264000
323.422656,43,46,344,4.768000,0
323.427424,44,47,352,4.784000,0
323.432208,45,48,360,4.928000,0
323.437136,46,49,368,4.752000,0
323.441888,47,50,376,4.848000,0
323.446736,48,51,384,4.720000,0
323.451456,49,52,392,4.896000,0
323.456352,50,53,400,3.680000,0
323.460032,51,54,408,3.680000,0
323.463712,52,55,416,3.680000,0
323.467392,53,56,424,4.848000,0
323.472240,54,57,432,4.928000,0
323.477168,55,58,440,4.800000,0
323.481968,56,59,448,4.944000,0
323.486912,57,60,456,4.992000,0
323.491904,58,61,464,4.912000,0
323.496816,59,62,472,4.720000,0
323.501536,60,63,480,4.752000,0
323.506288,61,64,488,4.720000,0
323.511008,62,65,496,4.944000,0
323.515952,63,66,504,3.680000,0
323.519632,64,67,512,4.752000,0
323.524384,65,68,520,0,31355.552000
354.879936,65,69,520,4.944000,0
354.884880,66,70,528,4.928000,0
354.889808,67,71,536,4.800000,0
354.894608,68,72,544,4.848000,0
354.899456,69,73,552,4.768000,0
354.904224,70,74,560,4.784000,0
354.909008,71,75,568,4.928000,0
354.913936,72,76,576,4.752000,0
354.918688,73,77,584,4.848000,0
354.923536,74,78,592,4.720000,0
354.928256,75,79,600,4.896000,0
354.933152,76,80,608,3.680000,0
354.936832,77,81,616,3.680000,0
354.940512,78,82,624,3.680000,0
354.944192,79,83,632,4.848000,0
354.949040,80,84,640,4.928000,0
354.953968,81,85,648,4.800000,0
354.958768,82,86,656,4.944000,0
354.963712,83,87,664,4.992000,0
354.968704,84,88,672,4.912000,0
354.973616,85,89,680,4.720000,0
354.978336,86,90,688,0,31358.880000
386.337216,86,91,688,4.752000,0
386.341968,87,92,696,4.720000,0
386.346688,88,93,704,4.944000,0
386.351632,89,94,712,3.680000,0
386.355312,90,95,720,4.752000,0
386.360064,91,96,728,4.944000,0
386.365008,92,97,736,4.928000,0
386.369936,93,98,744,4.800000,0
386.374736,94,99,752,4.848000,0
386.379584,95,100,760,4.768000,0
386.384352,96,101,768,4.784000,0
386.389136,97,102,776,4.928000,0
386.394064,98,103,784,4.752000,0
386.398816,99,104,792,4.848000,0
386.403664,100,105,800,4.720000,0
386.408384,101,106,808,4.896000,0
386.413280,102,107,816,3.680000,0
386.416960,103,108,824,3.680000,0
386.420640,104,109,832,3.680000,0
386.424320,105,110,840,4.848000,0
386.429168,106,111,848,4.928000,0
386.434096,107,112,856,4.800000,0
386.438896,108,113,864,0,31355.600000
417.794496,108,114,864,4.944000,0
417.799440,109,115,872,4.992000,0
417.804432,110,116,880,4.912000,0
417.809344,111,117,888,4.720000,0
417.814064,112,118,896,4.752000,0
417.818816,113,119,904,4.720000,0
417.823536,114,120,912,4.944000,0
417.828480,115,121,920,3.680000,0
417.832160,116,122,928,4.752000,0
417.836912,117,123,936,4.944000,0
417.841856,118,124,944,4.928000,0
417.846784,119,125,952,4.800000,0
417.851584,120,126,960,4.848000,0
417.856432,121,127,968,4.768000,0
417.861200,122,128,976,4.784000,0
417.865984,123,129,984,4.928000,0
417.870912,124,130,992,4.752000,0
417.875664,125,131,1000,4.848000,0
417.880512,126,132,1008,4.720000,0
417.885232,127,133,1016,4.896000,0
417.890128,128,134,1024,3.680000,0
417.893808,129,135,1032,0,31357.968000
449.251776,129,136,1032,3.680000,0
449.255456,130,137,1040,3.680000,0
449.259136,131,138,1048,4.848000,0
449.263984,132,139,1056,4.928000,0
449.268912,133,140,1064,4.800000,0
449.273712,134,141,1072,4.944000,0
449.278656,135,142,1080,4.992000,0
449.283648,136,143,1088,4.912000,0
449.288560,137,144,1096,4.720000,0
449.293280,138,145,1104,4.752000,0
449.298032,139,146,1112,4.720000,0
449.302752,140,147,1120,4.944000,0
449.307696,141,148,1128,3.680000,0
449.311376,142,149,1136,4.752000,0
449.316128,143,150,1144,4.944000,0
449.321072,144,151,1152,4.928000,0
449.326000,145,152,1160,4.800000,0
449.330800,146,153,1168,4.848000,0
449.335648,147,154,1176,4.768000,0
449.340416,148,155,1184,4.784000,0
449.345200,149,156,1192,4.928000,0
449.350128,150,157,1200,