Time,CovertPackets,AllPackets,BitsSent,PacketInterval;GTSInterval
32.568848,1,2,8,4.848000,0
32.573696,2,3,16,0,3924.160000
36.497856,2,4,16,4.928000,0
36.502784,3,5,24,4.800000,0
36.507584,4,6,32,4.944000,0
36.512528,5,7,40,4.992000,0
36.517520,6,8,48,4.912000,0
36.522432,7,9,56,4.720000,0
36.527152,8,10,64,0,3902.864000
40.430016,8,11,64,4.752000,0
40.434768,9,12,72,4.720000,0
40.439488,10,13,80,4.944000,0
40.444432,11,14,88,3.680000,0
40.448112,12,15,96,4.752000,0
40.452864,13,16,104,4.944000,0
40.457808,14,17,112,4.928000,0
40.462736,15,18,120,0,3899.440000
44.362176,15,19,120,4.800000,0
44.366976,16,20,128,4.848000,0
44.371824,17,21,136,4.768000,0
44.376592,18,22,144,4.784000,0
44.381376,19,23,152,4.928000,0
44.386304,20,24,160,4.752000,0
44.391056,21,25,168,4.848000,0
44.395904,22,26,176,0,3898.432000
48.294336,22,27,176,4.720000,0
48.299056,23,28,184,4.896000,0
48.303952,24,29,192,3.680000,0
48.307632,25,30,200,3.680000,0
48.311312,26,31,208,3.680000,0
48.314992,27,32,216,4.848000,0
48.319840,28,33,224,4.928000,0
48.324768,29,34,232,0,3901.728000
52.226496,29,35,232,4.800000,0
52.231296,30,36,240,4.944000,0
52.236240,31,37,248,4.992000,0
52.241232,32,38,256,4.912000,0
52.246144,33,39,264,4.720000,0
52.250864,34,40,272,4.752000,0
52.255616,35,41,280,4.720000,0
52.260336,36,42,288,0,3898.320000
56.158656,36,43,288,4.944000,0
56.163600,37,44,296,3.680000,0
56.167280,38,45,304,4.752000,0
56.172032,39,46,312,4.944000,0
56.176976,40,47,320,4.928000,0
56.181904,41,48,328,4.800000,0
56.186704,42,49,336,4.848000,0
56.191552,43,50,344,0,3899.264000
60.090816,43,51,344,4.768000,0
60.095584,44,52,352,4.784000,0
60.100368,45,53,360,4.928000,0
60.105296,46,54,368,4.752000,0
60.110048,47,55,376,4.848000,0
60.114896,48,56,384,4.720000,0
60.119616,49,57,392,4.896000,0
60.124512,50,58,400,0,3898.464000
64.022976,50,59,400,3.680000,0
64.026656,51,60,408,3.680000,0
64.030336,52,61,416,3.680000,0
64.034016,53,62,424,4.848000,0
64.038864,54,63,432,4.928000,0
64.043792,55,64,440,4.800000,0
64.048592,56,65,448,4.944000,0
64.053536,57,66,456,0,3901.600000
67.955136,57,67,456,4.992000,0
67.960128,58,68,464,4.912000,0
67.965040,59,69,472,4.720000,0
67.969760,60,70,480,4.752000,0
67.974512,61,71,488,4.720000,0
67.979232,62,72,496,4.944000,0
67.984176,63,73,504,3.680000,0
67.987856,64,74,512,0,3899.440000
71.887296,64,75,512,4.752000,0
71.892048,65,76,520,4.944000,0
71.896992,66,77,528,4.928000,0
71.901920,67,78,536,4.800000,0
71.906720,68,79,544,4.848000,0
71.911568,69,80,552,4.768000,0
71.916336,70,81,560,4.784000,0
71.921120,71,82,568,0,3898.336000
75.819456,71,83,568,4.928000,0
75.824384,72,84,576,4.752000,0
75.829136,73,85,584,4.848000,0
75.833984,74,86,592,4.720000,0
75.838704,75,87,600,4.896000,0
75.843600,76,88,608,3.680000,0
75.847280,77,89,616,0,3904.336000
79.751616,77,90,616,3.680000,0
79.755296,78,91,624,3.680000,0
79.758976,79,92,632,4.848000,0
79.763824,80,93,640,4.928000,0
79.768752,81,94,648,4.800000,0
79.773552,82,95,656,4.944000,0
79.778496,83,96,664,4.992000,0
79.783488,84,97,672,0,3900.288000
83.683776,84,98,672,4.912000,0
83.688688,85,99,680,4.720000,0
83.693408,86,100,688,4.752000,0
83.698160,87,101,696,4.720000,0
83.702880,88,102,704,4.944000,0
83.707824,89,103,712,3.680000,0
83.711504,90,104,720,4.752000,0
83.716256,91,105,728,0,3899.680000
87.615936,91,106,728,4.944000,0
87.620880,92,107,736,4.928000,0
87.625808,93,108,744,4.800000,0
87.630608,94,109,752,4.848000,0
87.635456,95,110,760,4.768000,0
87.640224,96,111,768,4.784000,0
87.645008,97,112,776,0,3903.088000
91.548096,97,113,776,4.928000,0
91.553024,98,114,784,4.752000,0
91.557776,99,115,792,4.848000,0
91.562624,100,116,800,4.720000,0
91.567344,101,117,808,4.896000,0
91.572240,102,118,816,3.680000,0
91.575920,103,119,824,3.680000,0
91.579600,104,120,832,0,3900.656000
95.480256,104,121,832,3.680000,0
95.483936,105,122,840,4.848000,0
95.488784,106,123,848,4.928000,0
95.493712,107,124,856,4.800000,0
95.498512,108,125,864,4.944000,0
95.503456,109,126,872,4.992000,0
95.508448,110,127,880,4.912000,0
95.513360,111,128,888,0,3899.056000
99.412416,111,129,888,4.720000,0
99.417136,112,130,896,4.752000,0
99.421888,113,131,904,4.720000,0
99.426608,114,132,912,4.944000,0
99.431552,115,133,920,3.680000,0
99.435232,116,134,928,4.752000,0
99.439984,117,135,936,0,3904.592000
103.344576,117,136,936,4.944000,0
103.349520,118,137,944,4.928000,0
103.354448,119,138,952,4.800000,0
103.359248,120,139,960,4.848000,0
103.364096,121,140,968,4.768000,0
103.368864,122,141,976,4.784000,0
103.373648,123,142,984,4.928000,0
103.378576,124,143,992,0,3898.160000
107.276736,124,144,992,4.752000,0
107.281488,125,145,1000,4.848000,0
107.286336,126,146,1008,4.720000,0
107.291056,127,147,1016,4.896000,0
107.295952,128,148,1024,3.680000,0
107.299632,129,149,1032,3.680000,0
107.303312,130,150,1040,3.680000,0
107.306992,131,151,1048,4.848000,0
107.311840,132,152,1056,0,3897.056000
111.208896,132,153,1056,4.928000,0
111.213824,133,154,1064,4.800000,0
111.218624,134,155,1072,4.944000,0
111.223568,135,156,1080,4.992000,0
111.228560,136,157,1088,4.912000,0
111.233472,137,158,1096,4.720000,0
111.238192,138,159,1104,0,3902.864000
115.141056,138,160,1104,4.752000,0
115.145808,139,161,1112,4.720000,0
115.150528,140,162,1120,4.944000,0
115.155472,141,163,1128,3.680000,0
115.159152,142,164,1136,4.752000,0
115.163904,143,165,1144,4.944000,0
115.168848,144,166,1152,4.928000,0
115.173776,145,167,1160,0,3899.440000
119.073216,145,168,1160,4.800000,0
119.078016,146,169,1168,4.848000,0
119.082864,147,170,1176,4.768000,0
119.087632,148,171,1184,4.784000,0
119.092416,149,172,1192,4.928000,0
119.097344,150,173,1200,4.752000,0
119.102096,151,174,1208,4.848000,0
119.106944,152,175,1216,0,3898.432000
123.005376,152,176,1216,4.720000,0
123.010096,153,177,1224,4.896000,0
123.014992,154,178,1232,3.680000,0
123.018672,155,179,1240,3.680000,0
123.022352,156,180,1248,3.680000,0
123.026032,157,181,1256,4.848000,0
123.030880,158,182,1264,4.928000,0
123.035808,159,183,1272,0,3901.728000
126.937536,159,184,1272,4.800000,0
126.942336,160,185,1280,4.944000,0
126.947280,161,186,1288,4.992000,0
126.952272,162,187,1296,4.912000,0
126.957184,163,188,1304,4.720000,0
126.961904,164,189,1312,4.752000,0
126.966656,165,190,1320,4.720000,0
126.971376,166,191,1328,0,3898.320000
130.869696,166,192,1328,4.944000,0
130.874640,167,193,1336,3.680000,0
130.878320,168,194,1344,4.752000,0
130.883072,169,195,1352,4.944000,0
130.888016,170,196,1360,4.928000,0
130.892944,171,197,1368,4.800000,0
130.897744,172,198,1376,4.848000,0
130.902592,173,199,1384,4.768000,0
130.907360,174,200,1392,0,3894.496000
134.801856,174,201,1392,4.784000,0
134.806640,175,202,1400,4.928000,0
134.811568,176,203,1408,4.752000,0
134.816320,177,204,1416,4.848000,0
134.821168,178,205,1424,4.720000,0
134.825888,179,206,1432,4.896000,0
134.830784,180,207,1440,3.680000,0
134.834464,181,208,1448,0,3899.552000
138.734016,181,209,1448,3.680000,0
138.737696,182,210,1456,3.680000,0
138.741376,183,211,1464,4.848000,0
138.746224,184,212,1472,4.928000,0
138.751152,185,213,1480,4.800000,0
138.755952,186,214,1488,4.944000,0
138.760896,187,215,1496,4.992000,0
138.765888,188,216,1504,0,3900.288000
142.666176,188,217,1504,4.912000,0
142.671088,189,218,1512,4.720000,0
142.675808,190,219,1520,4.752000,0
142.680560,191,220,1528,4.720000,0
142.685280,192,221,1536,4.944000,0
142.690224,193,222,1544,3.680000,0
142.693904,194,223,1552,0,3904.432000
146.598336,194,224,1552,4.752000,0
146.603088,195,225,1560,4.944000,0
146.608032,196,226,1568,4.928000,0
146.612960,197,227,1576,4.800000,0
146.617760,198,228,1584,4.848000,0
146.622608,199,229,1592,4.768000,0
146.627376,200,230,1600,4.784000,0
146.632160,201,231,1608,0,3898.336000
150.530496,201,232,1608,4.928000,0
150.535424,202,233,1616,4.752000,0
150.540176,203,234,1624,4.848000,0
150.545024,204,235,1632,4.720000,0
150.549744,205,236,1640,4.896000,0
150.554640,206,237,1648,3.680000,0
150.558320,207,238,1656,3.680000,0
150.562000,208,239,1664,3.680000,0
150.565680,209,240,1672,0,3896.976000
154.462656,209,241,1672,4.848000,0
154.467504,210,242,1680,4.928000,0
154.472432,211,243,1688,4.800000,0
154.477232,212,244,1696,4.944000,0
154.482176,213,245,1704,4.992000,0
154.487168,214,246,1712,4.912000,0
154.492080,215,247,1720,4.720000,0
154.496800,216,248,1728,0,3898.016000
158.394816,216,249,1728,4.752000,0
158.399568,217,250,1736,4.720000,0
158.404288,218,251,1744,4.944000,0
158.409232,219,252,1752,3.680000,0
158.412912,220,253,1760,4.752000,0
158.417664,221,254,1768,4.944000,0
158.422608,222,255,1776,4.928000,0
158.427536,223,256,1784,0,3899.440000
162.326976,223,257,1784,4.800000,0
162.331776,224,258,1792,4.848000,0
162.336624,225,259,1800,4.768000,0
162.341392,226,260,1808,4.784000,0
162.346176,227,261,1816,4.928000,0
162.351104,228,262,1824,4.752000,0
162.355856,229,263,1832,4.848000,0
162.360704,230,264,1840,0,3898.432000
166.259136,230,265,1840,4.720000,0
166.263856,231,266,1848,4.896000,0
166.268752,232,267,1856,3.680000,0
166.272432,233,268,1864,3.680000,0
166.276112,234,269,1872,3.680000,0
166.279792,235,270,1880,4.848000,0
166.284640,236,271,1888,4.928000,0
166.289568,237,272,1896,4.800000,0
166.294368,238,273,1904,0,3896.928000
170.191296,238,274,1904,4.944000,0
170.196240,239,275,1912,4.992000,0
170.201232,240,276,1920,4.912000,0
170.206144,241,277,1928,4.720000,0
170.210864,242,278,1936,4.752000,0
170.215616,243,279,1944,4.720000,0
170.220336,244,280,1952,4.944000,0
170.225280,245,281,1960,0,3898.176000
174.123456,245,282,1960,3.680000,0
174.127136,246,283,1968,4.752000,0
174.131888,247,284,1976,4.944000,0
174.136832,248,285,1984,4.928000,0
174.141760,249,286,1992,4.800000,0
174.146560,250,287,2000,4.848000,0
174.151408,251,288,2008,4.768000,0
174.156176,252,289,2016,0,3899.440000
178.055616,252,290,2016,4.784000,0
178.060400,253,291,2024,4.928000,0
178.065328,254,292,2032,4.752000,0
178.070080,255,293,2040,4.848000,0
178.074928,256,294,2048,4.720000,0
178.079648,257,295,2056,4.896000,0
178.084544,258,296,2064,3.680000,0
178.088224,259,297,2072,3.680000,0
178.091904,260,298,2080,0,3895.872000
181.987776,260,299,2080,3.680000,0
181.991456,261,300,2088,4.848000,0
181.996304,262,301,2096,4.928000,0
182.001232,263,302,2104,4.800000,0
182.006032,264,303,2112,4.944000,0
182.010976,265,304,2120,4.992000,0
182.015968,266,305,2128,0,3903.968000
185.919936,266,306,2128,4.912000,0
185.924848,267,307,2136,4.720000,0
185.929568,268,308,2144,4.752000,0
185.934320,269,309,2152,4.720000,0
185.939040,270,310,2160,4.944000,0
185.943984,271,311,2168,3.680000,0
185.947664,272,312,2176,0,3904.432000
189.852096,272,313,2176,4.752000,0
189.856848,273,314,2184,4.944000,0
189.861792,274,315,2192,4.928000,0
189.866720,275,316,2200,4.800000,0
189.871520,276,317,2208,4.848000,0
189.876368,277,318,2216,4.768000,0
189.881136,278,319,2224,4.784000,0
189.885920,279,320,2232,0,3898.336000
193.784256,279,321,2232,4.928000,0
193.789184,280,322,2240,4.752000,0
193.793936,281,323,2248,4.848000,0
193.798784,282,324,2256,4.720000,0
193.803504,283,325,2264,4.896000,0
193.808400,284,326,2272,3.680000,0
193.812080,285,327,2280,3.680000,0
193.815760,286,328,2288,0,3900.656000
197.716416,286,329,2288,3.680000,0
197.720096,287,330,2296,4.848000,0
197.724944,288,331,2304,4.928000,0
197.729872,289,332,2312,4.800000,0
197.734672,290,333,2320,4.944000,0
197.739616,291,334,2328,4.992000,0
197.744608,292,335,2336,4.912000,0
197.749520,293,336,2344,0,3899.056000
201.648576,293,337,2344,4.720000,0
201.653296,294,338,2352,4.752000,0
201.658048,295,339,2360,4.720000,0
201.662768,296,340,2368,4.944000,0
201.667712,297,341,2376,3.680000,0
201.671392,298,342,2384,4.752000,0
201.676144,299,343,2392,4.944000,0
201.681088,300,344,2400,0,3899.648000
205.580736,300,345,2400,4.928000,0
205.585664,301,346,2408,4.800000,0
205.590464,302,347,2416,4.848000,0
205.595312,303,348,2424,4.768000,0
205.600080,304,349,2432,4.784000,0
205.604864,305,350,2440,4.928000,0
205.609792,306,351,2448,4.752000,0
205.614544,307,352,2456,0,3898.352000
209.512896,307,353,2456,4.848000,0
209.517744,308,354,2464,4.720000,0
209.522464,309,355,2472,4.896000,0
209.527360,310,356,2480,3.680000,0
209.531040,311,357,2488,3.680000,0
209.534720,312,358,2496,3.680000,0
209.538400,313,359,2504,4.848000,0
209.543248,314,360,2512,4.928000,0
209.548176,315,361,2520,0,3896.880000
213.445056,315,362,2520,4.800000,0
213.449856,316,363,2528,4.944000,0
213.454800,317,364,2536,4.992000,0
213.459792,318,365,2544,4.912000,0
213.464704,319,366,2552,4.720000,0
213.469424,320,367,2560,4.752000,0
213.474176,321,368,2568,4.720000,0
213.478896,322,369,2576,0,3898.320000
217.377216,322,370,2576,4.944000,0
217.382160,323,371,2584,3.680000,0
217.385840,324,372,2592,4.752000,0
217.390592,325,373,2600,4.944000,0
217.395536,326,374,2608,4.928000,0
217.400464,327,375,2616,4.800000,0
217.405264,328,376,2624,4.848000,0
217.410112,329,377,2632,0,3899.264000
221.309376,329,378,2632,4.768000,0
221.314144,330,379,2640,4.784000,0
221.318928,331,380,2648,4.928000,0
221.323856,332,381,2656,4.752000,0
221.328608,333,382,2664,4.848000,0
221.333456,334,383,2672,4.720000,0
221.338176,335,384,2680,4.896000,0
221.343072,336,385,2688,3.680000,0
221.346752,337,386,2696,0,3894.784000
225.241536,337,387,2696,3.680000,0
225.245216,338,388,2704,3.680000,0
225.248896,339,389,2712,4.848000,0
225.253744,340,390,2720,4.928000,0
225.258672,341,391,2728,4.800000,0
225.263472,342,392,2736,4.944000,0
225.268416,343,393,2744,4.992000,0
225.273408,344,394,2752,0,3900.288000
229.173696,344,395,2752,4.912000,0
229.178608,345,396,2760,4.720000,0
229.183328,346,397,2768,4.752000,0
229.188080,347,398,2776,4.720000,0
229.192800,348,399,2784,4.944000,0
229.197744,349,400,2792,3.680000,0
229.201424,350,401,2800,0,3904.432000
233.105856,350,402,2800,4.752000,0
233.110608,351,403,2808,4.944000,0
233.115552,352,404,2816,4.928000,0
233.120480,353,405,2824,4.800000,0
233.125280,354,406,2832,4.848000,0
233.130128,355,407,2840,4.768000,0
233.134896,356,408,2848,