Time,CovertPackets,AllPackets,BitsSent,PacketInterval,GTSInterval
32.570752,1,2,0,3.136000,0
32.573888,2,3,0,4.416000,0
32.578304,3,4,0,4.416000,0
32.582720,4,5,0,3.136000,0
32.585856,5,6,0,0,3912.000000
36.497856,5,7,0,4.416000,0
36.502272,6,8,0,3.136000,0
36.505408,7,9,0,3.136000,0
36.508544,8,10,1,4.416000,0
36.512960,9,11,1,3.136000,0
36.516096,10,12,1,4.416000,0
36.520512,11,13,1,4.416000,0
36.524928,12,14,1,3.136000,0
36.528064,13,15,1,4.416000,0
36.532480,14,16,1,4.416000,0
36.536896,15,17,1,4.416000,0
36.541312,16,18,2,3.136000,0
36.544448,17,19,2,3.136000,0
36.547584,18,20,2,4.416000,0
36.552000,19,21,2,4.416000,0
36.556416,20,22,2,3.136000,0
36.559552,21,23,2,3.136000,0
36.562688,22,24,2,4.416000,0
36.567104,23,25,2,4.416000,0
36.571520,24,26,3,3.136000,0
36.574656,25,27,3,3.136000,0
36.577792,26,28,3,4.416000,0
36.582208,27,29,3,0,3847.808000
40.430016,27,30,3,4.416000,0
40.434432,28,31,3,3.136000,0
40.437568,29,32,3,4.416000,0
40.441984,30,33,3,4.416000,0
40.446400,31,34,3,4.416000,0
40.450816,32,35,4,4.416000,0
40.455232,33,36,4,3.136000,0
40.458368,34,37,4,4.416000,0
40.462784,35,38,4,4.416000,0
40.467200,36,39,4,4.416000,0
40.471616,37,40,4,3.136000,0
40.474752,38,41,4,3.136000,0
40.477888,39,42,4,4.416000,0
40.482304,40,43,5,3.136000,0
40.485440,41,44,5,3.136000,0
40.488576,42,45,5,4.416000,0
40.492992,43,46,5,4.416000,0
40.497408,44,47,5,3.136000,0
40.500544,45,48,5,4.416000,0
40.504960,46,49,5,4.416000,0
40.509376,47,50,5,3.136000,0
40.512512,48,51,6,0,3849.664000
44.362176,48,52,6,4.416000,0
44.366592,49,53,6,3.136000,0
44.369728,50,54,6,4.416000,0
44.374144,51,55,6,4.416000,0
44.378560,52,56,6,3.136000,0
44.381696,53,57,6,3.136000,0
44.384832,54,58,6,3.136000,0
44.387968,55,59,6,3.136000,0
44.391104,56,60,7,4.416000,0
44.395520,57,61,7,3.136000,0
44.398656,58,62,7,4.416000,0
44.403072,59,63,7,4.416000,0
44.407488,60,64,7,3.136000,0
44.410624,61,65,7,3.136000,0
44.413760,62,66,7,3.136000,0
44.416896,63,67,7,4.416000,0
44.421312,64,68,8,4.416000,0
44.425728,65,69,8,3.136000,0
44.428864,66,70,8,4.416000,0
44.433280,67,71,8,4.416000,0
44.437696,68,72,8,3.136000,0
44.440832,69,73,8,3.136000,0
44.443968,70,74,8,0,3850.368000
48.294336,70,75,8,3.136000,0
48.297472,71,76,8,3.136000,0
48.300608,72,77,9,4.416000,0
48.305024,73,78,9,3.136000,0
48.308160,74,79,9,4.416000,0
48.312576,75,80,9,4.416000,0
48.316992,76,81,9,3.136000,0
48.320128,77,82,9,4.416000,0
48.324544,78,83,9,4.416000,0
48.328960,79,84,9,4.416000,0
48.333376,80,85,10,4.416000,0
48.337792,81,86,10,3.136000,0
48.340928,82,87,10,3.136000,0
48.344064,83,88,10,4.416000,0
48.348480,84,89,10,3.136000,0
48.351616,85,90,10,3.136000,0
48.354752,86,91,10,3.136000,0
48.357888,87,92,10,3.136000,0
48.361024,88,93,11,3.136000,0
48.364160,89,94,11,3.136000,0
48.367296,90,95,11,4.416000,0
48.371712,91,96,11,0,3854.784000
52.226496,91,97,11,4.416000,0
52.230912,92,98,11,3.136000,0
52.234048,93,99,11,3.136000,0
52.237184,94,100,11,3.136000,0
52.240320,95,101,11,4.416000,0
52.244736,96,102,12,4.416000,0
52.249152,97,103,12,3.136000,0
52.252288,98,104,12,4.416000,0
52.256704,99,105,12,4.416000,0
52.261120,100,106,12,3.136000,0
52.264256,101,107,12,4.416000,0
52.268672,102,108,12,4.416000,0
52.273088,103,109,12,4.416000,0
52.277504,104,110,13,4.416000,0
52.281920,105,111,13,3.136000,0
52.285056,106,112,13,4.416000,0
52.289472,107,113,13,4.416000,0
52.293888,108,114,13,3.136000,0
52.297024,109,115,13,4.416000,0
52.301440,110,116,13,4.416000,0
52.305856,111,117,13,4.416000,0
52.310272,112,118,14,3.136000,0
52.313408,113,119,14,0,3845.248000
56.158656,113,120,14,3.136000,0
56.161792,114,121,14,4.416000,0
56.166208,115,122,14,4.416000,0
56.170624,116,123,14,3.136000,0
56.173760,117,124,14,3.136000,0
56.176896,118,125,14,4.416000,0
56.181312,119,126,14,4.416000,0
56.185728,120,127,15,3.136000,0
56.188864,121,128,15,3.136000,0
56.192000,122,129,15,4.416000,0
56.196416,123,130,15,4.416000,0
56.200832,124,131,15,3.136000,0
56.203968,125,132,15,4.416000,0
56.208384,126,133,15,3.136000,0
56.211520,127,134,15,3.136000,0
56.214656,128,135,16,4.416000,0
56.219072,129,136,16,3.136000,0
56.222208,130,137,16,4.416000,0
56.226624,131,138,16,4.416000,0
56.231040,132,139,16,3.136000,0
56.234176,133,140,16,3.136000,0
56.237312,134,141,16,0,3853.504000
60.090816,134,142,16,4.416000,0
60.095232,135,143,16,3.136000,0
60.098368,136,144,17,3.136000,0
60.101504,137,145,17,3.136000,0
60.104640,138,146,17,4.416000,0
60.109056,139,147,17,4.416000,0
60.113472,140,148,17,3.136000,0
60.116608,141,149,17,3.136000,0
60.119744,142,150,17,4.416000,0
60.124160,143,151,17,3.136000,0
60.127296,144,152,18,4.416000,0
60.131712,145,153,18,3.136000,0
60.134848,146,154,18,4.416000,0
60.139264,147,155,18,4.416000,0
60.143680,148,156,18,3.136000,0
60.146816,149,157,18,4.416000,0
60.151232,150,158,18,4.416000,0
60.155648,151,159,18,4.416000,0
60.160064,152,160,19,3.136000,0
60.163200,153,161,19,3.136000,0
60.166336,154,162,19,4.416000,0
60.170752,155,163,19,4.416000,0
60.175168,156,164,19,0,3847.808000
64.022976,156,165,19,3.136000,0
64.026112,157,166,19,3.136000,0
64.029248,158,167,19,3.136000,0
64.032384,159,168,19,4.416000,0
64.036800,160,169,20,4.416000,0
64.041216,161,170,20,3.136000,0
64.044352,162,171,20,4.416000,0
64.048768,163,172,20,4.416000,0
64.053184,164,173,20,3.136000,0
64.056320,165,174,20,4.416000,0
64.060736,166,175,20,3.136000,0
64.063872,167,176,20,3.136000,0
64.067008,168,177,21,4.416000,0
64.071424,169,178,21,3.136000,0
64.074560,170,179,21,4.416000,0
64.078976,171,180,21,4.416000,0
64.083392,172,181,21,3.136000,0
64.086528,173,182,21,3.136000,0
64.089664,174,183,21,3.136000,0
64.092800,175,184,21,3.136000,0
64.095936,176,185,22,4.416000,0
64.100352,177,186,22,0,3854.784000
67.955136,177,187,22,3.136000,0
67.958272,178,188,22,4.416000,0
67.962688,179,189,22,4.416000,0
67.967104,180,190,22,3.136000,0
67.970240,181,191,22,4.416000,0
67.974656,182,192,22,4.416000,0
67.979072,183,193,22,3.136000,0
67.982208,184,194,23,3.136000,0
67.985344,185,195,23,3.136000,0
67.988480,186,196,23,3.136000,0
67.991616,187,197,23,4.416000,0
67.996032,188,198,23,3.136000,0
67.999168,189,199,23,3.136000,0
68.002304,190,200,23,3.136000,0
68.005440,191,201,23,3.136000,0
68.008576,192,202,24,3.136000,0
68.011712,193,203,24,3.136000,0
68.014848,194,204,24,3.136000,0
68.017984,195,205,24,4.416000,0
68.022400,196,206,24,3.136000,0
68.025536,197,207,24,3.136000,0
68.028672,198,208,24,0,3858.624000
71.887296,198,209,24,3.136000,0
71.890432,199,210,24,3.136000,0
71.893568,200,211,25,3.136000,0
71.896704,201,212,25,3.136000,0
71.899840,202,213,25,3.136000,0
71.902976,203,214,25,4.416000,0
71.907392,204,215,25,3.136000,0
71.910528,205,216,25,3.136000,0
71.913664,206,217,25,3.136000,0
71.916800,207,218,25,3.136000,0
71.919936,208,219,26,3.136000,0
71.923072,209,220,26,3.136000,0
71.926208,210,221,26,4.416000,0
71.930624,211,222,26,4.416000,0
71.935040,212,223,26,3.136000,0
71.938176,213,224,26,4.416000,0
71.942592,214,225,26,3.136000,0
71.945728,215,226,26,3.136000,0
71.948864,216,227,27,4.416000,0
71.953280,217,228,27,3.136000,0
71.956416,218,229,27,4.416000,0
71.960832,219,230,27,4.416000,0
71.965248,220,231,27,0,3854.208000
75.819456,220,232,27,3.136000,0
75.822592,221,233,27,4.416000,0
75.827008,222,234,27,4.416000,0
75.831424,223,235,27,4.416000,0
75.835840,224,236,28,3.136000,0
75.838976,225,237,28,3.136000,0
75.842112,226,238,28,4.416000,0
75.846528,227,239,28,4.416000,0
75.850944,228,240,28,3.136000,0
75.854080,229,241,28,3.136000,0
75.857216,230,242,28,4.416000,0
75.861632,231,243,28,4.416000,0
75.866048,232,244,29,3.136000,0
75.869184,233,245,29,3.136000,0
75.872320,234,246,29,4.416000,0
75.876736,235,247,29,4.416000,0
75.881152,236,248,29,3.136000,0
75.884288,237,249,29,4.416000,0
75.888704,238,250,29,4.416000,0
75.893120,239,251,29,4.416000,0
75.897536,240,252,30,0,3854.080000
79.751616,240,253,30,4.416000,0
79.756032,241,254,30,3.136000,0
79.759168,242,255,30,4.416000,0
79.763584,243,256,30,4.416000,0
79.768000,244,257,30,4.416000,0
79.772416,245,258,30,3.136000,0
79.775552,246,259,30,3.136000,0
79.778688,247,260,30,4.416000,0
79.783104,248,261,31,3.136000,0
79.786240,249,262,31,3.136000,0
79.789376,250,263,31,4.416000,0
79.793792,251,264,31,4.416000,0
79.798208,252,265,31,3.136000,0
79.801344,253,266,31,4.416000,0
79.805760,254,267,31,4.416000,0
79.810176,255,268,31,3.136000,0
79.813312,256,269,32,4.416000,0
79.817728,257,270,32,3.136000,0
79.820864,258,271,32,4.416000,0
79.825280,259,272,32,4.416000,0
79.829696,260,273,32,3.136000,0
79.832832,261,274,32,0,3850.944000
83.683776,261,275,32,3.136000,0
83.686912,262,276,32,3.136000,0
83.690048,263,277,32,3.136000,0
83.693184,264,278,33,4.416000,0
83.697600,265,279,33,3.136000,0
83.700736,266,280,33,4.416000,0
83.705152,267,281,33,4.416000,0
83.709568,268,282,33,3.136000,0
83.712704,269,283,33,3.136000,0
83.715840,270,284,33,3.136000,0
83.718976,271,285,33,4.416000,0
83.723392,272,286,34,4.416000,0
83.727808,273,287,34,3.136000,0
83.730944,274,288,34,4.416000,0
83.735360,275,289,34,4.416000,0
83.739776,276,290,34,3.136000,0
83.742912,277,291,34,3.136000,0
83.746048,278,292,34,3.136000,0
83.749184,279,293,34,3.136000,0
83.752320,280,294,35,4.416000,0
83.756736,281,295,35,3.136000,0
83.759872,282,296,35,4.416000,0
83.764288,283,297,35,0,3851.648000
87.615936,283,298,35,4.416000,0
87.620352,284,299,35,3.136000,0
87.623488,285,300,35,4.416000,0
87.627904,286,301,35,4.416000,0
87.632320,287,302,35,4.416000,0
87.636736,288,303,36,4.416000,0
87.641152,289,304,36,3.136000,0
87.644288,290,305,36,3.136000,0
87.647424,291,306,36,4.416000,0
87.651840,292,307,36,3.136000,0
87.654976,293,308,36,3.136000,0
87.658112,294,309,36,3.136000,0
87.661248,295,310,36,3.136000,0
87.664384,296,311,37,3.136000,0
87.667520,297,312,37,3.136000,0
87.670656,298,313,37,4.416000,0
87.675072,299,314,37,4.416000,0
87.679488,300,315,37,3.136000,0
87.682624,301,316,37,3.136000,0
87.685760,302,317,37,3.136000,0
87.688896,303,318,37,4.416000,0
87.693312,304,319,38,0,3854.784000
91.548096,304,320,38,4.416000,0
91.552512,305,321,38,3.136000,0
91.555648,306,322,38,4.416000,0
91.560064,307,323,38,4.416000,0
91.564480,308,324,38,3.136000,0
91.567616,309,325,38,4.416000,0
91.572032,310,326,38,4.416000,0
91.576448,311,327,38,4.416000,0
91.580864,312,328,39,4.416000,0
91.585280,313,329,39,3.136000,0
91.588416,314,330,39,4.416000,0
91.592832,315,331,39,4.416000,0
91.597248,316,332,39,3.136000,0
91.600384,317,333,39,4.416000,0
91.604800,318,334,39,4.416000,0
91.609216,319,335,39,4.416000,0
91.613632,320,336,40,3.136000,0
91.616768,321,337,40,3.136000,0
91.619904,322,338,40,4.416000,0
91.624320,323,339,40,4.416000,0
91.628736,324,340,40,3.136000,0
91.631872,325,341,40,3.136000,0
91.635008,326,342,40,0,3845.248000
95.480256,326,343,40,4.416000,0
95.484672,327,344,40,4.416000,0
95.489088,328,345,41,3.136000,0
95.492224,329,346,41,3.136000,0
95.495360,330,347,41,4.416000,0
95.499776,331,348,41,4.416000,0
95.504192,332,349,41,3.136000,0
95.507328,333,350,41,4.416000,0
95.511744,334,351,41,3.136000,0
95.514880,335,352,41,3.136000,0
95.518016,336,353,42,4.416000,0
95.522432,337,354,42,3.136000,0
95.525568,338,355,42,4.416000,0
95.529984,339,356,42,4.416000,0
95.534400,340,357,42,3.136000,0
95.537536,341,358,42,3.136000,0
95.540672,342,359,42,4.416000,0
95.545088,343,360,42,3.136000,0
95.548224,344,361,43,3.136000,0
95.551360,345,362,43,3.136000,0
95.554496,346,363,43,4.416000,0
95.558912,347,364,43,4.416000,0
95.563328,348,365,43,0,3849.088000
99.412416,348,366,43,3.136000,0
99.415552,349,367,43,3.136000,0
99.418688,350,368,43,4.416000,0
99.423104,351,369,43,3.136000,0
99.426240,352,370,44,4.416000,0
99.430656,353,371,44,3.136000,0
99.433792,354,372,44,4.416000,0
99.438208,355,373,44,4.416000,0
99.442624,356,374,44,3.136000,0
99.445760,357,375,44,4.416000,0
99.450176,358,376,44,4.416000,0
99.454592,359,377,44,4.416000,0
99.459008,360,378,45,3.136000,0
99.462144,361,379,45,3.136000,0
99.465280,362,380,45,4.416000,0
99.469696,363,381,45,4.416000,0
99.474112,364,382,45,3.136000,0
99.477248,365,383,45,3.136000,0
99.480384,366,384,45,3.136000,0
99.483520,367,385,45,4.416000,0
99.487936,368,386,46,4.416000,0
99.492352,369,387,46,0,3852.224000
103.344576,369,388,46,3.136000,0
103.347712,370,389,46,4.416000,0
103.352128,371,390,46,4.416000,0
103.356544,372,391,46,3.136000,0
103.359680,373,392,46,4.416000,0
103.364096,374,393,46,3.136000,0
103.367232,375,394,46,3.136000,0
103.370368,376,395,47,4.416000,0
103.374784,377,396,47,3.136000,0
103.377920,378,397,47,4.416000,0
103.382336,379,398,47,4.416000,0
103.386752,380,399,47,3.136000,0
103.389888,381,400,47,3.136000,0
103.393024,382,401,47,3.136000,0
103.396160,383,402,47,3.136000,0
103.399296,384,403,48,4.416000,0
103.403712,385,404,48,3.136000,0
103.406848,386,405,48,4.416000,0
103.411264,387,406,48,4.416000,0
103.415680,388,407,48,3.136000,0
103.418816,389,408,48,4.416000,0
103.423232,390,409,48,0,3853.504000
107.276736,390,410,48,4.416000,0
107.281152,391,411,48,3.136000,0
107.284288,392,412,49,3.136000,0
107.287424,393,413,49,3.136000,0
107.290560,394,414,49,3.136000,0
107.293696,395,415,49,4.416000,0
107.298112,396,416,49,3.136000,0
107.301248,397,417,49,3.136000,0
107.304384,398,418,49,3.136000,0
107.307520,399,419,49,3.136000,0
107.310656,400,420,50,3.136000,0
107.313792,401,421,50,3.136000,0
107.316928,402,422,50,3.136000,0
107.320064,403,423,50,4.416000,0
107.324480,404,424,50,3.136000,0
107.327616,405,425,50,3.136000,0
107.330752,406,426,50,3.136000,0
107.333888,407,427,50,3.136000,0
107.337024,408,428,51,3.136000,0
107.340160,409,429,51,3.136000,0
107.343296,410,430,51,3.136000,0
107.346432,411,431,51,0,3862.464000
111.208896,411,432,51,4.416000,0
111.213312,412,433,51,3.136000,0
111.216448,413,434,51,3.136000,0
111.219584,414,435,51,3.136000,0
111.222720,415,436,51,3.136000,0
111.225856,416,437,52,3.136000,0
111.228992,417,438,52,3.136000,0
111.232128,418,439,52,4.416000,0
111.236544,419,440,52,4.416000,0
111.240960,420,441,52,3.136000,0
111.244096,421,442,52,4.416000,0
111.248512,422,443,52,3.136000,0
111.251648,423,444,52,3.136000,0
111.254784,424,445,53,4.416000,0
111.259200,425,446,53,3.136000,0
111.262336,426,447,53,4.416000,0
111.266752,427,448,53,4.416000,0
111.271168,428,449,53,3.136000,0
111.274304,429,450,53,4.416000,0
111.278720,430,451,53,4.416000,0
111.283136,431,452,53,4.416000,0
111.287552,432,453,54,0,3853.504000
115.141056,432,454,54,3.136000,0
115.144192,433,455,54,3.136000,0
115.147328,434,456,54,4.416000,0
115.151744,435,457,54,4.416000,0
115.156160,436,458,54,3.136000,0
115.159296,437,459,54,3.136000,0
115.162432,438,460,54,4.416000,0
115.166848,439,461,54,4.416000,0
115.171264,440,462,55,3.136000,0
115.174400,441,463,55,3.136000,0
115.177536,442,464,55,4.416000,0
115.181952,443,465,55,4.416000,0
115.186368,444,466,55,3.136000,0
115.189504,445,467,55,4.416000,0
115.193920,446,468,55,4.416000,0
115.198336,447,469,55,4.416000,0
115.202752,448,470,56,4.416000,0
115.207168,449,471,56,3.136000,0
115.210304,450,472,56,4.416000,0
115.214720,451,473,56,4.416000,0
115.219136,452,474,56,4.416000,0
115.223552,453,475,56,0,3849.664000
119.073216,453,476,56,3.136000,0
119.076352,454,477,56,3.136000,0
119.079488,455,478,56,4.416000,0
119.083904,456,479,57,3.136000,0
119.087040,457,480,57,3.136000,0
119.090176,458,481,57,4.416000,0
119.094592,459,482,57,4.416000,0
119.099008,460,483,57,3.136000,0
119.102144,461,484,57,4.416000,0
119.106560,462,485,57,4.416000,0
119.110976,463,486,57,3.136000,0
119.114112,464,487,58,4.416000,0
119.118528,465,488,58,3.136000,0
119.121664,466,489,58,4.416000,0
119.126080,467,490,58,4.416000,0
119.130496,468,491,58,3.136000,0
119.133632,469,492,58,3.136000,0
119.136768,470,493,58,3.136000,0
119.139904,471,494,58,3.136000,0
119.143040,472,495,59,4.416000,0
119.147456,473,496,59,3.136000,0
119.150592,474,497,59,4.416000,0
119.155008,475,498,59,0,3850.368000
123.005376,475,499,59,4.416000,0
123.009792,476,500,59,3.136000,0
123.012928,477,501,59,3.136000,0
123.016064,478,502,59,3.136000,0
123.019200,479,503,59,4.416000,0
123.023616,480,504,60,4.416000,0
123.028032,481,505,60,3.136000,0
123.031168,482,506,60,4.416000,0
123.035584,483,507,60,4.416000,0
123.040000,484,508,60,3.136000,0
123.043136,485,509,60,3.136000,0
123.046272,486,510,60,3.136000,0
123.049408,487,511,60,3.136000,0
123.052544,488,512,61,4.416000,0
123.056960,489,513,61,3.136000,0
123.060096,490,514,61,4.416000,0
123.064512,491,515,61,4.416000,0
123.068928,492,516,61,3.136000,0
123.072064,493,517,61,4.416000,0
123.076480,494,518,61,4.416000,0
123.080896,495,519,61,4.416000,0
123.085312,496,520,62,0,3852.224000
126.937536,496,521,62,4.416000,0
126.941952,497,522,62,3.136000,0
126.945088,498,523,62,3.136000,0
126.948224,499,524,62,4.416000,0
126.952640,500,525,62,3.136000,0
126.955776,501,526,62,3.136000,0
126.958912,502,527,62,3.136000,0
126.962048,503,528,62,3.136000,0
126.965184,504,529,63,3.136000,0
126.968320,505,530,63,3.136000,0
126.971456,506,531,63,4.416000,0
126.975872,507,532,63,4.416000,0
126.980288,508,533,63,3.136000,0
126.983424,509,534,63,3.136000,0
126.986560,510,535,63,3.136000,0
126.989696,511,536,63,4.416000,0
126.994112,512,537,64,4.416000,0
126.998528,513,538,64,3.136000,0
127.001664,514,539,64,4.416000,0
127.006080,515,540,64,4.416000,0
127.010496,516,541,64,3.136000,0
127.013632,517,542,64,0,3856.064000
130.869696,517,543,64,4.416000,0
130.874112,518,544,64,4.416000,0
130.878528,519,545,64,4.416000,0
130.882944,520,546,65,4.416000,0
130.887360,521,547,65,3.136000,0
130.890496,522,548,65,4.416000,0
130.894912,523,549,65,4.416000,0
130.899328,524,550,65,3.136000,0
130.902464,525,551,65,4.416000,0
130.906880,526,552,65,4.416000,0
130.911296,527,553,65,4.416000,0
130.915712,528,554,66,3.136000,0
130.918848,529,555,66,3.136000,0
130.921984,530,556,66,4.416000,0
130.926400,531,557,66,4.416000,0
130.930816,532,558,66,3.136000,0
130.933952,533,559,66,3.136000,0
130.937088,534,560,66,4.416000,0
130.941504,535,561,66,4.416000,0
130.945920,536,562,67,3.136000,0
130.949056,537,563,67,0,3852.800000
134.801856,537,564,67,3.136000,0
134.804992,538,565,67,4.416000,0
134.809408,539,566,67,4.416000,0
134.813824,540,567,67,3.136000,0
134.816960,541,568,67,4.416000,0
134.821376,542,569,67,3.136000,0
134.824512,543,570,67,3.136000,0
134.827648,544,571,68,4.416000,0
134.832064,545,572,68,3.136000,0
134.835200,546,573,68,4.416000,0
134.839616,547,574,68,4.416000,0
134.844032,548,575,68,3.136000,0
134.847168,549,576,68,3.136000,0
134.850304,550,577,68,4.416000,0
134.854720,551,578,68,3.136000,0
134.857856,552,579,69,3.136000,0
134.860992,553,580,69,3.136000,0
134.864128,554,581,69,4.416000,0
134.868544,555,582,69,4.416000,0
134.872960,556,583,69,3.136000,0
134.876096,557,584,69,3.136000,0
134.879232,558,585,69,0,3854.784000
138.734016,558,586,69,4.416000,0
138.738432,559,587,69,3.136000,0
138.741568,560,588,70,4.416000,0
138.745984,561,589,70,3.136000,0
138.749120,562,590,70,4.416000,0
138.753536,563,591,70,4.416000,0
138.757952,564,592,70,3.136000,0
138.761088,565,593,70,4.416000,0
138.765504,566,594,70,4.416000,0
138.769920,567,595,70,4.416000,0
138.774336,568,596,71,3.136000,0
138.777472,569,597,71,3.136000,0
138.780608,570,598,71,4.416000,0
138.785024,571,599,71,4.416000,0
138.789440,572,600,71,3.136000,0
138.792576,573,601,71,3.136000,0
138.795712,574,602,71,3.136000,0
138.798848,575,603,71,4.416000,0
138.803264,576,604,72,4.416000,0
138.807680,577,605,72,3.136000,0
138.810816,578,606,72,4.416000,0
138.815232,579,607,72,0,3850.944000
142.666176,579,608,72,4.416000,0
142.670592,580,609,72,3.136000,0
142.673728,581,610,72,4.416000,0
142.678144,582,611,72,3.136000,0
142.681280,583,612,72,3.136000,0
142.684416,584,613,73,4.416000,0
142.688832,585,614,73,3.136000,0
142.691968,586,615,73,4.416000,0
142.696384,587,616,73,4.416000,0
142.700800,588,617,73,3.136000,0
142.703936,589,618,73,3.136000,0
142.707072,590,619,73,3.136000,0
142.710208,591,620,73,3.136000,0
142.713344,592,621,74,4.416000,0
142.717760,593,622,74,3.136000,0
142.720896,594,623,74,4.416000,0
142.725312,595,624,74,4.416000,0
142.729728,596,625,74,3.136000,0
142.732864,597,626,74,4.416000,0
142.737280,598,627,74,4.416000,0
142.741696,599,628,74,3.136000,0
142.744832,600,629,75,3.136000,0
142.747968,601,630,75,0,3850.368000
146.598336,601,631,75,3.136000,0
146.601472,602,632,75,3.136000,0
146.604608,603,633,75,4.416000,0
146.609024,604,634,75,3.136000,0
146.612160,605,635,75,3.136000,0
146.615296,606,636,75,3.136000,0
146.618432,607,637,75,3.136000,0
146.621568,608,638,76,3.136000,0
146.624704,609,639,76,3.136000,0
146.627840,610,640,76,3.136000,0
146.630976,611,641,76,4.416000,0
146.635392,612,642,76,3.136000,0
146.638528,613,643,76,3.136000,0
146.641664,614,644,76,3.136000,0
146.644800,615,645,76,3.136000,0
146.647936,616,646,77,3.136000,0
146.651072,617,647,77,3.136000,0
146.654208,618,648,77,3.136000,0
146.657344,619,649,77,4.416000,0
146.661760,620,650,77,3.136000,0
146.664896,621,651,77,3.136000,0
146.668032,622,652,77,3.136000,0
146.671168,623,653,77,0,3859.328000
150.530496,623,654,77,3.136000,0
150.533632,624,655,78,3.136000,0
150.536768,625,656,78,3.136000,0
150.539904,626,657,78,4.416000,0
150.544320,627,658,78,4.416000,0
150.548736,628,659,78,3.136000,0
150.551872,629,660,78,4.416000,0
150.556288,630,661,78,3.136000,0
150.559424,631,662,78,3.136000,0
150.562560,632,663,79,4.416000,0
150.566976,633,664,79,3.136000,0
150.570112,634,665,79,4.416000,0
150.574528,635,666,79,4.416000,0
150.578944,636,667,79,3.136000,0
150.582080,637,668,79,4.416000,0
150.586496,638,669,79,4.416000,0
150.590912,639,670,79,4.416000,0
150.595328,640,671,80,3.136000,0
150.598464,641,672,80,3.136000,0
150.601600,642,673,80,4.416000,0
150.606016,643,674,80,4.416000,0
150.610432,644,675,80,0,3852.224000
154.462656,644,676,80,3.136000,0
154.465792,645,677,80,3.136000,0
154.468928,646,678,80,4.416000,0
154.473344,647,679,80,4.416000,0
154.477760,648,680,81,3.136000,0
154.480896,649,681,81,3.136000,0
154.484032,650,682,81,4.416000,0
154.488448,651,683,81,4.416000,0
154.492864,652,684,81,3.136000,0
154.496000,653,685,81,4.416000,0
154.500416,654,686,81,4.416000,0
154.504832,655,687,81,4.416000,0
154.509248,656,688,82,4.416000,0
154.513664,657,689,82,3.136000,0
154.516800,658,690,82,4.416000,0
154.521216,659,691,82,4.416000,0
154.525632,660,692,82,4.416000,0
154.530048,661,693,82,3.136000,0
154.533184,662,694,82,3.136000,0
154.536320,663,695,82,4.416000,0
154.540736,664,696,83,3.136000,0
154.543872,665,697,83,3.136000,0
154.547008,666,698,83,0,3847.808000
158.394816,666,699,83,4.416000,0
158.399232,667,700,83,4.416000,0
158.403648,668,701,83,3.136000,0
158.406784,669,702,83,4.416000,0
158.411200,670,703,83,4.416000,0
158.415616,671,704,83,3.136000,0
158.418752,672,705,84,4.416000,0
158.423168,673,706,84,3.136000,0
158.426304,674,707,84,4.416000,0
158.430720,675,708,84,4.416000,0
158.435136,676,709,84,3.136000,0
158.438272,677,710,84,3.136000,0
158.441408,678,711,84,3.136000,0
158.444544,679,712,84,3.136000,0
158.447680,680,713,85,4.416000,0
158.452096,681,714,85,3.136000,0
158.455232,682,715,85,4.416000,0
158.459648,683,716,85,4.416000,0
158.464064,684,717,85,3.136000,0
158.467200,685,718,85,3.136000,0
158.470336,686,719,85,3.136000,0
158.473472,687,720,85,4.416000,0
158.477888,688,721,86,0,3849.088000
162.326976,688,722,86,4.416000,0
162.331392,689,723,86,3.136000,0
162.334528,690,724,86,4.416000,0
162.338944,691,725,86,4.416000,0
162.343360,692,726,86,3.136000,0
162.346496,693,727,86,3.136000,0
162.349632,694,728,86,3.136000,0
162.352768,695,729,86,3.136000,0
162.355904,696,730,87,4.416000,0
162.360320,697,731,87,3.136000,0
162.363456,698,732,87,4.416000,0
162.367872,699,733,87,4.416000,0
162.372288,700,734,87,3.136000,0
162.375424,701,735,87,4.416000,0
162.379840,702,736,87,4.416000,0
162.384256,703,737,87,4.416000,0
162.388672,704,738,88,4.416000,0
162.393088,705,739,88,3.136000,0
162.396224,706,740,88,3.136000,0
162.399360,707,741,88,4.416000,0
162.403776,708,742,88,3.136000,0
162.406912,709,743,88,0,3852.224000
166.259136,709,744,88,3.136000,0
166.262272,710,745,88,3.136000,0
166.265408,711,746,88,3.136000,0
166.268544,712,747,89,3.136000,0
166.271680,713,748,89,3.136000,0
166.274816,714,749,89,4.416000,0
166.279232,715,750,89,4.416000,0
166.283648,716,751,89,3.136000,0
166.286784,717,752,89,3.136000,0
166.289920,718,753,89,3.136000,0
166.293056,719,754,89,4.416000,0
166.297472,720,755,90,4.416000,0
166.301888,721,756,90,3.136000,0
166.305024,722,757,90,4.416000,0
166.309440,723,758,90,4.416000,0
166.313856,724,759,90,3.136000,0
166.316992,725,760,90,4.416000,0
166.321408,726,761,90,4.416000,0
166.325824,727,762,90,4.416000,0
166.330240,728,763,91,4.416000,0
166.334656,729,764,91,0,3856.640000
170.191296,729,765,91,3.136000,0
170.194432,730,766,91,4.416000,0
170.198848,731,767,91,4.416000,0
170.203264,732,768,91,3.136000,0
170.206400,733,769,91,4.416000,0
170.210816,734,770,91,4.416000,0
170.215232,735,771,91,4.416000,0
170.219648,736,772,92,3.136000,0
170.222784,737,773,92,3.136000,0
170.225920,738,774,92,4.416000,0
170.230336,739,775,92,4.416000,0
170.234752,740,776,92,3.136000,0
170.237888,741,777,92,3.136000,0
170.241024,742,778,92,4.416000,0
170.245440,743,779,92,4.416000,0
170.249856,744,780,93,3.136000,0
170.252992,745,781,93,3.136000,0
170.256128,746,782,93,4.416000,0
170.260544,747,783,93,4.416000,0
170.264960,748,784,93,3.136000,0
170.268096,749,785,93,4.416000,0
170.272512,750,786,93,3.136000,0
170.275648,751,787,93,0,3847.808000
174.123456,751,788,93,3.136000,0
174.126592,752,789,94,4.416000,0
174.131008,753,790,94,3.136000,0
174.134144,754,791,94,4.416000,0
174.138560,755,792,94,4.416000,0
174.142976,756,793,94,3.136000,0
174.146112,757,794,94,3.136000,0
174.149248,758,795,94,4.416000,0
174.153664,759,796,94,3.136000,0
174.156800,760,797,95,3.136000,0
174.159936,761,798,95,3.136000,0
174.163072,762,799,95,4.416000,0
174.167488,763,800,95,4.416000,0
174.171904,764,801,95,3.136000,0
174.175040,765,802,95,3.136000,0
174.178176,766,803,95,4.416000,0
174.182592,767,804,95,3.136000,0
174.185728,768,805,96,4.416000,0
174.190144,769,806,96,3.136000,0
174.193280,770,807,96,4.416000,0
174.197696,771,808,96,4.416000,0
174.202112,772,809,96,3.136000,0
174.205248,773,810,96,0,3850.368000
178.055616,773,811,96,4.416000,0
178.060032,774,812,96,4.416000,0
178.064448,775,813,96,4.416000,0
178.068864,776,814,97,3.136000,0
178.072000,777,815,97,3.136000,0
178.075136,778,816,97,4.416000,0
178.079552,779,817,97,4.416000,0
178.083968,780,818,97,3.136000,0
178.087104,781,819,97,3.136000,0
178.090240,782,820,97,3.136000,0
178.093376,783,821,97,4.416000,0
178.097792,784,822,98,4.416000,0
178.102208,785,823,98,3.136000,0
178.105344,786,824,98,4.416000,0
178.109760,787,825,98,4.416000,0
178.114176,788,826,98,3.136000,0
178.117312,789,827,98,4.416000,0
178.121728,790,828,98,3.136000,0
178.124864,791,829,98,3.136000,0
178.128000,792,830,99,4.416000,0
178.132416,793,831,99,3.136000,0
178.135552,794,832,99,4.416000,0
178.139968,795,833,99,4.416000,0
178.144384,796,834,99,0,3843.392000
181.987776,796,835,99,3.136000,0
181.990912,797,836,99,3.136000,0
181.994048,798,837,99,3.136000,0
181.997184,799,838,99,3.136000,0
182.000320,800,839,100,4.416000,0
182.004736,801,840,100,3.136000,0
182.007872,802,841,100,4.416000,0
182.012288,803,842,100,4.416000,0
182.016704,804,843,100,3.136000,0
182.019840,805,844,100,4.416000,0
182.024256,806,845,100,4.416000,0
182.028672,807,846,100,3.136000,0
182.031808,808,847,101,3.136000,0
182.034944,809,848,101,3.136000,0
182.038080,810,849,101,3.136000,0
182.041216,811,850,101,4.416000,0
182.045632,812,851,101,3.136000,0
182.048768,813,852,101,3.136000,0
182.051904,814,853,101,3.136000,0
182.055040,815,854,101,3.136000,0
182.058176,816,855,102,3.136000,0
182.061312,817,856,102,0,3858.624000
185.919936,817,857,102,3.136000,0
185.923072,818,858,102,3.136000,0
185.926208,819,859,102,4.416000,0
185.930624,820,860,102,3.136000,0
185.933760,821,861,102,3.136000,0
185.936896,822,862,102,3.136000,0
185.940032,823,863,102,3.136000,0
185.943168,824,864,103,3.136000,0
185.946304,825,865,103,3.136000,0
185.949440,826,866,103,3.136000,0
185.952576,827,867,103,4.416000,0
185.956992,828,868,103,3.136000,0
185.960128,829,869,103,3.136000,0
185.963264,830,870,103,3.136000,0
185.966400,831,871,103,3.136000,0
185.969536,832,872,104,3.136000,0
185.972672,833,873,104,3.136000,0
185.975808,834,874,104,4.416000,0
185.980224,835,875,104,4.416000,0
185.984640,836,876,104,3.136000,0
185.987776,837,877,104,4.416000,0
185.992192,838,878,104,0,3859.904000
189.852096,838,879,104,3.136000,0
189.855232,839,880,104,3.136000,0
189.858368,840,881,105,4.416000,0
189.862784,841,882,105,3.136000,0
189.865920,842,883,105,4.416000,0
189.870336,843,884,105,4.416000,0
189.874752,844,885,105,3.136000,0
189.877888,845,886,105,4.416000,0
189.882304,846,887,105,4.416000,0
189.886720,847,888,105,4.416000,0
189.891136,848,889,106,3.136000,0
189.894272,849,890,106,3.136000,0
189.897408,850,891,106,4.416000,0
189.901824,851,892,106,4.416000,0
189.906240,852,893,106,3.136000,0
189.909376,853,894,106,3.136000,0
189.912512,854,895,106,4.416000,0
189.916928,855,896,106,4.416000,0
189.921344,856,897,107,3.136000,0
189.924480,857,898,107,3.136000,0
189.927616,858,899,107,4.416000,0
189.932032,859,900,107,4.416000,0
189.936448,860,901,107,0,3847.808000
193.784256,860,902,107,3.136000,0
193.787392,861,903,107,4.416000,0
193.791808,862,904,107,4.416000,0
193.796224,863,905,107,4.416000,0
193.800640,864,906,108,4.416000,0
193.805056,865,907,108,3.136000,0
193.808192,866,908,108,4.416000,0
193.812608,867,909,108,4.416000,0
193.817024,868,910,108,4.416000,0
193.821440,869,911,108,3.136000,0
193.824576,870,912,108,3.136000,0
193.827712,871,913,108,4.416000,0
193.832128,872,914,109,3.136000,0
193.835264,873,915,109,3.136000,0
193.838400,874,916,109,4.416000,0
193.842816,875,917,109,4.416000,0
193.847232,876,918,109,3.136000,0
193.850368,877,919,109,4.416000,0
193.854784,878,920,109,4.416000,0
193.859200,879,921,109,3.136000,0
193.862336,880,922,110,4.416000,0
193.866752,881,923,110,0,3849.664000
197.716416,881,924,110,3.136000,0
197.719552,882,925,110,4.416000,0
197.723968,883,926,110,4.416000,0
197.728384,884,927,110,3.136000,0
197.731520,885,928,110,3.136000,0
197.734656,886,929,110,3.136000,0
197.737792,887,930,110,3.136000,0
197.740928,888,931,111,4.416000,0
197.745344,889,932,111,3.136000,0
197.748480,890,933,111,4.416000,0
197.752896,891,934,111,4.416000,0
197.757312,892,935,111,3.136000,0
197.760448,893,936,111,3.136000,0
197.763584,894,937,111,3.136000,0
197.766720,895,938,111,4.416000,0
197.771136,896,939,112,4.416000,0
197.775552,897,940,112,3.136000,0
197.778688,898,941,112,4.416000,0
197.783104,899,942,112,4.416000,0
197.787520,900,943,112,3.136000,0
197.790656,901,944,112,3.136000,0
197.793792,902,945,112,0,3854.784000
201.648576,902,946,112,3.136000,0
201.651712,903,947,112,3.136000,0
201.654848,904,948,113,4.416000,0
201.659264,905,949,113,3.136000,0
201.662400,906,950,113,4.416000,0
201.666816,907,951,113,4.416000,0
201.671232,908,952,113,3.136000,0
201.674368,909,953,113,4.416000,0
201.678784,910,954,113,4.416000,0
201.683200,911,955,113,4.416000,0
201.687616,912,956,114,4.416000,0
201.692032,913,957,114,3.136000,0
201.695168,914,958,114,3.136000,0
201.698304,915,959,114,4.416000,0
201.702720,916,960,114,3.136000,0
201.705856,917,961,114,3.136000,0
201.708992,918,962,114,3.136000,0
201.712128,919,963,114,3.136000,0
201.715264,920,964,115,3.136000,0
201.718400,921,965,115,3.136000,0
201.721536,922,966,115,4.416000,0
201.725952,923,967,115,0,3854.784000
205.580736,923,968,115,4.416000,0
205.585152,924,969,115,3.136000,0
205.588288,925,970,115,3.136000,0
205.591424,926,971,115,3.136000,0
205.594560,927,972,115,4.416000,0
205.598976,928,973,116,4.416000,0
205.603392,929,974,116,3.136000,0
205.606528,930,975,116,4.416000,0
205.610944,931,976,116,4.416000,0
205.615360,932,977,116,3.136000,0
205.618496,933,978,116,4.416000,0
205.622912,934,979,116,4.416000,0
205.627328,935,980,116,4.416000,0
205.631744,936,981,117,4.416000,0
205.636160,937,982,117,3.136000,0
205.639296,938,983,117,4.416000,0
205.643712,939,984,117,4.416000,0
205.648128,940,985,117,3.136000,0
205.651264,941,986,117,4.416000,0
205.655680,942,987,117,4.416000,0
205.660096,943,988,117,4.416000,0
205.664512,944,989,118,3.136000,0
205.667648,945,990,118,0,3845.248000
209.512896,945,991,118,3.136000,0
209.516032,946,992,118,4.416000,0
209.520448,947,993,118,4.416000,0
209.524864,948,994,118,3.136000,0
209.528000,949,995,118,3.136000,0
209.531136,950,996,118,4.416000,0
209.535552,951,997,118,4.416000,0
209.539968,952,998,119,3.136000,0
209.543104,953,999,119,3.136000,0
209.546240,954,1000,119,4.416000,0
209.550656,955,1001,119,4.416000,0
209.555072,956,1002,119,3.136000,0
209.558208,957,1003,119,4.416000,0
209.562624,958,1004,119,3.136000,0
209.565760,959,1005,119,3.136000,0
209.568896,960,1006,120,4.416000,0
209.573312,961,1007,120,3.136000,0
209.576448,962,1008,120,4.416000,0
209.580864,963,1009,120,4.416000,0
209.585280,964,1010,120,3.136000,0
209.588416,965,1011,120,3.136000,0
209.591552,966,1012,120,4.416000,0
209.595968,967,1013,120,0,3849.088000
213.445056,967,1014,120,3.136000,0
213.448192,968,1015,121,3.136000,0
213.451328,969,1016,121,3.136000,0
213.454464,970,1017,121,4.416000,0
213.458880,971,1018,121,4.416000,0
213.463296,972,1019,121,3.136000,0
213.466432,973,1020,121,3.136000,0
213.469568,974,1021,121,4.416000,0
213.473984,975,1022,121,3.136000,0
213.477120,976,1023,122,4.416000,0
213.481536,977,1024,122,3.136000,0
213.484672,978,1025,122,4.416000,0
213.489088,979,1026,122,4.416000,0
213.493504,980,1027,122,3.136000,0
213.496640,981,1028,122,4.416000,0
213.501056,982,1029,122,4.416000,0
213.505472,983,1030,122,4.416000,0
213.509888,984,1031,123,3.136000,0
213.513024,985,1032,123,3.136000,0
213.516160,986,1033,123,4.416000,0
213.520576,987,1034,123,4.416000,0
213.524992,988,1035,123,0,3852.224000
217.377216,988,1036,123,3.136000,0
217.380352,989,1037,123,3.136000,0
217.383488,990,1038,123,3.136000,0
217.386624,991,1039,123,4.416000,0
217.391040,992,1040,124,4.416000,0
217.395456,993,1041,124,3.136000,0
217.398592,994,1042,124,4.416000,0
217.403008,995,1043,124,4.416000,0
217.407424,996,1044,124,3.136000,0
217.410560,997,1045,124,4.416000,0
217.414976,998,1046,124,3.136000,0
217.418112,999,1047,124,3.136000,0
217.421248,1000,1048,125,4.416000,0
217.425664,1001,1049,125,3.136000,0
217.428800,1002,1050,125,4.416000,0
217.433216,1003,1051,125,4.416000,0
217.437632,1004,1052,125,3.136000,0
217.440768,1005,1053,125,0,3868.608000
221.309376,1005,1054,125,3.136000,0
221.312512,1006,1055,125,3.136000,0
221.315648,1007,1056,125,3.136000,0
221.318784,1008,1057,126,4.416000,0
221.323200,1009,1058,126,3.136000,0
221.326336,1010,1059,126,4.416000,0
221.330752,1011,1060,126,4.416000,0
221.335168,1012,1061,126,3.136000,0
221.338304,1013,1062,126,4.416000,0
221.342720,1014,1063,126,4.416000,0
221.347136,1015,1064,126,3.136000,0
221.350272,1016,1065,127,3.136000,0
221.353408,1017,1066,127,3.136000,0
221.356544,1018,1067,127,3.136000,0
221.359680,1019,1068,127,4.416000,0
221.364096,1020,1069,127,3.136000,0
221.367232,1021,1070,127,3.136000,0
221.370368,1022,1071,127,3.136000,0
221.373504,1023,1072,127,0,3868.032000
225.241536,1023,1073,127,3.136000,0
225.244672,1024,1074,128,3.136000,0
225.247808,1025,1075,128,3.136000,0
225.250944,1026,1076,128,3.136000,0
225.254080,1027,1077,128,4.416000,0
225.258496,1028,1078,128,3.136000,0
225.261632,1029,1079,128,3.136000,0
225.264768,1030,1080,128,3.136000,0
225.267904,1031,1081,128,3.136000,0
225.271040,1032,1082,129,3.136000,0
225.274176,1033,1083,129,3.136000,0
225.277312,1034,1084,129,3.136000,0
225.280448,1035,1085,129,4.416000,0
225.284864,1036,1086,129,3.136000,0
225.288000,1037,1087,129,3.136000,0
225.291136,1038,1088,129,3.136000,0
225.294272,1039,1089,129,3.136000,0
225.297408,1040,1090,130,3.136000,0
225.300544,1041,1091,130,3.136000,0
225.303680,1042,1092,130,4.416000,0
225.308096,1043,1093,130,4.416000,0
225.312512,1044,1094,130,3.136000,0
225.315648,1045,1095,130,0,3858.048000
229.173696,1045,1096,130,4.416000,0
229.178112,1046,1097,130,3.136000,0
229.181248,1047,1098,130,3.136000,0
229.184384,1048,1099,131,4.416000,0
229.188800,1049,1100,131,3.136000,0
229.191936,1050,1101,131,4.416000,0
229.196352,1051,1102,131,4.416000,0
229.200768,1052,1103,131,3.136000,0
229.203904,1053,1104,131,4.416000,0
229.208320,1054,1105,131,4.416000,0
229.212736,1055,1106,131,4.416000,0
229.217152,1056,1107,132,3.136000,0
229.220288,1057,1108,132,3.136000,0
229.223424,1058,1109,132,4.416000,0
229.227840,1059,1110,132,4.416000,0
229.232256,1060,1111,132,3.136000,0
229.235392,1061,1112,132,3.136000,0
229.238528,1062,1113,132,4.416000,0
229.242944,1063,1114,132,4.416000,0
229.247360,1064,1115,133,3.136000,0
229.250496,1065,1116,133,3.136000,0
229.253632,1066,1117,133,0,3852.224000
233.105856,1066,1118,133,4.416000,0
233.110272,1067,1119,133,4.416000,0
233.114688,1068,1120,133,3.136000,0
233.117824,1069,1121,133,4.416000,0
233.122240,1070,1122,133,4.416000,0
233.126656,1071,1123,133,4.416000,0
233.131072,1072,1124,134,4.416000,0
233.135488,1073,1125,134,3.136000,0
233.138624,1074,1126,134,4.416000,0
233.143040,1075,1127,134,4.416000,0
233.147456,1076,1128,134,4.416000,0
233.151872,1077,1129,134,3.136000,0
233.155008,1078,1130,134,3.136000,0
233.158144,1079,1131,134,4.416000,0
233.162560,1080,1132,135,3.136000,0
233.165696,1081,1133,135,3.136000,0
233.168832,1082,1134,135,4.416000,0
233.173248,1083,1135,135,4.416000,0
233.177664,1084,1136,135,3.136000,0
233.180800,1085,1137,135,4.416000,0
233.185216,1086,1138,135,4.416000,0
233.189632,1087,1139,135,3.136000,0
233.192768,1088,1140,136,0,3845.248000
