Time,CovertPackets,AllPackets,BitsSent,PacketInterval,GTSInterval
30.617344,0,150,0,5.504000,0
30.622848,1,225,0,0,486.016000
31.108864,1,300,0,5.504000,0
31.114368,2,375,0,0,486.016000
31.600384,2,450,0,5.504000,0
31.605888,3,525,0,0,486.016000
32.091904,3,600,0,5.504000,0
32.097408,4,675,0,0,486.016000
32.583424,4,750,0,5.504000,0
32.588928,5,825,0,0,486.016000
33.074944,5,900,0,5.504000,0
33.080448,6,975,0,0,486.016000
33.566464,6,1050,0,5.504000,0
33.571968,7,1125,0,0,486.016000
34.057984,7,1200,0,5.504000,0
34.063488,8,1275,1,0,486.016000
34.549504,8,1350,1,5.504000,0
34.555008,9,1425,1,0,486.016000
35.041024,9,1500,1,5.504000,0
35.046528,10,1575,1,0,486.016000
35.532544,10,1650,1,5.504000,0
35.538048,11,1725,1,0,486.016000
36.024064,11,1800,1,5.504000,0
36.029568,12,1875,1,0,486.016000
36.515584,12,1950,1,5.504000,0
36.521088,13,2025,1,0,486.016000
37.007104,13,2100,1,5.504000,0
37.012608,14,2175,1,0,486.016000
37.498624,14,2250,1,5.504000,0
37.504128,15,2325,1,0,486.016000
37.990144,15,2400,1,5.504000,0
37.995648,16,2475,2,0,486.016000
38.481664,16,2550,2,5.504000,0
38.487168,17,2625,2,0,486.016000
38.973184,17,2700,2,5.504000,0
38.978688,18,2775,2,0,486.016000
39.464704,18,2850,2,5.504000,0
39.470208,19,2925,2,0,486.016000
39.956224,19,3000,2,5.504000,0
39.961728,20,3075,2,0,486.016000
40.447744,20,3150,2,5.504000,0
40.453248,21,3225,2,0,486.016000
40.939264,21,3300,2,5.504000,0
40.944768,22,3375,2,0,486.016000
41.430784,22,3450,2,5.504000,0
41.436288,23,3525,2,0,486.016000
41.922304,23,3600,2,5.504000,0
41.927808,24,3675,3,0,486.016000
42.413824,24,3750,3,5.504000,0
42.419328,25,3825,3,0,486.016000
42.905344,25,3900,3,5.504000,0
42.910848,26,3975,3,0,486.016000
43.396864,26,4050,3,5.504000,0
43.402368,27,4125,3,0,486.016000
43.888384,27,4200,3,5.504000,0
43.893888,28,4275,3,0,486.016000
44.379904,28,4350,3,5.504000,0
44.385408,29,4425,3,0,486.016000
44.871424,29,4500,3,5.504000,0
44.876928,30,4575,3,0,486.016000
45.362944,30,4650,3,5.504000,0
45.368448,31,4725,3,0,486.016000
45.854464,31,4800,3,5.504000,0
45.859968,32,4875,4,0,486.016000
46.345984,32,4950,4,5.504000,0
46.351488,33,5025,4,0,486.016000
46.837504,33,5100,4,5.504000,0
46.843008,34,5175,4,0,486.016000
47.329024,34,5250,4,5.504000,0
47.334528,35,5325,4,0,486.016000
47.820544,35,5400,4,5.504000,0
47.826048,36,5475,4,0,486.016000
48.312064,36,5550,4,5.504000,0
48.317568,37,5625,4,0,486.016000
48.803584,37,5700,4,5.504000,0
48.809088,38,5775,4,0,486.016000
49.295104,38,5850,4,5.504000,0
49.300608,39,5925,4,0,486.016000
49.786624,39,6000,4,5.504000,0
49.792128,40,6075,5,0,486.016000
50.278144,40,6150,5,5.504000,0
50.283648,41,6225,5,0,486.016000
50.769664,41,6300,5,5.504000,0
50.775168,42,6375,5,0,486.016000
51.261184,42,6450,5,5.504000,0
51.266688,43,6525,5,0,486.016000
51.752704,43,6600,5,5.504000,0
51.758208,44,6675,5,0,486.016000
52.244224,44,6750,5,5.504000,0
52.249728,45,6825,5,0,486.016000
52.735744,45,6900,5,5.504000,0
52.741248,46,6975,5,0,486.016000
53.227264,46,7050,5,5.504000,0
53.232768,47,7125,5,0,486.016000
53.718784,47,7200,5,5.504000,0
53.724288,48,7275,6,0,486.016000
54.210304,48,7350,6,5.504000,0
54.215808,49,7425,6,0,486.016000
54.701824,49,7500,6,5.504000,0
54.707328,50,7575,6,0,486.016000
55.193344,50,7650,6,5.504000,0
55.198848,51,7725,6,0,486.016000
55.684864,51,7800,6,5.504000,0
55.690368,52,7875,6,0,486.016000
56.176384,52,7950,6,5.504000,0
56.181888,53,8025,6,0,486.016000
56.667904,53,8100,6,5.504000,0
56.673408,54,8175,6,0,486.016000
57.159424,54,8250,6,5.504000,0
57.164928,55,8325,6,0,486.016000
57.650944,55,8400,6,5.504000,0
57.656448,56,8475,7,0,486.016000
58.142464,56,8550,7,5.504000,0
58.147968,57,8625,7,0,486.016000
58.633984,57,8700,7,5.504000,0
58.639488,58,8775,7,0,486.016000
59.125504,58,8850,7,5.504000,0
59.131008,59,8925,7,0,486.016000
59.617024,59,9000,7,5.504000,0
59.622528,60,9075,7,0,486.016000
60.108544,60,9150,7,5.504000,0
60.114048,61,9225,7,0,486.016000
60.600064,61,9300,7,5.504000,0
60.605568,62,9375,7,0,486.016000
61.091584,62,9450,7,5.504000,0
61.097088,63,9525,7,0,486.016000
61.583104,63,9600,7,5.504000,0
61.588608,64,9675,8,0,486.016000
62.074624,64,9750,8,5.504000,0
62.080128,65,9825,8,0,486.016000
62.566144,65,9900,8,5.504000,0
62.571648,66,9975,8,0,486.016000
63.057664,66,10050,8,5.504000,0
63.063168,67,10125,8,0,486.016000
63.549184,67,10200,8,5.504000,0
63.554688,68,10275,8,0,486.016000
64.040704,68,10350,8,5.504000,0
64.046208,69,10425,8,0,486.016000
64.532224,69,10500,8,5.504000,0
64.537728,70,10575,8,0,486.016000
65.023744,70,10650,8,5.504000,0
65.029248,71,10725,8,0,486.016000
65.515264,71,10800,8,5.504000,0
65.520768,72,10875,9,0,486.016000
66.006784,72,10950,9,5.504000,0
66.012288,73,11025,9,0,486.016000
66.498304,73,11100,9,5.504000,0
66.503808,74,11175,9,0,486.016000
66.989824,74,11250,9,5.504000,0
66.995328,75,11325,9,0,486.016000
67.481344,75,11400,9,5.504000,0
67.486848,76,11475,9,0,486.016000
67.972864,76,11550,9,5.504000,0
67.978368,77,11625,9,0,486.016000
68.464384,77,11700,9,5.504000,0
68.469888,78,11775,9,0,486.016000
68.955904,78,11850,9,5.504000,0
68.961408,79,11925,9,0,486.016000
69.447424,79,12000,9,5.504000,0
69.452928,80,12075,10,0,486.016000
69.938944,80,12150,10,5.504000,0
69.944448,81,12225,10,0,486.016000
70.430464,81,12300,10,5.504000,0
70.435968,82,12375,10,0,486.016000
70.921984,82,12450,10,5.504000,0
70.927488,83,12525,10,0,486.016000
71.413504,83,12600,10,5.504000,0
71.419008,84,12675,10,0,486.016000
71.905024,84,12750,10,5.504000,0
71.910528,85,12825,10,0,486.016000
72.396544,85,12900,10,5.504000,0
72.402048,86,12975,10,0,486.016000
72.888064,86,13050,10,5.504000,0
72.893568,87,13125,10,0,486.016000
73.379584,87,13200,10,5.504000,0
73.385088,88,13275,11,0,486.016000
73.871104,88,13350,11,5.504000,0
73.876608,89,13425,11,0,486.016000
74.362624,89,13500,11,5.504000,0
74.368128,90,13575,11,0,486.016000
74.854144,90,13650,11,5.504000,0
74.859648,91,13725,11,0,486.016000
75.345664,91,13800,11,5.504000,0
75.351168,92,13875,11,0,486.016000
75.837184,92,13950,11,5.504000,0
75.842688,93,14025,11,0,486.016000
76.328704,93,14100,11,5.504000,0
76.334208,94,14175,11,0,486.016000
76.820224,94,14250,11,5.504000,0
76.825728,95,14325,11,0,486.016000
77.311744,95,14400,11,5.504000,0
77.317248,96,14475,12,0,486.016000
77.803264,96,14550,12,5.504000,0
77.808768,97,14625,12,0,486.016000
78.294784,97,14700,12,5.504000,0
78.300288,98,14775,12,0,486.016000
78.786304,98,14850,12,5.504000,0
78.791808,99,14925,12,0,486.016000
79.277824,99,15000,12,5.504000,0
79.283328,100,15075,12,0,486.016000
79.769344,100,15150,12,5.504000,0
79.774848,101,15225,12,0,486.016000
80.260864,101,15300,12,5.504000,0
80.266368,102,15375,12,0,486.016000
80.752384,102,15450,12,5.504000,0
80.757888,103,15525,12,0,486.016000
81.243904,103,15600,12,5.504000,0
81.249408,104,15675,13,0,486.016000
81.735424,104,15750,13,5.504000,0
81.740928,105,15825,13,0,486.016000
82.226944,105,15900,13,5.504000,0
82.232448,106,15975,13,0,486.016000
82.718464,106,16050,13,5.504000,0
82.723968,107,16125,13,0,486.016000
83.209984,107,16200,13,5.504000,0
83.215488,108,16275,13,0,486.016000
83.701504,108,16350,13,5.504000,0
83.707008,109,16425,13,0,486.016000
84.193024,109,16500,13,5.504000,0
84.198528,110,16575,13,0,486.016000
84.684544,110,16650,13,5.504000,0
84.690048,111,16725,13,0,486.016000
85.176064,111,16800,13,5.504000,0
85.181568,112,16875,14,0,486.016000
85.667584,112,16950,14,5.504000,0
85.673088,113,17025,14,0,486.016000
86.159104,113,17100,14,5.504000,0
86.164608,114,17175,14,0,486.016000
86.650624,114,17250,14,5.504000,0
86.656128,115,17325,14,0,486.016000
87.142144,115,17400,14,5.504000,0
87.147648,116,17475,14,0,486.016000
87.633664,116,17550,14,5.504000,0
87.639168,117,17625,14,0,486.016000
88.125184,117,17700,14,5.504000,0
88.130688,118,17775,14,0,486.016000
88.616704,118,17850,14,5.504000,0
88.622208,119,17925,14,0,486.016000
89.108224,119,18000,14,5.504000,0
89.113728,120,18075,15,0,486.016000
89.599744,120,18150,15,5.504000,0
89.605248,121,18225,15,0,486.016000
90.091264,121,18300,15,5.504000,0
90.096768,122,18375,15,0,486.016000
90.582784,122,18450,15,5.504000,0
90.588288,123,18525,15,0,486.016000
91.074304,123,18600,15,5.504000,0
91.079808,124,18675,15,0,486.016000
91.565824,124,18750,15,5.504000,0
91.571328,125,18825,15,0,486.016000
92.057344,125,18900,15,5.504000,0
92.062848,126,18975,15,0,486.016000
92.548864,126,19050,15,5.504000,0
92.554368,127,19125,15,0,486.016000
93.040384,127,19200,15,5.504000,0
93.045888,128,19275,16,0,486.016000
93.531904,128,19350,16,5.504000,0
93.537408,129,19425,16,0,486.016000
94.023424,129,19500,16,5.504000,0
94.028928,130,19575,16,0,486.016000
94.514944,130,19650,16,5.504000,0
94.520448,131,19725,16,0,486.016000
95.006464,131,19800,16,5.504000,0
95.011968,132,19875,16,0,486.016000
95.497984,132,19950,16,5.504000,0
95.503488,133,20025,16,0,486.016000
95.989504,133,20100,16,5.504000,0
95.995008,134,20175,16,0,486.016000
96.481024,134,20250,16,5.504000,0
96.486528,135,20325,16,0,486.016000
96.972544,135,20400,16,5.504000,0
96.978048,136,20475,17,0,486.016000
97.464064,136,20550,17,5.504000,0
97.469568,137,20625,17,0,486.016000
97.955584,137,20700,17,5.504000,0
97.961088,138,20775,17,0,486.016000
98.447104,138,20850,17,5.504000,0
98.452608,139,20925,17,0,486.016000
98.938624,139,21000,17,5.504000,0
98.944128,140,21075,17,0,486.016000
99.430144,140,21150,17,5.504000,0
99.435648,141,21225,17,0,486.016000
99.921664,141,21300,17,5.504000,0
99.927168,142,21375,17,0,486.016000
100.413184,142,21450,17,5.504000,0
100.418688,143,21525,17,0,486.016000
100.904704,143,21600,17,5.504000,0
100.910208,144,21675,18,0,486.016000
101.396224,144,21750,18,5.504000,0
101.401728,145,21825,18,0,486.016000
101.887744,145,21900,18,5.504000,0
101.893248,146,21975,18,0,486.016000
102.379264,146,22050,18,5.504000,0
102.384768,147,22125,18,0,486.016000
102.870784,147,22200,18,5.504000,0
102.876288,148,22275,18,0,486.016000
103.362304,148,22350,18,5.504000,0
103.367808,149,22425,18,0,486.016000
103.853824,149,22500,18,5.504000,0
103.859328,150,22575,18,0,486.016000
104.345344,150,22650,18,5.504000,0
104.350848,151,22725,18,0,486.016000
104.836864,151,22800,18,5.504000,0
104.842368,152,22875,19,0,486.016000
105.328384,152,22950,19,5.504000,0
105.333888,153,23025,19,0,486.016000
105.819904,153,23100,19,5.504000,0
105.825408,154,23175,19,0,486.016000
106.311424,154,23250,19,5.504000,0
106.316928,155,23325,19,0,486.016000
106.802944,155,23400,19,5.504000,0
106.808448,156,23475,19,0,486.016000
107.294464,156,23550,19,5.504000,0
107.299968,157,23625,19,0,486.016000
107.785984,157,23700,19,5.504000,0
107.791488,158,23775,19,0,486.016000
108.277504,158,23850,19,5.504000,0
108.283008,159,23925,19,0,486.016000
108.769024,159,24000,19,5.504000,0
108.774528,160,24075,20,0,486.016000
109.260544,160,24150,20,5.504000,0
109.266048,161,24225,20,0,486.016000
109.752064,161,24300,20,5.504000,0
109.757568,162,24375,20,0,486.016000
110.243584,162,24450,20,5.504000,0
110.249088,163,24525,20,0,486.016000
110.735104,163,24600,20,5.504000,0
110.740608,164,24675,20,0,486.016000
111.226624,164,24750,20,5.504000,0
111.232128,165,24825,20,0,486.016000
111.718144,165,24900,20,5.504000,0
111.723648,166,24975,20,0,486.016000
112.209664,166,25050,20,5.504000,0
112.215168,167,25125,20,0,486.016000
112.701184,167,25200,20,5.504000,0
112.706688,168,25275,21,0,486.016000
113.192704,168,25350,21,5.504000,0
113.198208,169,25425,21,0,486.016000
113.684224,169,25500,21,5.504000,0
113.689728,170,25575,21,0,486.016000
114.175744,170,25650,21,5.504000,0
114.181248,171,25725,21,0,486.016000
114.667264,171,25800,21,5.504000,0
114.672768,172,25875,21,0,486.016000
115.158784,172,25950,21,5.504000,0
115.164288,173,26025,21,0,486.016000
115.650304,173,26100,21,5.504000,0
115.655808,174,26175,21,0,486.016000
116.141824,174,26250,21,5.504000,0
116.147328,175,26325,21,0,486.016000
116.633344,175,26400,21,5.504000,0
116.638848,176,26475,22,0,486.016000
117.124864,176,26550,22,5.504000,0
117.130368,177,26625,22,0,486.016000
117.616384,177,26700,22,5.504000,0
117.621888,178,26775,22,0,486.016000
118.107904,178,26850,22,5.504000,0
118.113408,179,26925,22,0,486.016000
118.599424,179,27000,22,5.504000,0
118.604928,180,27075,22,0,486.016000
119.090944,180,27150,22,5.504000,0
119.096448,181,27225,22,0,486.016000
119.582464,181,27300,22,5.504000,0
119.587968,182,27375,22,0,486.016000
120.073984,182,27450,22,5.504000,0
120.079488,183,27525,22,0,486.016000
120.565504,183,27600,22,5.504000,0
120.571008,184,27675,23,0,486.016000
121.057024,184,27750,23,5.504000,0
121.062528,185,27825,23,0,486.016000
121.548544,185,27900,23,5.504000,0
121.554048,186,27975,23,0,486.016000
122.040064,186,28050,23,5.504000,0
122.045568,187,28125,23,0,486.016000
122.531584,187,28200,23,5.504000,0
122.537088,188,28275,23,0,486.016000
123.023104,188,28350,23,5.504000,0
123.028608,189,28425,23,0,486.016000
123.514624,189,28500,23,5.504000,0
123.520128,190,28575,23,0,486.016000
124.006144,190,28650,23,5.504000,0
124.011648,191,28725,23,0,486.016000
124.497664,191,28800,23,5.504000,0
124.503168,192,28875,24,0,486.016000
124.989184,192,28950,24,5.504000,0
124.994688,193,29025,24,0,486.016000
125.480704,193,29100,24,5.504000,0
125.486208,194,29175,24,0,486.016000
125.972224,194,29250,24,5.504000,0
125.977728,195,29325,24,0,486.016000
126.463744,195,29400,24,5.504000,0
126.469248,196,29475,24,0,486.016000
126.955264,196,29550,24,5.504000,0
126.960768,197,29625,24,0,486.016000
127.446784,197,29700,24,5.504000,0
127.452288,198,29775,24,0,486.016000
127.938304,198,29850,24,5.504000,0
127.943808,199,29925,24,0,486.016000
128.429824,199,30000,24,5.504000,0
128.435328,200,30075,25,0,486.016000
128.921344,200,30150,25,5.504000,0
128.926848,201,30225,25,0,486.016000
129.412864,201,30300,25,5.504000,0
129.418368,202,30375,25,0,486.016000
129.904384,202,30450,25,5.504000,0
129.909888,203,30525,25,0,486.016000
130.395904,203,30600,25,5.504000,0
130.401408,204,30675,25,0,486.016000
130.887424,204,30750,25,5.504000,0
130.892928,205,30825,25,0,486.016000
131.378944,205,30900,25,5.504000,0
131.384448,206,30975,25,0,486.016000
131.870464,206,31050,25,5.504000,0
131.875968,207,31125,25,0,486.016000
132.361984,207,31200,25,5.504000,0
132.367488,208,31275,26,0,486.016000
132.853504,208,31350,26,5.504000,0
132.859008,209,31425,26,0,486.016000
133.345024,209,31500,26,5.504000,0
133.350528,210,31575,26,0,486.016000
133.836544,210,31650,26,5.504000,0
133.842048,211,31725,26,0,486.016000
134.328064,211,31800,26,5.504000,0
134.333568,212,31875,26,0,486.016000
134.819584,212,31950,26,5.504000,0
134.825088,213,32025,26,0,486.016000
135.311104,213,32100,26,5.504000,0
135.316608,214,32175,26,0,486.016000
135.802624,214,32250,26,5.504000,0
135.808128,215,32325,26,0,486.016000
136.294144,215,32400,26,5.504000,0
136.299648,216,32475,27,0,486.016000
136.785664,216,32550,27,5.504000,0
136.791168,217,32625,27,0,486.016000
137.277184,217,32700,27,5.504000,0
137.282688,218,32775,27,0,486.016000
137.768704,218,32850,27,5.504000,0
137.774208,219,32925,27,0,486.016000
138.260224,219,33000,27,5.504000,0
138.265728,220,33075,27,0,486.016000
138.751744,220,33150,27,5.504000,0
138.757248,221,33225,27,0,486.016000
139.243264,221,33300,27,5.504000,0
139.248768,222,33375,27,0,486.016000
139.734784,222,33450,27,5.504000,0
139.740288,223,33525,27,0,486.016000
140.226304,223,33600,27,5.504000,0
140.231808,224,33675,28,0,486.016000
140.717824,224,33750,28,5.504000,0
140.723328,225,33825,28,0,486.016000
141.209344,225,33900,28,5.504000,0
141.214848,226,33975,28,0,486.016000
141.700864,226,34050,28,5.504000,0
141.706368,227,34125,28,0,486.016000
142.192384,227,34200,28,5.504000,0
142.197888,228,34275,28,0,486.016000
142.683904,228,34350,28,5.504000,0
142.689408,229,34425,28,0,486.016000
143.175424,229,34500,28,5.504000,0
143.180928,230,34575,28,0,486.016000
143.666944,230,34650,28,5.504000,0
143.672448,231,34725,28,0,486.016000
144.158464,231,34800,28,5.504000,0
144.163968,232,34875,29,0,486.016000
144.649984,232,34950,29,5.504000,0
144.655488,233,35025,29,0,486.016000
145.141504,233,35100,29,5.504000,0
145.147008,234,35175,29,0,486.016000
145.633024,234,35250,29,5.504000,0
145.638528,235,35325,29,0,486.016000
146.124544,235,35400,29,5.504000,0
146.130048,236,35475,29,0,486.016000
146.616064,236,35550,29,5.504000,0
146.621568,237,35625,29,0,486.016000
147.107584,237,35700,29,5.504000,0
147.113088,238,35775,29,0,486.016000
147.599104,238,35850,29,5.504000,0
147.604608,239,35925,29,0,486.016000
148.090624,239,36000,29,5.504000,0
148.096128,240,36075,30,0,486.016000
148.582144,240,36150,30,5.504000,0
148.587648,241,36225,30,0,486.016000
149.073664,241,36300,30,5.504000,0
149.079168,242,36375,30,0,486.016000
149.565184,242,36450,30,5.504000,0
149.570688,243,36525,30,0,486.016000
150.056704,243,36600,30,5.504000,0
150.062208,244,36675,30,0,486.016000
150.548224,244,36750,30,5.504000,0
150.553728,245,36825,30,0,486.016000
151.039744,245,36900,30,5.504000,0
151.045248,246,36975,30,0,486.016000
151.531264,246,37050,30,5.504000,0
151.536768,247,37125,30,0,486.016000
152.022784,247,37200,30,5.504000,0
152.028288,248,37275,31,0,486.016000
152.514304,248,37350,31,5.504000,0
152.519808,249,37425,31,0,486.016000
153.005824,249,37500,31,5.504000,0
153.011328,250,37575,31,0,486.016000
153.497344,250,37650,31,5.504000,0
153.502848,251,37725,31,0,486.016000
153.988864,251,37800,31,5.504000,0
153.994368,252,37875,31,0,486.016000
154.480384,252,37950,31,5.504000,0
154.485888,253,38025,31,0,486.016000
154.971904,253,38100,31,5.504000,0
154.977408,254,38175,31,0,486.016000
155.463424,254,38250,31,5.504000,0
155.468928,255,38325,31,0,486.016000
155.954944,255,38400,31,5.504000,0
155.960448,256,38475,32,0,486.016000
156.446464,256,38550,32,5.504000,0
156.451968,257,38625,32,0,486.016000
156.937984,257,38700,32,5.504000,0
156.943488,258,38775,32,0,486.016000
157.429504,258,38850,32,5.504000,0
157.435008,259,38925,32,0,486.016000
157.921024,259,39000,32,5.504000,0
157.926528,260,39075,32,0,486.016000
158.412544,260,39150,32,5.504000,0
158.418048,261,39225,32,0,486.016000
158.904064,261,39300,32,5.504000,0
158.909568,262,39375,32,0,486.016000
159.395584,262,39450,32,5.504000,0
159.401088,263,39525,32,0,486.016000
159.887104,263,39600,32,5.504000,0
159.892608,264,39675,33,0,486.016000
160.378624,264,39750,33,5.504000,0
160.384128,265,39825,33,0,486.016000
160.870144,265,39900,33,5.504000,0
160.875648,266,39975,33,0,486.016000
161.361664,266,40050,33,5.504000,0
161.367168,267,40125,33,0,486.016000
161.853184,267,40200,33,5.504000,0
161.858688,268,40275,33,0,486.016000
162.344704,268,40350,33,5.504000,0
162.350208,269,40425,33,0,486.016000
162.836224,269,40500,33,5.504000,0
162.841728,270,40575,33,0,486.016000
163.327744,270,40650,33,5.504000,0
163.333248,271,40725,33,0,486.016000
163.819264,271,40800,33,5.504000,0
163.824768,272,40875,34,0,486.016000
164.310784,272,40950,34,5.504000,0
164.316288,273,41025,34,0,486.016000
164.802304,273,41100,34,5.504000,0
164.807808,274,41175,34,0,486.016000
165.293824,274,41250,34,5.504000,0
165.299328,275,41325,34,0,486.016000
165.785344,275,41400,34,5.504000,0
165.790848,276,41475,34,0,486.016000
166.276864,276,41550,34,5.504000,0
166.282368,277,41625,34,0,486.016000
166.768384,277,41700,34,5.504000,0
166.773888,278,41775,34,0,486.016000
167.259904,278,41850,34,5.504000,0
167.265408,279,41925,34,0,486.016000
167.751424,279,42000,34,5.504000,0
167.756928,280,42075,35,0,486.016000
168.242944,280,42150,35,5.504000,0
168.248448,281,42225,35,0,486.016000
168.734464,281,42300,35,5.504000,0
168.739968,282,42375,35,0,486.016000
169.225984,282,42450,35,5.504000,0
169.231488,283,42525,35,0,486.016000
169.717504,283,42600,35,5.504000,0
169.723008,284,42675,35,0,486.016000
170.209024,284,42750,35,5.504000,0
170.214528,285,42825,35,0,486.016000
170.700544,285,42900,35,5.504000,0
170.706048,286,42975,35,0,486.016000
171.192064,286,43050,35,5.504000,0
171.197568,287,43125,35,0,486.016000
171.683584,287,43200,35,5.504000,0
171.689088,288,43275,36,0,486.016000
172.175104,288,43350,36,5.504000,0
172.180608,289,43425,36,0,486.016000
172.666624,289,43500,36,5.504000,0
172.672128,290,43575,36,0,486.016000
173.158144,290,43650,36,5.504000,0
173.163648,291,43725,36,0,486.016000
173.649664,291,43800,36,5.504000,0
173.655168,292,43875,36,0,486.016000
174.141184,292,43950,36,5.504000,0
174.146688,293,44025,36,0,486.016000
174.632704,293,44100,36,5.504000,0
174.638208,294,44175,36,0,486.016000
175.124224,294,44250,36,5.504000,0
175.129728,295,44325,36,0,486.016000
175.615744,295,44400,36,5.504000,0
175.621248,296,44475,37,0,486.016000
176.107264,296,44550,37,5.504000,0
176.112768,297,44625,37,0,486.016000
176.598784,297,44700,37,5.504000,0
176.604288,298,44775,37,0,486.016000
177.090304,298,44850,37,5.504000,0
177.095808,299,44925,37,0,486.016000
177.581824,299,45000,37,5.504000,0
177.587328,300,45075,37,0,486.016000
178.073344,300,45150,37,5.504000,0
178.078848,301,45225,37,0,486.016000
178.564864,301,45300,37,5.504000,0
178.570368,302,45375,37,0,486.016000
179.056384,302,45450,37,5.504000,0
179.061888,303,45525,37,0,486.016000
179.547904,303,45600,37,5.504000,0
179.553408,304,45675,38,0,486.016000
180.039424,304,45750,38,5.504000,0
180.044928,305,45825,38,0,486.016000
180.530944,305,45900,38,5.504000,0
180.536448,306,45975,38,0,486.016000
181.022464,306,46050,38,5.504000,0
181.027968,307,46125,38,0,486.016000
181.513984,307,46200,38,5.504000,0
181.519488,308,46275,38,0,486.016000
182.005504,308,46350,38,5.504000,0
182.011008,309,46425,38,0,486.016000
182.497024,309,46500,38,5.504000,0
182.502528,310,46575,38,0,486.016000
182.988544,310,46650,38,5.504000,0
182.994048,311,46725,38,0,486.016000
183.480064,311,46800,38,5.504000,0
183.485568,312,46875,39,0,486.016000
183.971584,312,46950,39,5.504000,0
183.977088,313,47025,39,0,486.016000
184.463104,313,47100,39,5.504000,0
184.468608,314,47175,39,0,486.016000
184.954624,314,47250,39,5.504000,0
184.960128,315,47325,39,0,486.016000
185.446144,315,47400,39,5.504000,0
185.451648,316,47475,39,0,486.016000
185.937664,316,47550,39,5.504000,0
185.943168,317,47625,39,0,486.016000
186.429184,317,47700,39,5.504000,0
186.434688,318,47775,39,0,486.016000
186.920704,318,47850,39,5.504000,0
186.926208,319,47925,39,0,486.016000
187.412224,319,48000,39,5.504000,0
187.417728,320,48075,40,0,486.016000
187.903744,320,48150,40,5.504000,0
187.909248,321,48225,40,0,486.016000
188.395264,321,48300,40,5.504000,0
188.400768,322,48375,40,0,486.016000
188.886784,322,48450,40,5.504000,0
188.892288,323,48525,40,0,486.016000
189.378304,323,48600,40,5.504000,0
189.383808,324,48675,40,0,486.016000
189.869824,324,48750,40,5.504000,0
189.875328,325,48825,40,0,486.016000
190.361344,325,48900,40,5.504000,0
190.366848,326,48975,40,0,486.016000
190.852864,326,49050,40,5.504000,0
190.858368,327,49125,40,0,486.016000
191.344384,327,49200,40,5.504000,0
191.349888,328,49275,41,0,486.016000
191.835904,328,49350,41,5.504000,0
191.841408,329,49425,41,0,486.016000
192.327424,329,49500,41,5.504000,0
192.332928,330,49575,41,0,486.016000
192.818944,330,49650,41,5.504000,0
192.824448,331,49725,41,0,486.016000
193.310464,331,49800,41,5.504000,0
193.315968,332,49875,41,0,486.016000
193.801984,332,49950,41,5.504000,0
193.807488,333,50025,41,0,486.016000
194.293504,333,50100,41,5.504000,0
194.299008,334,50175,41,0,486.016000
194.785024,334,50250,41,5.504000,0
194.790528,335,50325,41,0,486.016000
195.276544,335,50400,41,5.504000,0
195.282048,336,50475,42,0,486.016000
195.768064,336,50550,42,5.504000,0
195.773568,337,50625,42,0,486.016000
196.259584,337,50700,42,5.504000,0
196.265088,338,50775,42,0,486.016000
196.751104,338,50850,42,5.504000,0
196.756608,339,50925,42,0,486.016000
197.242624,339,51000,42,5.504000,0
197.248128,340,51075,42,0,486.016000
197.734144,340,51150,42,5.504000,0
197.739648,341,51225,42,0,486.016000
198.225664,341,51300,42,5.504000,0
198.231168,342,51375,42,0,486.016000
198.717184,342,51450,42,5.504000,0
198.722688,343,51525,42,0,486.016000
199.208704,343,51600,42,5.504000,0
199.214208,344,51675,43,0,486.016000
199.700224,344,51750,43,5.504000,0
199.705728,345,51825,43,0,486.016000
200.191744,345,51900,43,5.504000,0
200.197248,346,51975,43,0,486.016000
200.683264,346,52050,43,5.504000,0
200.688768,347,52125,43,0,486.016000
201.174784,347,52200,43,5.504000,0
201.180288,348,52275,43,0,486.016000
201.666304,348,52350,43,5.504000,0
201.671808,349,52425,43,0,486.016000
202.157824,349,52500,43,5.504000,0
202.163328,350,52575,43,0,486.016000
202.649344,350,52650,43,5.504000,0
202.654848,351,52725,43,0,486.016000
203.140864,351,52800,43,5.504000,0
203.146368,352,52875,44,0,486.016000
203.632384,352,52950,44,5.504000,0
203.637888,353,53025,44,0,486.016000
204.123904,353,53100,44,5.504000,0
204.129408,354,53175,44,0,486.016000
204.615424,354,53250,44,5.504000,0
204.620928,355,53325,44,0,486.016000
205.106944,355,53400,44,5.504000,0
205.112448,356,53475,44,0,486.016000
205.598464,356,53550,44,5.504000,0
205.603968,357,53625,44,0,486.016000
206.089984,357,53700,44,5.504000,0
206.095488,358,53775,44,0,486.016000
206.581504,358,53850,44,5.504000,0
206.587008,359,53925,44,0,486.016000
207.073024,359,54000,44,5.504000,0
207.078528,360,54075,45,0,486.016000
207.564544,360,54150,45,5.504000,0
207.570048,361,54225,45,0,486.016000
208.056064,361,54300,45,5.504000,0
208.061568,362,54375,45,0,486.016000
208.547584,362,54450,45,5.504000,0
208.553088,363,54525,45,0,486.016000
209.039104,363,54600,45,5.504000,0
209.044608,364,54675,45,0,486.016000
209.530624,364,54750,45,5.504000,0
209.536128,365,54825,45,0,486.016000
210.022144,365,54900,45,5.504000,0
210.027648,366,54975,45,0,486.016000
210.513664,366,55050,45,5.504000,0
210.519168,367,55125,45,0,486.016000
211.005184,367,55200,45,5.504000,0
211.010688,368,55275,46,0,486.016000
211.496704,368,55350,46,5.504000,0
211.502208,369,55425,46,0,486.016000
211.988224,369,55500,46,5.504000,0
211.993728,370,55575,46,0,486.016000
212.479744,370,55650,46,5.504000,0
212.485248,371,55725,46,0,486.016000
212.971264,371,55800,46,5.504000,0
212.976768,372,55875,46,0,486.016000
213.462784,372,55950,46,5.504000,0
213.468288,373,56025,46,0,486.016000
213.954304,373,56100,46,5.504000,0
213.959808,374,56175,46,0,486.016000
214.445824,374,56250,46,5.504000,0
214.451328,375,56325,46,0,486.016000
214.937344,375,56400,46,5.504000,0
214.942848,376,56475,47,0,486.016000
215.428864,376,56550,47,5.504000,0
215.434368,377,56625,47,0,486.016000
215.920384,377,56700,47,5.504000,0
215.925888,378,56775,47,0,486.016000
216.411904,378,56850,47,5.504000,0
216.417408,379,56925,47,0,486.016000
216.903424,379,57000,47,5.504000,0
216.908928,380,57075,47,0,486.016000
217.394944,380,57150,47,5.504000,0
217.400448,381,57225,47,0,486.016000
217.886464,381,57300,47,5.504000,0
217.891968,382,57375,47,0,486.016000
218.377984,382,57450,47,5.504000,0
218.383488,383,57525,47,0,486.016000
218.869504,383,57600,47,5.504000,0
218.875008,384,57675,48,0,486.016000
219.361024,384,57750,48,5.504000,0
219.366528,385,57825,48,0,486.016000
219.852544,385,57900,48,5.504000,0
219.858048,386,57975,48,0,486.016000
220.344064,386,58050,48,5.504000,0
220.349568,387,58125,48,0,486.016000
220.835584,387,58200,48,5.504000,0
220.841088,388,58275,48,0,486.016000
221.327104,388,58350,48,5.504000,0
221.332608,389,58425,48,0,486.016000
221.818624,389,58500,48,5.504000,0
221.824128,390,58575,48,0,486.016000
222.310144,390,58650,48,5.504000,0
222.315648,391,58725,48,0,486.016000
222.801664,391,58800,48,5.504000,0
222.807168,392,58875,49,0,486.016000
223.293184,392,58950,49,5.504000,0
223.298688,393,59025,49,0,486.016000
223.784704,393,59100,49,5.504000,0
223.790208,394,59175,49,0,486.016000
224.276224,394,59250,49,5.504000,0
224.281728,395,59325,49,0,486.016000
224.767744,395,59400,49,5.504000,0
224.773248,396,59475,49,0,486.016000
225.259264,396,59550,49,5.504000,0
225.264768,397,59625,49,0,486.016000
225.750784,397,59700,49,5.504000,0
225.756288,398,59775,49,0,486.016000
226.242304,398,59850,49,5.504000,0
226.247808,399,59925,49,0,486.016000
226.733824,399,60000,49,5.504000,0
226.739328,400,60075,50,0,486.016000
227.225344,400,60150,50,5.504000,0
227.230848,401,60225,50,0,486.016000
227.716864,401,60300,50,5.504000,0
227.722368,402,60375,50,0,486.016000
228.208384,402,60450,50,5.504000,0
228.213888,403,60525,50,0,486.016000
228.699904,403,60600,50,5.504000,0
228.705408,404,60675,50,0,486.016000
229.191424,404,60750,50,5.504000,0
229.196928,405,60825,50,0,486.016000
229.682944,405,60900,50,5.504000,0
229.688448,406,60975,50,0,486.016000
230.174464,406,61050,50,5.504000,0
230.179968,407,61125,50,0,486.016000
230.665984,407,61200,50,5.504000,0
230.671488,408,61275,51,0,486.016000
