Time,CovertPackets,AllPackets,BitsSent,PacketInterval,GTSInterval
575.085952,1,2,0,3.136000,0
575.089088,2,3,0,4.416000,0
575.093504,3,4,0,0,31444.672000
606.538176,3,5,0,4.416000,0
606.542592,4,6,0,3.136000,0
606.545728,5,7,0,4.416000,0
606.550144,6,8,0,3.136000,0
606.553280,7,9,0,3.136000,0
606.556416,8,10,1,4.416000,0
606.560832,9,11,1,3.136000,0
606.563968,10,12,1,4.416000,0
606.568384,11,13,1,4.416000,0
606.572800,12,14,1,3.136000,0
606.575936,13,15,1,4.416000,0
606.580352,14,16,1,4.416000,0
606.584768,15,17,1,4.416000,0
606.589184,16,18,2,3.136000,0
606.592320,17,19,2,0,31403.136000
637.995456,17,20,2,3.136000,0
637.998592,18,21,2,4.416000,0
638.003008,19,22,2,4.416000,0
638.007424,20,23,2,3.136000,0
638.010560,21,24,2,3.136000,0
638.013696,22,25,2,4.416000,0
638.018112,23,26,2,4.416000,0
638.022528,24,27,3,3.136000,0
638.025664,25,28,3,3.136000,0
638.028800,26,29,3,4.416000,0
638.033216,27,30,3,4.416000,0
638.037632,28,31,3,3.136000,0
638.040768,29,32,3,4.416000,0
638.045184,30,33,3,4.416000,0
638.049600,31,34,3,0,31403.136000
669.452736,31,35,3,4.416000,0
669.457152,32,36,4,4.416000,0
669.461568,33,37,4,3.136000,0
669.464704,34,38,4,4.416000,0
669.469120,35,39,4,4.416000,0
669.473536,36,40,4,4.416000,0
669.477952,37,41,4,3.136000,0
669.481088,38,42,4,3.136000,0
669.484224,39,43,4,4.416000,0
669.488640,40,44,5,3.136000,0
669.491776,41,45,5,3.136000,0
669.494912,42,46,5,4.416000,0
669.499328,43,47,5,4.416000,0
669.503744,44,48,5,3.136000,0
669.506880,45,49,5,0,31403.136000
700.910016,45,50,5,4.416000,0
700.914432,46,51,5,4.416000,0
700.918848,47,52,5,3.136000,0
700.921984,48,53,6,4.416000,0
700.926400,49,54,6,3.136000,0
700.929536,50,55,6,4.416000,0
700.933952,51,56,6,4.416000,0
700.938368,52,57,6,3.136000,0
700.941504,53,58,6,3.136000,0
700.944640,54,59,6,3.136000,0
700.947776,55,60,6,3.136000,0
700.950912,56,61,7,4.416000,0
700.955328,57,62,7,3.136000,0
700.958464,58,63,7,4.416000,0
700.962880,59,64,7,0,31404.416000
732.367296,59,65,7,4.416000,0
732.371712,60,66,7,3.136000,0
732.374848,61,67,7,3.136000,0
732.377984,62,68,7,3.136000,0
732.381120,63,69,7,4.416000,0
732.385536,64,70,8,4.416000,0
732.389952,65,71,8,3.136000,0
732.393088,66,72,8,4.416000,0
732.397504,67,73,8,4.416000,0
732.401920,68,74,8,3.136000,0
732.405056,69,75,8,3.136000,0
732.408192,70,76,8,3.136000,0
732.411328,71,77,8,3.136000,0
732.414464,72,78,9,4.416000,0
732.418880,73,79,9,0,31405.696000
763.824576,73,80,9,3.136000,0
763.827712,74,81,9,4.416000,0
763.832128,75,82,9,4.416000,0
763.836544,76,83,9,3.136000,0
763.839680,77,84,9,4.416000,0
763.844096,78,85,9,4.416000,0
763.848512,79,86,9,4.416000,0
763.852928,80,87,10,4.416000,0
763.857344,81,88,10,3.136000,0
763.860480,82,89,10,3.136000,0
763.863616,83,90,10,4.416000,0
763.868032,84,91,10,3.136000,0
763.871168,85,92,10,3.136000,0
763.874304,86,93,10,3.136000,0
763.877440,87,94,10,0,31404.416000
