Time,CovertPackets,AllPackets,BitsSent,PacketInterval,GTSInterval
65.135808,1,60,0,4.064000,0
65.139872,2,90,0,5.344000,0
65.145216,3,120,0,5.344000,0
65.150560,4,150,0,4.064000,0
65.154624,5,180,0,5.344000,0
65.159968,6,210,0,4.064000,0
65.164032,7,240,0,4.064000,0
65.168096,8,270,1,5.344000,0
65.173440,9,300,1,4.064000,0
65.177504,10,330,1,5.344000,0
65.182848,11,360,1,5.344000,0
65.188192,12,390,1,4.064000,0
65.192256,13,420,1,5.344000,0
65.197600,14,450,1,5.344000,0
65.202944,15,480,1,5.344000,0
65.208288,16,510,2,4.064000,0
65.212352,17,540,2,4.064000,0
65.216416,18,570,2,5.344000,0
65.221760,19,600,2,5.344000,0
65.227104,20,630,2,4.064000,0
65.231168,21,660,2,0,7762.976000
72.994144,21,690,2,4.064000,0
72.998208,22,720,2,5.344000,0
73.003552,23,750,2,5.344000,0
73.008896,24,780,3,4.064000,0
73.012960,25,810,3,4.064000,0
73.017024,26,840,3,5.344000,0
73.022368,27,870,3,5.344000,0
73.027712,28,900,3,4.064000,0
73.031776,29,930,3,5.344000,0
73.037120,30,960,3,5.344000,0
73.042464,31,990,3,5.344000,0
73.047808,32,1020,4,5.344000,0
73.053152,33,1050,4,4.064000,0
73.057216,34,1080,4,5.344000,0
73.062560,35,1110,4,5.344000,0
73.067904,36,1140,4,5.344000,0
73.073248,37,1170,4,4.064000,0
73.077312,38,1200,4,4.064000,0
73.081376,39,1230,4,5.344000,0
73.086720,40,1260,5,4.064000,0
73.090784,41,1290,5,4.064000,0
73.094848,42,1320,5,5.344000,0
73.100192,43,1350,5,0,7758.272000
80.858464,43,1380,5,5.344000,0
80.863808,44,1410,5,4.064000,0
80.867872,45,1440,5,5.344000,0
80.873216,46,1470,5,5.344000,0
80.878560,47,1500,5,4.064000,0
80.882624,48,1530,6,5.344000,0
80.887968,49,1560,6,4.064000,0
80.892032,50,1590,6,5.344000,0
80.897376,51,1620,6,5.344000,0
80.902720,52,1650,6,4.064000,0
80.906784,53,1680,6,4.064000,0
80.910848,54,1710,6,4.064000,0
80.914912,55,1740,6,4.064000,0
80.918976,56,1770,7,5.344000,0
80.924320,57,1800,7,4.064000,0
80.928384,58,1830,7,5.344000,0
80.933728,59,1860,7,5.344000,0
80.939072,60,1890,7,4.064000,0
80.943136,61,1920,7,4.064000,0
80.947200,62,1950,7,4.064000,0
80.951264,63,1980,7,5.344000,0
80.956608,64,2010,8,5.344000,0
80.961952,65,2040,8,4.064000,0
80.966016,66,2070,8,5.344000,0
80.971360,67,2100,8,0,7751.424000
88.722784,67,2130,8,5.344000,0
88.728128,68,2160,8,4.064000,0
88.732192,69,2190,8,4.064000,0
88.736256,70,2220,8,4.064000,0
88.740320,71,2250,8,4.064000,0
88.744384,72,2280,9,5.344000,0
88.749728,73,2310,9,4.064000,0
88.753792,74,2340,9,5.344000,0
88.759136,75,2370,9,5.344000,0
88.764480,76,2400,9,4.064000,0
88.768544,77,2430,9,5.344000,0
88.773888,78,2460,9,5.344000,0
88.779232,79,2490,9,5.344000,0
88.784576,80,2520,10,5.344000,0
88.789920,81,2550,10,4.064000,0
88.793984,82,2580,10,4.064000,0
88.798048,83,2610,10,5.344000,0
88.803392,84,2640,10,4.064000,0
88.807456,85,2670,10,4.064000,0
88.811520,86,2700,10,4.064000,0
88.815584,87,2730,10,4.064000,0
88.819648,88,2760,11,0,7767.456000
96.587104,88,2790,11,4.064000,0
96.591168,89,2820,11,4.064000,0
96.595232,90,2850,11,5.344000,0
96.600576,91,2880,11,5.344000,0
96.605920,92,2910,11,4.064000,0
96.609984,93,2940,11,4.064000,0
96.614048,94,2970,11,4.064000,0
96.618112,95,3000,11,5.344000,0
96.623456,96,3030,12,5.344000,0
96.628800,97,3060,12,4.064000,0
96.632864,98,3090,12,5.344000,0
96.638208,99,3120,12,5.344000,0
96.643552,100,3150,12,4.064000,0
96.647616,101,3180,12,5.344000,0
96.652960,102,3210,12,5.344000,0
96.658304,103,3240,12,5.344000,0
96.663648,104,3270,13,5.344000,0
96.668992,105,3300,13,4.064000,0
96.673056,106,3330,13,5.344000,0
96.678400,107,3360,13,5.344000,0
96.683744,108,3390,13,4.064000,0
96.687808,109,3420,13,5.344000,0
96.693152,110,3450,13,0,7758.272000
104.451424,110,3480,13,5.344000,0
104.456768,111,3510,13,5.344000,0
104.462112,112,3540,14,4.064000,0
104.466176,113,3570,14,4.064000,0
104.470240,114,3600,14,5.344000,0
104.475584,115,3630,14,5.344000,0
104.480928,116,3660,14,4.064000,0
104.484992,117,3690,14,4.064000,0
104.489056,118,3720,14,5.344000,0
104.494400,119,3750,14,5.344000,0
104.499744,120,3780,15,4.064000,0
104.503808,121,3810,15,4.064000,0
104.507872,122,3840,15,5.344000,0
104.513216,123,3870,15,5.344000,0
104.518560,124,3900,15,4.064000,0
104.522624,125,3930,15,5.344000,0
104.527968,126,3960,15,4.064000,0
104.532032,127,3990,15,4.064000,0
104.536096,128,4020,16,5.344000,0
104.541440,129,4050,16,4.064000,0
104.545504,130,4080,16,5.344000,0
104.550848,131,4110,16,5.344000,0
104.556192,132,4140,16,0,7759.552000
112.315744,132,4170,16,4.064000,0
112.319808,133,4200,16,4.064000,0
112.323872,134,4230,16,5.344000,0
112.329216,135,4260,16,4.064000,0
112.333280,136,4290,17,4.064000,0
112.337344,137,4320,17,4.064000,0
112.341408,138,4350,17,5.344000,0
112.346752,139,4380,17,5.344000,0
112.352096,140,4410,17,4.064000,0
112.356160,141,4440,17,4.064000,0
112.360224,142,4470,17,5.344000,0
112.365568,143,4500,17,4.064000,0
112.369632,144,4530,18,5.344000,0
112.374976,145,4560,18,4.064000,0
112.379040,146,4590,18,5.344000,0
112.384384,147,4620,18,5.344000,0
112.389728,148,4650,18,4.064000,0
112.393792,149,4680,18,5.344000,0
112.399136,150,4710,18,5.344000,0
112.404480,151,4740,18,5.344000,0
112.409824,152,4770,19,4.064000,0
112.413888,153,4800,19,0,7766.176000
120.180064,153,4830,19,4.064000,0
120.184128,154,4860,19,5.344000,0
120.189472,155,4890,19,5.344000,0
120.194816,156,4920,19,4.064000,0
120.198880,157,4950,19,4.064000,0
120.202944,158,4980,19,4.064000,0
120.207008,159,5010,19,5.344000,0
120.212352,160,5040,20,5.344000,0
120.217696,161,5070,20,4.064000,0
120.221760,162,5100,20,5.344000,0
120.227104,163,5130,20,5.344000,0
120.232448,164,5160,20,4.064000,0
120.236512,165,5190,20,5.344000,0
120.241856,166,5220,20,4.064000,0
120.245920,167,5250,20,4.064000,0
120.249984,168,5280,21,5.344000,0
120.255328,169,5310,21,4.064000,0
120.259392,170,5340,21,5.344000,0
120.264736,171,5370,21,5.344000,0
120.270080,172,5400,21,4.064000,0
120.274144,173,5430,21,4.064000,0
120.278208,174,5460,21,0,7766.176000
128.044384,174,5490,21,4.064000,0
128.048448,175,5520,21,4.064000,0
128.052512,176,5550,22,5.344000,0
128.057856,177,5580,22,4.064000,0
128.061920,178,5610,22,5.344000,0
128.067264,179,5640,22,5.344000,0
128.072608,180,5670,22,4.064000,0
128.076672,181,5700,22,5.344000,0
128.082016,182,5730,22,5.344000,0
128.087360,183,5760,22,4.064000,0
128.091424,184,5790,23,4.064000,0
128.095488,185,5820,23,4.064000,0
128.099552,186,5850,23,4.064000,0
128.103616,187,5880,23,5.344000,0
128.108960,188,5910,23,4.064000,0
128.113024,189,5940,23,4.064000,0
128.117088,190,5970,23,4.064000,0
128.121152,191,6000,23,4.064000,0
128.125216,192,6030,24,4.064000,0
128.129280,193,6060,24,4.064000,0
128.133344,194,6090,24,4.064000,0
128.137408,195,6120,24,5.344000,0
128.142752,196,6150,24,0,7765.952000
135.908704,196,6180,24,4.064000,0
135.912768,197,6210,24,4.064000,0
135.916832,198,6240,24,4.064000,0
135.920896,199,6270,24,4.064000,0
135.924960,200,6300,25,4.064000,0
135.929024,201,6330,25,4.064000,0
135.933088,202,6360,25,4.064000,0
135.937152,203,6390,25,5.344000,0
135.942496,204,6420,25,4.064000,0
135.946560,205,6450,25,4.064000,0
135.950624,206,6480,25,4.064000,0
135.954688,207,6510,25,4.064000,0
135.958752,208,6540,26,4.064000,0
135.962816,209,6570,26,4.064000,0
135.966880,210,6600,26,5.344000,0
135.972224,211,6630,26,5.344000,0
135.977568,212,6660,26,4.064000,0
135.981632,213,6690,26,5.344000,0
135.986976,214,6720,26,4.064000,0
135.991040,215,6750,26,4.064000,0
135.995104,216,6780,27,5.344000,0
136.000448,217,6810,27,0,7772.576000
143.773024,217,6840,27,4.064000,0
143.777088,218,6870,27,5.344000,0
143.782432,219,6900,27,5.344000,0
143.787776,220,6930,27,4.064000,0
143.791840,221,6960,27,5.344000,0
143.797184,222,6990,27,5.344000,0
143.802528,223,7020,27,5.344000,0
143.807872,224,7050,28,4.064000,0
143.811936,225,7080,28,4.064000,0
143.816000,226,7110,28,5.344000,0
143.821344,227,7140,28,5.344000,0
143.826688,228,7170,28,4.064000,0
143.830752,229,7200,28,4.064000,0
143.834816,230,7230,28,5.344000,0
143.840160,231,7260,28,5.344000,0
143.845504,232,7290,29,4.064000,0
143.849568,233,7320,29,4.064000,0
143.853632,234,7350,29,5.344000,0
143.858976,235,7380,29,5.344000,0
143.864320,236,7410,29,4.064000,0
143.868384,237,7440,29,5.344000,0
143.873728,238,7470,29,5.344000,0
143.879072,239,7500,29,0,7758.272000
151.637344,239,7530,29,5.344000,0
151.642688,240,7560,30,5.344000,0
151.648032,241,7590,30,4.064000,0
151.652096,242,7620,30,5.344000,0
151.657440,243,7650,30,5.344000,0
151.662784,244,7680,30,5.344000,0
151.668128,245,7710,30,4.064000,0
151.672192,246,7740,30,4.064000,0
151.676256,247,7770,30,5.344000,0
151.681600,248,7800,31,4.064000,0
151.685664,249,7830,31,4.064000,0
151.689728,250,7860,31,5.344000,0
151.695072,251,7890,31,5.344000,0
151.700416,252,7920,31,4.064000,0
151.704480,253,7950,31,5.344000,0
151.709824,254,7980,31,5.344000,0
151.715168,255,8010,31,4.064000,0
151.719232,256,8040,32,5.344000,0
151.724576,257,8070,32,4.064000,0
151.728640,258,8100,32,5.344000,0
151.733984,259,8130,32,5.344000,0
151.739328,260,8160,32,0,7762.336000
159.501664,260,8190,32,4.064000,0
159.505728,261,8220,32,4.064000,0
159.509792,262,8250,32,4.064000,0
159.513856,263,8280,32,4.064000,0
159.517920,264,8310,33,5.344000,0
159.523264,265,8340,33,4.064000,0
159.527328,266,8370,33,5.344000,0
159.532672,267,8400,33,5.344000,0
159.538016,268,8430,33,4.064000,0
159.542080,269,8460,33,4.064000,0
159.546144,270,8490,33,4.064000,0
159.550208,271,8520,33,5.344000,0
159.555552,272,8550,34,5.344000,0
159.560896,273,8580,34,4.064000,0
159.564960,274,8610,34,5.344000,0
159.570304,275,8640,34,5.344000,0
159.575648,276,8670,34,4.064000,0
159.579712,277,8700,34,4.064000,0
159.583776,278,8730,34,4.064000,0
159.587840,279,8760,34,4.064000,0
159.591904,280,8790,35,5.344000,0
159.597248,281,8820,35,4.064000,0
159.601312,282,8850,35,0,7764.672000
167.365984,282,8880,35,5.344000,0
167.371328,283,8910,35,5.344000,0
167.376672,284,8940,35,4.064000,0
167.380736,285,8970,35,5.344000,0
167.386080,286,9000,35,5.344000,0
167.391424,287,9030,35,5.344000,0
167.396768,288,9060,36,5.344000,0
167.402112,289,9090,36,4.064000,0
167.406176,290,9120,36,4.064000,0
167.410240,291,9150,36,5.344000,0
167.415584,292,9180,36,4.064000,0
167.419648,293,9210,36,4.064000,0
167.423712,294,9240,36,4.064000,0
167.427776,295,9270,36,4.064000,0
167.431840,296,9300,37,4.064000,0
167.435904,297,9330,37,4.064000,0
167.439968,298,9360,37,5.344000,0
167.445312,299,9390,37,5.344000,0
167.450656,300,9420,37,4.064000,0
167.454720,301,9450,37,4.064000,0
167.458784,302,9480,37,4.064000,0
167.462848,303,9510,37,5.344000,0
167.468192,304,9540,38,0,7762.112000
175.230304,304,9570,38,5.344000,0
175.235648,305,9600,38,4.064000,0
175.239712,306,9630,38,5.344000,0
175.245056,307,9660,38,5.344000,0
175.250400,308,9690,38,4.064000,0
175.254464,309,9720,38,5.344000,0
175.259808,310,9750,38,5.344000,0
175.265152,311,9780,38,5.344000,0
175.270496,312,9810,39,5.344000,0
175.275840,313,9840,39,4.064000,0
175.279904,314,9870,39,5.344000,0
175.285248,315,9900,39,5.344000,0
175.290592,316,9930,39,4.064000,0
175.294656,317,9960,39,5.344000,0
175.300000,318,9990,39,5.344000,0
175.305344,319,10020,39,5.344000,0
175.310688,320,10050,40,4.064000,0
175.314752,321,10080,40,4.064000,0
175.318816,322,10110,40,5.344000,0
175.324160,323,10140,40,5.344000,0
175.329504,324,10170,40,4.064000,0
175.333568,325,10200,40,0,7761.056000
183.094624,325,10230,40,4.064000,0
183.098688,326,10260,40,5.344000,0
183.104032,327,10290,40,5.344000,0
183.109376,328,10320,41,4.064000,0
183.113440,329,10350,41,4.064000,0
183.117504,330,10380,41,5.344000,0
183.122848,331,10410,41,5.344000,0
183.128192,332,10440,41,4.064000,0
183.132256,333,10470,41,5.344000,0
183.137600,334,10500,41,4.064000,0
183.141664,335,10530,41,4.064000,0
183.145728,336,10560,42,5.344000,0
183.151072,337,10590,42,4.064000,0
183.155136,338,10620,42,5.344000,0
183.160480,339,10650,42,5.344000,0
183.165824,340,10680,42,4.064000,0
183.169888,341,10710,42,4.064000,0
183.173952,342,10740,42,5.344000,0
183.179296,343,10770,42,4.064000,0
183.183360,344,10800,43,4.064000,0
183.187424,345,10830,43,4.064000,0
183.191488,346,10860,43,0,7767.456000
190.958944,346,10890,43,5.344000,0
190.964288,347,10920,43,5.344000,0
190.969632,348,10950,43,4.064000,0
190.973696,349,10980,43,4.064000,0
190.977760,350,11010,43,5.344000,0
190.983104,351,11040,43,4.064000,0
190.987168,352,11070,44,5.344000,0
190.992512,353,11100,44,4.064000,0
190.996576,354,11130,44,5.344000,0
191.001920,355,11160,44,5.344000,0
191.007264,356,11190,44,4.064000,0
191.011328,357,11220,44,5.344000,0
191.016672,358,11250,44,5.344000,0
191.022016,359,11280,44,5.344000,0
191.027360,360,11310,45,4.064000,0
191.031424,361,11340,45,4.064000,0
191.035488,362,11370,45,5.344000,0
191.040832,363,11400,45,5.344000,0
191.046176,364,11430,45,4.064000,0
191.050240,365,11460,45,4.064000,0
191.054304,366,11490,45,4.064000,0
191.058368,367,11520,45,5.344000,0
191.063712,368,11550,46,0,7759.552000
198.823264,368,11580,46,5.344000,0
198.828608,369,11610,46,4.064000,0
198.832672,370,11640,46,5.344000,0
198.838016,371,11670,46,5.344000,0
198.843360,372,11700,46,4.064000,0
198.847424,373,11730,46,5.344000,0
198.852768,374,11760,46,4.064000,0
198.856832,375,11790,46,4.064000,0
198.860896,376,11820,47,5.344000,0
198.866240,377,11850,47,4.064000,0
198.870304,378,11880,47,5.344000,0
198.875648,379,11910,47,5.344000,0
198.880992,380,11940,47,4.064000,0
198.885056,381,11970,47,4.064000,0
198.889120,382,12000,47,4.064000,0
198.893184,383,12030,47,4.064000,0
198.897248,384,12060,48,5.344000,0
198.902592,385,12090,48,4.064000,0
198.906656,386,12120,48,5.344000,0
198.912000,387,12150,48,5.344000,0
198.917344,388,12180,48,4.064000,0
198.921408,389,12210,48,0,7766.176000
206.687584,389,12240,48,5.344000,0
206.692928,390,12270,48,5.344000,0
206.698272,391,12300,48,4.064000,0
206.702336,392,12330,49,4.064000,0
206.706400,393,12360,49,4.064000,0
206.710464,394,12390,49,4.064000,0
206.714528,395,12420,49,5.344000,0
206.719872,396,12450,49,4.064000,0
206.723936,397,12480,49,4.064000,0
206.728000,398,12510,49,4.064000,0
206.732064,399,12540,49,4.064000,0
206.736128,400,12570,50,4.064000,0
206.740192,401,12600,50,4.064000,0
206.744256,402,12630,50,4.064000,0
206.748320,403,12660,50,5.344000,0
206.753664,404,12690,50,4.064000,0
206.757728,405,12720,50,4.064000,0
206.761792,406,12750,50,4.064000,0
206.765856,407,12780,50,4.064000,0
206.769920,408,12810,51,4.064000,0
206.773984,409,12840,51,4.064000,0
206.778048,410,12870,51,0,7773.856000
214.551904,410,12900,51,4.064000,0
214.555968,411,12930,51,5.344000,0
214.561312,412,12960,51,4.064000,0
214.565376,413,12990,51,4.064000,0
214.569440,414,13020,51,4.064000,0
214.573504,415,13050,51,4.064000,0
214.577568,416,13080,52,4.064000,0
214.581632,417,13110,52,4.064000,0
214.585696,418,13140,52,5.344000,0
214.591040,419,13170,52,5.344000,0
214.596384,420,13200,52,4.064000,0
214.600448,421,13230,52,5.344000,0
214.605792,422,13260,52,4.064000,0
214.609856,423,13290,52,4.064000,0
214.613920,424,13320,53,5.344000,0
214.619264,425,13350,53,4.064000,0
214.623328,426,13380,53,5.344000,0
214.628672,427,13410,53,5.344000,0
214.634016,428,13440,53,4.064000,0
214.638080,429,13470,53,5.344000,0
214.643424,430,13500,53,5.344000,0
214.648768,431,13530,53,0,7767.456000
222.416224,431,13560,53,5.344000,0
222.421568,432,13590,54,4.064000,0
222.425632,433,13620,54,4.064000,0
222.429696,434,13650,54,5.344000,0
222.435040,435,13680,54,5.344000,0
222.440384,436,13710,54,4.064000,0
222.444448,437,13740,54,4.064000,0
222.448512,438,13770,54,5.344000,0
222.453856,439,13800,54,5.344000,0
222.459200,440,13830,55,4.064000,0
222.463264,441,13860,55,4.064000,0
222.467328,442,13890,55,5.344000,0
222.472672,443,13920,55,5.344000,0
222.478016,444,13950,55,4.064000,0
222.482080,445,13980,55,5.344000,0
222.487424,446,14010,55,5.344000,0
222.492768,447,14040,55,5.344000,0
222.498112,448,14070,56,5.344000,0
222.503456,449,14100,56,4.064000,0
222.507520,450,14130,56,5.344000,0
222.512864,451,14160,56,5.344000,0
222.518208,452,14190,56,5.344000,0
222.523552,453,14220,56,4.064000,0
222.527616,454,14250,56,0,7752.928000
230.280544,454,14280,56,4.064000,0
230.284608,455,14310,56,5.344000,0
230.289952,456,14340,57,4.064000,0
230.294016,457,14370,57,4.064000,0
230.298080,458,14400,57,5.344000,0
230.303424,459,14430,57,5.344000,0
230.308768,460,14460,57,4.064000,0
230.312832,461,14490,57,5.344000,0
230.318176,462,14520,57,5.344000,0
230.323520,463,14550,57,4.064000,0
230.327584,464,14580,58,5.344000,0
230.332928,465,14610,58,4.064000,0
230.336992,466,14640,58,5.344000,0
230.342336,467,14670,58,5.344000,0
230.347680,468,14700,58,4.064000,0
230.351744,469,14730,58,4.064000,0
230.355808,470,14760,58,4.064000,0
230.359872,471,14790,58,4.064000,0
230.363936,472,14820,59,5.344000,0
230.369280,473,14850,59,4.064000,0
230.373344,474,14880,59,5.344000,0
230.378688,475,14910,59,5.344000,0
230.384032,476,14940,59,0,7760.832000
238.144864,476,14970,59,4.064000,0
238.148928,477,15000,59,4.064000,0
238.152992,478,15030,59,4.064000,0
238.157056,479,15060,59,5.344000,0
238.162400,480,15090,60,5.344000,0
238.167744,481,15120,60,4.064000,0
238.171808,482,15150,60,5.344000,0
238.177152,483,15180,60,5.344000,0
238.182496,484,15210,60,4.064000,0
238.186560,485,15240,60,4.064000,0
238.190624,486,15270,60,4.064000,0
238.194688,487,15300,60,4.064000,0
238.198752,488,15330,61,5.344000,0
238.204096,489,15360,61,4.064000,0
238.208160,490,15390,61,5.344000,0
238.213504,491,15420,61,5.344000,0
238.218848,492,15450,61,4.064000,0
238.222912,493,15480,61,5.344000,0
238.228256,494,15510,61,5.344000,0
238.233600,495,15540,61,5.344000,0
238.238944,496,15570,62,5.344000,0
238.244288,497,15600,62,4.064000,0
238.248352,498,15630,62,0,7760.832000
246.009184,498,15660,62,4.064000,0
246.013248,499,15690,62,5.344000,0
246.018592,500,15720,62,4.064000,0
246.022656,501,15750,62,4.064000,0
246.026720,502,15780,62,4.064000,0
246.030784,503,15810,62,4.064000,0
246.034848,504,15840,63,4.064000,0
246.038912,505,15870,63,4.064000,0
246.042976,506,15900,63,5.344000,0
246.048320,507,15930,63,5.344000,0
246.053664,508,15960,63,4.064000,0
246.057728,509,15990,63,4.064000,0
246.061792,510,16020,63,4.064000,0
246.065856,511,16050,63,5.344000,0
246.071200,512,16080,64,5.344000,0
246.076544,513,16110,64,4.064000,0
246.080608,514,16140,64,5.344000,0
246.085952,515,16170,64,5.344000,0
246.091296,516,16200,64,4.064000,0
246.095360,517,16230,64,5.344000,0
246.100704,518,16260,64,5.344000,0
246.106048,519,16290,64,5.344000,0
246.111392,520,16320,65,0,7762.112000
253.873504,520,16350,65,5.344000,0
253.878848,521,16380,65,4.064000,0
253.882912,522,16410,65,5.344000,0
253.888256,523,16440,65,5.344000,0
253.893600,524,16470,65,4.064000,0
253.897664,525,16500,65,5.344000,0
253.903008,526,16530,65,5.344000,0
253.908352,527,16560,65,5.344000,0
253.913696,528,16590,66,4.064000,0
253.917760,529,16620,66,4.064000,0
253.921824,530,16650,66,5.344000,0
253.927168,531,16680,66,5.344000,0
253.932512,532,16710,66,4.064000,0
253.936576,533,16740,66,4.064000,0
253.940640,534,16770,66,5.344000,0
253.945984,535,16800,66,5.344000,0
253.951328,536,16830,67,4.064000,0
253.955392,537,16860,67,4.064000,0
253.959456,538,16890,67,5.344000,0
253.964800,539,16920,67,5.344000,0
253.970144,540,16950,67,4.064000,0
253.974208,541,16980,67,5.344000,0
253.979552,542,17010,67,0,7758.272000
261.737824,542,17040,67,4.064000,0
261.741888,543,17070,67,4.064000,0
261.745952,544,17100,68,5.344000,0
261.751296,545,17130,68,4.064000,0
261.755360,546,17160,68,5.344000,0
261.760704,547,17190,68,5.344000,0
261.766048,548,17220,68,4.064000,0
261.770112,549,17250,68,4.064000,0
261.774176,550,17280,68,5.344000,0
261.779520,551,17310,68,4.064000,0
261.783584,552,17340,69,4.064000,0
261.787648,553,17370,69,4.064000,0
261.791712,554,17400,69,5.344000,0
261.797056,555,17430,69,5.344000,0
261.802400,556,17460,69,4.064000,0
261.806464,557,17490,69,4.064000,0
261.810528,558,17520,69,5.344000,0
261.815872,559,17550,69,4.064000,0
261.819936,560,17580,70,5.344000,0
261.825280,561,17610,70,4.064000,0
261.829344,562,17640,70,5.344000,0
261.834688,563,17670,70,5.344000,0
261.840032,564,17700,70,0,7762.112000
