Time,CovertPackets,AllPackets,BitsSent,PacketInterval,GTSInterval
260.515968,1,90,0,4.544000,0
260.520512,2,135,0,5.824000,0
260.526336,3,180,0,5.824000,0
260.532160,4,225,0,4.544000,0
260.536704,5,270,0,5.824000,0
260.542528,6,315,0,4.544000,0
260.547072,7,360,0,4.544000,0
260.551616,8,405,1,5.824000,0
260.557440,9,450,1,4.544000,0
260.561984,10,495,1,0,31404.800000
291.966784,10,540,1,5.824000,0
291.972608,11,585,1,5.824000,0
291.978432,12,630,1,4.544000,0
291.982976,13,675,1,5.824000,0
291.988800,14,720,1,5.824000,0
291.994624,15,765,1,5.824000,0
292.000448,16,810,2,4.544000,0
292.004992,17,855,2,4.544000,0
292.009536,18,900,2,5.824000,0
292.015360,19,945,2,5.824000,0
292.021184,20,990,2,4.544000,0
292.025728,21,1035,2,4.544000,0
292.030272,22,1080,2,5.824000,0
292.036096,23,1125,2,5.824000,0
292.041920,24,1170,3,4.544000,0
292.046464,25,1215,3,4.544000,0
292.051008,26,1260,3,5.824000,0
292.056832,27,1305,3,5.824000,0
292.062656,28,1350,3,4.544000,0
292.067200,29,1395,3,5.824000,0
292.073024,30,1440,3,5.824000,0
292.078848,31,1485,3,0,31345.216000
323.424064,31,1530,3,5.824000,0
323.429888,32,1575,4,5.824000,0
323.435712,33,1620,4,4.544000,0
323.440256,34,1665,4,5.824000,0
323.446080,35,1710,4,5.824000,0
323.451904,36,1755,4,5.824000,0
323.457728,37,1800,4,4.544000,0
323.462272,38,1845,4,4.544000,0
323.466816,39,1890,4,5.824000,0
323.472640,40,1935,5,4.544000,0
323.477184,41,1980,5,4.544000,0
323.481728,42,2025,5,5.824000,0
323.487552,43,2070,5,5.824000,0
323.493376,44,2115,5,4.544000,0
323.497920,45,2160,5,5.824000,0
323.503744,46,2205,5,5.824000,0
323.509568,47,2250,5,4.544000,0
323.514112,48,2295,6,5.824000,0
323.519936,49,2340,6,4.544000,0
323.524480,50,2385,6,5.824000,0
323.530304,51,2430,6,5.824000,0
323.536128,52,2475,6,0,31345.216000
354.881344,52,2520,6,4.544000,0
354.885888,53,2565,6,4.544000,0
354.890432,54,2610,6,4.544000,0
354.894976,55,2655,6,4.544000,0
354.899520,56,2700,7,5.824000,0
354.905344,57,2745,7,4.544000,0
354.909888,58,2790,7,5.824000,0
354.915712,59,2835,7,5.824000,0
354.921536,60,2880,7,4.544000,0
354.926080,61,2925,7,4.544000,0
354.930624,62,2970,7,4.544000,0
354.935168,63,3015,7,5.824000,0
354.940992,64,3060,8,5.824000,0
354.946816,65,3105,8,4.544000,0
354.951360,66,3150,8,5.824000,0
354.957184,67,3195,8,5.824000,0
354.963008,68,3240,8,4.544000,0
354.967552,69,3285,8,4.544000,0
354.972096,70,3330,8,4.544000,0
354.976640,71,3375,8,4.544000,0
354.981184,72,3420,9,5.824000,0
354.987008,73,3465,9,0,31351.616000
386.338624,73,3510,9,4.544000,0
386.343168,74,3555,9,5.824000,0
386.348992,75,3600,9,5.824000,0
386.354816,76,3645,9,4.544000,0
386.359360,77,3690,9,5.824000,0
386.365184,78,3735,9,5.824000,0
386.371008,79,3780,9,5.824000,0
386.376832,80,3825,10,5.824000,0
386.382656,81,3870,10,4.544000,0
386.387200,82,3915,10,4.544000,0
386.391744,83,3960,10,5.824000,0
386.397568,84,4005,10,4.544000,0
386.402112,85,4050,10,4.544000,0
386.406656,86,4095,10,4.544000,0
386.411200,87,4140,10,4.544000,0
386.415744,88,4185,11,4.544000,0
386.420288,89,4230,11,4.544000,0
386.424832,90,4275,11,5.824000,0
386.430656,91,4320,11,5.824000,0
386.436480,92,4365,11,4.544000,0
386.441024,93,4410,11,4.544000,0
386.445568,94,4455,11,0,31350.336000
417.795904,94,4500,11,4.544000,0
417.800448,95,4545,11,5.824000,0
417.806272,96,4590,12,5.824000,0
417.812096,97,4635,12,4.544000,0
417.816640,98,4680,12,5.824000,0
417.822464,99,4725,12,5.824000,0
417.828288,100,4770,12,4.544000,0
417.832832,101,4815,12,5.824000,0
417.838656,102,4860,12,5.824000,0
417.844480,103,4905,12,5.824000,0
417.850304,104,4950,13,5.824000,0
417.856128,105,4995,13,4.544000,0
417.860672,106,5040,13,5.824000,0
417.866496,107,5085,13,5.824000,0
417.872320,108,5130,13,4.544000,0
417.876864,109,5175,13,5.824000,0
417.882688,110,5220,13,5.824000,0
417.888512,111,5265,13,5.824000,0
417.894336,112,5310,14,4.544000,0
417.898880,113,5355,14,4.544000,0
417.903424,114,5400,14,5.824000,0
417.909248,115,5445,14,0,31343.936000
449.253184,115,5490,14,5.824000,0
449.259008,116,5535,14,4.544000,0
449.263552,117,5580,14,4.544000,0
449.268096,118,5625,14,5.824000,0
449.273920,119,5670,14,5.824000,0
449.279744,120,5715,15,4.544000,0
449.284288,121,5760,15,4.544000,0
449.288832,122,5805,15,5.824000,0
449.294656,123,5850,15,5.824000,0
449.300480,124,5895,15,4.544000,0
449.305024,125,5940,15,5.824000,0
449.310848,126,5985,15,4.544000,0
449.315392,127,6030,15,4.544000,0
449.319936,128,6075,16,5.824000,0
449.325760,129,6120,16,4.544000,0
449.330304,130,6165,16,5.824000,0
449.336128,131,6210,16,5.824000,0
449.341952,132,6255,16,4.544000,0
449.346496,133,6300,16,4.544000,0
449.351040,134,6345,16,5.824000,0
449.356864,135,6390,16,4.544000,0
449.361408,136,6435,17,0,31349.056000
