Time,CovertPackets,AllPackets,BitsSent,PacketInterval,GTSInterval
30.758272,1,2,0,3.136000,0
30.761408,2,3,0,4.416000,0
30.765824,3,4,0,4.416000,0
30.770240,4,5,0,0,966.016000
31.736256,4,6,0,3.136000,0
31.739392,5,7,0,4.416000,0
31.743808,6,8,0,3.136000,0
31.746944,7,9,0,3.136000,0
31.750080,8,10,1,4.416000,0
31.754496,9,11,1,3.136000,0
31.757632,10,12,1,4.416000,0
31.762048,11,13,1,0,957.248000
32.719296,11,14,1,4.416000,0
32.723712,12,15,1,3.136000,0
32.726848,13,16,1,4.416000,0
32.731264,14,17,1,4.416000,0
32.735680,15,18,1,4.416000,0
32.740096,16,19,2,3.136000,0
32.743232,17,20,2,0,959.104000
33.702336,17,21,2,3.136000,0
33.705472,18,22,2,4.416000,0
33.709888,19,23,2,4.416000,0
33.714304,20,24,2,3.136000,0
33.717440,21,25,2,3.136000,0
33.720576,22,26,2,4.416000,0
33.724992,23,27,2,0,960.384000
34.685376,23,28,2,4.416000,0
34.689792,24,29,3,3.136000,0
34.692928,25,30,3,3.136000,0
34.696064,26,31,3,4.416000,0
34.700480,27,32,3,4.416000,0
34.704896,28,33,3,3.136000,0
34.708032,29,34,3,0,960.384000
35.668416,29,35,3,4.416000,0
35.672832,30,36,3,4.416000,0
35.677248,31,37,3,4.416000,0
35.681664,32,38,4,4.416000,0
35.686080,33,39,4,3.136000,0
35.689216,34,40,4,4.416000,0
35.693632,35,41,4,0,957.824000
36.651456,35,42,4,4.416000,0
36.655872,36,43,4,4.416000,0
36.660288,37,44,4,3.136000,0
36.663424,38,45,4,3.136000,0
36.666560,39,46,4,4.416000,0
36.670976,40,47,5,3.136000,0
36.674112,41,48,5,3.136000,0
36.677248,42,49,5,0,957.248000
37.634496,42,50,5,4.416000,0
37.638912,43,51,5,4.416000,0
37.643328,44,52,5,3.136000,0
37.646464,45,53,5,4.416000,0
37.650880,46,54,5,4.416000,0
37.655296,47,55,5,3.136000,0
37.658432,48,56,6,0,959.104000
38.617536,48,57,6,4.416000,0
38.621952,49,58,6,3.136000,0
38.625088,50,59,6,4.416000,0
38.629504,51,60,6,4.416000,0
38.633920,52,61,6,3.136000,0
38.637056,53,62,6,3.136000,0
38.640192,54,63,6,3.136000,0
38.643328,55,64,6,0,957.248000
39.600576,55,65,6,3.136000,0
39.603712,56,66,7,4.416000,0
39.608128,57,67,7,3.136000,0
39.611264,58,68,7,4.416000,0
39.615680,59,69,7,4.416000,0
39.620096,60,70,7,3.136000,0
39.623232,61,71,7,3.136000,0
39.626368,62,72,7,0,957.248000
40.583616,62,73,7,3.136000,0
40.586752,63,74,7,4.416000,0
40.591168,64,75,8,4.416000,0
40.595584,65,76,8,3.136000,0
40.598720,66,77,8,4.416000,0
40.603136,67,78,8,4.416000,0
40.607552,68,79,8,0,959.104000
41.566656,68,80,8,3.136000,0
41.569792,69,81,8,3.136000,0
41.572928,70,82,8,3.136000,0
41.576064,71,83,8,3.136000,0
41.579200,72,84,9,4.416000,0
41.583616,73,85,9,3.136000,0
41.586752,74,86,9,4.416000,0
41.591168,75,87,9,0,958.528000
42.549696,75,88,9,4.416000,0
42.554112,76,89,9,3.136000,0
42.557248,77,90,9,4.416000,0
42.561664,78,91,9,4.416000,0
42.566080,79,92,9,4.416000,0
42.570496,80,93,10,4.416000,0
42.574912,81,94,10,0,957.824000
43.532736,81,95,10,3.136000,0
43.535872,82,96,10,3.136000,0
43.539008,83,97,10,4.416000,0
43.543424,84,98,10,3.136000,0
43.546560,85,99,10,3.136000,0
43.549696,86,100,10,3.136000,0
43.552832,87,101,10,3.136000,0
43.555968,88,102,11,0,959.808000
44.515776,88,103,11,3.136000,0
44.518912,89,104,11,3.136000,0
44.522048,90,105,11,4.416000,0
44.526464,91,106,11,4.416000,0
44.530880,92,107,11,3.136000,0
44.534016,93,108,11,3.136000,0
44.537152,94,109,11,3.136000,0
44.540288,95,110,11,0,958.528000
45.498816,95,111,11,4.416000,0
45.503232,96,112,12,4.416000,0
45.507648,97,113,12,3.136000,0
45.510784,98,114,12,4.416000,0
45.515200,99,115,12,4.416000,0
45.519616,100,116,12,3.136000,0
45.522752,101,117,12,0,959.104000
46.481856,101,118,12,4.416000,0
46.486272,102,119,12,4.416000,0
46.490688,103,120,12,4.416000,0
46.495104,104,121,13,4.416000,0
46.499520,105,122,13,3.136000,0
46.502656,106,123,13,4.416000,0
46.507072,107,124,13,0,957.824000
47.464896,107,125,13,4.416000,0
47.469312,108,126,13,3.136000,0
47.472448,109,127,13,4.416000,0
47.476864,110,128,13,4.416000,0
47.481280,111,129,13,4.416000,0
47.485696,112,130,14,3.136000,0
47.488832,113,131,14,0,959.104000
48.447936,113,132,14,3.136000,0
48.451072,114,133,14,4.416000,0
48.455488,115,134,14,4.416000,0
48.459904,116,135,14,3.136000,0
48.463040,117,136,14,3.136000,0
48.466176,118,137,14,4.416000,0
48.470592,119,138,14,0,960.384000
49.430976,119,139,14,4.416000,0
49.435392,120,140,15,3.136000,0
49.438528,121,141,15,3.136000,0
49.441664,122,142,15,4.416000,0
49.446080,123,143,15,4.416000,0
49.450496,124,144,15,3.136000,0
49.453632,125,145,15,0,960.384000
50.414016,125,146,15,4.416000,0
50.418432,126,147,15,3.136000,0
50.421568,127,148,15,3.136000,0
50.424704,128,149,16,4.416000,0
50.429120,129,150,16,3.136000,0
50.432256,130,151,16,4.416000,0
50.436672,131,152,16,0,960.384000
51.397056,131,153,16,4.416000,0
51.401472,132,154,16,3.136000,0
51.404608,133,155,16,3.136000,0
51.407744,134,156,16,4.416000,0
51.412160,135,157,16,3.136000,0
51.415296,136,158,17,3.136000,0
51.418432,137,159,17,3.136000,0
51.421568,138,160,17,0,958.528000
52.380096,138,161,17,4.416000,0
52.384512,139,162,17,4.416000,0
52.388928,140,163,17,3.136000,0
52.392064,141,164,17,3.136000,0
52.395200,142,165,17,4.416000,0
52.399616,143,166,17,3.136000,0
52.402752,144,167,18,0,960.384000
53.363136,144,168,18,4.416000,0
53.367552,145,169,18,3.136000,0
53.370688,146,170,18,4.416000,0
53.375104,147,171,18,4.416000,0
53.379520,148,172,18,3.136000,0
53.382656,149,173,18,4.416000,0
53.387072,150,174,18,0,959.104000
54.346176,150,175,18,4.416000,0
54.350592,151,176,18,4.416000,0
54.355008,152,177,19,3.136000,0
54.358144,153,178,19,3.136000,0
54.361280,154,179,19,4.416000,0
54.365696,155,180,19,4.416000,0
54.370112,156,181,19,0,959.104000
55.329216,156,182,19,3.136000,0
55.332352,157,183,19,3.136000,0
55.335488,158,184,19,3.136000,0
55.338624,159,185,19,4.416000,0
55.343040,160,186,20,4.416000,0
55.347456,161,187,20,3.136000,0
55.350592,162,188,20,4.416000,0
55.355008,163,189,20,0,957.248000
56.312256,163,190,20,4.416000,0
56.316672,164,191,20,3.136000,0
56.319808,165,192,20,4.416000,0
56.324224,166,193,20,3.136000,0
56.327360,167,194,20,3.136000,0
56.330496,168,195,21,4.416000,0
56.334912,169,196,21,3.136000,0
56.338048,170,197,21,0,957.248000
57.295296,170,198,21,4.416000,0
57.299712,171,199,21,4.416000,0
57.304128,172,200,21,3.136000,0
57.307264,173,201,21,3.136000,0
57.310400,174,202,21,3.136000,0
57.313536,175,203,21,3.136000,0
57.316672,176,204,22,4.416000,0
57.321088,177,205,22,0,957.248000
58.278336,177,206,22,3.136000,0
58.281472,178,207,22,4.416000,0
58.285888,179,208,22,4.416000,0
58.290304,180,209,22,3.136000,0
58.293440,181,210,22,4.416000,0
58.297856,182,211,22,4.416000,0
58.302272,183,212,22,0,959.104000
59.261376,183,213,22,3.136000,0
59.264512,184,214,23,3.136000,0
59.267648,185,215,23,3.136000,0
59.270784,186,216,23,3.136000,0
59.273920,187,217,23,4.416000,0
59.278336,188,218,23,3.136000,0
59.281472,189,219,23,3.136000,0
59.284608,190,220,23,0,959.808000
60.244416,190,221,23,3.136000,0
60.247552,191,222,23,3.136000,0
60.250688,192,223,24,3.136000,0
60.253824,193,224,24,3.136000,0
60.256960,194,225,24,3.136000,0
60.260096,195,226,24,4.416000,0
60.264512,196,227,24,3.136000,0
60.267648,197,228,24,0,959.808000
61.227456,197,229,24,3.136000,0
61.230592,198,230,24,3.136000,0
61.233728,199,231,24,3.136000,0
61.236864,200,232,25,3.136000,0
61.240000,201,233,25,3.136000,0
61.243136,202,234,25,3.136000,0
61.246272,203,235,25,4.416000,0
61.250688,204,236,25,0,959.808000
62.210496,204,237,25,3.136000,0
62.213632,205,238,25,3.136000,0
62.216768,206,239,25,3.136000,0
62.219904,207,240,25,3.136000,0
62.223040,208,241,26,3.136000,0
62.226176,209,242,26,3.136000,0
62.229312,210,243,26,4.416000,0
62.233728,211,244,26,0,959.808000
63.193536,211,245,26,4.416000,0
63.197952,212,246,26,3.136000,0
63.201088,213,247,26,4.416000,0
63.205504,214,248,26,3.136000,0
63.208640,215,249,26,3.136000,0
63.211776,216,250,27,4.416000,0
63.216192,217,251,27,3.136000,0
63.219328,218,252,27,0,957.248000
64.176576,218,253,27,4.416000,0
64.180992,219,254,27,4.416000,0
64.185408,220,255,27,3.136000,0
64.188544,221,256,27,4.416000,0
64.192960,222,257,27,4.416000,0
64.197376,223,258,27,4.416000,0
64.201792,224,259,28,0,957.824000
65.159616,224,260,28,3.136000,0
65.162752,225,261,28,3.136000,0
65.165888,226,262,28,4.416000,0
65.170304,227,263,28,4.416000,0
65.174720,228,264,28,3.136000,0
65.177856,229,265,28,3.136000,0
65.180992,230,266,28,4.416000,0
65.185408,231,267,28,0,957.248000
66.142656,231,268,28,4.416000,0
66.147072,232,269,29,3.136000,0
66.150208,233,270,29,3.136000,0
66.153344,234,271,29,4.416000,0
66.157760,235,272,29,4.416000,0
66.162176,236,273,29,3.136000,0
66.165312,237,274,29,0,960.384000
67.125696,237,275,29,4.416000,0
67.130112,238,276,29,4.416000,0
67.134528,239,277,29,4.416000,0
67.138944,240,278,30,4.416000,0
67.143360,241,279,30,3.136000,0
67.146496,242,280,30,4.416000,0
67.150912,243,281,30,0,957.824000
68.108736,243,282,30,4.416000,0
68.113152,244,283,30,4.416000,0
68.117568,245,284,30,3.136000,0
68.120704,246,285,30,3.136000,0
68.123840,247,286,30,4.416000,0
68.128256,248,287,31,3.136000,0
68.131392,249,288,31,3.136000,0
68.134528,250,289,31,0,957.248000
69.091776,250,290,31,4.416000,0
69.096192,251,291,31,4.416000,0
69.100608,252,292,31,3.136000,0
69.103744,253,293,31,4.416000,0
69.108160,254,294,31,4.416000,0
69.112576,255,295,31,3.136000,0
69.115712,256,296,32,0,959.104000
70.074816,256,297,32,4.416000,0
70.079232,257,298,32,3.136000,0
70.082368,258,299,32,4.416000,0
70.086784,259,300,32,4.416000,0
70.091200,260,301,32,3.136000,0
70.094336,261,302,32,3.136000,0
70.097472,262,303,32,3.136000,0
70.100608,263,304,32,0,957.248000
71.057856,263,305,32,3.136000,0
71.060992,264,306,33,4.416000,0
71.065408,265,307,33,3.136000,0
71.068544,266,308,33,4.416000,0
71.072960,267,309,33,4.416000,0
71.077376,268,310,33,3.136000,0
71.080512,269,311,33,3.136000,0
71.083648,270,312,33,0,957.248000
72.040896,270,313,33,3.136000,0
72.044032,271,314,33,4.416000,0
72.048448,272,315,34,4.416000,0
72.052864,273,316,34,3.136000,0
72.056000,274,317,34,4.416000,0
72.060416,275,318,34,4.416000,0
72.064832,276,319,34,0,959.104000
73.023936,276,320,34,3.136000,0
73.027072,277,321,34,3.136000,0
73.030208,278,322,34,3.136000,0
73.033344,279,323,34,3.136000,0
73.036480,280,324,35,4.416000,0
73.040896,281,325,35,3.136000,0
73.044032,282,326,35,4.416000,0
73.048448,283,327,35,0,958.528000
74.006976,283,328,35,4.416000,0
74.011392,284,329,35,3.136000,0
74.014528,285,330,35,4.416000,0
74.018944,286,331,35,4.416000,0
74.023360,287,332,35,4.416000,0
74.027776,288,333,36,4.416000,0
74.032192,289,334,36,0,957.824000
74.990016,289,335,36,3.136000,0
74.993152,290,336,36,3.136000,0
74.996288,291,337,36,4.416000,0
75.000704,292,338,36,3.136000,0
75.003840,293,339,36,3.136000,0
75.006976,294,340,36,3.136000,0
75.010112,295,341,36,3.136000,0
75.013248,296,342,37,0,959.808000
75.973056,296,343,37,3.136000,0
75.976192,297,344,37,3.136000,0
75.979328,298,345,37,4.416000,0
75.983744,299,346,37,4.416000,0
75.988160,300,347,37,3.136000,0
75.991296,301,348,37,3.136000,0
75.994432,302,349,37,3.136000,0
75.997568,303,350,37,0,958.528000
76.956096,303,351,37,4.416000,0
76.960512,304,352,38,4.416000,0
76.964928,305,353,38,3.136000,0
76.968064,306,354,38,4.416000,0
76.972480,307,355,38,4.416000,0
76.976896,308,356,38,3.136000,0
76.980032,309,357,38,0,959.104000
77.939136,309,358,38,4.416000,0
77.943552,310,359,38,4.416000,0
77.947968,311,360,38,4.416000,0
77.952384,312,361,39,4.416000,0
77.956800,313,362,39,3.136000,0
77.959936,314,363,39,4.416000,0
77.964352,315,364,39,0,957.824000
78.922176,315,365,39,4.416000,0
78.926592,316,366,39,3.136000,0
78.929728,317,367,39,4.416000,0
78.934144,318,368,39,4.416000,0
78.938560,319,369,39,4.416000,0
78.942976,320,370,40,3.136000,0
78.946112,321,371,40,0,959.104000
79.905216,321,372,40,3.136000,0
79.908352,322,373,40,4.416000,0
79.912768,323,374,40,4.416000,0
79.917184,324,375,40,3.136000,0
79.920320,325,376,40,3.136000,0
79.923456,326,377,40,4.416000,0
79.927872,327,378,40,0,960.384000
80.888256,327,379,40,4.416000,0
80.892672,328,380,41,3.136000,0
80.895808,329,381,41,3.136000,0
80.898944,330,382,41,4.416000,0
80.903360,331,383,41,4.416000,0
80.907776,332,384,41,3.136000,0
80.910912,333,385,41,0,960.384000
81.871296,333,386,41,4.416000,0
81.875712,334,387,41,3.136000,0
81.878848,335,388,41,3.136000,0
81.881984,336,389,42,4.416000,0
81.886400,337,390,42,3.136000,0
81.889536,338,391,42,4.416000,0
81.893952,339,392,42,0,960.384000
82.854336,339,393,42,4.416000,0
82.858752,340,394,42,3.136000,0
82.861888,341,395,42,3.136000,0
82.865024,342,396,42,4.416000,0
82.869440,343,397,42,3.136000,0
82.872576,344,398,43,3.136000,0
82.875712,345,399,43,3.136000,0
82.878848,346,400,43,0,958.528000
83.837376,346,401,43,4.416000,0
83.841792,347,402,43,4.416000,0
83.846208,348,403,43,3.136000,0
83.849344,349,404,43,3.136000,0
83.852480,350,405,43,4.416000,0
83.856896,351,406,43,3.136000,0
83.860032,352,407,44,0,960.384000
84.820416,352,408,44,4.416000,0
84.824832,353,409,44,3.136000,0
84.827968,354,410,44,4.416000,0
84.832384,355,411,44,4.416000,0
84.836800,356,412,44,3.136000,0
84.839936,357,413,44,4.416000,0
84.844352,358,414,44,0,959.104000
85.803456,358,415,44,4.416000,0
85.807872,359,416,44,4.416000,0
85.812288,360,417,45,3.136000,0
85.815424,361,418,45,3.136000,0
85.818560,362,419,45,4.416000,0
85.822976,363,420,45,4.416000,0
85.827392,364,421,45,0,959.104000
86.786496,364,422,45,3.136000,0
86.789632,365,423,45,3.136000,0
86.792768,366,424,45,3.136000,0
86.795904,367,425,45,4.416000,0
86.800320,368,426,46,4.416000,0
86.804736,369,427,46,3.136000,0
86.807872,370,428,46,4.416000,0
86.812288,371,429,46,0,957.248000
87.769536,371,430,46,4.416000,0
87.773952,372,431,46,3.136000,0
87.777088,373,432,46,4.416000,0
87.781504,374,433,46,3.136000,0
87.784640,375,434,46,3.136000,0
87.787776,376,435,47,4.416000,0
87.792192,377,436,47,3.136000,0
87.795328,378,437,47,0,957.248000
88.752576,378,438,47,4.416000,0
88.756992,379,439,47,4.416000,0
88.761408,380,440,47,3.136000,0
88.764544,381,441,47,3.136000,0
88.767680,382,442,47,3.136000,0
88.770816,383,443,47,3.136000,0
88.773952,384,444,48,4.416000,0
88.778368,385,445,48,0,957.248000
89.735616,385,446,48,3.136000,0
89.738752,386,447,48,4.416000,0
89.743168,387,448,48,4.416000,0
89.747584,388,449,48,3.136000,0
89.750720,389,450,48,4.416000,0
89.755136,390,451,48,4.416000,0
89.759552,391,452,48,0,959.104000
90.718656,391,453,48,3.136000,0
90.721792,392,454,49,3.136000,0
90.724928,393,455,49,3.136000,0
90.728064,394,456,49,3.136000,0
90.731200,395,457,49,4.416000,0
90.735616,396,458,49,3.136000,0
90.738752,397,459,49,3.136000,0
90.741888,398,460,49,0,959.808000
91.701696,398,461,49,3.136000,0
91.704832,399,462,49,3.136000,0
91.707968,400,463,50,3.136000,0
91.711104,401,464,50,3.136000,0
91.714240,402,465,50,3.136000,0
91.717376,403,466,50,4.416000,0
91.721792,404,467,50,3.136000,0
91.724928,405,468,50,0,959.808000
92.684736,405,469,50,3.136000,0
92.687872,406,470,50,3.136000,0
92.691008,407,471,50,3.136000,0
92.694144,408,472,51,3.136000,0
92.697280,409,473,51,3.136000,0
92.700416,410,474,51,3.136000,0
92.703552,411,475,51,4.416000,0
92.707968,412,476,51,0,959.808000
93.667776,412,477,51,3.136000,0
93.670912,413,478,51,3.136000,0
93.674048,414,479,51,3.136000,0
93.677184,415,480,51,3.136000,0
93.680320,416,481,52,3.136000,0
93.683456,417,482,52,3.136000,0
93.686592,418,483,52,4.416000,0
93.691008,419,484,52,0,959.808000
94.650816,419,485,52,4.416000,0
94.655232,420,486,52,3.136000,0
94.658368,421,487,52,4.416000,0
94.662784,422,488,52,3.136000,0
94.665920,423,489,52,3.136000,0
94.669056,424,490,53,4.416000,0
94.673472,425,491,53,3.136000,0
94.676608,426,492,53,0,957.248000
95.633856,426,493,53,4.416000,0
95.638272,427,494,53,4.416000,0
95.642688,428,495,53,3.136000,0
95.645824,429,496,53,4.416000,0
95.650240,430,497,53,4.416000,0
95.654656,431,498,53,4.416000,0
95.659072,432,499,54,0,957.824000
96.616896,432,500,54,3.136000,0
96.620032,433,501,54,3.136000,0
96.623168,434,502,54,4.416000,0
96.627584,435,503,54,4.416000,0
96.632000,436,504,54,3.136000,0
96.635136,437,505,54,3.136000,0
96.638272,438,506,54,4.416000,0
96.642688,439,507,54,0,957.248000
97.599936,439,508,54,4.416000,0
97.604352,440,509,55,3.136000,0
97.607488,441,510,55,3.136000,0
97.610624,442,511,55,4.416000,0
97.615040,443,512,55,4.416000,0
97.619456,444,513,55,3.136000,0
97.622592,445,514,55,0,960.384000
98.582976,445,515,55,4.416000,0
98.587392,446,516,55,4.416000,0
98.591808,447,517,55,4.416000,0
98.596224,448,518,56,4.416000,0
98.600640,449,519,56,3.136000,0
98.603776,450,520,56,4.416000,0
98.608192,451,521,56,0,957.824000
99.566016,451,522,56,4.416000,0
99.570432,452,523,56,4.416000,0
99.574848,453,524,56,3.136000,0
99.577984,454,525,56,3.136000,0
99.581120,455,526,56,4.416000,0
99.585536,456,527,57,3.136000,0
99.588672,457,528,57,3.136000,0
99.591808,458,529,57,0,957.248000
100.549056,458,530,57,4.416000,0
100.553472,459,531,57,4.416000,0
100.557888,460,532,57,3.136000,0
100.561024,461,533,57,4.416000,0
100.565440,462,534,57,4.416000,0
100.569856,463,535,57,3.136000,0
100.572992,464,536,58,0,959.104000
101.532096,464,537,58,4.416000,0
101.536512,465,538,58,3.136000,0
101.539648,466,539,58,4.416000,0
101.544064,467,540,58,4.416000,0
101.548480,468,541,58,3.136000,0
101.551616,469,542,58,3.136000,0
101.554752,470,543,58,3.136000,0
101.557888,471,544,58,0,957.248000
102.515136,471,545,58,3.136000,0
102.518272,472,546,59,4.416000,0
102.522688,473,547,59,3.136000,0
102.525824,474,548,59,4.416000,0
102.530240,475,549,59,4.416000,0
102.534656,476,550,59,3.136000,0
102.537792,477,551,59,3.136000,0
102.540928,478,552,59,0,957.248000
103.498176,478,553,59,3.136000,0
103.501312,479,554,59,4.416000,0
103.505728,480,555,60,4.416000,0
103.510144,481,556,60,3.136000,0
103.513280,482,557,60,4.416000,0
103.517696,483,558,60,4.416000,0
103.522112,484,559,60,0,959.104000
104.481216,484,560,60,3.136000,0
104.484352,485,561,60,3.136000,0
104.487488,486,562,60,3.136000,0
104.490624,487,563,60,3.136000,0
104.493760,488,564,61,4.416000,0
104.498176,489,565,61,3.136000,0
104.501312,490,566,61,4.416000,0
104.505728,491,567,61,0,958.528000
105.464256,491,568,61,4.416000,0
105.468672,492,569,61,3.136000,0
105.471808,493,570,61,4.416000,0
105.476224,494,571,61,4.416000,0
105.480640,495,572,61,4.416000,0
105.485056,496,573,62,4.416000,0
105.489472,497,574,62,0,957.824000
106.447296,497,575,62,3.136000,0
106.450432,498,576,62,3.136000,0
106.453568,499,577,62,4.416000,0
106.457984,500,578,62,3.136000,0
106.461120,501,579,62,3.136000,0
106.464256,502,580,62,3.136000,0
106.467392,503,581,62,3.136000,0
106.470528,504,582,63,0,959.808000
107.430336,504,583,63,3.136000,0
107.433472,505,584,63,3.136000,0
107.436608,506,585,63,4.416000,0
107.441024,507,586,63,4.416000,0
107.445440,508,587,63,3.136000,0
107.448576,509,588,63,3.136000,0
107.451712,510,589,63,3.136000,0
107.454848,511,590,63,0,958.528000
108.413376,511,591,63,4.416000,0
108.417792,512,592,64,4.416000,0
108.422208,513,593,64,3.136000,0
108.425344,514,594,64,4.416000,0
108.429760,515,595,64,4.416000,0
108.434176,516,596,64,3.136000,0
108.437312,517,597,64,0,959.104000
109.396416,517,598,64,4.416000,0
109.400832,518,599,64,4.416000,0
109.405248,519,600,64,4.416000,0
109.409664,520,601,65,4.416000,0
109.414080,521,602,65,3.136000,0
109.417216,522,603,65,4.416000,0
109.421632,523,604,65,0,957.824000
110.379456,523,605,65,4.416000,0
110.383872,524,606,65,3.136000,0
110.387008,525,607,65,4.416000,0
110.391424,526,608,65,4.416000,0
110.395840,527,609,65,4.416000,0
110.400256,528,610,66,3.136000,0
110.403392,529,611,66,0,959.104000
111.362496,529,612,66,3.136000,0
111.365632,530,613,66,4.416000,0
111.370048,531,614,66,4.416000,0
111.374464,532,615,66,3.136000,0
111.377600,533,616,66,3.136000,0
111.380736,534,617,66,4.416000,0
111.385152,535,618,66,0,960.384000
112.345536,535,619,66,4.416000,0
112.349952,536,620,67,3.136000,0
112.353088,537,621,67,3.136000,0
112.356224,538,622,67,4.416000,0
112.360640,539,623,67,4.416000,0
112.365056,540,624,67,3.136000,0
112.368192,541,625,67,0,960.384000
113.328576,541,626,67,4.416000,0
113.332992,542,627,67,3.136000,0
113.336128,543,628,67,3.136000,0
113.339264,544,629,68,4.416000,0
113.343680,545,630,68,3.136000,0
113.346816,546,631,68,4.416000,0
113.351232,547,632,68,0,960.384000
114.311616,547,633,68,4.416000,0
114.316032,548,634,68,3.136000,0
114.319168,549,635,68,3.136000,0
114.322304,550,636,68,4.416000,0
114.326720,551,637,68,3.136000,0
114.329856,552,638,69,3.136000,0
114.332992,553,639,69,3.136000,0
114.336128,554,640,69,0,958.528000
115.294656,554,641,69,4.416000,0
115.299072,555,642,69,4.416000,0
115.303488,556,643,69,3.136000,0
115.306624,557,644,69,3.136000,0
115.309760,558,645,69,4.416000,0
115.314176,559,646,69,3.136000,0
115.317312,560,647,70,0,960.384000
116.277696,560,648,70,4.416000,0
116.282112,561,649,70,3.136000,0
116.285248,562,650,70,4.416000,0
116.289664,563,651,70,4.416000,0
116.294080,564,652,70,3.136000,0
116.297216,565,653,70,4.416000,0
116.301632,566,654,70,0,959.104000
117.260736,566,655,70,4.416000,0
117.265152,567,656,70,4.416000,0
117.269568,568,657,71,3.136000,0
117.272704,569,658,71,3.136000,0
117.275840,570,659,71,4.416000,0
117.280256,571,660,71,4.416000,0
117.284672,572,661,71,0,959.104000
118.243776,572,662,71,3.136000,0
118.246912,573,663,71,3.136000,0
118.250048,574,664,71,3.136000,0
118.253184,575,665,71,4.416000,0
118.257600,576,666,72,4.416000,0
118.262016,577,667,72,3.136000,0
118.265152,578,668,72,4.416000,0
118.269568,579,669,72,0,957.248000
119.226816,579,670,72,4.416000,0
119.231232,580,671,72,3.136000,0
119.234368,581,672,72,4.416000,0
119.238784,582,673,72,3.136000,0
119.241920,583,674,72,3.136000,0
119.245056,584,675,73,4.416000,0
119.249472,585,676,73,3.136000,0
119.252608,586,677,73,0,957.248000
120.209856,586,678,73,4.416000,0
120.214272,587,679,73,4.416000,0
120.218688,588,680,73,3.136000,0
120.221824,589,681,73,3.136000,0
120.224960,590,682,73,3.136000,0
120.228096,591,683,73,3.136000,0
120.231232,592,684,74,4.416000,0
120.235648,593,685,74,0,957.248000
121.192896,593,686,74,3.136000,0
121.196032,594,687,74,4.416000,0
121.200448,595,688,74,4.416000,0
121.204864,596,689,74,3.136000,0
121.208000,597,690,74,4.416000,0
121.212416,598,691,74,4.416000,0
121.216832,599,692,74,0,959.104000
122.175936,599,693,74,3.136000,0
122.179072,600,694,75,3.136000,0
122.182208,601,695,75,3.136000,0
122.185344,602,696,75,3.136000,0
122.188480,603,697,75,4.416000,0
122.192896,604,698,75,3.136000,0
122.196032,605,699,75,3.136000,0
122.199168,606,700,75,0,959.808000
123.158976,606,701,75,3.136000,0
123.162112,607,702,75,3.136000,0
123.165248,608,703,76,3.136000,0
123.168384,609,704,76,3.136000,0
123.171520,610,705,76,3.136000,0
123.174656,611,706,76,4.416000,0
123.179072,612,707,76,3.136000,0
123.182208,613,708,76,0,959.808000
124.142016,613,709,76,3.136000,0
124.145152,614,710,76,3.136000,0
124.148288,615,711,76,3.136000,0
124.151424,616,712,77,3.136000,0
124.154560,617,713,77,3.136000,0
124.157696,618,714,77,3.136000,0
124.160832,619,715,77,4.416000,0
124.165248,620,716,77,0,959.808000
125.125056,620,717,77,3.136000,0
125.128192,621,718,77,3.136000,0
125.131328,622,719,77,3.136000,0
125.134464,623,720,77,3.136000,0
125.137600,624,721,78,3.136000,0
125.140736,625,722,78,3.136000,0
125.143872,626,723,78,4.416000,0
125.148288,627,724,78,0,959.808000
126.108096,627,725,78,4.416000,0
126.112512,628,726,78,3.136000,0
126.115648,629,727,78,4.416000,0
126.120064,630,728,78,3.136000,0
126.123200,631,729,78,3.136000,0
126.126336,632,730,79,4.416000,0
126.130752,633,731,79,3.136000,0
126.133888,634,732,79,0,957.248000
127.091136,634,733,79,4.416000,0
127.095552,635,734,79,4.416000,0
127.099968,636,735,79,3.136000,0
127.103104,637,736,79,4.416000,0
127.107520,638,737,79,4.416000,0
127.111936,639,738,79,4.416000,0
127.116352,640,739,80,0,957.824000
128.074176,640,740,80,3.136000,0
128.077312,641,741,80,3.136000,0
128.080448,642,742,80,4.416000,0
128.084864,643,743,80,4.416000,0
128.089280,644,744,80,3.136000,0
128.092416,645,745,80,3.136000,0
128.095552,646,746,80,4.416000,0
128.099968,647,747,80,0,957.248000
129.057216,647,748,80,4.416000,0
129.061632,648,749,81,3.136000,0
129.064768,649,750,81,3.136000,0
129.067904,650,751,81,4.416000,0
129.072320,651,752,81,4.416000,0
129.076736,652,753,81,3.136000,0
129.079872,653,754,81,0,960.384000
130.040256,653,755,81,4.416000,0
130.044672,654,756,81,4.416000,0
130.049088,655,757,81,4.416000,0
130.053504,656,758,82,4.416000,0
130.057920,657,759,82,3.136000,0
130.061056,658,760,82,4.416000,0
130.065472,659,761,82,0,957.824000
131.023296,659,762,82,4.416000,0
131.027712,660,763,82,4.416000,0
131.032128,661,764,82,3.136000,0
131.035264,662,765,82,3.136000,0
131.038400,663,766,82,4.416000,0
131.042816,664,767,83,3.136000,0
131.045952,665,768,83,3.136000,0
131.049088,666,769,83,0,957.248000
132.006336,666,770,83,4.416000,0
132.010752,667,771,83,4.416000,0
132.015168,668,772,83,3.136000,0
132.018304,669,773,83,4.416000,0
132.022720,670,774,83,4.416000,0
132.027136,671,775,83,3.136000,0
132.030272,672,776,84,0,959.104000
132.989376,672,777,84,4.416000,0
132.993792,673,778,84,3.136000,0
132.996928,674,779,84,4.416000,0
133.001344,675,780,84,4.416000,0
133.005760,676,781,84,3.136000,0
133.008896,677,782,84,3.136000,0
133.012032,678,783,84,3.136000,0
133.015168,679,784,84,0,957.248000
133.972416,679,785,84,3.136000,0
133.975552,680,786,85,4.416000,0
133.979968,681,787,85,3.136000,0
133.983104,682,788,85,4.416000,0
133.987520,683,789,85,4.416000,0
133.991936,684,790,85,3.136000,0
133.995072,685,791,85,3.136000,0
133.998208,686,792,85,0,957.248000
134.955456,686,793,85,3.136000,0
134.958592,687,794,85,4.416000,0
134.963008,688,795,86,4.416000,0
134.967424,689,796,86,3.136000,0
134.970560,690,797,86,4.416000,0
134.974976,691,798,86,4.416000,0
134.979392,692,799,86,0,959.104000
135.938496,692,800,86,3.136000,0
135.941632,693,801,86,3.136000,0
135.944768,694,802,86,3.136000,0
135.947904,695,803,86,3.136000,0
135.951040,696,804,87,4.416000,0
135.955456,697,805,87,3.136000,0
135.958592,698,806,87,4.416000,0
135.963008,699,807,87,0,958.528000
136.921536,699,808,87,4.416000,0
136.925952,700,809,87,3.136000,0
136.929088,701,810,87,4.416000,0
136.933504,702,811,87,4.416000,0
136.937920,703,812,87,4.416000,0
136.942336,704,813,88,4.416000,0
136.946752,705,814,88,0,957.824000
137.904576,705,815,88,3.136000,0
137.907712,706,816,88,3.136000,0
137.910848,707,817,88,4.416000,0
137.915264,708,818,88,3.136000,0
137.918400,709,819,88,3.136000,0
137.921536,710,820,88,3.136000,0
137.924672,711,821,88,3.136000,0
137.927808,712,822,89,0,959.808000
138.887616,712,823,89,3.136000,0
138.890752,713,824,89,3.136000,0
138.893888,714,825,89,4.416000,0
138.898304,715,826,89,4.416000,0
138.902720,716,827,89,3.136000,0
138.905856,717,828,89,3.136000,0
138.908992,718,829,89,3.136000,0
138.912128,719,830,89,0,958.528000
139.870656,719,831,89,4.416000,0
139.875072,720,832,90,4.416000,0
139.879488,721,833,90,3.136000,0
139.882624,722,834,90,4.416000,0
139.887040,723,835,90,4.416000,0
139.891456,724,836,90,3.136000,0
139.894592,725,837,90,0,959.104000
140.853696,725,838,90,4.416000,0
140.858112,726,839,90,4.416000,0
140.862528,727,840,90,4.416000,0
140.866944,728,841,91,4.416000,0
140.871360,729,842,91,3.136000,0
140.874496,730,843,91,4.416000,0
140.878912,731,844,91,0,957.824000
141.836736,731,845,91,4.416000,0
141.841152,732,846,91,3.136000,0
141.844288,733,847,91,4.416000,0
141.848704,734,848,91,4.416000,0
141.853120,735,849,91,4.416000,0
141.857536,736,850,92,3.136000,0
141.860672,737,851,92,0,959.104000
142.819776,737,852,92,3.136000,0
142.822912,738,853,92,4.416000,0
142.827328,739,854,92,4.416000,0
142.831744,740,855,92,3.136000,0
142.834880,741,856,92,3.136000,0
142.838016,742,857,92,4.416000,0
142.842432,743,858,92,0,960.384000
143.802816,743,859,92,4.416000,0
143.807232,744,860,93,3.136000,0
143.810368,745,861,93,3.136000,0
143.813504,746,862,93,4.416000,0
143.817920,747,863,93,4.416000,0
143.822336,748,864,93,3.136000,0
143.825472,749,865,93,0,960.384000
144.785856,749,866,93,4.416000,0
144.790272,750,867,93,3.136000,0
144.793408,751,868,93,3.136000,0
144.796544,752,869,94,4.416000,0
144.800960,753,870,94,3.136000,0
144.804096,754,871,94,4.416000,0
144.808512,755,872,94,0,960.384000
145.768896,755,873,94,4.416000,0
145.773312,756,874,94,3.136000,0
145.776448,757,875,94,3.136000,0
145.779584,758,876,94,4.416000,0
145.784000,759,877,94,3.136000,0
145.787136,760,878,95,3.136000,0
145.790272,761,879,95,3.136000,0
145.793408,762,880,95,0,958.528000
146.751936,762,881,95,4.416000,0
146.756352,763,882,95,4.416000,0
146.760768,764,883,95,3.136000,0
146.763904,765,884,95,3.136000,0
146.767040,766,885,95,4.416000,0
146.771456,767,886,95,3.136000,0
146.774592,768,887,96,0,960.384000
147.734976,768,888,96,4.416000,0
147.739392,769,889,96,3.136000,0
147.742528,770,890,96,4.416000,0
147.746944,771,891,96,4.416000,0
147.751360,772,892,96,3.136000,0
147.754496,773,893,96,4.416000,0
147.758912,774,894,96,0,959.104000
148.718016,774,895,96,4.416000,0
148.722432,775,896,96,4.416000,0
148.726848,776,897,97,3.136000,0
148.729984,777,898,97,3.136000,0
148.733120,778,899,97,4.416000,0
148.737536,779,900,97,4.416000,0
148.741952,780,901,97,0,959.104000
149.701056,780,902,97,3.136000,0
149.704192,781,903,97,3.136000,0
149.707328,782,904,97,3.136000,0
149.710464,783,905,97,4.416000,0
149.714880,784,906,98,4.416000,0
149.719296,785,907,98,3.136000,0
149.722432,786,908,98,4.416000,0
149.726848,787,909,98,0,957.248000
150.684096,787,910,98,4.416000,0
150.688512,788,911,98,3.136000,0
150.691648,789,912,98,4.416000,0
150.696064,790,913,98,3.136000,0
150.699200,791,914,98,3.136000,0
150.702336,792,915,99,4.416000,0
150.706752,793,916,99,3.136000,0
150.709888,794,917,99,0,957.248000
151.667136,794,918,99,4.416000,0
151.671552,795,919,99,4.416000,0
151.675968,796,920,99,3.136000,0
151.679104,797,921,99,3.136000,0
151.682240,798,922,99,3.136000,0
151.685376,799,923,99,3.136000,0
151.688512,800,924,100,4.416000,0
151.692928,801,925,100,0,957.248000
152.650176,801,926,100,3.136000,0
152.653312,802,927,100,4.416000,0
152.657728,803,928,100,4.416000,0
152.662144,804,929,100,3.136000,0
152.665280,805,930,100,4.416000,0
152.669696,806,931,100,4.416000,0
152.674112,807,932,100,0,959.104000
153.633216,807,933,100,3.136000,0
153.636352,808,934,101,3.136000,0
153.639488,809,935,101,3.136000,0
153.642624,810,936,101,3.136000,0
153.645760,811,937,101,4.416000,0
153.650176,812,938,101,3.136000,0
153.653312,813,939,101,3.136000,0
153.656448,814,940,101,0,959.808000
154.616256,814,941,101,3.136000,0
154.619392,815,942,101,3.136000,0
154.622528,816,943,102,3.136000,0
154.625664,817,944,102,3.136000,0
154.628800,818,945,102,3.136000,0
154.631936,819,946,102,4.416000,0
154.636352,820,947,102,3.136000,0
154.639488,821,948,102,0,959.808000
155.599296,821,949,102,3.136000,0
155.602432,822,950,102,3.136000,0
155.605568,823,951,102,3.136000,0
155.608704,824,952,103,3.136000,0
155.611840,825,953,103,3.136000,0
155.614976,826,954,103,3.136000,0
155.618112,827,955,103,4.416000,0
155.622528,828,956,103,0,959.808000
156.582336,828,957,103,3.136000,0
156.585472,829,958,103,3.136000,0
156.588608,830,959,103,3.136000,0
156.591744,831,960,103,3.136000,0
156.594880,832,961,104,3.136000,0
156.598016,833,962,104,3.136000,0
156.601152,834,963,104,4.416000,0
156.605568,835,964,104,0,959.808000
157.565376,835,965,104,4.416000,0
157.569792,836,966,104,3.136000,0
157.572928,837,967,104,4.416000,0
157.577344,838,968,104,3.136000,0
157.580480,839,969,104,3.136000,0
157.583616,840,970,105,4.416000,0
157.588032,841,971,105,3.136000,0
157.591168,842,972,105,0,957.248000
158.548416,842,973,105,4.416000,0
158.552832,843,974,105,4.416000,0
158.557248,844,975,105,3.136000,0
158.560384,845,976,105,4.416000,0
158.564800,846,977,105,4.416000,0
158.569216,847,978,105,4.416000,0
158.573632,848,979,106,0,957.824000
159.531456,848,980,106,3.136000,0
159.534592,849,981,106,3.136000,0
159.537728,850,982,106,4.416000,0
159.542144,851,983,106,4.416000,0
159.546560,852,984,106,3.136000,0
159.549696,853,985,106,3.136000,0
159.552832,854,986,106,4.416000,0
159.557248,855,987,106,0,957.248000
160.514496,855,988,106,4.416000,0
160.518912,856,989,107,3.136000,0
160.522048,857,990,107,3.136000,0
160.525184,858,991,107,4.416000,0
160.529600,859,992,107,4.416000,0
160.534016,860,993,107,3.136000,0
160.537152,861,994,107,0,960.384000
161.497536,861,995,107,4.416000,0
161.501952,862,996,107,4.416000,0
161.506368,863,997,107,4.416000,0
161.510784,864,998,108,4.416000,0
161.515200,865,999,108,3.136000,0
161.518336,866,1000,108,4.416000,0
161.522752,867,1001,108,0,957.824000
162.480576,867,1002,108,4.416000,0
162.484992,868,1003,108,4.416000,0
162.489408,869,1004,108,3.136000,0
162.492544,870,1005,108,3.136000,0
162.495680,871,1006,108,4.416000,0
162.500096,872,1007,109,3.136000,0
162.503232,873,1008,109,3.136000,0
162.506368,874,1009,109,0,957.248000
163.463616,874,1010,109,4.416000,0
163.468032,875,1011,109,4.416000,0
163.472448,876,1012,109,3.136000,0
163.475584,877,1013,109,4.416000,0
163.480000,878,1014,109,4.416000,0
163.484416,879,1015,109,3.136000,0
163.487552,880,1016,110,0,959.104000
164.446656,880,1017,110,4.416000,0
164.451072,881,1018,110,3.136000,0
164.454208,882,1019,110,4.416000,0
164.458624,883,1020,110,4.416000,0
164.463040,884,1021,110,3.136000,0
164.466176,885,1022,110,3.136000,0
164.469312,886,1023,110,3.136000,0
164.472448,887,1024,110,0,957.248000
165.429696,887,1025,110,3.136000,0
165.432832,888,1026,111,4.416000,0
165.437248,889,1027,111,3.136000,0
165.440384,890,1028,111,4.416000,0
165.444800,891,1029,111,4.416000,0
165.449216,892,1030,111,3.136000,0
165.452352,893,1031,111,3.136000,0
165.455488,894,1032,111,0,957.248000
166.412736,894,1033,111,3.136000,0
166.415872,895,1034,111,4.416000,0
166.420288,896,1035,112,4.416000,0
166.424704,897,1036,112,3.136000,0
166.427840,898,1037,112,4.416000,0
166.432256,899,1038,112,4.416000,0
166.436672,900,1039,112,0,959.104000
167.395776,900,1040,112,3.136000,0
167.398912,901,1041,112,3.136000,0
167.402048,902,1042,112,3.136000,0
167.405184,903,1043,112,3.136000,0
167.408320,904,1044,113,4.416000,0
167.412736,905,1045,113,3.136000,0
167.415872,906,1046,113,4.416000,0
167.420288,907,1047,113,0,958.528000
168.378816,907,1048,113,4.416000,0
168.383232,908,1049,113,3.136000,0
168.386368,909,1050,113,4.416000,0
168.390784,910,1051,113,4.416000,0
168.395200,911,1052,113,4.416000,0
168.399616,912,1053,114,4.416000,0
168.404032,913,1054,114,0,957.824000
169.361856,913,1055,114,3.136000,0
169.364992,914,1056,114,3.136000,0
169.368128,915,1057,114,4.416000,0
169.372544,916,1058,114,3.136000,0
169.375680,917,1059,114,3.136000,0
169.378816,918,1060,114,3.136000,0
169.381952,919,1061,114,3.136000,0
169.385088,920,1062,115,0,959.808000
170.344896,920,1063,115,3.136000,0
170.348032,921,1064,115,3.136000,0
170.351168,922,1065,115,4.416000,0
170.355584,923,1066,115,4.416000,0
170.360000,924,1067,115,3.136000,0
170.363136,925,1068,115,3.136000,0
170.366272,926,1069,115,3.136000,0
170.369408,927,1070,115,0,958.528000
171.327936,927,1071,115,4.416000,0
171.332352,928,1072,116,4.416000,0
171.336768,929,1073,116,3.136000,0
171.339904,930,1074,116,4.416000,0
171.344320,931,1075,116,4.416000,0
171.348736,932,1076,116,3.136000,0
171.351872,933,1077,116,0,959.104000
172.310976,933,1078,116,4.416000,0
172.315392,934,1079,116,4.416000,0
172.319808,935,1080,116,4.416000,0
172.324224,936,1081,117,4.416000,0
172.328640,937,1082,117,3.136000,0
172.331776,938,1083,117,4.416000,0
172.336192,939,1084,117,0,957.824000
173.294016,939,1085,117,4.416000,0
173.298432,940,1086,117,3.136000,0
173.301568,941,1087,117,4.416000,0
173.305984,942,1088,117,4.416000,0
173.310400,943,1089,117,4.416000,0
173.314816,944,1090,118,3.136000,0
173.317952,945,1091,118,0,959.104000
174.277056,945,1092,118,3.136000,0
174.280192,946,1093,118,4.416000,0
174.284608,947,1094,118,4.416000,0
174.289024,948,1095,118,3.136000,0
174.292160,949,1096,118,3.136000,0
174.295296,950,1097,118,4.416000,0
174.299712,951,1098,118,0,960.384000
175.260096,951,1099,118,4.416000,0
175.264512,952,1100,119,3.136000,0
175.267648,953,1101,119,3.136000,0
175.270784,954,1102,119,4.416000,0
175.275200,955,1103,119,4.416000,0
175.279616,956,1104,119,3.136000,0
175.282752,957,1105,119,0,960.384000
176.243136,957,1106,119,4.416000,0
176.247552,958,1107,119,3.136000,0
176.250688,959,1108,119,3.136000,0
176.253824,960,1109,120,4.416000,0
176.258240,961,1110,120,3.136000,0
176.261376,962,1111,120,4.416000,0
176.265792,963,1112,120,0,960.384000
177.226176,963,1113,120,4.416000,0
177.230592,964,1114,120,3.136000,0
177.233728,965,1115,120,3.136000,0
177.236864,966,1116,120,4.416000,0
177.241280,967,1117,120,3.136000,0
177.244416,968,1118,121,3.136000,0
177.247552,969,1119,121,3.136000,0
177.250688,970,1120,121,0,958.528000
178.209216,970,1121,121,4.416000,0
178.213632,971,1122,121,4.416000,0
178.218048,972,1123,121,3.136000,0
178.221184,973,1124,121,3.136000,0
178.224320,974,1125,121,4.416000,0
178.228736,975,1126,121,3.136000,0
178.231872,976,1127,122,0,960.384000
179.192256,976,1128,122,4.416000,0
179.196672,977,1129,122,3.136000,0
179.199808,978,1130,122,4.416000,0
179.204224,979,1131,122,4.416000,0
179.208640,980,1132,122,3.136000,0
179.211776,981,1133,122,4.416000,0
179.216192,982,1134,122,0,959.104000
180.175296,982,1135,122,4.416000,0
180.179712,983,1136,122,4.416000,0
180.184128,984,1137,123,3.136000,0
180.187264,985,1138,123,3.136000,0
180.190400,986,1139,123,4.416000,0
180.194816,987,1140,123,4.416000,0
180.199232,988,1141,123,0,959.104000
181.158336,988,1142,123,3.136000,0
181.161472,989,1143,123,3.136000,0
181.164608,990,1144,123,3.136000,0
181.167744,991,1145,123,4.416000,0
181.172160,992,1146,124,4.416000,0
181.176576,993,1147,124,3.136000,0
181.179712,994,1148,124,4.416000,0
181.184128,995,1149,124,0,957.248000
182.141376,995,1150,124,4.416000,0
182.145792,996,1151,124,3.136000,0
182.148928,997,1152,124,4.416000,0
182.153344,998,1153,124,3.136000,0
182.156480,999,1154,124,3.136000,0
182.159616,1000,1155,125,4.416000,0
182.164032,1001,1156,125,3.136000,0
182.167168,1002,1157,125,0,957.248000
183.124416,1002,1158,125,4.416000,0
183.128832,1003,1159,125,4.416000,0
183.133248,1004,1160,125,3.136000,0
183.136384,1005,1161,125,3.136000,0
183.139520,1006,1162,125,3.136000,0
183.142656,1007,1163,125,3.136000,0
183.145792,1008,1164,126,4.416000,0
183.150208,1009,1165,126,0,957.248000
184.107456,1009,1166,126,3.136000,0
184.110592,1010,1167,126,4.416000,0
184.115008,1011,1168,126,4.416000,0
184.119424,1012,1169,126,3.136000,0
184.122560,1013,1170,126,4.416000,0
184.126976,1014,1171,126,4.416000,0
184.131392,1015,1172,126,0,959.104000
185.090496,1015,1173,126,3.136000,0
185.093632,1016,1174,127,3.136000,0
185.096768,1017,1175,127,3.136000,0
185.099904,1018,1176,127,3.136000,0
185.103040,1019,1177,127,4.416000,0
185.107456,1020,1178,127,3.136000,0
185.110592,1021,1179,127,3.136000,0
185.113728,1022,1180,127,0,959.808000
186.073536,1022,1181,127,3.136000,0
186.076672,1023,1182,127,3.136000,0
186.079808,1024,1183,128,3.136000,0
186.082944,1025,1184,128,3.136000,0
186.086080,1026,1185,128,3.136000,0
186.089216,1027,1186,128,4.416000,0
186.093632,1028,1187,128,3.136000,0
186.096768,1029,1188,128,0,959.808000
187.056576,1029,1189,128,3.136000,0
187.059712,1030,1190,128,3.136000,0
187.062848,1031,1191,128,3.136000,0
187.065984,1032,1192,129,3.136000,0
187.069120,1033,1193,129,3.136000,0
187.072256,1034,1194,129,3.136000,0
187.075392,1035,1195,129,4.416000,0
187.079808,1036,1196,129,0,959.808000
188.039616,1036,1197,129,3.136000,0
188.042752,1037,1198,129,3.136000,0
188.045888,1038,1199,129,3.136000,0
188.049024,1039,1200,129,3.136000,0
188.052160,1040,1201,130,3.136000,0
188.055296,1041,1202,130,3.136000,0
188.058432,1042,1203,130,4.416000,0
188.062848,1043,1204,130,0,959.808000
189.022656,1043,1205,130,4.416000,0
189.027072,1044,1206,130,3.136000,0
189.030208,1045,1207,130,4.416000,0
189.034624,1046,1208,130,3.136000,0
189.037760,1047,1209,130,3.136000,0
189.040896,1048,1210,131,4.416000,0
189.045312,1049,1211,131,3.136000,0
189.048448,1050,1212,131,0,957.248000
190.005696,1050,1213,131,4.416000,0
190.010112,1051,1214,131,4.416000,0
190.014528,1052,1215,131,3.136000,0
190.017664,1053,1216,131,4.416000,0
190.022080,1054,1217,131,4.416000,0
190.026496,1055,1218,131,4.416000,0
190.030912,1056,1219,132,0,957.824000
190.988736,1056,1220,132,3.136000,0
190.991872,1057,1221,132,3.136000,0
190.995008,1058,1222,132,4.416000,0
190.999424,1059,1223,132,4.416000,0
191.003840,1060,1224,132,3.136000,0
191.006976,1061,1225,132,3.136000,0
191.010112,1062,1226,132,4.416000,0
191.014528,1063,1227,132,0,957.248000
191.971776,1063,1228,132,4.416000,0
191.976192,1064,1229,133,3.136000,0
191.979328,1065,1230,133,3.136000,0
191.982464,1066,1231,133,4.416000,0
191.986880,1067,1232,133,4.416000,0
191.991296,1068,1233,133,3.136000,0
191.994432,1069,1234,133,0,960.384000
192.954816,1069,1235,133,4.416000,0
192.959232,1070,1236,133,4.416000,0
192.963648,1071,1237,133,4.416000,0
192.968064,1072,1238,134,4.416000,0
192.972480,1073,1239,134,3.136000,0
192.975616,1074,1240,134,4.416000,0
192.980032,1075,1241,134,0,957.824000
193.937856,1075,1242,134,4.416000,0
193.942272,1076,1243,134,4.416000,0
193.946688,1077,1244,134,3.136000,0
193.949824,1078,1245,134,3.136000,0
193.952960,1079,1246,134,4.416000,0
193.957376,1080,1247,135,3.136000,0
193.960512,1081,1248,135,3.136000,0
193.963648,1082,1249,135,0,957.248000
194.920896,1082,1250,135,4.416000,0
194.925312,1083,1251,135,4.416000,0
194.929728,1084,1252,135,3.136000,0
194.932864,1085,1253,135,4.416000,0
194.937280,1086,1254,135,4.416000,0
194.941696,1087,1255,135,3.136000,0
194.944832,1088,1256,136,0,959.104000
195.903936,1088,1257,136,4.416000,0
195.908352,1089,1258,136,3.136000,0
195.911488,1090,1259,136,4.416000,0
195.915904,1091,1260,136,4.416000,0
195.920320,1092,1261,136,3.136000,0
195.923456,1093,1262,136,3.136000,0
195.926592,1094,1263,136,3.136000,0
195.929728,1095,1264,136,0,957.248000
196.886976,1095,1265,136,3.136000,0
196.890112,1096,1266,137,4.416000,0
196.894528,1097,1267,137,3.136000,0
196.897664,1098,1268,137,4.416000,0
196.902080,1099,1269,137,4.416000,0
196.906496,1100,1270,137,3.136000,0
196.909632,1101,1271,137,3.136000,0
196.912768,1102,1272,137,0,957.248000
197.870016,1102,1273,137,3.136000,0
197.873152,1103,1274,137,4.416000,0
197.877568,1104,1275,138,4.416000,0
197.881984,1105,1276,138,3.136000,0
197.885120,1106,1277,138,4.416000,0
197.889536,1107,1278,138,4.416000,0
197.893952,1108,1279,138,0,959.104000
198.853056,1108,1280,138,3.136000,0
198.856192,1109,1281,138,3.136000,0
198.859328,1110,1282,138,3.136000,0
198.862464,1111,1283,138,3.136000,0
198.865600,1112,1284,139,4.416000,0
198.870016,1113,1285,139,3.136000,0
198.873152,1114,1286,139,4.416000,0
198.877568,1115,1287,139,0,958.528000
199.836096,1115,1288,139,4.416000,0
199.840512,1116,1289,139,3.136000,0
199.843648,1117,1290,139,4.416000,0
199.848064,1118,1291,139,4.416000,0
199.852480,1119,1292,139,4.416000,0
199.856896,1120,1293,140,4.416000,0
199.861312,1121,1294,140,0,957.824000
200.819136,1121,1295,140,3.136000,0
200.822272,1122,1296,140,3.136000,0
200.825408,1123,1297,140,4.416000,0
200.829824,1124,1298,140,3.136000,0
200.832960,1125,1299,140,3.136000,0
200.836096,1126,1300,140,3.136000,0
200.839232,1127,1301,140,3.136000,0
200.842368,1128,1302,141,0,959.808000
201.802176,1128,1303,141,3.136000,0
201.805312,1129,1304,141,3.136000,0
201.808448,1130,1305,141,4.416000,0
201.812864,1131,1306,141,4.416000,0
201.817280,1132,1307,141,3.136000,0
201.820416,1133,1308,141,3.136000,0
201.823552,1134,1309,141,3.136000,0
201.826688,1135,1310,141,0,958.528000
202.785216,1135,1311,141,4.416000,0
202.789632,1136,1312,142,4.416000,0
202.794048,1137,1313,142,3.136000,0
202.797184,1138,1314,142,4.416000,0
202.801600,1139,1315,142,4.416000,0
202.806016,1140,1316,142,3.136000,0
202.809152,1141,1317,142,0,959.104000
203.768256,1141,1318,142,4.416000,0
203.772672,1142,1319,142,4.416000,0
203.777088,1143,1320,142,4.416000,0
203.781504,1144,1321,143,4.416000,0
203.785920,1145,1322,143,3.136000,0
203.789056,1146,1323,143,4.416000,0
203.793472,1147,1324,143,0,957.824000
204.751296,1147,1325,143,4.416000,0
204.755712,1148,1326,143,3.136000,0
204.758848,1149,1327,143,4.416000,0
204.763264,1150,1328,143,4.416000,0
204.767680,1151,1329,143,4.416000,0
204.772096,1152,1330,144,3.136000,0
204.775232,1153,1331,144,0,959.104000
205.734336,1153,1332,144,3.136000,0
205.737472,1154,1333,144,4.416000,0
205.741888,1155,1334,144,4.416000,0
205.746304,1156,1335,144,3.136000,0
205.749440,1157,1336,144,3.136000,0
205.752576,1158,1337,144,4.416000,0
205.756992,1159,1338,144,0,960.384000
206.717376,1159,1339,144,4.416000,0
206.721792,1160,1340,145,3.136000,0
206.724928,1161,1341,145,3.136000,0
206.728064,1162,1342,145,4.416000,0
206.732480,1163,1343,145,4.416000,0
206.736896,1164,1344,145,3.136000,0
206.740032,1165,1345,145,0,960.384000
207.700416,1165,1346,145,4.416000,0
207.704832,1166,1347,145,3.136000,0
207.707968,1167,1348,145,3.136000,0
207.711104,1168,1349,146,4.416000,0
207.715520,1169,1350,146,3.136000,0
207.718656,1170,1351,146,4.416000,0
207.723072,1171,1352,146,0,960.384000
208.683456,1171,1353,146,4.416000,0
208.687872,1172,1354,146,3.136000,0
208.691008,1173,1355,146,3.136000,0
208.694144,1174,1356,146,4.416000,0
208.698560,1175,1357,146,3.136000,0
208.701696,1176,1358,147,3.136000,0
208.704832,1177,1359,147,3.136000,0
208.707968,1178,1360,147,0,958.528000
209.666496,1178,1361,147,4.416000,0
209.670912,1179,1362,147,4.416000,0
209.675328,1180,1363,147,3.136000,0
209.678464,1181,1364,147,3.136000,0
209.681600,1182,1365,147,4.416000,0
209.686016,1183,1366,147,3.136000,0
209.689152,1184,1367,148,0,960.384000
210.649536,1184,1368,148,4.416000,0
210.653952,1185,1369,148,3.136000,0
210.657088,1186,1370,148,4.416000,0
210.661504,1187,1371,148,4.416000,0
210.665920,1188,1372,148,3.136000,0
210.669056,1189,1373,148,4.416000,0
210.673472,1190,1374,148,0,959.104000
211.632576,1190,1375,148,4.416000,0
211.636992,1191,1376,148,4.416000,0
211.641408,1192,1377,149,3.136000,0
211.644544,1193,1378,149,3.136000,0
211.647680,1194,1379,149,4.416000,0
211.652096,1195,1380,149,4.416000,0
211.656512,1196,1381,149,0,959.104000
212.615616,1196,1382,149,3.136000,0
212.618752,1197,1383,149,3.136000,0
212.621888,1198,1384,149,3.136000,0
212.625024,1199,1385,149,4.416000,0
212.629440,1200,1386,150,4.416000,0
212.633856,1201,1387,150,3.136000,0
212.636992,1202,1388,150,4.416000,0
212.641408,1203,1389,150,0,957.248000
213.598656,1203,1390,150,4.416000,0
213.603072,1204,1391,150,3.136000,0
213.606208,1205,1392,150,4.416000,0
213.610624,1206,1393,150,3.136000,0
213.613760,1207,1394,150,3.136000,0
213.616896,1208,1395,151,4.416000,0
213.621312,1209,1396,151,3.136000,0
213.624448,1210,1397,151,0,957.248000
214.581696,1210,1398,151,4.416000,0
214.586112,1211,1399,151,4.416000,0
214.590528,1212,1400,151,3.136000,0
214.593664,1213,1401,151,3.136000,0
214.596800,1214,1402,151,3.136000,0
214.599936,1215,1403,151,3.136000,0
214.603072,1216,1404,152,4.416000,0
214.607488,1217,1405,152,0,957.248000
215.564736,1217,1406,152,3.136000,0
215.567872,1218,1407,152,4.416000,0
215.572288,1219,1408,152,4.416000,0
215.576704,1220,1409,152,3.136000,0
215.579840,1221,1410,152,4.416000,0
215.584256,1222,1411,152,4.416000,0
215.588672,1223,1412,152,0,959.104000
216.547776,1223,1413,152,3.136000,0
216.550912,1224,1414,153,3.136000,0
216.554048,1225,1415,153,3.136000,0
216.557184,1226,1416,153,3.136000,0
216.560320,1227,1417,153,4.416000,0
216.564736,1228,1418,153,3.136000,0
216.567872,1229,1419,153,3.136000,0
216.571008,1230,1420,153,0,959.808000
217.530816,1230,1421,153,3.136000,0
217.533952,1231,1422,153,3.136000,0
217.537088,1232,1423,154,3.136000,0
217.540224,1233,1424,154,3.136000,0
217.543360,1234,1425,154,3.136000,0
217.546496,1235,1426,154,4.416000,0
217.550912,1236,1427,154,3.136000,0
217.554048,1237,1428,154,0,959.808000
218.513856,1237,1429,154,3.136000,0
218.516992,1238,1430,154,3.136000,0
218.520128,1239,1431,154,3.136000,0
218.523264,1240,1432,155,3.136000,0
218.526400,1241,1433,155,3.136000,0
218.529536,1242,1434,155,3.136000,0
218.532672,1243,1435,155,4.416000,0
218.537088,1244,1436,155,0,959.808000
219.496896,1244,1437,155,3.136000,0
219.500032,1245,1438,155,3.136000,0
219.503168,1246,1439,155,3.136000,0
219.506304,1247,1440,155,3.136000,0
219.509440,1248,1441,156,3.136000,0
219.512576,1249,1442,156,3.136000,0
219.515712,1250,1443,156,4.416000,0
219.520128,1251,1444,156,0,959.808000
220.479936,1251,1445,156,4.416000,0
220.484352,1252,1446,156,3.136000,0
220.487488,1253,1447,156,4.416000,0
220.491904,1254,1448,156,3.136000,0
220.495040,1255,1449,156,3.136000,0
220.498176,1256,1450,157,4.416000,0
220.502592,1257,1451,157,3.136000,0
220.505728,1258,1452,157,0,957.248000
221.462976,1258,1453,157,4.416000,0
221.467392,1259,1454,157,4.416000,0
221.471808,1260,1455,157,3.136000,0
221.474944,1261,1456,157,4.416000,0
221.479360,1262,1457,157,4.416000,0
221.483776,1263,1458,157,4.416000,0
221.488192,1264,1459,158,0,957.824000
222.446016,1264,1460,158,3.136000,0
222.449152,1265,1461,158,3.136000,0
222.452288,1266,1462,158,4.416000,0
222.456704,1267,1463,158,4.416000,0
222.461120,1268,1464,158,3.136000,0
222.464256,1269,1465,158,3.136000,0
222.467392,1270,1466,158,4.416000,0
222.471808,1271,1467,158,0,957.248000
223.429056,1271,1468,158,4.416000,0
223.433472,1272,1469,159,3.136000,0
223.436608,1273,1470,159,3.136000,0
223.439744,1274,1471,159,4.416000,0
223.444160,1275,1472,159,4.416000,0
223.448576,1276,1473,159,3.136000,0
223.451712,1277,1474,159,0,960.384000
224.412096,1277,1475,159,4.416000,0
224.416512,1278,1476,159,4.416000,0
224.420928,1279,1477,159,4.416000,0
224.425344,1280,1478,160,4.416000,0
224.429760,1281,1479,160,3.136000,0
224.432896,1282,1480,160,4.416000,0
224.437312,1283,1481,160,0,957.824000
225.395136,1283,1482,160,4.416000,0
225.399552,1284,1483,160,4.416000,0
225.403968,1285,1484,160,3.136000,0
225.407104,1286,1485,160,3.136000,0
225.410240,1287,1486,160,4.416000,0
225.414656,1288,1487,161,3.136000,0
225.417792,1289,1488,161,3.136000,0
225.420928,1290,1489,161,0,957.248000
226.378176,1290,1490,161,4.416000,0
226.382592,1291,1491,161,4.416000,0
226.387008,1292,1492,161,3.136000,0
226.390144,1293,1493,161,4.416000,0
226.394560,1294,1494,161,4.416000,0
226.398976,1295,1495,161,3.136000,0
226.402112,1296,1496,162,0,959.104000
227.361216,1296,1497,162,4.416000,0
227.365632,1297,1498,162,3.136000,0
227.368768,1298,1499,162,4.416000,0
227.373184,1299,1500,162,4.416000,0
227.377600,1300,1501,162,3.136000,0
227.380736,1301,1502,162,3.136000,0
227.383872,1302,1503,162,3.136000,0
227.387008,1303,1504,162,0,957.248000
228.344256,1303,1505,162,3.136000,0
228.347392,1304,1506,163,4.416000,0
228.351808,1305,1507,163,3.136000,0
228.354944,1306,1508,163,4.416000,0
228.359360,1307,1509,163,4.416000,0
228.363776,1308,1510,163,3.136000,0
228.366912,1309,1511,163,3.136000,0
228.370048,1310,1512,163,0,957.248000
229.327296,1310,1513,163,3.136000,0
229.330432,1311,1514,163,4.416000,0
229.334848,1312,1515,164,4.416000,0
229.339264,1313,1516,164,3.136000,0
229.342400,1314,1517,164,4.416000,0
229.346816,1315,1518,164,4.416000,0
229.351232,1316,1519,164,0,959.104000
230.310336,1316,1520,164,3.136000,0
230.313472,1317,1521,164,3.136000,0
230.316608,1318,1522,164,3.136000,0
230.319744,1319,1523,164,3.136000,0
230.322880,1320,1524,165,4.416000,0
230.327296,1321,1525,165,3.136000,0
230.330432,1322,1526,165,4.416000,0
230.334848,1323,1527,165,0,958.528000
