Time,CovertPackets,AllPackets,BitsSent,PacketInterval,GTSInterval
33.978816,0,2,0,0,3932.160000
37.910976,0,3,0,0,1966.080000
39.877056,0,4,0,0,3932.160000
43.809216,0,5,0,0,1966.080000
45.775296,0,6,0,0,3932.160000
49.707456,0,7,0,0,3932.160000
53.639616,0,8,0,0,1966.080000
55.605696,0,9,0,0,3932.160000
59.537856,0,10,0,0,3932.160000
63.470016,0,11,0,0,1966.080000
65.436096,0,12,0,0,3932.160000
69.368256,0,13,0,0,1966.080000
71.334336,0,14,0,0,3932.160000
75.266496,0,15,0,0,1966.080000
77.232576,0,16,0,0,3932.160000
81.164736,0,17,0,0,3932.160000
85.096896,0,18,0,0,1966.080000
87.062976,0,19,0,0,3932.160000
90.995136,0,20,0,0,1966.080000
92.961216,0,21,0,0,3932.160000
96.893376,0,22,0,0,1966.080000
98.859456,0,23,0,0,3932.160000
102.791616,0,24,0,0,1966.080000
104.757696,0,25,0,0,3932.160000
108.689856,0,26,0,0,3932.160000
112.622016,0,27,0,0,1966.080000
114.588096,0,28,0,0,3932.160000
118.520256,0,29,0,0,1966.080000
120.486336,0,30,0,0,3932.160000
124.418496,0,31,0,0,1966.080000
126.384576,0,32,0,0,3932.160000
130.316736,0,33,0,0,3932.160000
134.248896,0,34,0,0,1966.080000
136.214976,0,35,0,0,3932.160000
140.147136,0,36,0,0,1966.080000
142.113216,0,37,0,0,3932.160000
146.045376,0,38,0,0,1966.080000
148.011456,0,39,0,0,3932.160000
151.943616,0,40,0,0,1966.080000
153.909696,0,41,0,0,3932.160000
157.841856,0,42,0,0,3932.160000
161.774016,0,43,0,0,1966.080000
163.740096,0,44,0,0,3932.160000
167.672256,0,45,0,0,1966.080000
169.638336,0,46,0,0,3932.160000
173.570496,0,47,0,0,1966.080000
175.536576,0,48,0,0,3932.160000
179.468736,0,49,0,0,3932.160000
183.400896,0,50,0,0,1966.080000
185.366976,0,51,0,0,3932.160000
189.299136,0,52,0,0,1966.080000
191.265216,0,53,0,0,3932.160000
195.197376,0,54,0,0,3932.160000
199.129536,0,55,0,0,1966.080000
201.095616,0,56,0,0,3932.160000
205.027776,0,57,0,0,1966.080000
206.993856,0,58,0,0,3932.160000
210.926016,0,59,0,0,1966.080000
212.892096,0,60,0,0,3932.160000
216.824256,0,61,0,0,3932.160000
220.756416,0,62,0,0,1966.080000
222.722496,0,63,0,0,3932.160000
226.654656,0,64,0,0,1966.080000
228.620736,0,65,0,0,3932.160000
232.552896,0,66,0,0,3932.160000
