Time,CovertPackets,AllPackets,BitsSent,PacketInterval,GTSInterval
32.022528,1,150,0,5.504000,0
32.028032,2,225,0,6.784000,0
32.034816,3,300,0,6.784000,0
32.041600,4,375,0,5.504000,0
32.047104,5,450,0,6.784000,0
32.053888,6,525,0,5.504000,0
32.059392,7,600,0,5.504000,0
32.064896,8,675,1,0,1916.288000
33.981184,8,750,1,6.784000,0
33.987968,9,825,1,5.504000,0
33.993472,10,900,1,6.784000,0
34.000256,11,975,1,6.784000,0
34.007040,12,1050,1,5.504000,0
34.012544,13,1125,1,6.784000,0
34.019328,14,1200,1,6.784000,0
34.026112,15,1275,1,6.784000,0
34.032896,16,1350,2,0,1914.368000
35.947264,16,1425,2,5.504000,0
35.952768,17,1500,2,5.504000,0
35.958272,18,1575,2,6.784000,0
35.965056,19,1650,2,6.784000,0
35.971840,20,1725,2,5.504000,0
35.977344,21,1800,2,5.504000,0
35.982848,22,1875,2,6.784000,0
35.989632,23,1950,2,6.784000,0
35.996416,24,2025,3,0,1916.928000
37.913344,24,2100,3,5.504000,0
37.918848,25,2175,3,5.504000,0
37.924352,26,2250,3,6.784000,0
37.931136,27,2325,3,6.784000,0
37.937920,28,2400,3,5.504000,0
37.943424,29,2475,3,6.784000,0
37.950208,30,2550,3,6.784000,0
37.956992,31,2625,3,6.784000,0
37.963776,32,2700,4,0,1915.648000
39.879424,32,2775,4,6.784000,0
39.886208,33,2850,4,5.504000,0
39.891712,34,2925,4,6.784000,0
39.898496,35,3000,4,6.784000,0
39.905280,36,3075,4,6.784000,0
39.912064,37,3150,4,5.504000,0
39.917568,38,3225,4,5.504000,0
39.923072,39,3300,4,6.784000,0
39.929856,40,3375,5,0,1915.648000
41.845504,40,3450,5,5.504000,0
41.851008,41,3525,5,5.504000,0
41.856512,42,3600,5,6.784000,0
41.863296,43,3675,5,6.784000,0
41.870080,44,3750,5,5.504000,0
41.875584,45,3825,5,6.784000,0
41.882368,46,3900,5,6.784000,0
41.889152,47,3975,5,5.504000,0
41.894656,48,4050,6,0,1916.928000
43.811584,48,4125,6,6.784000,0
43.818368,49,4200,6,5.504000,0
43.823872,50,4275,6,6.784000,0
43.830656,51,4350,6,6.784000,0
43.837440,52,4425,6,5.504000,0
43.842944,53,4500,6,5.504000,0
43.848448,54,4575,6,5.504000,0
43.853952,55,4650,6,5.504000,0
43.859456,56,4725,7,0,1918.208000
45.777664,56,4800,7,6.784000,0
45.784448,57,4875,7,5.504000,0
45.789952,58,4950,7,6.784000,0
45.796736,59,5025,7,6.784000,0
45.803520,60,5100,7,5.504000,0
45.809024,61,5175,7,5.504000,0
45.814528,62,5250,7,5.504000,0
45.820032,63,5325,7,6.784000,0
45.826816,64,5400,8,0,1916.928000
47.743744,64,5475,8,6.784000,0
47.750528,65,5550,8,5.504000,0
47.756032,66,5625,8,6.784000,0
47.762816,67,5700,8,6.784000,0
47.769600,68,5775,8,5.504000,0
47.775104,69,5850,8,5.504000,0
47.780608,70,5925,8,5.504000,0
47.786112,71,6000,8,5.504000,0
47.791616,72,6075,9,0,1918.208000
49.709824,72,6150,9,6.784000,0
49.716608,73,6225,9,5.504000,0
49.722112,74,6300,9,6.784000,0
49.728896,75,6375,9,6.784000,0
49.735680,76,6450,9,5.504000,0
49.741184,77,6525,9,6.784000,0
49.747968,78,6600,9,6.784000,0
49.754752,79,6675,9,6.784000,0
49.761536,80,6750,10,0,1914.368000
51.675904,80,6825,10,6.784000,0
51.682688,81,6900,10,5.504000,0
51.688192,82,6975,10,5.504000,0
51.693696,83,7050,10,6.784000,0
51.700480,84,7125,10,5.504000,0
51.705984,85,7200,10,5.504000,0
51.711488,86,7275,10,5.504000,0
51.716992,87,7350,10,5.504000,0
51.722496,88,7425,11,5.504000,0
51.728000,89,7500,11,0,1913.984000
53.641984,89,7575,11,5.504000,0
53.647488,90,7650,11,6.784000,0
53.654272,91,7725,11,6.784000,0
53.661056,92,7800,11,5.504000,0
53.666560,93,7875,11,5.504000,0
53.672064,94,7950,11,5.504000,0
53.677568,95,8025,11,6.784000,0
53.684352,96,8100,12,6.784000,0
53.691136,97,8175,12,0,1916.928000
55.608064,97,8250,12,5.504000,0
55.613568,98,8325,12,6.784000,0
55.620352,99,8400,12,6.784000,0
55.627136,100,8475,12,5.504000,0
55.632640,101,8550,12,6.784000,0
55.639424,102,8625,12,6.784000,0
55.646208,103,8700,12,6.784000,0
55.652992,104,8775,13,6.784000,0
55.659776,105,8850,13,0,1914.368000
57.574144,105,8925,13,5.504000,0
57.579648,106,9000,13,6.784000,0
57.586432,107,9075,13,6.784000,0
57.593216,108,9150,13,5.504000,0
57.598720,109,9225,13,6.784000,0
57.605504,110,9300,13,6.784000,0
57.612288,111,9375,13,6.784000,0
57.619072,112,9450,14,5.504000,0
57.624576,113,9525,14,0,1915.648000
59.540224,113,9600,14,5.504000,0
59.545728,114,9675,14,6.784000,0
59.552512,115,9750,14,6.784000,0
59.559296,116,9825,14,5.504000,0
59.564800,117,9900,14,5.504000,0
59.570304,118,9975,14,6.784000,0
59.577088,119,10050,14,6.784000,0
59.583872,120,10125,15,5.504000,0
59.589376,121,10200,15,0,1916.928000
61.506304,121,10275,15,5.504000,0
61.511808,122,10350,15,6.784000,0
61.518592,123,10425,15,6.784000,0
61.525376,124,10500,15,5.504000,0
61.530880,125,10575,15,6.784000,0
61.537664,126,10650,15,5.504000,0
61.543168,127,10725,15,5.504000,0
61.548672,128,10800,16,6.784000,0
61.555456,129,10875,16,0,1916.928000
63.472384,129,10950,16,5.504000,0
63.477888,130,11025,16,6.784000,0
63.484672,131,11100,16,6.784000,0
63.491456,132,11175,16,5.504000,0
63.496960,133,11250,16,5.504000,0
63.502464,134,11325,16,6.784000,0
63.509248,135,11400,16,5.504000,0
63.514752,136,11475,17,5.504000,0
63.520256,137,11550,17,5.504000,0
63.525760,138,11625,17,0,1912.704000
65.438464,138,11700,17,6.784000,0
65.445248,139,11775,17,6.784000,0
65.452032,140,11850,17,5.504000,0
65.457536,141,11925,17,5.504000,0
65.463040,142,12000,17,6.784000,0
65.469824,143,12075,17,5.504000,0
65.475328,144,12150,18,6.784000,0
65.482112,145,12225,18,5.504000,0
65.487616,146,12300,18,0,1916.928000
67.404544,146,12375,18,6.784000,0
67.411328,147,12450,18,6.784000,0
67.418112,148,12525,18,5.504000,0
67.423616,149,12600,18,6.784000,0
67.430400,150,12675,18,6.784000,0
67.437184,151,12750,18,6.784000,0
67.443968,152,12825,19,5.504000,0
67.449472,153,12900,19,5.504000,0
67.454976,154,12975,19,0,1915.648000
69.370624,154,13050,19,6.784000,0
69.377408,155,13125,19,6.784000,0
69.384192,156,13200,19,5.504000,0
69.389696,157,13275,19,5.504000,0
69.395200,158,13350,19,5.504000,0
69.400704,159,13425,19,6.784000,0
69.407488,160,13500,20,6.784000,0
69.414272,161,13575,20,5.504000,0
69.419776,162,13650,20,0,1916.928000
71.336704,162,13725,20,6.784000,0
71.343488,163,13800,20,6.784000,0
71.350272,164,13875,20,5.504000,0
71.355776,165,13950,20,6.784000,0
71.362560,166,14025,20,5.504000,0
71.368064,167,14100,20,5.504000,0
71.373568,168,14175,21,6.784000,0
71.380352,169,14250,21,5.504000,0
71.385856,170,14325,21,0,1916.928000
73.302784,170,14400,21,6.784000,0
73.309568,171,14475,21,6.784000,0
73.316352,172,14550,21,5.504000,0
73.321856,173,14625,21,5.504000,0
73.327360,174,14700,21,5.504000,0
73.332864,175,14775,21,5.504000,0
73.338368,176,14850,22,6.784000,0
73.345152,177,14925,22,5.504000,0
73.350656,178,15000,22,0,1918.208000
75.268864,178,15075,22,6.784000,0
75.275648,179,15150,22,6.784000,0
75.282432,180,15225,22,5.504000,0
75.287936,181,15300,22,6.784000,0
75.294720,182,15375,22,6.784000,0
75.301504,183,15450,22,5.504000,0
75.307008,184,15525,23,5.504000,0
75.312512,185,15600,23,5.504000,0
75.318016,186,15675,23,0,1916.928000
77.234944,186,15750,23,5.504000,0
77.240448,187,15825,23,6.784000,0
77.247232,188,15900,23,5.504000,0
77.252736,189,15975,23,5.504000,0
77.258240,190,16050,23,5.504000,0
77.263744,191,16125,23,5.504000,0
77.269248,192,16200,24,5.504000,0
77.274752,193,16275,24,5.504000,0
77.280256,194,16350,24,5.504000,0
77.285760,195,16425,24,0,1915.264000
79.201024,195,16500,24,6.784000,0
79.207808,196,16575,24,5.504000,0
79.213312,197,16650,24,5.504000,0
79.218816,198,16725,24,5.504000,0
79.224320,199,16800,24,5.504000,0
79.229824,200,16875,25,5.504000,0
79.235328,201,16950,25,5.504000,0
79.240832,202,17025,25,5.504000,0
79.246336,203,17100,25,6.784000,0
79.253120,204,17175,25,0,1913.984000
81.167104,204,17250,25,5.504000,0
81.172608,205,17325,25,5.504000,0
81.178112,206,17400,25,5.504000,0
81.183616,207,17475,25,5.504000,0
81.189120,208,17550,26,5.504000,0
81.194624,209,17625,26,5.504000,0
81.200128,210,17700,26,6.784000,0
81.206912,211,17775,26,6.784000,0
81.213696,212,17850,26,5.504000,0
81.219200,213,17925,26,0,1913.984000
83.133184,213,18000,26,6.784000,0
83.139968,214,18075,26,5.504000,0
83.145472,215,18150,26,5.504000,0
83.150976,216,18225,27,6.784000,0
83.157760,217,18300,27,5.504000,0
83.163264,218,18375,27,6.784000,0
83.170048,219,18450,27,6.784000,0
83.176832,220,18525,27,5.504000,0
83.182336,221,18600,27,0,1916.928000
85.099264,221,18675,27,6.784000,0
85.106048,222,18750,27,6.784000,0
85.112832,223,18825,27,6.784000,0
85.119616,224,18900,28,5.504000,0
85.125120,225,18975,28,5.504000,0
85.130624,226,19050,28,6.784000,0
85.137408,227,19125,28,6.784000,0
85.144192,228,19200,28,5.504000,0
85.149696,229,19275,28,0,1915.648000
87.065344,229,19350,28,5.504000,0
87.070848,230,19425,28,6.784000,0
87.077632,231,19500,28,6.784000,0
87.084416,232,19575,29,5.504000,0
87.089920,233,19650,29,5.504000,0
87.095424,234,19725,29,6.784000,0
87.102208,235,19800,29,6.784000,0
87.108992,236,19875,29,5.504000,0
87.114496,237,19950,29,0,1916.928000
89.031424,237,20025,29,6.784000,0
89.038208,238,20100,29,6.784000,0
89.044992,239,20175,29,6.784000,0
89.051776,240,20250,30,6.784000,0
89.058560,241,20325,30,5.504000,0
89.064064,242,20400,30,6.784000,0
89.070848,243,20475,30,6.784000,0
89.077632,244,20550,30,6.784000,0
89.084416,245,20625,30,0,1913.088000
90.997504,245,20700,30,5.504000,0
91.003008,246,20775,30,5.504000,0
91.008512,247,20850,30,6.784000,0
91.015296,248,20925,31,5.504000,0
91.020800,249,21000,31,5.504000,0
91.026304,250,21075,31,6.784000,0
91.033088,251,21150,31,6.784000,0
91.039872,252,21225,31,5.504000,0
91.045376,253,21300,31,0,1918.208000
92.963584,253,21375,31,6.784000,0
92.970368,254,21450,31,6.784000,0
92.977152,255,21525,31,5.504000,0
92.982656,256,21600,32,6.784000,0
92.989440,257,21675,32,5.504000,0
92.994944,258,21750,32,6.784000,0
93.001728,259,21825,32,6.784000,0
93.008512,260,21900,32,5.504000,0
93.014016,261,21975,32,0,1915.648000
94.929664,261,22050,32,5.504000,0
94.935168,262,22125,32,5.504000,0
94.940672,263,22200,32,5.504000,0
94.946176,264,22275,33,6.784000,0
94.952960,265,22350,33,5.504000,0
94.958464,266,22425,33,6.784000,0
94.965248,267,22500,33,6.784000,0
94.972032,268,22575,33,5.504000,0
94.977536,269,22650,33,5.504000,0
94.983040,270,22725,33,0,1912.704000
96.895744,270,22800,33,5.504000,0
96.901248,271,22875,33,6.784000,0
96.908032,272,22950,34,6.784000,0
96.914816,273,23025,34,5.504000,0
96.920320,274,23100,34,6.784000,0
96.927104,275,23175,34,6.784000,0
96.933888,276,23250,34,5.504000,0
96.939392,277,23325,34,5.504000,0
96.944896,278,23400,34,0,1916.928000
98.861824,278,23475,34,5.504000,0
98.867328,279,23550,34,5.504000,0
98.872832,280,23625,35,6.784000,0
98.879616,281,23700,35,5.504000,0
98.885120,282,23775,35,6.784000,0
98.891904,283,23850,35,6.784000,0
98.898688,284,23925,35,5.504000,0
98.904192,285,24000,35,6.784000,0
98.910976,286,24075,35,0,1916.928000
100.827904,286,24150,35,6.784000,0
100.834688,287,24225,35,6.784000,0
100.841472,288,24300,36,6.784000,0
100.848256,289,24375,36,5.504000,0
100.853760,290,24450,36,5.504000,0
100.859264,291,24525,36,6.784000,0
100.866048,292,24600,36,5.504000,0
100.871552,293,24675,36,5.504000,0
100.877056,294,24750,36,0,1916.928000
102.793984,294,24825,36,5.504000,0
102.799488,295,24900,36,5.504000,0
102.804992,296,24975,37,5.504000,0
102.810496,297,25050,37,5.504000,0
102.816000,298,25125,37,6.784000,0
102.822784,299,25200,37,6.784000,0
102.829568,300,25275,37,5.504000,0
102.835072,301,25350,37,5.504000,0
102.840576,302,25425,37,5.504000,0
102.846080,303,25500,37,0,1913.984000
104.760064,303,25575,37,6.784000,0
104.766848,304,25650,38,6.784000,0
104.773632,305,25725,38,5.504000,0
104.779136,306,25800,38,6.784000,0
104.785920,307,25875,38,6.784000,0
104.792704,308,25950,38,5.504000,0
104.798208,309,26025,38,6.784000,0
104.804992,310,26100,38,6.784000,0
104.811776,311,26175,38,0,1914.368000
106.726144,311,26250,38,6.784000,0
106.732928,312,26325,39,6.784000,0
106.739712,313,26400,39,5.504000,0
106.745216,314,26475,39,6.784000,0
106.752000,315,26550,39,6.784000,0
106.758784,316,26625,39,5.504000,0
106.764288,317,26700,39,6.784000,0
106.771072,318,26775,39,6.784000,0
106.777856,319,26850,39,0,1914.368000
108.692224,319,26925,39,6.784000,0
108.699008,320,27000,40,5.504000,0
108.704512,321,27075,40,5.504000,0
108.710016,322,27150,40,6.784000,0
108.716800,323,27225,40,6.784000,0
108.723584,324,27300,40,5.504000,0
108.729088,325,27375,40,5.504000,0
108.734592,326,27450,40,6.784000,0
108.741376,327,27525,40,0,1916.928000
110.658304,327,27600,40,6.784000,0
110.665088,328,27675,41,5.504000,0
110.670592,329,27750,41,5.504000,0
110.676096,330,27825,41,6.784000,0
110.682880,331,27900,41,6.784000,0
110.689664,332,27975,41,5.504000,0
110.695168,333,28050,41,6.784000,0
110.701952,334,28125,41,5.504000,0
110.707456,335,28200,41,0,1916.928000
112.624384,335,28275,41,5.504000,0
112.629888,336,28350,42,6.784000,0
112.636672,337,28425,42,5.504000,0
112.642176,338,28500,42,6.784000,0
112.648960,339,28575,42,6.784000,0
112.655744,340,28650,42,5.504000,0
112.661248,341,28725,42,5.504000,0
112.666752,342,28800,42,6.784000,0
112.673536,343,28875,42,0,1916.928000
114.590464,343,28950,42,5.504000,0
114.595968,344,29025,43,5.504000,0
114.601472,345,29100,43,5.504000,0
114.606976,346,29175,43,6.784000,0
114.613760,347,29250,43,6.784000,0
114.620544,348,29325,43,5.504000,0
114.626048,349,29400,43,5.504000,0
114.631552,350,29475,43,6.784000,0
114.638336,351,29550,43,5.504000,0
114.643840,352,29625,44,0,1912.704000
116.556544,352,29700,44,6.784000,0
116.563328,353,29775,44,5.504000,0
116.568832,354,29850,44,6.784000,0
116.575616,355,29925,44,6.784000,0
116.582400,356,30000,44,5.504000,0
116.587904,357,30075,44,6.784000,0
116.594688,358,30150,44,6.784000,0
116.601472,359,30225,44,6.784000,0
116.608256,360,30300,45,0,1914.368000
118.522624,360,30375,45,5.504000,0
118.528128,361,30450,45,5.504000,0
118.533632,362,30525,45,6.784000,0
118.540416,363,30600,45,6.784000,0
118.547200,364,30675,45,5.504000,0
118.552704,365,30750,45,5.504000,0
118.558208,366,30825,45,5.504000,0
118.563712,367,30900,45,6.784000,0
118.570496,368,30975,46,0,1918.208000
120.488704,368,31050,46,6.784000,0
120.495488,369,31125,46,5.504000,0
120.500992,370,31200,46,6.784000,0
120.507776,371,31275,46,6.784000,0
120.514560,372,31350,46,5.504000,0
120.520064,373,31425,46,6.784000,0
120.526848,374,31500,46,5.504000,0
120.532352,375,31575,46,5.504000,0
120.537856,376,31650,47,0,1916.928000
122.454784,376,31725,47,6.784000,0
122.461568,377,31800,47,5.504000,0
122.467072,378,31875,47,6.784000,0
122.473856,379,31950,47,6.784000,0
122.480640,380,32025,47,5.504000,0
122.486144,381,32100,47,5.504000,0
122.491648,382,32175,47,5.504000,0
122.497152,383,32250,47,5.504000,0
122.502656,384,32325,48,0,1918.208000
124.420864,384,32400,48,6.784000,0
124.427648,385,32475,48,5.504000,0
124.433152,386,32550,48,6.784000,0
124.439936,387,32625,48,6.784000,0
124.446720,388,32700,48,5.504000,0
124.452224,389,32775,48,6.784000,0
124.459008,390,32850,48,6.784000,0
124.465792,391,32925,48,5.504000,0
124.471296,392,33000,49,0,1915.648000
126.386944,392,33075,49,5.504000,0
126.392448,393,33150,49,5.504000,0
126.397952,394,33225,49,5.504000,0
126.403456,395,33300,49,6.784000,0
126.410240,396,33375,49,5.504000,0
126.415744,397,33450,49,5.504000,0
126.421248,398,33525,49,5.504000,0
126.426752,399,33600,49,5.504000,0
126.432256,400,33675,50,5.504000,0
126.437760,401,33750,50,0,1915.264000
128.353024,401,33825,50,5.504000,0
128.358528,402,33900,50,5.504000,0
128.364032,403,33975,50,6.784000,0
128.370816,404,34050,50,5.504000,0
128.376320,405,34125,50,5.504000,0
128.381824,406,34200,50,5.504000,0
128.387328,407,34275,50,5.504000,0
128.392832,408,34350,51,5.504000,0
128.398336,409,34425,51,5.504000,0
128.403840,410,34500,51,0,1915.264000
130.319104,410,34575,51,5.504000,0
130.324608,411,34650,51,6.784000,0
130.331392,412,34725,51,5.504000,0
130.336896,413,34800,51,5.504000,0
130.342400,414,34875,51,5.504000,0
130.347904,415,34950,51,5.504000,0
130.353408,416,35025,52,5.504000,0
130.358912,417,35100,52,5.504000,0
130.364416,418,35175,52,6.784000,0
130.371200,419,35250,52,0,1913.984000
132.285184,419,35325,52,6.784000,0
132.291968,420,35400,52,5.504000,0
132.297472,421,35475,52,6.784000,0
132.304256,422,35550,52,5.504000,0
132.309760,423,35625,52,5.504000,0
132.315264,424,35700,53,6.784000,0
132.322048,425,35775,53,5.504000,0
132.327552,426,35850,53,6.784000,0
132.334336,427,35925,53,0,1916.928000
134.251264,427,36000,53,6.784000,0
134.258048,428,36075,53,5.504000,0
134.263552,429,36150,53,6.784000,0
134.270336,430,36225,53,6.784000,0
134.277120,431,36300,53,6.784000,0
134.283904,432,36375,54,5.504000,0
134.289408,433,36450,54,5.504000,0
134.294912,434,36525,54,6.784000,0
134.301696,435,36600,54,0,1915.648000
136.217344,435,36675,54,6.784000,0
136.224128,436,36750,54,5.504000,0
136.229632,437,36825,54,5.504000,0
136.235136,438,36900,54,6.784000,0
136.241920,439,36975,54,6.784000,0
136.248704,440,37050,55,5.504000,0
136.254208,441,37125,55,5.504000,0
136.259712,442,37200,55,6.784000,0
136.266496,443,37275,55,0,1916.928000
138.183424,443,37350,55,6.784000,0
138.190208,444,37425,55,5.504000,0
138.195712,445,37500,55,6.784000,0
138.202496,446,37575,55,6.784000,0
138.209280,447,37650,55,6.784000,0
138.216064,448,37725,56,6.784000,0
138.222848,449,37800,56,5.504000,0
138.228352,450,37875,56,6.784000,0
138.235136,451,37950,56,0,1914.368000
140.149504,451,38025,56,6.784000,0
140.156288,452,38100,56,6.784000,0
140.163072,453,38175,56,5.504000,0
140.168576,454,38250,56,5.504000,0
140.174080,455,38325,56,6.784000,0
140.180864,456,38400,57,5.504000,0
140.186368,457,38475,57,5.504000,0
140.191872,458,38550,57,6.784000,0
140.198656,459,38625,57,0,1916.928000
142.115584,459,38700,57,6.784000,0
142.122368,460,38775,57,5.504000,0
142.127872,461,38850,57,6.784000,0
142.134656,462,38925,57,6.784000,0
142.141440,463,39000,57,5.504000,0
142.146944,464,39075,58,6.784000,0
142.153728,465,39150,58,5.504000,0
142.159232,466,39225,58,6.784000,0
142.166016,467,39300,58,0,1915.648000
144.081664,467,39375,58,6.784000,0
144.088448,468,39450,58,5.504000,0
144.093952,469,39525,58,5.504000,0
144.099456,470,39600,58,5.504000,0
144.104960,471,39675,58,5.504000,0
144.110464,472,39750,59,6.784000,0
144.117248,473,39825,59,5.504000,0
144.122752,474,39900,59,6.784000,0
144.129536,475,39975,59,0,1918.208000
146.047744,475,40050,59,6.784000,0
146.054528,476,40125,59,5.504000,0
146.060032,477,40200,59,5.504000,0
146.065536,478,40275,59,5.504000,0
146.071040,479,40350,59,6.784000,0
146.077824,480,40425,60,6.784000,0
146.084608,481,40500,60,5.504000,0
146.090112,482,40575,60,6.784000,0
146.096896,483,40650,60,0,1916.928000
148.013824,483,40725,60,6.784000,0
148.020608,484,40800,60,5.504000,0
148.026112,485,40875,60,5.504000,0
148.031616,486,40950,60,5.504000,0
148.037120,487,41025,60,5.504000,0
148.042624,488,41100,61,6.784000,0
148.049408,489,41175,61,5.504000,0
148.054912,490,41250,61,6.784000,0
148.061696,491,41325,61,0,1918.208000
149.979904,491,41400,61,6.784000,0
149.986688,492,41475,61,5.504000,0
149.992192,493,41550,61,6.784000,0
149.998976,494,41625,61,6.784000,0
150.005760,495,41700,61,6.784000,0
150.012544,496,41775,62,6.784000,0
150.019328,497,41850,62,5.504000,0
150.024832,498,41925,62,5.504000,0
150.030336,499,42000,62,0,1915.648000
151.945984,499,42075,62,6.784000,0
151.952768,500,42150,62,5.504000,0
151.958272,501,42225,62,5.504000,0
151.963776,502,42300,62,5.504000,0
151.969280,503,42375,62,5.504000,0
151.974784,504,42450,63,5.504000,0
151.980288,505,42525,63,5.504000,0
151.985792,506,42600,63,6.784000,0
151.992576,507,42675,63,6.784000,0
151.999360,508,42750,63,0,1912.704000
153.912064,508,42825,63,5.504000,0
153.917568,509,42900,63,5.504000,0
153.923072,510,42975,63,5.504000,0
153.928576,511,43050,63,6.784000,0
153.935360,512,43125,64,6.784000,0
153.942144,513,43200,64,5.504000,0
153.947648,514,43275,64,6.784000,0
153.954432,515,43350,64,6.784000,0
153.961216,516,43425,64,0,1916.928000
155.878144,516,43500,64,5.504000,0
155.883648,517,43575,64,6.784000,0
155.890432,518,43650,64,6.784000,0
155.897216,519,43725,64,6.784000,0
155.904000,520,43800,65,6.784000,0
155.910784,521,43875,65,5.504000,0
155.916288,522,43950,65,6.784000,0
155.923072,523,44025,65,6.784000,0
155.929856,524,44100,65,0,1914.368000
157.844224,524,44175,65,5.504000,0
157.849728,525,44250,65,6.784000,0
157.856512,526,44325,65,6.784000,0
157.863296,527,44400,65,6.784000,0
157.870080,528,44475,66,5.504000,0
157.875584,529,44550,66,5.504000,0
157.881088,530,44625,66,6.784000,0
157.887872,531,44700,66,6.784000,0
157.894656,532,44775,66,0,1915.648000
159.810304,532,44850,66,5.504000,0
159.815808,533,44925,66,5.504000,0
159.821312,534,45000,66,6.784000,0
159.828096,535,45075,66,6.784000,0
159.834880,536,45150,67,5.504000,0
159.840384,537,45225,67,5.504000,0
159.845888,538,45300,67,6.784000,0
159.852672,539,45375,67,6.784000,0
159.859456,540,45450,67,0,1916.928000
161.776384,540,45525,67,5.504000,0
161.781888,541,45600,67,6.784000,0
161.788672,542,45675,67,5.504000,0
161.794176,543,45750,67,5.504000,0
161.799680,544,45825,68,6.784000,0
161.806464,545,45900,68,5.504000,0
161.811968,546,45975,68,6.784000,0
161.818752,547,46050,68,6.784000,0
161.825536,548,46125,68,0,1916.928000
163.742464,548,46200,68,5.504000,0
163.747968,549,46275,68,5.504000,0
163.753472,550,46350,68,6.784000,0
163.760256,551,46425,68,5.504000,0
163.765760,552,46500,69,5.504000,0
163.771264,553,46575,69,5.504000,0
163.776768,554,46650,69,6.784000,0
163.783552,555,46725,69,6.784000,0
163.790336,556,46800,69,5.504000,0
163.795840,557,46875,69,0,1912.704000
165.708544,557,46950,69,5.504000,0
165.714048,558,47025,69,6.784000,0
165.720832,559,47100,69,5.504000,0
165.726336,560,47175,70,6.784000,0
165.733120,561,47250,70,5.504000,0
165.738624,562,47325,70,6.784000,0
165.745408,563,47400,70,6.784000,0
165.752192,564,47475,70,5.504000,0
165.757696,565,47550,70,0,1916.928000
167.674624,565,47625,70,6.784000,0
167.681408,566,47700,70,6.784000,0
167.688192,567,47775,70,6.784000,0
167.694976,568,47850,71,5.504000,0
167.700480,569,47925,71,5.504000,0
167.705984,570,48000,71,6.784000,0
167.712768,571,48075,71,6.784000,0
167.719552,572,48150,71,5.504000,0
167.725056,573,48225,71,0,1915.648000
169.640704,573,48300,71,5.504000,0
169.646208,574,48375,71,5.504000,0
169.651712,575,48450,71,6.784000,0
169.658496,576,48525,72,6.784000,0
169.665280,577,48600,72,5.504000,0
169.670784,578,48675,72,6.784000,0
169.677568,579,48750,72,6.784000,0
169.684352,580,48825,72,5.504000,0
169.689856,581,48900,72,0,1916.928000
171.606784,581,48975,72,6.784000,0
171.613568,582,49050,72,5.504000,0
171.619072,583,49125,72,5.504000,0
171.624576,584,49200,73,6.784000,0
171.631360,585,49275,73,5.504000,0
171.636864,586,49350,73,6.784000,0
171.643648,587,49425,73,6.784000,0
171.650432,588,49500,73,5.504000,0
171.655936,589,49575,73,0,1916.928000
173.572864,589,49650,73,5.504000,0
173.578368,590,49725,73,5.504000,0
173.583872,591,49800,73,5.504000,0
173.589376,592,49875,74,6.784000,0
173.596160,593,49950,74,5.504000,0
173.601664,594,50025,74,6.784000,0
173.608448,595,50100,74,6.784000,0
173.615232,596,50175,74,5.504000,0
173.620736,597,50250,74,0,1918.208000
175.538944,597,50325,74,6.784000,0
175.545728,598,50400,74,6.784000,0
175.552512,599,50475,74,5.504000,0
175.558016,600,50550,75,5.504000,0
175.563520,601,50625,75,5.504000,0
175.569024,602,50700,75,5.504000,0
175.574528,603,50775,75,6.784000,0
175.581312,604,50850,75,5.504000,0
175.586816,605,50925,75,5.504000,0
175.592320,606,51000,75,0,1912.704000
177.505024,606,51075,75,5.504000,0
177.510528,607,51150,75,5.504000,0
177.516032,608,51225,76,5.504000,0
177.521536,609,51300,76,5.504000,0
177.527040,610,51375,76,5.504000,0
177.532544,611,51450,76,6.784000,0
177.539328,612,51525,76,5.504000,0
177.544832,613,51600,76,5.504000,0
177.550336,614,51675,76,5.504000,0
177.555840,615,51750,76,0,1915.264000
179.471104,615,51825,76,5.504000,0
179.476608,616,51900,77,5.504000,0
179.482112,617,51975,77,5.504000,0
179.487616,618,52050,77,5.504000,0
179.493120,619,52125,77,6.784000,0
179.499904,620,52200,77,5.504000,0
179.505408,621,52275,77,5.504000,0
179.510912,622,52350,77,5.504000,0
179.516416,623,52425,77,5.504000,0
179.521920,624,52500,78,0,1915.264000
181.437184,624,52575,78,5.504000,0
181.442688,625,52650,78,5.504000,0
181.448192,626,52725,78,5.504000,0
181.453696,627,52800,78,6.784000,0
181.460480,628,52875,78,6.784000,0
181.467264,629,52950,78,5.504000,0
181.472768,630,53025,78,6.784000,0
181.479552,631,53100,78,5.504000,0
181.485056,632,53175,79,5.504000,0
181.490560,633,53250,79,0,1912.704000
183.403264,633,53325,79,6.784000,0
183.410048,634,53400,79,5.504000,0
183.415552,635,53475,79,6.784000,0
183.422336,636,53550,79,6.784000,0
183.429120,637,53625,79,5.504000,0
183.434624,638,53700,79,6.784000,0
183.441408,639,53775,79,6.784000,0
183.448192,640,53850,80,6.784000,0
183.454976,641,53925,80,0,1914.368000
185.369344,641,54000,80,5.504000,0
185.374848,642,54075,80,5.504000,0
185.380352,643,54150,80,6.784000,0
185.387136,644,54225,80,6.784000,0
185.393920,645,54300,80,5.504000,0
185.399424,646,54375,80,5.504000,0
185.404928,647,54450,80,6.784000,0
185.411712,648,54525,81,6.784000,0
185.418496,649,54600,81,0,1916.928000
187.335424,649,54675,81,5.504000,0
187.340928,650,54750,81,5.504000,0
187.346432,651,54825,81,6.784000,0
187.353216,652,54900,81,6.784000,0
187.360000,653,54975,81,5.504000,0
187.365504,654,55050,81,6.784000,0
187.372288,655,55125,81,6.784000,0
187.379072,656,55200,82,6.784000,0
187.385856,657,55275,82,0,1915.648000
189.301504,657,55350,82,6.784000,0
189.308288,658,55425,82,5.504000,0
189.313792,659,55500,82,6.784000,0
189.320576,660,55575,82,6.784000,0
189.327360,661,55650,82,6.784000,0
189.334144,662,55725,82,5.504000,0
189.339648,663,55800,82,5.504000,0
189.345152,664,55875,83,6.784000,0
189.351936,665,55950,83,0,1915.648000
191.267584,665,56025,83,5.504000,0
191.273088,666,56100,83,5.504000,0
191.278592,667,56175,83,6.784000,0
191.285376,668,56250,83,6.784000,0
191.292160,669,56325,83,5.504000,0
191.297664,670,56400,83,6.784000,0
191.304448,671,56475,83,6.784000,0
191.311232,672,56550,84,5.504000,0
191.316736,673,56625,84,0,1916.928000
193.233664,673,56700,84,6.784000,0
193.240448,674,56775,84,5.504000,0
193.245952,675,56850,84,6.784000,0
193.252736,676,56925,84,6.784000,0
193.259520,677,57000,84,5.504000,0
193.265024,678,57075,84,5.504000,0
193.270528,679,57150,84,5.504000,0
193.276032,680,57225,85,5.504000,0
193.281536,681,57300,85,0,1918.208000
195.199744,681,57375,85,6.784000,0
195.206528,682,57450,85,5.504000,0
195.212032,683,57525,85,6.784000,0
195.218816,684,57600,85,6.784000,0
195.225600,685,57675,85,5.504000,0
195.231104,686,57750,85,5.504000,0
195.236608,687,57825,85,5.504000,0
195.242112,688,57900,86,6.784000,0
195.248896,689,57975,86,0,1916.928000
197.165824,689,58050,86,6.784000,0
197.172608,690,58125,86,5.504000,0
197.178112,691,58200,86,6.784000,0
197.184896,692,58275,86,6.784000,0
197.191680,693,58350,86,5.504000,0
197.197184,694,58425,86,5.504000,0
197.202688,695,58500,86,5.504000,0
197.208192,696,58575,87,5.504000,0
197.213696,697,58650,87,0,1918.208000
199.131904,697,58725,87,6.784000,0
199.138688,698,58800,87,5.504000,0
199.144192,699,58875,87,6.784000,0
199.150976,700,58950,87,6.784000,0
199.157760,701,59025,87,5.504000,0
199.163264,702,59100,87,6.784000,0
199.170048,703,59175,87,6.784000,0
199.176832,704,59250,88,6.784000,0
199.183616,705,59325,88,0,1914.368000
201.097984,705,59400,88,6.784000,0
201.104768,706,59475,88,5.504000,0
201.110272,707,59550,88,5.504000,0
201.115776,708,59625,88,6.784000,0
201.122560,709,59700,88,5.504000,0
201.128064,710,59775,88,5.504000,0
201.133568,711,59850,88,5.504000,0
201.139072,712,59925,89,5.504000,0
201.144576,713,60000,89,5.504000,0
201.150080,714,60075,89,0,1913.984000
203.064064,714,60150,89,5.504000,0
203.069568,715,60225,89,6.784000,0
203.076352,716,60300,89,6.784000,0
203.083136,717,60375,89,5.504000,0
203.088640,718,60450,89,5.504000,0
203.094144,719,60525,89,5.504000,0
203.099648,720,60600,90,6.784000,0
203.106432,721,60675,90,6.784000,0
203.113216,722,60750,90,0,1916.928000
205.030144,722,60825,90,5.504000,0
205.035648,723,60900,90,6.784000,0
205.042432,724,60975,90,6.784000,0
205.049216,725,61050,90,5.504000,0
205.054720,726,61125,90,6.784000,0
205.061504,727,61200,90,6.784000,0
205.068288,728,61275,91,6.784000,0
205.075072,729,61350,91,6.784000,0
205.081856,730,61425,91,0,1914.368000
206.996224,730,61500,91,5.504000,0
207.001728,731,61575,91,6.784000,0
207.008512,732,61650,91,6.784000,0
207.015296,733,61725,91,5.504000,0
207.020800,734,61800,91,6.784000,0
207.027584,735,61875,91,6.784000,0
207.034368,736,61950,92,6.784000,0
207.041152,737,62025,92,5.504000,0
207.046656,738,62100,92,0,1915.648000
208.962304,738,62175,92,5.504000,0
208.967808,739,62250,92,6.784000,0
208.974592,740,62325,92,6.784000,0
208.981376,741,62400,92,5.504000,0
208.986880,742,62475,92,5.504000,0
208.992384,743,62550,92,6.784000,0
208.999168,744,62625,93,6.784000,0
209.005952,745,62700,93,5.504000,0
209.011456,746,62775,93,0,1916.928000
210.928384,746,62850,93,5.504000,0
210.933888,747,62925,93,6.784000,0
210.940672,748,63000,93,6.784000,0
210.947456,749,63075,93,5.504000,0
210.952960,750,63150,93,6.784000,0
210.959744,751,63225,93,5.504000,0
210.965248,752,63300,94,5.504000,0
210.970752,753,63375,94,6.784000,0
210.977536,754,63450,94,0,1916.928000
212.894464,754,63525,94,5.504000,0
212.899968,755,63600,94,6.784000,0
212.906752,756,63675,94,6.784000,0
212.913536,757,63750,94,5.504000,0
212.919040,758,63825,94,5.504000,0
212.924544,759,63900,94,6.784000,0
212.931328,760,63975,95,5.504000,0
212.936832,761,64050,95,5.504000,0
212.942336,762,64125,95,5.504000,0
212.947840,763,64200,95,0,1912.704000
214.860544,763,64275,95,6.784000,0
214.867328,764,64350,95,6.784000,0
214.874112,765,64425,95,5.504000,0
214.879616,766,64500,95,5.504000,0
214.885120,767,64575,95,6.784000,0
214.891904,768,64650,96,5.504000,0
214.897408,769,64725,96,6.784000,0
214.904192,770,64800,96,5.504000,0
214.909696,771,64875,96,0,1916.928000
216.826624,771,64950,96,6.784000,0
216.833408,772,65025,96,6.784000,0
216.840192,773,65100,96,5.504000,0
216.845696,774,65175,96,6.784000,0
216.852480,775,65250,96,6.784000,0
216.859264,776,65325,97,6.784000,0
216.866048,777,65400,97,5.504000,0
216.871552,778,65475,97,5.504000,0
216.877056,779,65550,97,0,1915.648000
218.792704,779,65625,97,6.784000,0
218.799488,780,65700,97,6.784000,0
218.806272,781,65775,97,5.504000,0
218.811776,782,65850,97,5.504000,0
218.817280,783,65925,97,5.504000,0
218.822784,784,66000,98,6.784000,0
218.829568,785,66075,98,6.784000,0
218.836352,786,66150,98,5.504000,0
218.841856,787,66225,98,0,1916.928000
220.758784,787,66300,98,6.784000,0
220.765568,788,66375,98,6.784000,0
220.772352,789,66450,98,5.504000,0
220.777856,790,66525,98,6.784000,0
220.784640,791,66600,98,5.504000,0
220.790144,792,66675,99,5.504000,0
220.795648,793,66750,99,6.784000,0
220.802432,794,66825,99,5.504000,0
220.807936,795,66900,99,0,1916.928000
222.724864,795,66975,99,6.784000,0
222.731648,796,67050,99,6.784000,0
222.738432,797,67125,99,5.504000,0
222.743936,798,67200,99,5.504000,0
222.749440,799,67275,99,5.504000,0
222.754944,800,67350,100,5.504000,0
222.760448,801,67425,100,6.784000,0
222.767232,802,67500,100,5.504000,0
222.772736,803,67575,100,0,1918.208000
224.690944,803,67650,100,6.784000,0
224.697728,804,67725,100,6.784000,0
224.704512,805,67800,100,5.504000,0
224.710016,806,67875,100,6.784000,0
224.716800,807,67950,100,6.784000,0
224.723584,808,68025,101,5.504000,0
224.729088,809,68100,101,5.504000,0
224.734592,810,68175,101,5.504000,0
224.740096,811,68250,101,0,1916.928000
226.657024,811,68325,101,5.504000,0
226.662528,812,68400,101,6.784000,0
226.669312,813,68475,101,5.504000,0
226.674816,814,68550,101,5.504000,0
226.680320,815,68625,101,5.504000,0
226.685824,816,68700,102,5.504000,0
226.691328,817,68775,102,5.504000,0
226.696832,818,68850,102,5.504000,0
226.702336,819,68925,102,5.504000,0
226.707840,820,69000,102,0,1915.264000
228.623104,820,69075,102,6.784000,0
228.629888,821,69150,102,5.504000,0
228.635392,822,69225,102,5.504000,0
228.640896,823,69300,102,5.504000,0
228.646400,824,69375,103,5.504000,0
228.651904,825,69450,103,5.504000,0
228.657408,826,69525,103,5.504000,0
228.662912,827,69600,103,5.504000,0
228.668416,828,69675,103,6.784000,0
228.675200,829,69750,103,0,1913.984000
230.589184,829,69825,103,5.504000,0
230.594688,830,69900,103,5.504000,0
230.600192,831,69975,103,5.504000,0
230.605696,832,70050,104,5.504000,0
230.611200,833,70125,104,5.504000,0
230.616704,834,70200,104,5.504000,0
230.622208,835,70275,104,6.784000,0
230.628992,836,70350,104,6.784000,0
230.635776,837,70425,104,5.504000,0
230.641280,838,70500,104,0,1913.984000
232.555264,838,70575,104,6.784000,0
232.562048,839,70650,104,5.504000,0
232.567552,840,70725,105,5.504000,0
232.573056,841,70800,105,6.784000,0
232.579840,842,70875,105,5.504000,0
232.585344,843,70950,105,6.784000,0
232.592128,844,71025,105,6.784000,0
232.598912,845,71100,105,5.504000,0
232.604416,846,71175,105,0,1916.928000
