Time,CovertPackets,AllPackets,BitsSent,PacketInterval,GTSInterval
575.087808,1,60,0,4.064000,0
575.091872,2,90,0,5.344000,0
575.097216,3,120,0,5.344000,0
575.102560,4,150,0,4.064000,0
575.106624,5,180,0,5.344000,0
575.111968,6,210,0,0,31427.136000
606.539104,6,240,0,4.064000,0
606.543168,7,270,0,4.064000,0
606.547232,8,300,1,5.344000,0
606.552576,9,330,1,4.064000,0
606.556640,10,360,1,5.344000,0
606.561984,11,390,1,5.344000,0
606.567328,12,420,1,4.064000,0
606.571392,13,450,1,5.344000,0
606.576736,14,480,1,5.344000,0
606.582080,15,510,1,5.344000,0
606.587424,16,540,2,4.064000,0
606.591488,17,570,2,4.064000,0
606.595552,18,600,2,5.344000,0
606.600896,19,630,2,5.344000,0
606.606240,20,660,2,4.064000,0
606.610304,21,690,2,4.064000,0
606.614368,22,720,2,5.344000,0
606.619712,23,750,2,5.344000,0
606.625056,24,780,3,4.064000,0
606.629120,25,810,3,4.064000,0
606.633184,26,840,3,5.344000,0
606.638528,27,870,3,0,31357.856000
637.996384,27,900,3,5.344000,0
638.001728,28,930,3,4.064000,0
638.005792,29,960,3,5.344000,0
638.011136,30,990,3,5.344000,0
638.016480,31,1020,3,5.344000,0
638.021824,32,1050,4,5.344000,0
638.027168,33,1080,4,4.064000,0
638.031232,34,1110,4,5.344000,0
638.036576,35,1140,4,5.344000,0
638.041920,36,1170,4,5.344000,0
638.047264,37,1200,4,4.064000,0
638.051328,38,1230,4,4.064000,0
638.055392,39,1260,4,5.344000,0
638.060736,40,1290,5,4.064000,0
638.064800,41,1320,5,4.064000,0
638.068864,42,1350,5,5.344000,0
638.074208,43,1380,5,5.344000,0
638.079552,44,1410,5,4.064000,0
638.083616,45,1440,5,5.344000,0
638.088960,46,1470,5,5.344000,0
638.094304,47,1500,5,4.064000,0
638.098368,48,1530,6,0,31355.296000
669.453664,48,1560,6,5.344000,0
669.459008,49,1590,6,4.064000,0
669.463072,50,1620,6,5.344000,0
669.468416,51,1650,6,5.344000,0
669.473760,52,1680,6,4.064000,0
669.477824,53,1710,6,4.064000,0
669.481888,54,1740,6,4.064000,0
669.485952,55,1770,6,4.064000,0
669.490016,56,1800,7,5.344000,0
669.495360,57,1830,7,4.064000,0
669.499424,58,1860,7,5.344000,0
669.504768,59,1890,7,5.344000,0
669.510112,60,1920,7,4.064000,0
669.514176,61,1950,7,4.064000,0
669.518240,62,1980,7,4.064000,0
669.522304,63,2010,7,5.344000,0
669.527648,64,2040,8,5.344000,0
669.532992,65,2070,8,4.064000,0
669.537056,66,2100,8,5.344000,0
669.542400,67,2130,8,5.344000,0
669.547744,68,2160,8,4.064000,0
669.551808,69,2190,8,0,31359.136000
700.910944,69,2220,8,4.064000,0
700.915008,70,2250,8,4.064000,0
700.919072,71,2280,8,4.064000,0
700.923136,72,2310,9,5.344000,0
700.928480,73,2340,9,4.064000,0
700.932544,74,2370,9,5.344000,0
700.937888,75,2400,9,5.344000,0
700.943232,76,2430,9,4.064000,0
700.947296,77,2460,9,5.344000,0
700.952640,78,2490,9,5.344000,0
700.957984,79,2520,9,5.344000,0
700.963328,80,2550,10,5.344000,0
700.968672,81,2580,10,4.064000,0
700.972736,82,2610,10,4.064000,0
700.976800,83,2640,10,5.344000,0
700.982144,84,2670,10,4.064000,0
700.986208,85,2700,10,4.064000,0
700.990272,86,2730,10,4.064000,0
700.994336,87,2760,10,4.064000,0
700.998400,88,2790,11,4.064000,0
701.002464,89,2820,11,4.064000,0
701.006528,90,2850,11,0,31361.696000
732.368224,90,2880,11,5.344000,0
732.373568,91,2910,11,5.344000,0
732.378912,92,2940,11,4.064000,0
732.382976,93,2970,11,4.064000,0
732.387040,94,3000,11,4.064000,0
732.391104,95,3030,11,5.344000,0
732.396448,96,3060,12,5.344000,0
732.401792,97,3090,12,4.064000,0
732.405856,98,3120,12,5.344000,0
732.411200,99,3150,12,5.344000,0
732.416544,100,3180,12,4.064000,0
732.420608,101,3210,12,5.344000,0
732.425952,102,3240,12,5.344000,0
732.431296,103,3270,12,5.344000,0
732.436640,104,3300,13,5.344000,0
732.441984,105,3330,13,4.064000,0
732.446048,106,3360,13,5.344000,0
732.451392,107,3390,13,5.344000,0
732.456736,108,3420,13,4.064000,0
732.460800,109,3450,13,5.344000,0
732.466144,110,3480,13,5.344000,0
732.471488,111,3510,13,0,31354.016000
763.825504,111,3540,13,5.344000,0
763.830848,112,3570,14,4.064000,0
763.834912,113,3600,14,4.064000,0
763.838976,114,3630,14,5.344000,0
763.844320,115,3660,14,5.344000,0
763.849664,116,3690,14,4.064000,0
763.853728,117,3720,14,4.064000,0
763.857792,118,3750,14,5.344000,0
763.863136,119,3780,14,5.344000,0
763.868480,120,3810,15,4.064000,0
763.872544,121,3840,15,4.064000,0
763.876608,122,3870,15,5.344000,0
763.881952,123,3900,15,5.344000,0
763.887296,124,3930,15,4.064000,0
763.891360,125,3960,15,5.344000,0
763.896704,126,3990,15,4.064000,0
763.900768,127,4020,15,4.064000,0
763.904832,128,4050,16,5.344000,0
763.910176,129,4080,16,4.064000,0
763.914240,130,4110,16,5.344000,0
763.919584,131,4140,16,5.344000,0
763.924928,132,4170,16,0,31357.856000
