Time,CovertPackets,AllPackets,BitsSent,PacketInterval,GTSInterval
65.137728,1,120,0,5.024000,0
65.142752,2,180,0,6.304000,0
65.149056,3,240,0,6.304000,0
65.155360,4,300,0,5.024000,0
65.160384,5,360,0,6.304000,0
65.166688,6,420,0,5.024000,0
65.171712,7,480,0,5.024000,0
65.176736,8,540,1,6.304000,0
65.183040,9,600,1,0,7812.064000
72.995104,9,660,1,5.024000,0
73.000128,10,720,1,6.304000,0
73.006432,11,780,1,6.304000,0
73.012736,12,840,1,5.024000,0
73.017760,13,900,1,6.304000,0
73.024064,14,960,1,6.304000,0
73.030368,15,1020,1,6.304000,0
73.036672,16,1080,2,5.024000,0
73.041696,17,1140,2,5.024000,0
73.046720,18,1200,2,6.304000,0
73.053024,19,1260,2,6.304000,0
73.059328,20,1320,2,5.024000,0
73.064352,21,1380,2,5.024000,0
73.069376,22,1440,2,6.304000,0
73.075680,23,1500,2,6.304000,0
73.081984,24,1560,3,5.024000,0
73.087008,25,1620,3,5.024000,0
73.092032,26,1680,3,6.304000,0
73.098336,27,1740,3,6.304000,0
73.104640,28,1800,3,5.024000,0
73.109664,29,1860,3,6.304000,0
73.115968,30,1920,3,6.304000,0
73.122272,31,1980,3,0,7737.152000
80.859424,31,2040,3,6.304000,0
80.865728,32,2100,4,6.304000,0
80.872032,33,2160,4,5.024000,0
80.877056,34,2220,4,6.304000,0
80.883360,35,2280,4,6.304000,0
80.889664,36,2340,4,6.304000,0
80.895968,37,2400,4,5.024000,0
80.900992,38,2460,4,5.024000,0
80.906016,39,2520,4,6.304000,0
80.912320,40,2580,5,5.024000,0
80.917344,41,2640,5,5.024000,0
80.922368,42,2700,5,6.304000,0
80.928672,43,2760,5,6.304000,0
80.934976,44,2820,5,5.024000,0
80.940000,45,2880,5,6.304000,0
80.946304,46,2940,5,6.304000,0
80.952608,47,3000,5,5.024000,0
80.957632,48,3060,6,6.304000,0
80.963936,49,3120,6,5.024000,0
80.968960,50,3180,6,6.304000,0
80.975264,51,3240,6,6.304000,0
80.981568,52,3300,6,0,7742.176000
88.723744,52,3360,6,5.024000,0
88.728768,53,3420,6,5.024000,0
88.733792,54,3480,6,5.024000,0
88.738816,55,3540,6,5.024000,0
88.743840,56,3600,7,6.304000,0
88.750144,57,3660,7,5.024000,0
88.755168,58,3720,7,6.304000,0
88.761472,59,3780,7,6.304000,0
88.767776,60,3840,7,5.024000,0
88.772800,61,3900,7,5.024000,0
88.777824,62,3960,7,5.024000,0
88.782848,63,4020,7,6.304000,0
88.789152,64,4080,8,6.304000,0
88.795456,65,4140,8,5.024000,0
88.800480,66,4200,8,6.304000,0
88.806784,67,4260,8,6.304000,0
88.813088,68,4320,8,5.024000,0
88.818112,69,4380,8,5.024000,0
88.823136,70,4440,8,5.024000,0
88.828160,71,4500,8,5.024000,0
88.833184,72,4560,9,6.304000,0
88.839488,73,4620,9,5.024000,0
88.844512,74,4680,9,0,7743.552000
96.588064,74,4740,9,6.304000,0
96.594368,75,4800,9,6.304000,0
96.600672,76,4860,9,5.024000,0
96.605696,77,4920,9,6.304000,0
96.612000,78,4980,9,6.304000,0
96.618304,79,5040,9,6.304000,0
96.624608,80,5100,10,6.304000,0
96.630912,81,5160,10,5.024000,0
96.635936,82,5220,10,5.024000,0
96.640960,83,5280,10,6.304000,0
96.647264,84,5340,10,5.024000,0
96.652288,85,5400,10,5.024000,0
96.657312,86,5460,10,5.024000,0
96.662336,87,5520,10,5.024000,0
96.667360,88,5580,11,5.024000,0
96.672384,89,5640,11,5.024000,0
96.677408,90,5700,11,6.304000,0
96.683712,91,5760,11,6.304000,0
96.690016,92,5820,11,5.024000,0
96.695040,93,5880,11,5.024000,0
96.700064,94,5940,11,5.024000,0
96.705088,95,6000,11,6.304000,0
96.711392,96,6060,12,0,7740.992000
104.452384,96,6120,12,6.304000,0
104.458688,97,6180,12,5.024000,0
104.463712,98,6240,12,6.304000,0
104.470016,99,6300,12,6.304000,0
104.476320,100,6360,12,5.024000,0
104.481344,101,6420,12,6.304000,0
104.487648,102,6480,12,6.304000,0
104.493952,103,6540,12,6.304000,0
104.500256,104,6600,13,6.304000,0
104.506560,105,6660,13,5.024000,0
104.511584,106,6720,13,6.304000,0
104.517888,107,6780,13,6.304000,0
104.524192,108,6840,13,5.024000,0
104.529216,109,6900,13,6.304000,0
104.535520,110,6960,13,6.304000,0
104.541824,111,7020,13,6.304000,0
104.548128,112,7080,14,5.024000,0
104.553152,113,7140,14,5.024000,0
104.558176,114,7200,14,6.304000,0
104.564480,115,7260,14,6.304000,0
104.570784,116,7320,14,5.024000,0
104.575808,117,7380,14,5.024000,0
104.580832,118,7440,14,0,7735.872000
112.316704,118,7500,14,6.304000,0
112.323008,119,7560,14,6.304000,0
112.329312,120,7620,15,5.024000,0
112.334336,121,7680,15,5.024000,0
112.339360,122,7740,15,6.304000,0
112.345664,123,7800,15,6.304000,0
112.351968,124,7860,15,5.024000,0
112.356992,125,7920,15,6.304000,0
112.363296,126,7980,15,5.024000,0
112.368320,127,8040,15,5.024000,0
112.373344,128,8100,16,6.304000,0
112.379648,129,8160,16,5.024000,0
112.384672,130,8220,16,6.304000,0
112.390976,131,8280,16,6.304000,0
112.397280,132,8340,16,5.024000,0
112.402304,133,8400,16,5.024000,0
112.407328,134,8460,16,6.304000,0
112.413632,135,8520,16,5.024000,0
112.418656,136,8580,17,5.024000,0
112.423680,137,8640,17,5.024000,0
112.428704,138,8700,17,6.304000,0
112.435008,139,8760,17,0,7746.016000
120.181024,139,8820,17,6.304000,0
120.187328,140,8880,17,5.024000,0
120.192352,141,8940,17,5.024000,0
120.197376,142,9000,17,6.304000,0
120.203680,143,9060,17,5.024000,0
120.208704,144,9120,18,6.304000,0
120.215008,145,9180,18,5.024000,0
120.220032,146,9240,18,6.304000,0
120.226336,147,9300,18,6.304000,0
120.232640,148,9360,18,5.024000,0
120.237664,149,9420,18,6.304000,0
120.243968,150,9480,18,6.304000,0
120.250272,151,9540,18,6.304000,0
120.256576,152,9600,19,5.024000,0
120.261600,153,9660,19,5.024000,0
120.266624,154,9720,19,6.304000,0
120.272928,155,9780,19,6.304000,0
120.279232,156,9840,19,5.024000,0
120.284256,157,9900,19,5.024000,0
120.289280,158,9960,19,5.024000,0
120.294304,159,10020,19,6.304000,0
120.300608,160,10080,20,6.304000,0
120.306912,161,10140,20,0,7738.432000
128.045344,161,10200,20,5.024000,0
128.050368,162,10260,20,6.304000,0
128.056672,163,10320,20,6.304000,0
128.062976,164,10380,20,5.024000,0
128.068000,165,10440,20,6.304000,0
128.074304,166,10500,20,5.024000,0
128.079328,167,10560,20,5.024000,0
128.084352,168,10620,21,6.304000,0
128.090656,169,10680,21,5.024000,0
128.095680,170,10740,21,6.304000,0
128.101984,171,10800,21,6.304000,0
128.108288,172,10860,21,5.024000,0
128.113312,173,10920,21,5.024000,0
128.118336,174,10980,21,5.024000,0
128.123360,175,11040,21,5.024000,0
128.128384,176,11100,22,6.304000,0
128.134688,177,11160,22,5.024000,0
128.139712,178,11220,22,6.304000,0
128.146016,179,11280,22,6.304000,0
128.152320,180,11340,22,5.024000,0
128.157344,181,11400,22,6.304000,0
128.163648,182,11460,22,6.304000,0
128.169952,183,11520,22,0,7739.712000
135.909664,183,11580,22,5.024000,0
135.914688,184,11640,23,5.024000,0
135.919712,185,11700,23,5.024000,0
135.924736,186,11760,23,5.024000,0
135.929760,187,11820,23,6.304000,0
135.936064,188,11880,23,5.024000,0
135.941088,189,11940,23,5.024000,0
135.946112,190,12000,23,5.024000,0
135.951136,191,12060,23,5.024000,0
135.956160,192,12120,24,5.024000,0
135.961184,193,12180,24,5.024000,0
135.966208,194,12240,24,5.024000,0
135.971232,195,12300,24,6.304000,0
135.977536,196,12360,24,5.024000,0
135.982560,197,12420,24,5.024000,0
135.987584,198,12480,24,5.024000,0
135.992608,199,12540,24,5.024000,0
135.997632,200,12600,25,5.024000,0
136.002656,201,12660,25,5.024000,0
136.007680,202,12720,25,5.024000,0
136.012704,203,12780,25,6.304000,0
136.019008,204,12840,25,5.024000,0
136.024032,205,12900,25,0,7749.952000
143.773984,205,12960,25,5.024000,0
143.779008,206,13020,25,5.024000,0
143.784032,207,13080,25,5.024000,0
143.789056,208,13140,26,5.024000,0
143.794080,209,13200,26,5.024000,0
143.799104,210,13260,26,6.304000,0
143.805408,211,13320,26,6.304000,0
143.811712,212,13380,26,5.024000,0
143.816736,213,13440,26,6.304000,0
143.823040,214,13500,26,5.024000,0
143.828064,215,13560,26,5.024000,0
143.833088,216,13620,27,6.304000,0
143.839392,217,13680,27,5.024000,0
143.844416,218,13740,27,6.304000,0
143.850720,219,13800,27,6.304000,0
143.857024,220,13860,27,5.024000,0
143.862048,221,13920,27,6.304000,0
143.868352,222,13980,27,6.304000,0
143.874656,223,14040,27,6.304000,0
143.880960,224,14100,28,5.024000,0
143.885984,225,14160,28,5.024000,0
143.891008,226,14220,28,6.304000,0
143.897312,227,14280,28,0,7740.992000
151.638304,227,14340,28,6.304000,0
151.644608,228,14400,28,5.024000,0
151.649632,229,14460,28,5.024000,0
151.654656,230,14520,28,6.304000,0
151.660960,231,14580,28,6.304000,0
151.667264,232,14640,29,5.024000,0
151.672288,233,14700,29,5.024000,0
151.677312,234,14760,29,6.304000,0
151.683616,235,14820,29,6.304000,0
151.689920,236,14880,29,5.024000,0
151.694944,237,14940,29,6.304000,0
151.701248,238,15000,29,6.304000,0
151.707552,239,15060,29,6.304000,0
151.713856,240,15120,30,6.304000,0
151.720160,241,15180,30,5.024000,0
151.725184,242,15240,30,6.304000,0
151.731488,243,15300,30,6.304000,0
151.737792,244,15360,30,6.304000,0
151.744096,245,15420,30,5.024000,0
151.749120,246,15480,30,5.024000,0
151.754144,247,15540,30,6.304000,0
151.760448,248,15600,31,5.024000,0
151.765472,249,15660,31,0,7737.152000
159.502624,249,15720,31,5.024000,0
159.507648,250,15780,31,6.304000,0
159.513952,251,15840,31,6.304000,0
159.520256,252,15900,31,5.024000,0
159.525280,253,15960,31,6.304000,0
159.531584,254,16020,31,6.304000,0
159.537888,255,16080,31,5.024000,0
159.542912,256,16140,32,6.304000,0
159.549216,257,16200,32,5.024000,0
159.554240,258,16260,32,6.304000,0
159.560544,259,16320,32,6.304000,0
159.566848,260,16380,32,5.024000,0
159.571872,261,16440,32,5.024000,0
159.576896,262,16500,32,5.024000,0
159.581920,263,16560,32,5.024000,0
159.586944,264,16620,33,6.304000,0
159.593248,265,16680,33,5.024000,0
159.598272,266,16740,33,6.304000,0
159.604576,267,16800,33,6.304000,0
159.610880,268,16860,33,5.024000,0
159.615904,269,16920,33,5.024000,0
159.620928,270,16980,33,0,7746.016000
167.366944,270,17040,33,5.024000,0
167.371968,271,17100,33,6.304000,0
167.378272,272,17160,34,6.304000,0
167.384576,273,17220,34,5.024000,0
167.389600,274,17280,34,6.304000,0
167.395904,275,17340,34,6.304000,0
167.402208,276,17400,34,5.024000,0
167.407232,277,17460,34,5.024000,0
167.412256,278,17520,34,5.024000,0
167.417280,279,17580,34,5.024000,0
167.422304,280,17640,35,6.304000,0
167.428608,281,17700,35,5.024000,0
167.433632,282,17760,35,6.304000,0
167.439936,283,17820,35,6.304000,0
167.446240,284,17880,35,5.024000,0
167.451264,285,17940,35,6.304000,0
167.457568,286,18000,35,6.304000,0
167.463872,287,18060,35,6.304000,0
167.470176,288,18120,36,6.304000,0
167.476480,289,18180,36,5.024000,0
167.481504,290,18240,36,5.024000,0
167.486528,291,18300,36,0,7744.736000
175.231264,291,18360,36,6.304000,0
175.237568,292,18420,36,5.024000,0
175.242592,293,18480,36,5.024000,0
175.247616,294,18540,36,5.024000,0
175.252640,295,18600,36,5.024000,0
175.257664,296,18660,37,5.024000,0
175.262688,297,18720,37,5.024000,0
175.267712,298,18780,37,6.304000,0
175.274016,299,18840,37,6.304000,0
175.280320,300,18900,37,5.024000,0
175.285344,301,18960,37,5.024000,0
175.290368,302,19020,37,5.024000,0
175.295392,303,19080,37,6.304000,0
175.301696,304,19140,38,6.304000,0
175.308000,305,19200,38,5.024000,0
175.313024,306,19260,38,6.304000,0
175.319328,307,19320,38,6.304000,0
175.325632,308,19380,38,5.024000,0
175.330656,309,19440,38,6.304000,0
175.336960,310,19500,38,6.304000,0
175.343264,311,19560,38,6.304000,0
175.349568,312,19620,39,6.304000,0
175.355872,313,19680,39,0,7739.712000
183.095584,313,19740,39,5.024000,0
183.100608,314,19800,39,6.304000,0
183.106912,315,19860,39,6.304000,0
183.113216,316,19920,39,5.024000,0
183.118240,317,19980,39,6.304000,0
183.124544,318,20040,39,6.304000,0
183.130848,319,20100,39,6.304000,0
183.137152,320,20160,40,5.024000,0
183.142176,321,20220,40,5.024000,0
183.147200,322,20280,40,6.304000,0
183.153504,323,20340,40,6.304000,0
183.159808,324,20400,40,5.024000,0
183.164832,325,20460,40,5.024000,0
183.169856,326,20520,40,6.304000,0
183.176160,327,20580,40,6.304000,0
183.182464,328,20640,41,5.024000,0
183.187488,329,20700,41,5.024000,0
183.192512,330,20760,41,6.304000,0
183.198816,331,20820,41,6.304000,0
183.205120,332,20880,41,5.024000,0
183.210144,333,20940,41,6.304000,0
183.216448,334,21000,41,5.024000,0
183.221472,335,21060,41,0,7738.432000
190.959904,335,21120,41,5.024000,0
190.964928,336,21180,42,6.304000,0
190.971232,337,21240,42,5.024000,0
190.976256,338,21300,42,6.304000,0
190.982560,339,21360,42,6.304000,0
190.988864,340,21420,42,5.024000,0
190.993888,341,21480,42,5.024000,0
190.998912,342,21540,42,6.304000,0
191.005216,343,21600,42,5.024000,0
191.010240,344,21660,43,5.024000,0
191.015264,345,21720,43,5.024000,0
191.020288,346,21780,43,6.304000,0
191.026592,347,21840,43,6.304000,0
191.032896,348,21900,43,5.024000,0
191.037920,349,21960,43,5.024000,0
191.042944,350,22020,43,6.304000,0
191.049248,351,22080,43,5.024000,0
191.054272,352,22140,44,6.304000,0
191.060576,353,22200,44,5.024000,0
191.065600,354,22260,44,6.304000,0
191.071904,355,22320,44,6.304000,0
191.078208,356,22380,44,0,7746.016000
198.824224,356,22440,44,5.024000,0
198.829248,357,22500,44,6.304000,0
198.835552,358,22560,44,6.304000,0
198.841856,359,22620,44,6.304000,0
198.848160,360,22680,45,5.024000,0
198.853184,361,22740,45,5.024000,0
198.858208,362,22800,45,6.304000,0
198.864512,363,22860,45,6.304000,0
198.870816,364,22920,45,5.024000,0
198.875840,365,22980,45,5.024000,0
198.880864,366,23040,45,5.024000,0
198.885888,367,23100,45,6.304000,0
198.892192,368,23160,46,6.304000,0
198.898496,369,23220,46,5.024000,0
198.903520,370,23280,46,6.304000,0
198.909824,371,23340,46,6.304000,0
198.916128,372,23400,46,5.024000,0
198.921152,373,23460,46,6.304000,0
198.927456,374,23520,46,5.024000,0
198.932480,375,23580,46,5.024000,0
198.937504,376,23640,47,6.304000,0
198.943808,377,23700,47,0,7744.736000
206.688544,377,23760,47,5.024000,0
206.693568,378,23820,47,6.304000,0
206.699872,379,23880,47,6.304000,0
206.706176,380,23940,47,5.024000,0
206.711200,381,24000,47,5.024000,0
206.716224,382,24060,47,5.024000,0
206.721248,383,24120,47,5.024000,0
206.726272,384,24180,48,6.304000,0
206.732576,385,24240,48,5.024000,0
206.737600,386,24300,48,6.304000,0
206.743904,387,24360,48,6.304000,0
206.750208,388,24420,48,5.024000,0
206.755232,389,24480,48,6.304000,0
206.761536,390,24540,48,6.304000,0
206.767840,391,24600,48,5.024000,0
206.772864,392,24660,49,5.024000,0
206.777888,393,24720,49,5.024000,0
206.782912,394,24780,49,5.024000,0
206.787936,395,24840,49,6.304000,0
206.794240,396,24900,49,5.024000,0
206.799264,397,24960,49,5.024000,0
206.804288,398,25020,49,0,7748.576000
214.552864,398,25080,49,5.024000,0
214.557888,399,25140,49,5.024000,0
214.562912,400,25200,50,5.024000,0
214.567936,401,25260,50,5.024000,0
214.572960,402,25320,50,5.024000,0
214.577984,403,25380,50,6.304000,0
214.584288,404,25440,50,5.024000,0
214.589312,405,25500,50,5.024000,0
214.594336,406,25560,50,5.024000,0
214.599360,407,25620,50,5.024000,0
214.604384,408,25680,51,5.024000,0
214.609408,409,25740,51,5.024000,0
214.614432,410,25800,51,5.024000,0
214.619456,411,25860,51,6.304000,0
214.625760,412,25920,51,5.024000,0
214.630784,413,25980,51,5.024000,0
214.635808,414,26040,51,5.024000,0
214.640832,415,26100,51,5.024000,0
214.645856,416,26160,52,5.024000,0
214.650880,417,26220,52,5.024000,0
214.655904,418,26280,52,6.304000,0
214.662208,419,26340,52,0,7754.976000
222.417184,419,26400,52,6.304000,0
222.423488,420,26460,52,5.024000,0
222.428512,421,26520,52,6.304000,0
222.434816,422,26580,52,5.024000,0
222.439840,423,26640,52,5.024000,0
222.444864,424,26700,53,6.304000,0
222.451168,425,26760,53,5.024000,0
222.456192,426,26820,53,6.304000,0
222.462496,427,26880,53,6.304000,0
222.468800,428,26940,53,5.024000,0
222.473824,429,27000,53,6.304000,0
222.480128,430,27060,53,6.304000,0
222.486432,431,27120,53,6.304000,0
222.492736,432,27180,54,5.024000,0
222.497760,433,27240,54,5.024000,0
222.502784,434,27300,54,6.304000,0
222.509088,435,27360,54,6.304000,0
222.515392,436,27420,54,5.024000,0
222.520416,437,27480,54,5.024000,0
222.525440,438,27540,54,6.304000,0
222.531744,439,27600,54,6.304000,0
222.538048,440,27660,55,0,7743.456000
230.281504,440,27720,55,5.024000,0
230.286528,441,27780,55,5.024000,0
230.291552,442,27840,55,6.304000,0
230.297856,443,27900,55,6.304000,0
230.304160,444,27960,55,5.024000,0
230.309184,445,28020,55,6.304000,0
230.315488,446,28080,55,6.304000,0
230.321792,447,28140,55,6.304000,0
230.328096,448,28200,56,6.304000,0
230.334400,449,28260,56,5.024000,0
230.339424,450,28320,56,6.304000,0
230.345728,451,28380,56,6.304000,0
230.352032,452,28440,56,6.304000,0
230.358336,453,28500,56,5.024000,0
230.363360,454,28560,56,5.024000,0
230.368384,455,28620,56,6.304000,0
230.374688,456,28680,57,5.024000,0
230.379712,457,28740,57,5.024000,0
230.384736,458,28800,57,6.304000,0
230.391040,459,28860,57,6.304000,0
230.397344,460,28920,57,5.024000,0
230.402368,461,28980,57,6.304000,0
230.408672,462,29040,57,0,7737.152000
238.145824,462,29100,57,6.304000,0
238.152128,463,29160,57,5.024000,0
238.157152,464,29220,58,6.304000,0
238.163456,465,29280,58,5.024000,0
238.168480,466,29340,58,6.304000,0
238.174784,467,29400,58,6.304000,0
238.181088,468,29460,58,5.024000,0
238.186112,469,29520,58,5.024000,0
238.191136,470,29580,58,5.024000,0
238.196160,471,29640,58,5.024000,0
238.201184,472,29700,59,6.304000,0
238.207488,473,29760,59,5.024000,0
238.212512,474,29820,59,6.304000,0
238.218816,475,29880,59,6.304000,0
238.225120,476,29940,59,5.024000,0
238.230144,477,30000,59,5.024000,0
238.235168,478,30060,59,5.024000,0
238.240192,479,30120,59,6.304000,0
238.246496,480,30180,60,6.304000,0
238.252800,481,30240,60,5.024000,0
238.257824,482,30300,60,6.304000,0
238.264128,483,30360,60,6.304000,0
238.270432,484,30420,60,0,7739.712000
246.010144,484,30480,60,5.024000,0
246.015168,485,30540,60,5.024000,0
246.020192,486,30600,60,5.024000,0
246.025216,487,30660,60,5.024000,0
246.030240,488,30720,61,6.304000,0
246.036544,489,30780,61,5.024000,0
246.041568,490,30840,61,6.304000,0
246.047872,491,30900,61,6.304000,0
246.054176,492,30960,61,5.024000,0
246.059200,493,31020,61,6.304000,0
246.065504,494,31080,61,6.304000,0
246.071808,495,31140,61,6.304000,0
246.078112,496,31200,62,6.304000,0
246.084416,497,31260,62,5.024000,0
246.089440,498,31320,62,5.024000,0
246.094464,499,31380,62,6.304000,0
246.100768,500,31440,62,5.024000,0
246.105792,501,31500,62,5.024000,0
246.110816,502,31560,62,5.024000,0
246.115840,503,31620,62,5.024000,0
246.120864,504,31680,63,5.024000,0
246.125888,505,31740,63,5.024000,0
246.130912,506,31800,63,0,7743.552000
253.874464,506,31860,63,6.304000,0
253.880768,507,31920,63,6.304000,0
253.887072,508,31980,63,5.024000,0
253.892096,509,32040,63,5.024000,0
253.897120,510,32100,63,5.024000,0
253.902144,511,32160,63,6.304000,0
253.908448,512,32220,64,6.304000,0
253.914752,513,32280,64,5.024000,0
253.919776,514,32340,64,6.304000,0
253.926080,515,32400,64,6.304000,0
253.932384,516,32460,64,5.024000,0
253.937408,517,32520,64,6.304000,0
253.943712,518,32580,64,6.304000,0
253.950016,519,32640,64,6.304000,0
253.956320,520,32700,65,6.304000,0
253.962624,521,32760,65,5.024000,0
253.967648,522,32820,65,6.304000,0
253.973952,523,32880,65,6.304000,0
253.980256,524,32940,65,5.024000,0
253.985280,525,33000,65,6.304000,0
253.991584,526,33060,65,6.304000,0
253.997888,527,33120,65,6.304000,0
254.004192,528,33180,66,0,7734.592000
261.738784,528,33240,66,5.024000,0
261.743808,529,33300,66,5.024000,0
261.748832,530,33360,66,6.304000,0
261.755136,531,33420,66,6.304000,0
261.761440,532,33480,66,5.024000,0
261.766464,533,33540,66,5.024000,0
261.771488,534,33600,66,6.304000,0
261.777792,535,33660,66,6.304000,0
261.784096,536,33720,67,5.024000,0
261.789120,537,33780,67,5.024000,0
261.794144,538,33840,67,6.304000,0
261.800448,539,33900,67,6.304000,0
261.806752,540,33960,67,5.024000,0
261.811776,541,34020,67,6.304000,0
261.818080,542,34080,67,5.024000,0
261.823104,543,34140,67,5.024000,0
261.828128,544,34200,68,6.304000,0
261.834432,545,34260,68,5.024000,0
261.839456,546,34320,68,6.304000,0
261.845760,547,34380,68,6.304000,0
261.852064,548,34440,68,5.024000,0
261.857088,549,34500,68,5.024000,0
261.862112,550,34560,68,0,7740.992000
