Time,CovertPackets,AllPackets,BitsSent,PacketInterval,GTSInterval
65.134848,1,30,0,3.584000,0
65.138432,2,45,0,4.864000,0
65.143296,3,60,0,0,7850.368000
72.993664,3,75,0,4.864000,0
72.998528,4,90,0,3.584000,0
73.002112,5,105,0,4.864000,0
73.006976,6,120,0,3.584000,0
73.010560,7,135,0,3.584000,0
73.014144,8,150,1,4.864000,0
73.019008,9,165,1,3.584000,0
73.022592,10,180,1,4.864000,0
73.027456,11,195,1,4.864000,0
73.032320,12,210,1,3.584000,0
73.035904,13,225,1,4.864000,0
73.040768,14,240,1,4.864000,0
73.045632,15,255,1,4.864000,0
73.050496,16,270,2,3.584000,0
73.054080,17,285,2,0,7803.904000
80.857984,17,300,2,3.584000,0
80.861568,18,315,2,4.864000,0
80.866432,19,330,2,4.864000,0
80.871296,20,345,2,3.584000,0
80.874880,21,360,2,3.584000,0
80.878464,22,375,2,4.864000,0
80.883328,23,390,2,4.864000,0
80.888192,24,405,3,3.584000,0
80.891776,25,420,3,3.584000,0
80.895360,26,435,3,4.864000,0
80.900224,27,450,3,4.864000,0
80.905088,28,465,3,3.584000,0
80.908672,29,480,3,4.864000,0
80.913536,30,495,3,4.864000,0
80.918400,31,510,3,4.864000,0
80.923264,32,525,4,0,7799.040000
88.722304,32,540,4,4.864000,0
88.727168,33,555,4,3.584000,0
88.730752,34,570,4,4.864000,0
88.735616,35,585,4,4.864000,0
88.740480,36,600,4,4.864000,0
88.745344,37,615,4,3.584000,0
88.748928,38,630,4,3.584000,0
88.752512,39,645,4,4.864000,0
88.757376,40,660,5,3.584000,0
88.760960,41,675,5,3.584000,0
88.764544,42,690,5,4.864000,0
88.769408,43,705,5,4.864000,0
88.774272,44,720,5,3.584000,0
88.777856,45,735,5,4.864000,0
88.782720,46,750,5,0,7803.904000
96.586624,46,765,5,4.864000,0
96.591488,47,780,5,3.584000,0
96.595072,48,795,6,4.864000,0
96.599936,49,810,6,3.584000,0
96.603520,50,825,6,4.864000,0
96.608384,51,840,6,4.864000,0
96.613248,52,855,6,3.584000,0
96.616832,53,870,6,3.584000,0
96.620416,54,885,6,3.584000,0
96.624000,55,900,6,3.584000,0
96.627584,56,915,7,4.864000,0
96.632448,57,930,7,3.584000,0
96.636032,58,945,7,4.864000,0
96.640896,59,960,7,4.864000,0
96.645760,60,975,7,3.584000,0
96.649344,61,990,7,0,7801.600000
104.450944,61,1005,7,3.584000,0
104.454528,62,1020,7,3.584000,0
104.458112,63,1035,7,4.864000,0
104.462976,64,1050,8,4.864000,0
104.467840,65,1065,8,3.584000,0
104.471424,66,1080,8,4.864000,0
104.476288,67,1095,8,4.864000,0
104.481152,68,1110,8,3.584000,0
104.484736,69,1125,8,3.584000,0
104.488320,70,1140,8,3.584000,0
104.491904,71,1155,8,3.584000,0
104.495488,72,1170,9,4.864000,0
104.500352,73,1185,9,3.584000,0
104.503936,74,1200,9,4.864000,0
104.508800,75,1215,9,4.864000,0
104.513664,76,1230,9,0,7801.600000
112.315264,76,1245,9,3.584000,0
112.318848,77,1260,9,4.864000,0
112.323712,78,1275,9,4.864000,0
112.328576,79,1290,9,4.864000,0
112.333440,80,1305,10,4.864000,0
112.338304,81,1320,10,3.584000,0
112.341888,82,1335,10,3.584000,0
112.345472,83,1350,10,4.864000,0
112.350336,84,1365,10,3.584000,0
112.353920,85,1380,10,3.584000,0
112.357504,86,1395,10,3.584000,0
112.361088,87,1410,10,3.584000,0
112.364672,88,1425,11,3.584000,0
112.368256,89,1440,11,3.584000,0
112.371840,90,1455,11,4.864000,0
112.376704,91,1470,11,0,7802.880000
120.179584,91,1485,11,4.864000,0
120.184448,92,1500,11,3.584000,0
120.188032,93,1515,11,3.584000,0
120.191616,94,1530,11,3.584000,0
120.195200,95,1545,11,4.864000,0
120.200064,96,1560,12,4.864000,0
120.204928,97,1575,12,3.584000,0
120.208512,98,1590,12,4.864000,0
120.213376,99,1605,12,4.864000,0
120.218240,100,1620,12,3.584000,0
120.221824,101,1635,12,4.864000,0
120.226688,102,1650,12,4.864000,0
120.231552,103,1665,12,4.864000,0
120.236416,104,1680,13,4.864000,0
120.241280,105,1695,13,3.584000,0
120.244864,106,1710,13,4.864000,0
120.249728,107,1725,13,0,7794.176000
128.043904,107,1740,13,4.864000,0
128.048768,108,1755,13,3.584000,0
128.052352,109,1770,13,4.864000,0
128.057216,110,1785,13,4.864000,0
128.062080,111,1800,13,4.864000,0
128.066944,112,1815,14,3.584000,0
128.070528,113,1830,14,3.584000,0
128.074112,114,1845,14,4.864000,0
128.078976,115,1860,14,4.864000,0
128.083840,116,1875,14,3.584000,0
128.087424,117,1890,14,3.584000,0
128.091008,118,1905,14,4.864000,0
128.095872,119,1920,14,4.864000,0
128.100736,120,1935,15,3.584000,0
128.104320,121,1950,15,0,7803.904000
135.908224,121,1965,15,3.584000,0
135.911808,122,1980,15,4.864000,0
135.916672,123,1995,15,4.864000,0
135.921536,124,2010,15,3.584000,0
135.925120,125,2025,15,4.864000,0
135.929984,126,2040,15,3.584000,0
135.933568,127,2055,15,3.584000,0
135.937152,128,2070,16,4.864000,0
135.942016,129,2085,16,3.584000,0
135.945600,130,2100,16,4.864000,0
135.950464,131,2115,16,4.864000,0
135.955328,132,2130,16,3.584000,0
135.958912,133,2145,16,3.584000,0
135.962496,134,2160,16,4.864000,0
135.967360,135,2175,16,3.584000,0
135.970944,136,2190,17,3.584000,0
135.974528,137,2205,17,0,7798.016000
143.772544,137,2220,17,3.584000,0
143.776128,138,2235,17,4.864000,0
143.780992,139,2250,17,4.864000,0
143.785856,140,2265,17,3.584000,0
143.789440,141,2280,17,3.584000,0
143.793024,142,2295,17,4.864000,0
143.797888,143,2310,17,3.584000,0
143.801472,144,2325,18,4.864000,0
143.806336,145,2340,18,3.584000,0
143.809920,146,2355,18,4.864000,0
143.814784,147,2370,18,4.864000,0
143.819648,148,2385,18,3.584000,0
143.823232,149,2400,18,4.864000,0
143.828096,150,2415,18,4.864000,0
143.832960,151,2430,18,4.864000,0
143.837824,152,2445,19,0,7799.040000
151.636864,152,2460,19,3.584000,0
151.640448,153,2475,19,3.584000,0
151.644032,154,2490,19,4.864000,0
151.648896,155,2505,19,4.864000,0
151.653760,156,2520,19,3.584000,0
151.657344,157,2535,19,3.584000,0
151.660928,158,2550,19,3.584000,0
151.664512,159,2565,19,4.864000,0
151.669376,160,2580,20,4.864000,0
151.674240,161,2595,20,3.584000,0
151.677824,162,2610,20,4.864000,0
151.682688,163,2625,20,4.864000,0
151.687552,164,2640,20,3.584000,0
151.691136,165,2655,20,4.864000,0
151.696000,166,2670,20,3.584000,0
151.699584,167,2685,20,0,7801.600000
159.501184,167,2700,20,3.584000,0
159.504768,168,2715,21,4.864000,0
159.509632,169,2730,21,3.584000,0
159.513216,170,2745,21,4.864000,0
159.518080,171,2760,21,4.864000,0
159.522944,172,2775,21,3.584000,0
159.526528,173,2790,21,3.584000,0
159.530112,174,2805,21,3.584000,0
159.533696,175,2820,21,3.584000,0
159.537280,176,2835,22,4.864000,0
159.542144,177,2850,22,3.584000,0
159.545728,178,2865,22,4.864000,0
159.550592,179,2880,22,4.864000,0
159.555456,180,2895,22,0,7810.048000
167.365504,180,2910,22,3.584000,0
167.369088,181,2925,22,4.864000,0
167.373952,182,2940,22,4.864000,0
167.378816,183,2955,22,3.584000,0
167.382400,184,2970,23,3.584000,0
167.385984,185,2985,23,3.584000,0
167.389568,186,3000,23,3.584000,0
167.393152,187,3015,23,4.864000,0
167.398016,188,3030,23,3.584000,0
167.401600,189,3045,23,3.584000,0
167.405184,190,3060,23,3.584000,0
167.408768,191,3075,23,3.584000,0
167.412352,192,3090,24,3.584000,0
167.415936,193,3105,24,3.584000,0
167.419520,194,3120,24,3.584000,0
167.423104,195,3135,24,0,7806.720000
175.229824,195,3150,24,4.864000,0
175.234688,196,3165,24,3.584000,0
175.238272,197,3180,24,3.584000,0
175.241856,198,3195,24,3.584000,0
175.245440,199,3210,24,3.584000,0
175.249024,200,3225,25,3.584000,0
175.252608,201,3240,25,3.584000,0
175.256192,202,3255,25,3.584000,0
175.259776,203,3270,25,4.864000,0
175.264640,204,3285,25,3.584000,0
175.268224,205,3300,25,3.584000,0
175.271808,206,3315,25,3.584000,0
175.275392,207,3330,25,3.584000,0
175.278976,208,3345,26,3.584000,0
175.282560,209,3360,26,3.584000,0
175.286144,210,3375,26,0,7808.000000
183.094144,210,3390,26,4.864000,0
183.099008,211,3405,26,4.864000,0
183.103872,212,3420,26,3.584000,0
183.107456,213,3435,26,4.864000,0
183.112320,214,3450,26,3.584000,0
183.115904,215,3465,26,3.584000,0
183.119488,216,3480,27,4.864000,0
183.124352,217,3495,27,3.584000,0
183.127936,218,3510,27,4.864000,0
183.132800,219,3525,27,4.864000,0
183.137664,220,3540,27,3.584000,0
183.141248,221,3555,27,4.864000,0
183.146112,222,3570,27,4.864000,0
183.150976,223,3585,27,4.864000,0
183.155840,224,3600,28,0,7802.624000
190.958464,224,3615,28,3.584000,0
190.962048,225,3630,28,3.584000,0
190.965632,226,3645,28,4.864000,0
190.970496,227,3660,28,4.864000,0
190.975360,228,3675,28,3.584000,0
190.978944,229,3690,28,3.584000,0
190.982528,230,3705,28,4.864000,0
190.987392,231,3720,28,4.864000,0
190.992256,232,3735,29,3.584000,0
190.995840,233,3750,29,3.584000,0
190.999424,234,3765,29,4.864000,0
191.004288,235,3780,29,4.864000,0
191.009152,236,3795,29,3.584000,0
191.012736,237,3810,29,4.864000,0
191.017600,238,3825,29,4.864000,0
191.022464,239,3840,29,4.864000,0
191.027328,240,3855,30,0,7795.456000
198.822784,240,3870,30,4.864000,0
198.827648,241,3885,30,3.584000,0
198.831232,242,3900,30,4.864000,0
198.836096,243,3915,30,4.864000,0
198.840960,244,3930,30,4.864000,0
198.845824,245,3945,30,3.584000,0
198.849408,246,3960,30,3.584000,0
198.852992,247,3975,30,4.864000,0
198.857856,248,3990,31,3.584000,0
198.861440,249,4005,31,3.584000,0
198.865024,250,4020,31,4.864000,0
198.869888,251,4035,31,4.864000,0
198.874752,252,4050,31,3.584000,0
198.878336,253,4065,31,4.864000,0
198.883200,254,4080,31,4.864000,0
198.888064,255,4095,31,0,7799.040000
206.687104,255,4110,31,3.584000,0
206.690688,256,4125,32,4.864000,0
206.695552,257,4140,32,3.584000,0
206.699136,258,4155,32,4.864000,0
206.704000,259,4170,32,4.864000,0
206.708864,260,4185,32,3.584000,0
206.712448,261,4200,32,3.584000,0
206.716032,262,4215,32,3.584000,0
206.719616,263,4230,32,3.584000,0
206.723200,264,4245,33,4.864000,0
206.728064,265,4260,33,3.584000,0
206.731648,266,4275,33,4.864000,0
206.736512,267,4290,33,4.864000,0
206.741376,268,4305,33,3.584000,0
206.744960,269,4320,33,0,7806.464000
214.551424,269,4335,33,3.584000,0
214.555008,270,4350,33,3.584000,0
214.558592,271,4365,33,4.864000,0
214.563456,272,4380,34,4.864000,0
214.568320,273,4395,34,3.584000,0
214.571904,274,4410,34,4.864000,0
214.576768,275,4425,34,4.864000,0
214.581632,276,4440,34,3.584000,0
214.585216,277,4455,34,3.584000,0
214.588800,278,4470,34,3.584000,0
214.592384,279,4485,34,3.584000,0
214.595968,280,4500,35,4.864000,0
214.600832,281,4515,35,3.584000,0
214.604416,282,4530,35,4.864000,0
214.609280,283,4545,35,4.864000,0
214.614144,284,4560,35,3.584000,0
214.617728,285,4575,35,0,7798.016000
222.415744,285,4590,35,4.864000,0
222.420608,286,4605,35,4.864000,0
222.425472,287,4620,35,4.864000,0
222.430336,288,4635,36,4.864000,0
222.435200,289,4650,36,3.584000,0
222.438784,290,4665,36,3.584000,0
222.442368,291,4680,36,4.864000,0
222.447232,292,4695,36,3.584000,0
222.450816,293,4710,36,3.584000,0
222.454400,294,4725,36,3.584000,0
222.457984,295,4740,36,3.584000,0
222.461568,296,4755,37,3.584000,0
222.465152,297,4770,37,3.584000,0
222.468736,298,4785,37,4.864000,0
222.473600,299,4800,37,4.864000,0
222.478464,300,4815,37,0,7801.600000
230.280064,300,4830,37,3.584000,0
230.283648,301,4845,37,3.584000,0
230.287232,302,4860,37,3.584000,0
230.290816,303,4875,37,4.864000,0
230.295680,304,4890,38,4.864000,0
230.300544,305,4905,38,3.584000,0
230.304128,306,4920,38,4.864000,0
230.308992,307,4935,38,4.864000,0
230.313856,308,4950,38,3.584000,0
230.317440,309,4965,38,4.864000,0
230.322304,310,4980,38,4.864000,0
230.327168,311,4995,38,4.864000,0
230.332032,312,5010,39,4.864000,0
230.336896,313,5025,39,3.584000,0
230.340480,314,5040,39,0,7803.904000
238.144384,314,5055,39,4.864000,0
238.149248,315,5070,39,4.864000,0
238.154112,316,5085,39,3.584000,0
238.157696,317,5100,39,4.864000,0
238.162560,318,5115,39,4.864000,0
238.167424,319,5130,39,4.864000,0
238.172288,320,5145,40,3.584000,0
238.175872,321,5160,40,3.584000,0
238.179456,322,5175,40,4.864000,0
238.184320,323,5190,40,4.864000,0
238.189184,324,5205,40,3.584000,0
238.192768,325,5220,40,3.584000,0
238.196352,326,5235,40,4.864000,0
238.201216,327,5250,40,4.864000,0
238.206080,328,5265,41,3.584000,0
238.209664,329,5280,41,0,7799.040000
246.008704,329,5295,41,3.584000,0
246.012288,330,5310,41,4.864000,0
246.017152,331,5325,41,4.864000,0
246.022016,332,5340,41,3.584000,0
246.025600,333,5355,41,4.864000,0
246.030464,334,5370,41,3.584000,0
246.034048,335,5385,41,3.584000,0
246.037632,336,5400,42,4.864000,0
246.042496,337,5415,42,3.584000,0
246.046080,338,5430,42,4.864000,0
246.050944,339,5445,42,4.864000,0
246.055808,340,5460,42,3.584000,0
246.059392,341,5475,42,3.584000,0
246.062976,342,5490,42,4.864000,0
246.067840,343,5505,42,3.584000,0
246.071424,344,5520,43,3.584000,0
246.075008,345,5535,43,0,7798.016000
253.873024,345,5550,43,3.584000,0
253.876608,346,5565,43,4.864000,0
253.881472,347,5580,43,4.864000,0
253.886336,348,5595,43,3.584000,0
253.889920,349,5610,43,3.584000,0
253.893504,350,5625,43,4.864000,0
253.898368,351,5640,43,3.584000,0
253.901952,352,5655,44,4.864000,0
253.906816,353,5670,44,3.584000,0
253.910400,354,5685,44,4.864000,0
253.915264,355,5700,44,4.864000,0
253.920128,356,5715,44,3.584000,0
253.923712,357,5730,44,4.864000,0
253.928576,358,5745,44,0,7808.768000
261.737344,358,5760,44,4.864000,0
261.742208,359,5775,44,4.864000,0
261.747072,360,5790,45,3.584000,0
261.750656,361,5805,45,3.584000,0
261.754240,362,5820,45,4.864000,0
261.759104,363,5835,45,4.864000,0
261.763968,364,5850,45,3.584000,0
261.767552,365,5865,45,3.584000,0
261.771136,366,5880,45,3.584000,0
261.774720,367,5895,45,4.864000,0
261.779584,368,5910,46,4.864000,0
261.784448,369,5925,46,3.584000,0
261.788032,370,5940,46,4.864000,0
261.792896,371,5955,46,4.864000,0
261.797760,372,5970,46,3.584000,0
261.801344,373,5985,46,0,7800.320000
