Time,CovertPackets,AllPackets,BitsSent,PacketInterval,GTSInterval
260.513152,1,2,0,3.136000,0
260.516288,2,3,0,4.416000,0
260.520704,3,4,0,4.416000,0
260.525120,4,5,0,3.136000,0
260.528256,5,6,0,4.416000,0
260.532672,6,7,0,3.136000,0
260.535808,7,8,0,3.136000,0
260.538944,8,9,1,4.416000,0
260.543360,9,10,1,3.136000,0
260.546496,10,11,1,0,31418.880000
291.965376,10,12,1,4.416000,0
291.969792,11,13,1,4.416000,0
291.974208,12,14,1,3.136000,0
291.977344,13,15,1,4.416000,0
291.981760,14,16,1,4.416000,0
291.986176,15,17,1,4.416000,0
291.990592,16,18,2,3.136000,0
291.993728,17,19,2,3.136000,0
291.996864,18,20,2,4.416000,0
292.001280,19,21,2,4.416000,0
292.005696,20,22,2,3.136000,0
292.008832,21,23,2,3.136000,0
292.011968,22,24,2,4.416000,0
292.016384,23,25,2,4.416000,0
292.020800,24,26,3,3.136000,0
292.023936,25,27,3,3.136000,0
292.027072,26,28,3,4.416000,0
292.031488,27,29,3,4.416000,0
292.035904,28,30,3,3.136000,0
292.039040,29,31,3,4.416000,0
292.043456,30,32,3,4.416000,0
292.047872,31,33,3,0,31374.784000
323.422656,31,34,3,4.416000,0
323.427072,32,35,4,4.416000,0
323.431488,33,36,4,3.136000,0
323.434624,34,37,4,4.416000,0
323.439040,35,38,4,4.416000,0
323.443456,36,39,4,4.416000,0
323.447872,37,40,4,3.136000,0
323.451008,38,41,4,3.136000,0
323.454144,39,42,4,4.416000,0
323.458560,40,43,5,3.136000,0
323.461696,41,44,5,3.136000,0
323.464832,42,45,5,4.416000,0
323.469248,43,46,5,4.416000,0
323.473664,44,47,5,3.136000,0
323.476800,45,48,5,4.416000,0
323.481216,46,49,5,4.416000,0
323.485632,47,50,5,3.136000,0
323.488768,48,51,6,4.416000,0
323.493184,49,52,6,3.136000,0
323.496320,50,53,6,4.416000,0
323.500736,51,54,6,4.416000,0
323.505152,52,55,6,0,31374.784000
354.879936,52,56,6,3.136000,0
354.883072,53,57,6,3.136000,0
354.886208,54,58,6,3.136000,0
354.889344,55,59,6,3.136000,0
354.892480,56,60,7,4.416000,0
354.896896,57,61,7,3.136000,0
354.900032,58,62,7,4.416000,0
354.904448,59,63,7,4.416000,0
354.908864,60,64,7,3.136000,0
354.912000,61,65,7,3.136000,0
354.915136,62,66,7,3.136000,0
354.918272,63,67,7,4.416000,0
354.922688,64,68,8,4.416000,0
354.927104,65,69,8,3.136000,0
354.930240,66,70,8,4.416000,0
354.934656,67,71,8,4.416000,0
354.939072,68,72,8,3.136000,0
354.942208,69,73,8,3.136000,0
354.945344,70,74,8,3.136000,0
354.948480,71,75,8,3.136000,0
354.951616,72,76,9,4.416000,0
354.956032,73,77,9,0,31381.184000
386.337216,73,78,9,3.136000,0
386.340352,74,79,9,4.416000,0
386.344768,75,80,9,4.416000,0
386.349184,76,81,9,3.136000,0
386.352320,77,82,9,4.416000,0
386.356736,78,83,9,4.416000,0
386.361152,79,84,9,4.416000,0
386.365568,80,85,10,4.416000,0
386.369984,81,86,10,3.136000,0
386.373120,82,87,10,3.136000,0
386.376256,83,88,10,4.416000,0
386.380672,84,89,10,3.136000,0
386.383808,85,90,10,3.136000,0
386.386944,86,91,10,3.136000,0
386.390080,87,92,10,3.136000,0
386.393216,88,93,11,3.136000,0
386.396352,89,94,11,3.136000,0
386.399488,90,95,11,4.416000,0
386.403904,91,96,11,4.416000,0
386.408320,92,97,11,3.136000,0
386.411456,93,98,11,3.136000,0
386.414592,94,99,11,0,31379.904000
417.794496,94,100,11,3.136000,0
417.797632,95,101,11,4.416000,0
417.802048,96,102,12,4.416000,0
417.806464,97,103,12,3.136000,0
417.809600,98,104,12,4.416000,0
417.814016,99,105,12,4.416000,0
417.818432,100,106,12,3.136000,0
417.821568,101,107,12,4.416000,0
417.825984,102,108,12,4.416000,0
417.830400,103,109,12,4.416000,0
417.834816,104,110,13,4.416000,0
417.839232,105,111,13,3.136000,0
417.842368,106,112,13,4.416000,0
417.846784,107,113,13,4.416000,0
417.851200,108,114,13,3.136000,0
417.854336,109,115,13,4.416000,0
417.858752,110,116,13,4.416000,0
417.863168,111,117,13,4.416000,0
417.867584,112,118,14,3.136000,0
417.870720,113,119,14,3.136000,0
417.873856,114,120,14,4.416000,0
417.878272,115,121,14,0,31373.504000
449.251776,115,122,14,4.416000,0
449.256192,116,123,14,3.136000,0
449.259328,117,124,14,3.136000,0
449.262464,118,125,14,4.416000,0
449.266880,119,126,14,4.416000,0
449.271296,120,127,15,3.136000,0
449.274432,121,128,15,3.136000,0
449.277568,122,129,15,4.416000,0
449.281984,123,130,15,4.416000,0
449.286400,124,131,15,3.136000,0
449.289536,125,132,15,4.416000,0
449.293952,126,133,15,3.136000,0
449.297088,127,134,15,3.136000,0
449.300224,128,135,16,4.416000,0
449.304640,129,136,16,3.136000,0
449.307776,130,137,16,4.416000,0
449.312192,131,138,16,4.416000,0
449.316608,132,139,16,3.136000,0
449.319744,133,140,16,3.136000,0
449.322880,134,141,16,4.416000,0
449.327296,135,142,16,3.136000,0
449.330432,136,143,17,0,31378.624000
