Time,CovertPackets,AllPackets,BitsSent,PacketInterval,GTSInterval
575.089728,1,120,0,5.024000,0
575.094752,2,180,0,6.304000,0
575.101056,3,240,0,6.304000,0
575.107360,4,300,0,5.024000,0
575.112384,5,360,0,6.304000,0
575.118688,6,420,0,0,31421.376000
606.540064,6,480,0,5.024000,0
606.545088,7,540,0,5.024000,0
606.550112,8,600,1,6.304000,0
606.556416,9,660,1,5.024000,0
606.561440,10,720,1,6.304000,0
606.567744,11,780,1,6.304000,0
606.574048,12,840,1,5.024000,0
606.579072,13,900,1,6.304000,0
606.585376,14,960,1,6.304000,0
606.591680,15,1020,1,6.304000,0
606.597984,16,1080,2,5.024000,0
606.603008,17,1140,2,5.024000,0
606.608032,18,1200,2,6.304000,0
606.614336,19,1260,2,6.304000,0
606.620640,20,1320,2,5.024000,0
606.625664,21,1380,2,5.024000,0
606.630688,22,1440,2,6.304000,0
606.636992,23,1500,2,6.304000,0
606.643296,24,1560,3,5.024000,0
606.648320,25,1620,3,5.024000,0
606.653344,26,1680,3,6.304000,0
606.659648,27,1740,3,0,31337.696000
637.997344,27,1800,3,6.304000,0
638.003648,28,1860,3,5.024000,0
638.008672,29,1920,3,6.304000,0
638.014976,30,1980,3,6.304000,0
638.021280,31,2040,3,6.304000,0
638.027584,32,2100,4,6.304000,0
638.033888,33,2160,4,5.024000,0
638.038912,34,2220,4,6.304000,0
638.045216,35,2280,4,6.304000,0
638.051520,36,2340,4,6.304000,0
638.057824,37,2400,4,5.024000,0
638.062848,38,2460,4,5.024000,0
638.067872,39,2520,4,6.304000,0
638.074176,40,2580,5,5.024000,0
638.079200,41,2640,5,5.024000,0
638.084224,42,2700,5,6.304000,0
638.090528,43,2760,5,6.304000,0
638.096832,44,2820,5,5.024000,0
638.101856,45,2880,5,6.304000,0
638.108160,46,2940,5,6.304000,0
638.114464,47,3000,5,5.024000,0
638.119488,48,3060,6,0,31335.136000
669.454624,48,3120,6,6.304000,0
669.460928,49,3180,6,5.024000,0
669.465952,50,3240,6,6.304000,0
669.472256,51,3300,6,6.304000,0
669.478560,52,3360,6,5.024000,0
669.483584,53,3420,6,5.024000,0
669.488608,54,3480,6,5.024000,0
669.493632,55,3540,6,5.024000,0
669.498656,56,3600,7,6.304000,0
669.504960,57,3660,7,5.024000,0
669.509984,58,3720,7,6.304000,0
669.516288,59,3780,7,6.304000,0
669.522592,60,3840,7,5.024000,0
669.527616,61,3900,7,5.024000,0
669.532640,62,3960,7,5.024000,0
669.537664,63,4020,7,6.304000,0
669.543968,64,4080,8,6.304000,0
669.550272,65,4140,8,5.024000,0
669.555296,66,4200,8,6.304000,0
669.561600,67,4260,8,6.304000,0
669.567904,68,4320,8,5.024000,0
669.572928,69,4380,8,0,31338.976000
700.911904,69,4440,8,5.024000,0
700.916928,70,4500,8,5.024000,0
700.921952,71,4560,8,5.024000,0
700.926976,72,4620,9,6.304000,0
700.933280,73,4680,9,5.024000,0
700.938304,74,4740,9,6.304000,0
700.944608,75,4800,9,6.304000,0
700.950912,76,4860,9,5.024000,0
700.955936,77,4920,9,6.304000,0
700.962240,78,4980,9,6.304000,0
700.968544,79,5040,9,6.304000,0
700.974848,80,5100,10,6.304000,0
700.981152,81,5160,10,5.024000,0
700.986176,82,5220,10,5.024000,0
700.991200,83,5280,10,6.304000,0
700.997504,84,5340,10,5.024000,0
701.002528,85,5400,10,5.024000,0
701.007552,86,5460,10,5.024000,0
701.012576,87,5520,10,5.024000,0
701.017600,88,5580,11,5.024000,0
701.022624,89,5640,11,5.024000,0
701.027648,90,5700,11,0,31341.536000
732.369184,90,5760,11,6.304000,0
732.375488,91,5820,11,6.304000,0
732.381792,92,5880,11,5.024000,0
732.386816,93,5940,11,5.024000,0
732.391840,94,6000,11,5.024000,0
732.396864,95,6060,11,6.304000,0
732.403168,96,6120,12,6.304000,0
732.409472,97,6180,12,5.024000,0
732.414496,98,6240,12,6.304000,0
732.420800,99,6300,12,6.304000,0
732.427104,100,6360,12,5.024000,0
732.432128,101,6420,12,6.304000,0
732.438432,102,6480,12,6.304000,0
732.444736,103,6540,12,6.304000,0
732.451040,104,6600,13,6.304000,0
732.457344,105,6660,13,5.024000,0
732.462368,106,6720,13,6.304000,0
732.468672,107,6780,13,6.304000,0
732.474976,108,6840,13,5.024000,0
732.480000,109,6900,13,6.304000,0
732.486304,110,6960,13,6.304000,0
732.492608,111,7020,13,0,31333.856000
763.826464,111,7080,13,6.304000,0
763.832768,112,7140,14,5.024000,0
763.837792,113,7200,14,5.024000,0
763.842816,114,7260,14,6.304000,0
763.849120,115,7320,14,6.304000,0
763.855424,116,7380,14,5.024000,0
763.860448,117,7440,14,5.024000,0
763.865472,118,7500,14,6.304000,0
763.871776,119,7560,14,6.304000,0
763.878080,120,7620,15,5.024000,0
763.883104,121,7680,15,5.024000,0
763.888128,122,7740,15,6.304000,0
763.894432,123,7800,15,6.304000,0
763.900736,124,7860,15,5.024000,0
763.905760,125,7920,15,6.304000,0
763.912064,126,7980,15,5.024000,0
763.917088,127,8040,15,5.024000,0
763.922112,128,8100,16,6.304000,0
763.928416,129,8160,16,5.024000,0
763.933440,130,8220,16,6.304000,0
763.939744,131,8280,16,6.304000,0
763.946048,132,8340,16,0,31337.696000
