Time,CovertPackets,AllPackets,BitsSent,PacketInterval,GTSInterval
260.514048,1,30,0,3.584000,0
260.517632,2,45,0,4.864000,0
260.522496,3,60,0,4.864000,0
260.527360,4,75,0,3.584000,0
260.530944,5,90,0,4.864000,0
260.535808,6,105,0,3.584000,0
260.539392,7,120,0,3.584000,0
260.542976,8,135,1,4.864000,0
260.547840,9,150,1,3.584000,0
260.551424,10,165,1,0,31414.400000
291.965824,10,180,1,4.864000,0
291.970688,11,195,1,4.864000,0
291.975552,12,210,1,3.584000,0
291.979136,13,225,1,4.864000,0
291.984000,14,240,1,4.864000,0
291.988864,15,255,1,4.864000,0
291.993728,16,270,2,3.584000,0
291.997312,17,285,2,3.584000,0
292.000896,18,300,2,4.864000,0
292.005760,19,315,2,4.864000,0
292.010624,20,330,2,3.584000,0
292.014208,21,345,2,3.584000,0
292.017792,22,360,2,4.864000,0
292.022656,23,375,2,4.864000,0
292.027520,24,390,3,3.584000,0
292.031104,25,405,3,3.584000,0
292.034688,26,420,3,4.864000,0
292.039552,27,435,3,4.864000,0
292.044416,28,450,3,3.584000,0
292.048000,29,465,3,4.864000,0
292.052864,30,480,3,4.864000,0
292.057728,31,495,3,0,31365.376000
323.423104,31,510,3,4.864000,0
323.427968,32,525,4,4.864000,0
323.432832,33,540,4,3.584000,0
323.436416,34,555,4,4.864000,0
323.441280,35,570,4,4.864000,0
323.446144,36,585,4,4.864000,0
323.451008,37,600,4,3.584000,0
323.454592,38,615,4,3.584000,0
323.458176,39,630,4,4.864000,0
323.463040,40,645,5,3.584000,0
323.466624,41,660,5,3.584000,0
323.470208,42,675,5,4.864000,0
323.475072,43,690,5,4.864000,0
323.479936,44,705,5,3.584000,0
323.483520,45,720,5,4.864000,0
323.488384,46,735,5,4.864000,0
323.493248,47,750,5,3.584000,0
323.496832,48,765,6,4.864000,0
323.501696,49,780,6,3.584000,0
323.505280,50,795,6,4.864000,0
323.510144,51,810,6,4.864000,0
323.515008,52,825,6,0,31365.376000
354.880384,52,840,6,3.584000,0
354.883968,53,855,6,3.584000,0
354.887552,54,870,6,3.584000,0
354.891136,55,885,6,3.584000,0
354.894720,56,900,7,4.864000,0
354.899584,57,915,7,3.584000,0
354.903168,58,930,7,4.864000,0
354.908032,59,945,7,4.864000,0
354.912896,60,960,7,3.584000,0
354.916480,61,975,7,3.584000,0
354.920064,62,990,7,3.584000,0
354.923648,63,1005,7,4.864000,0
354.928512,64,1020,8,4.864000,0
354.933376,65,1035,8,3.584000,0
354.936960,66,1050,8,4.864000,0
354.941824,67,1065,8,4.864000,0
354.946688,68,1080,8,3.584000,0
354.950272,69,1095,8,3.584000,0
354.953856,70,1110,8,3.584000,0
354.957440,71,1125,8,3.584000,0
354.961024,72,1140,9,4.864000,0
354.965888,73,1155,9,0,31371.776000
386.337664,73,1170,9,3.584000,0
386.341248,74,1185,9,4.864000,0
386.346112,75,1200,9,4.864000,0
386.350976,76,1215,9,3.584000,0
386.354560,77,1230,9,4.864000,0
386.359424,78,1245,9,4.864000,0
386.364288,79,1260,9,4.864000,0
386.369152,80,1275,10,4.864000,0
386.374016,81,1290,10,3.584000,0
386.377600,82,1305,10,3.584000,0
386.381184,83,1320,10,4.864000,0
386.386048,84,1335,10,3.584000,0
386.389632,85,1350,10,3.584000,0
386.393216,86,1365,10,3.584000,0
386.396800,87,1380,10,3.584000,0
386.400384,88,1395,11,3.584000,0
386.403968,89,1410,11,3.584000,0
386.407552,90,1425,11,4.864000,0
386.412416,91,1440,11,4.864000,0
386.417280,92,1455,11,3.584000,0
386.420864,93,1470,11,3.584000,0
386.424448,94,1485,11,0,31370.496000
417.794944,94,1500,11,3.584000,0
417.798528,95,1515,11,4.864000,0
417.803392,96,1530,12,4.864000,0
417.808256,97,1545,12,3.584000,0
417.811840,98,1560,12,4.864000,0
417.816704,99,1575,12,4.864000,0
417.821568,100,1590,12,3.584000,0
417.825152,101,1605,12,4.864000,0
417.830016,102,1620,12,4.864000,0
417.834880,103,1635,12,4.864000,0
417.839744,104,1650,13,4.864000,0
417.844608,105,1665,13,3.584000,0
417.848192,106,1680,13,4.864000,0
417.853056,107,1695,13,4.864000,0
417.857920,108,1710,13,3.584000,0
417.861504,109,1725,13,4.864000,0
417.866368,110,1740,13,4.864000,0
417.871232,111,1755,13,4.864000,0
417.876096,112,1770,14,3.584000,0
417.879680,113,1785,14,3.584000,0
417.883264,114,1800,14,4.864000,0
417.888128,115,1815,14,0,31364.096000
449.252224,115,1830,14,4.864000,0
449.257088,116,1845,14,3.584000,0
449.260672,117,1860,14,3.584000,0
449.264256,118,1875,14,4.864000,0
449.269120,119,1890,14,4.864000,0
449.273984,120,1905,15,3.584000,0
449.277568,121,1920,15,3.584000,0
449.281152,122,1935,15,4.864000,0
449.286016,123,1950,15,4.864000,0
449.290880,124,1965,15,3.584000,0
449.294464,125,1980,15,4.864000,0
449.299328,126,1995,15,3.584000,0
449.302912,127,2010,15,3.584000,0
449.306496,128,2025,16,4.864000,0
449.311360,129,2040,16,3.584000,0
449.314944,130,2055,16,4.864000,0
449.319808,131,2070,16,4.864000,0
449.324672,132,2085,16,3.584000,0
449.328256,133,2100,16,3.584000,0
449.331840,134,2115,16,4.864000,0
449.336704,135,2130,16,3.584000,0
449.340288,136,2145,17,0,31369.216000
