Time,CovertPackets,AllPackets,BitsSent,PacketInterval,GTSInterval
36.497856,0,2,0,0,3932.160000
40.430016,0,3,0,3.136000,0
40.433152,1,4,0,0,3929.024000
44.362176,1,5,0,3.136000,0
44.365312,2,6,0,0,3929.024000
48.294336,2,7,0,3.136000,0
48.297472,3,8,0,0,3929.024000
52.226496,3,9,0,3.136000,0
52.229632,4,10,0,0,3929.024000
56.158656,4,11,0,3.136000,0
56.161792,5,12,0,0,3929.024000
60.090816,5,13,0,0,3932.160000
64.022976,5,14,0,3.136000,0
64.026112,6,15,0,0,3929.024000
67.955136,6,16,0,3.136000,0
67.958272,7,17,0,0,3929.024000
71.887296,7,18,0,3.136000,0
71.890432,8,19,1,0,3929.024000
75.819456,8,20,1,3.136000,0
75.822592,9,21,1,0,3929.024000
79.751616,9,22,1,3.136000,0
79.754752,10,23,1,0,3929.024000
83.683776,10,24,1,3.136000,0
83.686912,11,25,1,0,3929.024000
87.615936,11,26,1,0,3932.160000
91.548096,11,27,1,3.136000,0
91.551232,12,28,1,0,3929.024000
95.480256,12,29,1,3.136000,0
95.483392,13,30,1,0,3929.024000
99.412416,13,31,1,3.136000,0
99.415552,14,32,1,0,3929.024000
103.344576,14,33,1,3.136000,0
103.347712,15,34,1,0,3929.024000
107.276736,15,35,1,3.136000,0
107.279872,16,36,2,0,3929.024000
111.208896,16,37,2,3.136000,0
111.212032,17,38,2,0,3929.024000
115.141056,17,39,2,3.136000,0
115.144192,18,40,2,0,3929.024000
119.073216,18,41,2,0,3932.160000
123.005376,18,42,2,3.136000,0
123.008512,19,43,2,0,3929.024000
126.937536,19,44,2,3.136000,0
126.940672,20,45,2,0,3929.024000
130.869696,20,46,2,3.136000,0
130.872832,21,47,2,0,3929.024000
134.801856,21,48,2,3.136000,0
134.804992,22,49,2,0,3929.024000
138.734016,22,50,2,3.136000,0
138.737152,23,51,2,0,3929.024000
142.666176,23,52,2,0,3932.160000
146.598336,23,53,2,3.136000,0
146.601472,24,54,3,0,3929.024000
150.530496,24,55,3,3.136000,0
150.533632,25,56,3,0,3929.024000
154.462656,25,57,3,3.136000,0
154.465792,26,58,3,0,3929.024000
158.394816,26,59,3,3.136000,0
158.397952,27,60,3,0,3929.024000
162.326976,27,61,3,3.136000,0
162.330112,28,62,3,0,3929.024000
166.259136,28,63,3,3.136000,0
166.262272,29,64,3,0,3929.024000
170.191296,29,65,3,3.136000,0
170.194432,30,66,3,0,3929.024000
174.123456,30,67,3,0,3932.160000
178.055616,30,68,3,3.136000,0
178.058752,31,69,3,0,3929.024000
181.987776,31,70,3,3.136000,0
181.990912,32,71,4,0,3929.024000
185.919936,32,72,4,3.136000,0
185.923072,33,73,4,0,3929.024000
189.852096,33,74,4,3.136000,0
189.855232,34,75,4,0,3929.024000
193.784256,34,76,4,3.136000,0
193.787392,35,77,4,0,3929.024000
197.716416,35,78,4,3.136000,0
197.719552,36,79,4,0,3929.024000
201.648576,36,80,4,3.136000,0
201.651712,37,81,4,0,3929.024000
205.580736,37,82,4,0,3932.160000
209.512896,37,83,4,3.136000,0
209.516032,38,84,4,0,3929.024000
213.445056,38,85,4,3.136000,0
213.448192,39,86,4,0,3929.024000
217.377216,39,87,4,3.136000,0
217.380352,40,88,5,0,3929.024000
221.309376,40,89,5,3.136000,0
221.312512,41,90,5,0,3929.024000
225.241536,41,91,5,3.136000,0
225.244672,42,92,5,0,3929.024000
229.173696,42,93,5,3.136000,0
229.176832,43,94,5,0,3929.024000
233.105856,43,95,5,3.136000,0
233.108992,44,96,5,0,3929.024000
