Time,CovertPackets,AllPackets,BitsSent,PacketInterval,GTSInterval
65.137728,1,120,0,5.024000,0
65.142752,2,180,0,6.304000,0
65.149056,3,240,0,6.304000,0
65.155360,4,300,0,5.024000,0
65.160384,5,360,0,6.304000,0
65.166688,6,420,0,5.024000,0
65.171712,7,480,0,5.024000,0
65.176736,8,540,1,6.304000,0
65.183040,9,600,1,5.024000,0
65.188064,10,660,1,6.304000,0
65.194368,11,720,1,6.304000,0
65.200672,12,780,1,5.024000,0
65.205696,13,840,1,6.304000,0
65.212000,14,900,1,6.304000,0
65.218304,15,960,1,6.304000,0
65.224608,16,1020,2,5.024000,0
65.229632,17,1080,2,5.024000,0
65.234656,18,1140,2,6.304000,0
65.240960,19,1200,2,6.304000,0
65.247264,20,1260,2,5.024000,0
65.252288,21,1320,2,0,7742.816000
72.995104,21,1380,2,5.024000,0
73.000128,22,1440,2,6.304000,0
73.006432,23,1500,2,6.304000,0
73.012736,24,1560,3,5.024000,0
73.017760,25,1620,3,5.024000,0
73.022784,26,1680,3,6.304000,0
73.029088,27,1740,3,6.304000,0
73.035392,28,1800,3,5.024000,0
73.040416,29,1860,3,6.304000,0
73.046720,30,1920,3,6.304000,0
73.053024,31,1980,3,6.304000,0
73.059328,32,2040,4,6.304000,0
73.065632,33,2100,4,5.024000,0
73.070656,34,2160,4,6.304000,0
73.076960,35,2220,4,6.304000,0
73.083264,36,2280,4,6.304000,0
73.089568,37,2340,4,5.024000,0
73.094592,38,2400,4,5.024000,0
73.099616,39,2460,4,6.304000,0
73.105920,40,2520,5,5.024000,0
73.110944,41,2580,5,5.024000,0
73.115968,42,2640,5,6.304000,0
73.122272,43,2700,5,0,7737.152000
80.859424,43,2760,5,6.304000,0
80.865728,44,2820,5,5.024000,0
80.870752,45,2880,5,6.304000,0
80.877056,46,2940,5,6.304000,0
80.883360,47,3000,5,5.024000,0
80.888384,48,3060,6,6.304000,0
80.894688,49,3120,6,5.024000,0
80.899712,50,3180,6,6.304000,0
80.906016,51,3240,6,6.304000,0
80.912320,52,3300,6,5.024000,0
80.917344,53,3360,6,5.024000,0
80.922368,54,3420,6,5.024000,0
80.927392,55,3480,6,5.024000,0
80.932416,56,3540,7,6.304000,0
80.938720,57,3600,7,5.024000,0
80.943744,58,3660,7,6.304000,0
80.950048,59,3720,7,6.304000,0
80.956352,60,3780,7,5.024000,0
80.961376,61,3840,7,5.024000,0
80.966400,62,3900,7,5.024000,0
80.971424,63,3960,7,6.304000,0
80.977728,64,4020,8,6.304000,0
80.984032,65,4080,8,5.024000,0
80.989056,66,4140,8,6.304000,0
80.995360,67,4200,8,6.304000,0
81.001664,68,4260,8,0,7722.080000
88.723744,68,4320,8,5.024000,0
88.728768,69,4380,8,5.024000,0
88.733792,70,4440,8,5.024000,0
88.738816,71,4500,8,5.024000,0
88.743840,72,4560,9,6.304000,0
88.750144,73,4620,9,5.024000,0
88.755168,74,4680,9,6.304000,0
88.761472,75,4740,9,6.304000,0
88.767776,76,4800,9,5.024000,0
88.772800,77,4860,9,6.304000,0
88.779104,78,4920,9,6.304000,0
88.785408,79,4980,9,6.304000,0
88.791712,80,5040,10,6.304000,0
88.798016,81,5100,10,5.024000,0
88.803040,82,5160,10,5.024000,0
88.808064,83,5220,10,6.304000,0
88.814368,84,5280,10,5.024000,0
88.819392,85,5340,10,5.024000,0
88.824416,86,5400,10,5.024000,0
88.829440,87,5460,10,5.024000,0
88.834464,88,5520,11,5.024000,0
88.839488,89,5580,11,5.024000,0
88.844512,90,5640,11,0,7743.552000
96.588064,90,5700,11,6.304000,0
96.594368,91,5760,11,6.304000,0
96.600672,92,5820,11,5.024000,0
96.605696,93,5880,11,5.024000,0
96.610720,94,5940,11,5.024000,0
96.615744,95,6000,11,6.304000,0
96.622048,96,6060,12,6.304000,0
96.628352,97,6120,12,5.024000,0
96.633376,98,6180,12,6.304000,0
96.639680,99,6240,12,6.304000,0
96.645984,100,6300,12,5.024000,0
96.651008,101,6360,12,6.304000,0
96.657312,102,6420,12,6.304000,0
96.663616,103,6480,12,6.304000,0
96.669920,104,6540,13,6.304000,0
96.676224,105,6600,13,5.024000,0
96.681248,106,6660,13,6.304000,0
96.687552,107,6720,13,6.304000,0
96.693856,108,6780,13,5.024000,0
96.698880,109,6840,13,6.304000,0
96.705184,110,6900,13,6.304000,0
96.711488,111,6960,13,6.304000,0
96.717792,112,7020,14,0,7734.592000
104.452384,112,7080,14,5.024000,0
104.457408,113,7140,14,5.024000,0
104.462432,114,7200,14,6.304000,0
104.468736,115,7260,14,6.304000,0
104.475040,116,7320,14,5.024000,0
104.480064,117,7380,14,5.024000,0
104.485088,118,7440,14,6.304000,0
104.491392,119,7500,14,6.304000,0
104.497696,120,7560,15,5.024000,0
104.502720,121,7620,15,5.024000,0
104.507744,122,7680,15,6.304000,0
104.514048,123,7740,15,6.304000,0
104.520352,124,7800,15,5.024000,0
104.525376,125,7860,15,6.304000,0
104.531680,126,7920,15,5.024000,0
104.536704,127,7980,15,5.024000,0
104.541728,128,8040,16,6.304000,0
104.548032,129,8100,16,5.024000,0
104.553056,130,8160,16,6.304000,0
104.559360,131,8220,16,6.304000,0
104.565664,132,8280,16,5.024000,0
104.570688,133,8340,16,5.024000,0
104.575712,134,8400,16,0,7740.992000
112.316704,134,8460,16,6.304000,0
112.323008,135,8520,16,5.024000,0
112.328032,136,8580,17,5.024000,0
112.333056,137,8640,17,5.024000,0
112.338080,138,8700,17,6.304000,0
112.344384,139,8760,17,6.304000,0
112.350688,140,8820,17,5.024000,0
112.355712,141,8880,17,5.024000,0
112.360736,142,8940,17,6.304000,0
112.367040,143,9000,17,5.024000,0
112.372064,144,9060,18,6.304000,0
112.378368,145,9120,18,5.024000,0
112.383392,146,9180,18,6.304000,0
112.389696,147,9240,18,6.304000,0
112.396000,148,9300,18,5.024000,0
112.401024,149,9360,18,6.304000,0
112.407328,150,9420,18,6.304000,0
112.413632,151,9480,18,6.304000,0
112.419936,152,9540,19,5.024000,0
112.424960,153,9600,19,5.024000,0
112.429984,154,9660,19,6.304000,0
112.436288,155,9720,19,0,7744.736000
120.181024,155,9780,19,6.304000,0
120.187328,156,9840,19,5.024000,0
120.192352,157,9900,19,5.024000,0
120.197376,158,9960,19,5.024000,0
120.202400,159,10020,19,6.304000,0
120.208704,160,10080,20,6.304000,0
120.215008,161,10140,20,5.024000,0
120.220032,162,10200,20,6.304000,0
120.226336,163,10260,20,6.304000,0
120.232640,164,10320,20,5.024000,0
120.237664,165,10380,20,6.304000,0
120.243968,166,10440,20,5.024000,0
120.248992,167,10500,20,5.024000,0
120.254016,168,10560,21,6.304000,0
120.260320,169,10620,21,5.024000,0
120.265344,170,10680,21,6.304000,0
120.271648,171,10740,21,6.304000,0
120.277952,172,10800,21,5.024000,0
120.282976,173,10860,21,5.024000,0
120.288000,174,10920,21,5.024000,0
120.293024,175,10980,21,5.024000,0
120.298048,176,11040,22,0,7747.296000
128.045344,176,11100,22,6.304000,0
128.051648,177,11160,22,5.024000,0
128.056672,178,11220,22,6.304000,0
128.062976,179,11280,22,6.304000,0
128.069280,180,11340,22,5.024000,0
128.074304,181,11400,22,6.304000,0
128.080608,182,11460,22,6.304000,0
128.086912,183,11520,22,5.024000,0
128.091936,184,11580,23,5.024000,0
128.096960,185,11640,23,5.024000,0
128.101984,186,11700,23,5.024000,0
128.107008,187,11760,23,6.304000,0
128.113312,188,11820,23,5.024000,0
128.118336,189,11880,23,5.024000,0
128.123360,190,11940,23,5.024000,0
128.128384,191,12000,23,5.024000,0
128.133408,192,12060,24,5.024000,0
128.138432,193,12120,24,5.024000,0
128.143456,194,12180,24,5.024000,0
128.148480,195,12240,24,6.304000,0
128.154784,196,12300,24,5.024000,0
128.159808,197,12360,24,5.024000,0
128.164832,198,12420,24,0,7744.832000
135.909664,198,12480,24,5.024000,0
135.914688,199,12540,24,5.024000,0
135.919712,200,12600,25,5.024000,0
135.924736,201,12660,25,5.024000,0
135.929760,202,12720,25,5.024000,0
135.934784,203,12780,25,6.304000,0
135.941088,204,12840,25,5.024000,0
135.946112,205,12900,25,5.024000,0
135.951136,206,12960,25,5.024000,0
135.956160,207,13020,25,5.024000,0
135.961184,208,13080,26,5.024000,0
135.966208,209,13140,26,5.024000,0
135.971232,210,13200,26,6.304000,0
135.977536,211,13260,26,6.304000,0
135.983840,212,13320,26,5.024000,0
135.988864,213,13380,26,6.304000,0
135.995168,214,13440,26,5.024000,0
136.000192,215,13500,26,5.024000,0
136.005216,216,13560,27,6.304000,0
136.011520,217,13620,27,5.024000,0
136.016544,218,13680,27,6.304000,0
136.022848,219,13740,27,0,7751.136000
143.773984,219,13800,27,6.304000,0
143.780288,220,13860,27,5.024000,0
143.785312,221,13920,27,6.304000,0
143.791616,222,13980,27,6.304000,0
143.797920,223,14040,27,6.304000,0
143.804224,224,14100,28,5.024000,0
143.809248,225,14160,28,5.024000,0
143.814272,226,14220,28,6.304000,0
143.820576,227,14280,28,6.304000,0
143.826880,228,14340,28,5.024000,0
143.831904,229,14400,28,5.024000,0
143.836928,230,14460,28,6.304000,0
143.843232,231,14520,28,6.304000,0
143.849536,232,14580,29,5.024000,0
143.854560,233,14640,29,5.024000,0
143.859584,234,14700,29,6.304000,0
143.865888,235,14760,29,6.304000,0
143.872192,236,14820,29,5.024000,0
143.877216,237,14880,29,6.304000,0
143.883520,238,14940,29,6.304000,0
143.889824,239,15000,29,6.304000,0
143.896128,240,15060,30,6.304000,0
143.902432,241,15120,30,5.024000,0
143.907456,242,15180,30,0,7730.848000
151.638304,242,15240,30,6.304000,0
151.644608,243,15300,30,6.304000,0
151.650912,244,15360,30,6.304000,0
151.657216,245,15420,30,5.024000,0
151.662240,246,15480,30,5.024000,0
151.667264,247,15540,30,6.304000,0
151.673568,248,15600,31,5.024000,0
151.678592,249,15660,31,5.024000,0
151.683616,250,15720,31,6.304000,0
151.689920,251,15780,31,6.304000,0
151.696224,252,15840,31,5.024000,0
151.701248,253,15900,31,6.304000,0
151.707552,254,15960,31,6.304000,0
151.713856,255,16020,31,5.024000,0
151.718880,256,16080,32,6.304000,0
151.725184,257,16140,32,5.024000,0
151.730208,258,16200,32,6.304000,0
151.736512,259,16260,32,6.304000,0
151.742816,260,16320,32,5.024000,0
151.747840,261,16380,32,5.024000,0
151.752864,262,16440,32,5.024000,0
151.757888,263,16500,32,0,7744.736000
159.502624,263,16560,32,5.024000,0
159.507648,264,16620,33,6.304000,0
159.513952,265,16680,33,5.024000,0
159.518976,266,16740,33,6.304000,0
159.525280,267,16800,33,6.304000,0
159.531584,268,16860,33,5.024000,0
159.536608,269,16920,33,5.024000,0
159.541632,270,16980,33,5.024000,0
159.546656,271,17040,33,6.304000,0
159.552960,272,17100,34,6.304000,0
159.559264,273,17160,34,5.024000,0
159.564288,274,17220,34,6.304000,0
159.570592,275,17280,34,6.304000,0
159.576896,276,17340,34,5.024000,0
159.581920,277,17400,34,5.024000,0
159.586944,278,17460,34,5.024000,0
159.591968,279,17520,34,5.024000,0
159.596992,280,17580,35,6.304000,0
159.603296,281,17640,35,5.024000,0
159.608320,282,17700,35,6.304000,0
159.614624,283,17760,35,6.304000,0
159.620928,284,17820,35,5.024000,0
159.625952,285,17880,35,0,7740.992000
167.366944,285,17940,35,6.304000,0
167.373248,286,18000,35,6.304000,0
167.379552,287,18060,35,6.304000,0
167.385856,288,18120,36,6.304000,0
167.392160,289,18180,36,5.024000,0
167.397184,290,18240,36,5.024000,0
167.402208,291,18300,36,6.304000,0
167.408512,292,18360,36,5.024000,0
167.413536,293,18420,36,5.024000,0
167.418560,294,18480,36,5.024000,0
167.423584,295,18540,36,5.024000,0
167.428608,296,18600,37,5.024000,0
167.433632,297,18660,37,5.024000,0
167.438656,298,18720,37,6.304000,0
167.444960,299,18780,37,6.304000,0
167.451264,300,18840,37,5.024000,0
167.456288,301,18900,37,5.024000,0
167.461312,302,18960,37,5.024000,0
167.466336,303,19020,37,6.304000,0
167.472640,304,19080,38,6.304000,0
167.478944,305,19140,38,5.024000,0
167.483968,306,19200,38,6.304000,0
167.490272,307,19260,38,0,7740.992000
175.231264,307,19320,38,6.304000,0
175.237568,308,19380,38,5.024000,0
175.242592,309,19440,38,6.304000,0
175.248896,310,19500,38,6.304000,0
175.255200,311,19560,38,6.304000,0
175.261504,312,19620,39,6.304000,0
175.267808,313,19680,39,5.024000,0
175.272832,314,19740,39,6.304000,0
175.279136,315,19800,39,6.304000,0
175.285440,316,19860,39,5.024000,0
175.290464,317,19920,39,6.304000,0
175.296768,318,19980,39,6.304000,0
175.303072,319,20040,39,6.304000,0
175.309376,320,20100,40,5.024000,0
175.314400,321,20160,40,5.024000,0
175.319424,322,20220,40,6.304000,0
175.325728,323,20280,40,6.304000,0
175.332032,324,20340,40,5.024000,0
175.337056,325,20400,40,5.024000,0
175.342080,326,20460,40,6.304000,0
175.348384,327,20520,40,6.304000,0
175.354688,328,20580,41,0,7740.896000
183.095584,328,20640,41,5.024000,0
183.100608,329,20700,41,5.024000,0
183.105632,330,20760,41,6.304000,0
183.111936,331,20820,41,6.304000,0
183.118240,332,20880,41,5.024000,0
183.123264,333,20940,41,6.304000,0
183.129568,334,21000,41,5.024000,0
183.134592,335,21060,41,5.024000,0
183.139616,336,21120,42,6.304000,0
183.145920,337,21180,42,5.024000,0
183.150944,338,21240,42,6.304000,0
183.157248,339,21300,42,6.304000,0
183.163552,340,21360,42,5.024000,0
183.168576,341,21420,42,5.024000,0
183.173600,342,21480,42,6.304000,0
183.179904,343,21540,42,5.024000,0
183.184928,344,21600,43,5.024000,0
183.189952,345,21660,43,5.024000,0
183.194976,346,21720,43,6.304000,0
183.201280,347,21780,43,6.304000,0
183.207584,348,21840,43,5.024000,0
183.212608,349,21900,43,5.024000,0
183.217632,350,21960,43,0,7742.272000
190.959904,350,22020,43,6.304000,0
190.966208,351,22080,43,5.024000,0
190.971232,352,22140,44,6.304000,0
190.977536,353,22200,44,5.024000,0
190.982560,354,22260,44,6.304000,0
190.988864,355,22320,44,6.304000,0
190.995168,356,22380,44,5.024000,0
191.000192,357,22440,44,6.304000,0
191.006496,358,22500,44,6.304000,0
191.012800,359,22560,44,6.304000,0
191.019104,360,22620,45,5.024000,0
191.024128,361,22680,45,5.024000,0
191.029152,362,22740,45,6.304000,0
191.035456,363,22800,45,6.304000,0
191.041760,364,22860,45,5.024000,0
191.046784,365,22920,45,5.024000,0
191.051808,366,22980,45,5.024000,0
191.056832,367,23040,45,6.304000,0
191.063136,368,23100,46,6.304000,0
191.069440,369,23160,46,5.024000,0
191.074464,370,23220,46,6.304000,0
191.080768,371,23280,46,6.304000,0
191.087072,372,23340,46,0,7737.152000
198.824224,372,23400,46,5.024000,0
198.829248,373,23460,46,6.304000,0
198.835552,374,23520,46,5.024000,0
198.840576,375,23580,46,5.024000,0
198.845600,376,23640,47,6.304000,0
198.851904,377,23700,47,5.024000,0
198.856928,378,23760,47,6.304000,0
198.863232,379,23820,47,6.304000,0
198.869536,380,23880,47,5.024000,0
198.874560,381,23940,47,5.024000,0
198.879584,382,24000,47,5.024000,0
198.884608,383,24060,47,5.024000,0
198.889632,384,24120,48,6.304000,0
198.895936,385,24180,48,5.024000,0
198.900960,386,24240,48,6.304000,0
198.907264,387,24300,48,6.304000,0
198.913568,388,24360,48,5.024000,0
198.918592,389,24420,48,6.304000,0
198.924896,390,24480,48,6.304000,0
198.931200,391,24540,48,5.024000,0
198.936224,392,24600,49,5.024000,0
198.941248,393,24660,49,0,7747.296000
206.688544,393,24720,49,5.024000,0
206.693568,394,24780,49,5.024000,0
206.698592,395,24840,49,6.304000,0
206.704896,396,24900,49,5.024000,0
206.709920,397,24960,49,5.024000,0
206.714944,398,25020,49,5.024000,0
206.719968,399,25080,49,5.024000,0
206.724992,400,25140,50,5.024000,0
206.730016,401,25200,50,5.024000,0
206.735040,402,25260,50,5.024000,0
206.740064,403,25320,50,6.304000,0
206.746368,404,25380,50,5.024000,0
206.751392,405,25440,50,5.024000,0
206.756416,406,25500,50,5.024000,0
206.761440,407,25560,50,5.024000,0
206.766464,408,25620,51,5.024000,0
206.771488,409,25680,51,5.024000,0
206.776512,410,25740,51,5.024000,0
206.781536,411,25800,51,6.304000,0
206.787840,412,25860,51,5.024000,0
206.792864,413,25920,51,5.024000,0
206.797888,414,25980,51,0,7754.976000
214.552864,414,26040,51,5.024000,0
214.557888,415,26100,51,5.024000,0
214.562912,416,26160,52,5.024000,0
214.567936,417,26220,52,5.024000,0
214.572960,418,26280,52,6.304000,0
214.579264,419,26340,52,6.304000,0
214.585568,420,26400,52,5.024000,0
214.590592,421,26460,52,6.304000,0
214.596896,422,26520,52,5.024000,0
214.601920,423,26580,52,5.024000,0
214.606944,424,26640,53,6.304000,0
214.613248,425,26700,53,5.024000,0
214.618272,426,26760,53,6.304000,0
214.624576,427,26820,53,6.304000,0
214.630880,428,26880,53,5.024000,0
214.635904,429,26940,53,6.304000,0
214.642208,430,27000,53,6.304000,0
214.648512,431,27060,53,6.304000,0
214.654816,432,27120,54,5.024000,0
214.659840,433,27180,54,5.024000,0
214.664864,434,27240,54,6.304000,0
214.671168,435,27300,54,0,7746.016000
222.417184,435,27360,54,6.304000,0
222.423488,436,27420,54,5.024000,0
222.428512,437,27480,54,5.024000,0
222.433536,438,27540,54,6.304000,0
222.439840,439,27600,54,6.304000,0
222.446144,440,27660,55,5.024000,0
222.451168,441,27720,55,5.024000,0
222.456192,442,27780,55,6.304000,0
222.462496,443,27840,55,6.304000,0
222.468800,444,27900,55,5.024000,0
222.473824,445,27960,55,6.304000,0
222.480128,446,28020,55,6.304000,0
222.486432,447,28080,55,6.304000,0
222.492736,448,28140,56,6.304000,0
222.499040,449,28200,56,5.024000,0
222.504064,450,28260,56,6.304000,0
222.510368,451,28320,56,6.304000,0
222.516672,452,28380,56,6.304000,0
222.522976,453,28440,56,5.024000,0
222.528000,454,28500,56,5.024000,0
222.533024,455,28560,56,6.304000,0
222.539328,456,28620,57,5.024000,0
222.544352,457,28680,57,5.024000,0
222.549376,458,28740,57,6.304000,0
222.555680,459,28800,57,0,7725.824000
230.281504,459,28860,57,6.304000,0
230.287808,460,28920,57,5.024000,0
230.292832,461,28980,57,6.304000,0
230.299136,462,29040,57,6.304000,0
230.305440,463,29100,57,5.024000,0
230.310464,464,29160,58,6.304000,0
230.316768,465,29220,58,5.024000,0
230.321792,466,29280,58,6.304000,0
230.328096,467,29340,58,6.304000,0
230.334400,468,29400,58,5.024000,0
230.339424,469,29460,58,5.024000,0
230.344448,470,29520,58,5.024000,0
230.349472,471,29580,58,5.024000,0
230.354496,472,29640,59,6.304000,0
230.360800,473,29700,59,5.024000,0
230.365824,474,29760,59,6.304000,0
230.372128,475,29820,59,6.304000,0
230.378432,476,29880,59,5.024000,0
230.383456,477,29940,59,5.024000,0
230.388480,478,30000,59,5.024000,0
230.393504,479,30060,59,6.304000,0
230.399808,480,30120,60,6.304000,0
230.406112,481,30180,60,0,7739.712000
238.145824,481,30240,60,5.024000,0
238.150848,482,30300,60,6.304000,0
238.157152,483,30360,60,6.304000,0
238.163456,484,30420,60,5.024000,0
238.168480,485,30480,60,5.024000,0
238.173504,486,30540,60,5.024000,0
238.178528,487,30600,60,5.024000,0
238.183552,488,30660,61,6.304000,0
238.189856,489,30720,61,5.024000,0
238.194880,490,30780,61,6.304000,0
238.201184,491,30840,61,6.304000,0
238.207488,492,30900,61,5.024000,0
238.212512,493,30960,61,6.304000,0
238.218816,494,31020,61,6.304000,0
238.225120,495,31080,61,6.304000,0
238.231424,496,31140,62,6.304000,0
238.237728,497,31200,62,5.024000,0
238.242752,498,31260,62,5.024000,0
238.247776,499,31320,62,6.304000,0
238.254080,500,31380,62,5.024000,0
238.259104,501,31440,62,5.024000,0
238.264128,502,31500,62,5.024000,0
238.269152,503,31560,62,0,7740.992000
246.010144,503,31620,62,5.024000,0
246.015168,504,31680,63,5.024000,0
246.020192,505,31740,63,5.024000,0
246.025216,506,31800,63,6.304000,0
246.031520,507,31860,63,6.304000,0
246.037824,508,31920,63,5.024000,0
246.042848,509,31980,63,5.024000,0
246.047872,510,32040,63,5.024000,0
246.052896,511,32100,63,6.304000,0
246.059200,512,32160,64,6.304000,0
246.065504,513,32220,64,5.024000,0
246.070528,514,32280,64,6.304000,0
246.076832,515,32340,64,6.304000,0
246.083136,516,32400,64,5.024000,0
246.088160,517,32460,64,6.304000,0
246.094464,518,32520,64,6.304000,0
246.100768,519,32580,64,6.304000,0
246.107072,520,32640,65,6.304000,0
246.113376,521,32700,65,5.024000,0
246.118400,522,32760,65,6.304000,0
246.124704,523,32820,65,6.304000,0
246.131008,524,32880,65,5.024000,0
246.136032,525,32940,65,6.304000,0
246.142336,526,33000,65,0,7732.128000
253.874464,526,33060,65,6.304000,0
253.880768,527,33120,65,6.304000,0
253.887072,528,33180,66,5.024000,0
253.892096,529,33240,66,5.024000,0
253.897120,530,33300,66,6.304000,0
253.903424,531,33360,66,6.304000,0
253.909728,532,33420,66,5.024000,0
253.914752,533,33480,66,5.024000,0
253.919776,534,33540,66,6.304000,0
253.926080,535,33600,66,6.304000,0
253.932384,536,33660,67,5.024000,0
253.937408,537,33720,67,5.024000,0
253.942432,538,33780,67,6.304000,0
253.948736,539,33840,67,6.304000,0
253.955040,540,33900,67,5.024000,0
253.960064,541,33960,67,6.304000,0
253.966368,542,34020,67,5.024000,0
253.971392,543,34080,67,5.024000,0
253.976416,544,34140,68,6.304000,0
253.982720,545,34200,68,5.024000,0
253.987744,546,34260,68,6.304000,0
253.994048,547,34320,68,6.304000,0
254.000352,548,34380,68,0,7738.432000
261.738784,548,34440,68,5.024000,0
261.743808,549,34500,68,5.024000,0
261.748832,550,34560,68,6.304000,0
261.755136,551,34620,68,5.024000,0
261.760160,552,34680,69,5.024000,0
261.765184,553,34740,69,5.024000,0
261.770208,554,34800,69,6.304000,0
261.776512,555,34860,69,6.304000,0
261.782816,556,34920,69,5.024000,0
261.787840,557,34980,69,5.024000,0
261.792864,558,35040,69,6.304000,0
261.799168,559,35100,69,5.024000,0
261.804192,560,35160,70,6.304000,0
261.810496,561,35220,70,5.024000,0
261.815520,562,35280,70,6.304000,0
261.821824,563,35340,70,6.304000,0
261.828128,564,35400,70,5.024000,0
261.833152,565,35460,70,6.304000,0
261.839456,566,35520,70,6.304000,0
261.845760,567,35580,70,6.304000,0
261.852064,568,35640,71,5.024000,0
261.857088,569,35700,71,5.024000,0
261.862112,570,35760,71,0,7740.992000
