Time,CovertPackets,AllPackets,BitsSent,PacketInterval,GTSInterval
134.684032,1,2,0,3.136000,0
134.687168,2,3,0,4.416000,0
134.691584,3,4,0,4.416000,0
134.696000,4,5,0,3.136000,0
134.699136,5,6,0,4.416000,0
134.703552,6,7,0,3.136000,0
134.706688,7,8,0,3.136000,0
134.709824,8,9,1,4.416000,0
134.714240,9,10,1,3.136000,0
134.717376,10,11,1,4.416000,0
134.721792,11,12,1,4.416000,0
134.726208,12,13,1,3.136000,0
134.729344,13,14,1,4.416000,0
134.733760,14,15,1,4.416000,0
134.738176,15,16,1,4.416000,0
134.742592,16,17,2,3.136000,0
134.745728,17,18,2,3.136000,0
134.748864,18,19,2,4.416000,0
134.753280,19,20,2,4.416000,0
134.757696,20,21,2,3.136000,0
134.760832,21,22,2,3.136000,0
134.763968,22,23,2,4.416000,0
134.768384,23,24,2,4.416000,0
134.772800,24,25,3,3.136000,0
134.775936,25,26,3,3.136000,0
134.779072,26,27,3,4.416000,0
134.783488,27,28,3,4.416000,0
134.787904,28,29,3,3.136000,0
134.791040,29,30,3,4.416000,0
134.795456,30,31,3,4.416000,0
134.799872,31,32,3,4.416000,0
134.804288,32,33,4,4.416000,0
134.808704,33,34,4,0,15598.912000
150.407616,33,35,4,3.136000,0
150.410752,34,36,4,4.416000,0
150.415168,35,37,4,4.416000,0
150.419584,36,38,4,4.416000,0
150.424000,37,39,4,3.136000,0
150.427136,38,40,4,3.136000,0
150.430272,39,41,4,4.416000,0
150.434688,40,42,5,3.136000,0
150.437824,41,43,5,3.136000,0
150.440960,42,44,5,4.416000,0
150.445376,43,45,5,4.416000,0
150.449792,44,46,5,3.136000,0
150.452928,45,47,5,4.416000,0
150.457344,46,48,5,4.416000,0
150.461760,47,49,5,3.136000,0
150.464896,48,50,6,4.416000,0
150.469312,49,51,6,3.136000,0
150.472448,50,52,6,4.416000,0
150.476864,51,53,6,4.416000,0
150.481280,52,54,6,3.136000,0
150.484416,53,55,6,3.136000,0
150.487552,54,56,6,3.136000,0
150.490688,55,57,6,3.136000,0
150.493824,56,58,7,4.416000,0
150.498240,57,59,7,3.136000,0
150.501376,58,60,7,4.416000,0
150.505792,59,61,7,4.416000,0
150.510208,60,62,7,3.136000,0
150.513344,61,63,7,3.136000,0
150.516480,62,64,7,3.136000,0
150.519616,63,65,7,4.416000,0
150.524032,64,66,8,4.416000,0
150.528448,65,67,8,3.136000,0
150.531584,66,68,8,4.416000,0
150.536000,67,69,8,0,15600.256000
166.136256,67,70,8,4.416000,0
166.140672,68,71,8,3.136000,0
166.143808,69,72,8,3.136000,0
166.146944,70,73,8,3.136000,0
166.150080,71,74,8,3.136000,0
166.153216,72,75,9,4.416000,0
166.157632,73,76,9,3.136000,0
166.160768,74,77,9,4.416000,0
166.165184,75,78,9,4.416000,0
166.169600,76,79,9,3.136000,0
166.172736,77,80,9,4.416000,0
166.177152,78,81,9,4.416000,0
166.181568,79,82,9,4.416000,0
166.185984,80,83,10,4.416000,0
166.190400,81,84,10,3.136000,0
166.193536,82,85,10,3.136000,0
166.196672,83,86,10,4.416000,0
166.201088,84,87,10,3.136000,0
166.204224,85,88,10,3.136000,0
166.207360,86,89,10,3.136000,0
166.210496,87,90,10,3.136000,0
166.213632,88,91,11,3.136000,0
166.216768,89,92,11,3.136000,0
166.219904,90,93,11,4.416000,0
166.224320,91,94,11,4.416000,0
166.228736,92,95,11,3.136000,0
166.231872,93,96,11,3.136000,0
166.235008,94,97,11,3.136000,0
166.238144,95,98,11,4.416000,0
166.242560,96,99,12,4.416000,0
166.246976,97,100,12,3.136000,0
166.250112,98,101,12,4.416000,0
166.254528,99,102,12,4.416000,0
166.258944,100,103,12,0,15605.952000
181.864896,100,104,12,3.136000,0
181.868032,101,105,12,4.416000,0
181.872448,102,106,12,4.416000,0
181.876864,103,107,12,4.416000,0
181.881280,104,108,13,4.416000,0
181.885696,105,109,13,3.136000,0
181.888832,106,110,13,4.416000,0
181.893248,107,111,13,4.416000,0
181.897664,108,112,13,3.136000,0
181.900800,109,113,13,4.416000,0
181.905216,110,114,13,4.416000,0
181.909632,111,115,13,4.416000,0
181.914048,112,116,14,3.136000,0
181.917184,113,117,14,3.136000,0
181.920320,114,118,14,4.416000,0
181.924736,115,119,14,4.416000,0
181.929152,116,120,14,3.136000,0
181.932288,117,121,14,3.136000,0
181.935424,118,122,14,4.416000,0
181.939840,119,123,14,4.416000,0
181.944256,120,124,15,3.136000,0
181.947392,121,125,15,3.136000,0
181.950528,122,126,15,4.416000,0
181.954944,123,127,15,4.416000,0
181.959360,124,128,15,3.136000,0
181.962496,125,129,15,4.416000,0
181.966912,126,130,15,3.136000,0
181.970048,127,131,15,3.136000,0
181.973184,128,132,16,4.416000,0
181.977600,129,133,16,3.136000,0
181.980736,130,134,16,4.416000,0
181.985152,131,135,16,4.416000,0
181.989568,132,136,16,3.136000,0
181.992704,133,137,16,3.136000,0
181.995840,134,138,16,0,15597.696000
197.593536,134,139,16,4.416000,0
197.597952,135,140,16,3.136000,0
197.601088,136,141,17,3.136000,0
197.604224,137,142,17,3.136000,0
197.607360,138,143,17,4.416000,0
197.611776,139,144,17,4.416000,0
197.616192,140,145,17,3.136000,0
197.619328,141,146,17,3.136000,0
197.622464,142,147,17,4.416000,0
197.626880,143,148,17,3.136000,0
197.630016,144,149,18,4.416000,0
197.634432,145,150,18,3.136000,0
197.637568,146,151,18,4.416000,0
197.641984,147,152,18,4.416000,0
197.646400,148,153,18,3.136000,0
197.649536,149,154,18,4.416000,0
197.653952,150,155,18,4.416000,0
197.658368,151,156,18,4.416000,0
197.662784,152,157,19,3.136000,0
197.665920,153,158,19,3.136000,0
197.669056,154,159,19,4.416000,0
197.673472,155,160,19,4.416000,0
197.677888,156,161,19,3.136000,0
197.681024,157,162,19,3.136000,0
197.684160,158,163,19,3.136000,0
197.687296,159,164,19,4.416000,0
197.691712,160,165,20,4.416000,0
197.696128,161,166,20,3.136000,0
197.699264,162,167,20,4.416000,0
197.703680,163,168,20,4.416000,0
197.708096,164,169,20,3.136000,0
197.711232,165,170,20,4.416000,0
197.715648,166,171,20,3.136000,0
197.718784,167,172,20,0,15603.392000
213.322176,167,173,20,3.136000,0
213.325312,168,174,21,4.416000,0
213.329728,169,175,21,3.136000,0
213.332864,170,176,21,4.416000,0
213.337280,171,177,21,4.416000,0
213.341696,172,178,21,3.136000,0
213.344832,173,179,21,3.136000,0
213.347968,174,180,21,3.136000,0
213.351104,175,181,21,3.136000,0
213.354240,176,182,22,4.416000,0
213.358656,177,183,22,3.136000,0
213.361792,178,184,22,4.416000,0
213.366208,179,185,22,4.416000,0
213.370624,180,186,22,3.136000,0
213.373760,181,187,22,4.416000,0
213.378176,182,188,22,4.416000,0
213.382592,183,189,22,3.136000,0
213.385728,184,190,23,3.136000,0
213.388864,185,191,23,3.136000,0
213.392000,186,192,23,3.136000,0
213.395136,187,193,23,4.416000,0
213.399552,188,194,23,3.136000,0
213.402688,189,195,23,3.136000,0
213.405824,190,196,23,3.136000,0
213.408960,191,197,23,3.136000,0
213.412096,192,198,24,3.136000,0
213.415232,193,199,24,3.136000,0
213.418368,194,200,24,3.136000,0
213.421504,195,201,24,4.416000,0
213.425920,196,202,24,3.136000,0
213.429056,197,203,24,3.136000,0
213.432192,198,204,24,3.136000,0
213.435328,199,205,24,0,15615.488000
229.050816,199,206,24,3.136000,0
229.053952,200,207,25,3.136000,0
229.057088,201,208,25,3.136000,0
229.060224,202,209,25,3.136000,0
229.063360,203,210,25,4.416000,0
229.067776,204,211,25,3.136000,0
229.070912,205,212,25,3.136000,0
229.074048,206,213,25,3.136000,0
229.077184,207,214,25,3.136000,0
229.080320,208,215,26,3.136000,0
229.083456,209,216,26,3.136000,0
229.086592,210,217,26,4.416000,0
229.091008,211,218,26,4.416000,0
229.095424,212,219,26,3.136000,0
229.098560,213,220,26,4.416000,0
229.102976,214,221,26,3.136000,0
229.106112,215,222,26,3.136000,0
229.109248,216,223,27,4.416000,0
229.113664,217,224,27,3.136000,0
229.116800,218,225,27,4.416000,0
229.121216,219,226,27,4.416000,0
229.125632,220,227,27,3.136000,0
229.128768,221,228,27,4.416000,0
229.133184,222,229,27,4.416000,0
229.137600,223,230,27,4.416000,0
229.142016,224,231,28,3.136000,0
229.145152,225,232,28,3.136000,0
229.148288,226,233,28,4.416000,0
229.152704,227,234,28,4.416000,0
229.157120,228,235,28,3.136000,0
229.160256,229,236,28,3.136000,0
229.163392,230,237,28,4.416000,0
229.167808,231,238,28,0,15611.648000
