Time,CovertPackets,AllPackets,BitsSent,PacketInterval,GTSInterval
370.613632,1,2,0,3.136000,0
370.616768,2,3,0,4.416000,0
370.621184,3,4,0,4.416000,0
370.625600,4,5,0,3.136000,0
370.628736,5,6,0,4.416000,0
370.633152,6,7,0,3.136000,0
370.636288,7,8,0,3.136000,0
370.639424,8,9,1,4.416000,0
370.643840,9,10,1,3.136000,0
370.646976,10,11,1,4.416000,0
370.651392,11,12,1,4.416000,0
370.655808,12,13,1,3.136000,0
370.658944,13,14,1,4.416000,0
370.663360,14,15,1,4.416000,0
370.667776,15,16,1,4.416000,0
370.672192,16,17,2,3.136000,0
370.675328,17,18,2,3.136000,0
370.678464,18,19,2,4.416000,0
370.682880,19,20,2,4.416000,0
370.687296,20,21,2,3.136000,0
370.690432,21,22,2,3.136000,0
370.693568,22,23,2,4.416000,0
370.697984,23,24,2,4.416000,0
370.702400,24,25,3,3.136000,0
370.705536,25,26,3,3.136000,0
370.708672,26,27,3,4.416000,0
370.713088,27,28,3,4.416000,0
370.717504,28,29,3,3.136000,0
370.720640,29,30,3,4.416000,0
370.725056,30,31,3,4.416000,0
370.729472,31,32,3,4.416000,0
370.733888,32,33,4,4.416000,0
370.738304,33,34,4,0,15598.912000
386.337216,33,35,4,3.136000,0
386.340352,34,36,4,4.416000,0
386.344768,35,37,4,4.416000,0
386.349184,36,38,4,4.416000,0
386.353600,37,39,4,3.136000,0
386.356736,38,40,4,3.136000,0
386.359872,39,41,4,4.416000,0
386.364288,40,42,5,3.136000,0
386.367424,41,43,5,3.136000,0
386.370560,42,44,5,4.416000,0
386.374976,43,45,5,4.416000,0
386.379392,44,46,5,3.136000,0
386.382528,45,47,5,4.416000,0
386.386944,46,48,5,4.416000,0
386.391360,47,49,5,3.136000,0
386.394496,48,50,6,4.416000,0
386.398912,49,51,6,3.136000,0
386.402048,50,52,6,4.416000,0
386.406464,51,53,6,4.416000,0
386.410880,52,54,6,3.136000,0
386.414016,53,55,6,3.136000,0
386.417152,54,56,6,3.136000,0
386.420288,55,57,6,3.136000,0
386.423424,56,58,7,4.416000,0
386.427840,57,59,7,3.136000,0
386.430976,58,60,7,4.416000,0
386.435392,59,61,7,4.416000,0
386.439808,60,62,7,3.136000,0
386.442944,61,63,7,3.136000,0
386.446080,62,64,7,3.136000,0
386.449216,63,65,7,4.416000,0
386.453632,64,66,8,4.416000,0
386.458048,65,67,8,3.136000,0
386.461184,66,68,8,4.416000,0
386.465600,67,69,8,0,15600.256000
402.065856,67,70,8,4.416000,0
402.070272,68,71,8,3.136000,0
402.073408,69,72,8,3.136000,0
402.076544,70,73,8,3.136000,0
402.079680,71,74,8,3.136000,0
402.082816,72,75,9,4.416000,0
402.087232,73,76,9,3.136000,0
402.090368,74,77,9,4.416000,0
402.094784,75,78,9,4.416000,0
402.099200,76,79,9,3.136000,0
402.102336,77,80,9,4.416000,0
402.106752,78,81,9,4.416000,0
402.111168,79,82,9,4.416000,0
402.115584,80,83,10,4.416000,0
402.120000,81,84,10,3.136000,0
402.123136,82,85,10,3.136000,0
402.126272,83,86,10,4.416000,0
402.130688,84,87,10,3.136000,0
402.133824,85,88,10,3.136000,0
402.136960,86,89,10,3.136000,0
402.140096,87,90,10,3.136000,0
402.143232,88,91,11,3.136000,0
402.146368,89,92,11,3.136000,0
402.149504,90,93,11,4.416000,0
402.153920,91,94,11,4.416000,0
402.158336,92,95,11,3.136000,0
402.161472,93,96,11,3.136000,0
402.164608,94,97,11,3.136000,0
402.167744,95,98,11,4.416000,0
402.172160,96,99,12,4.416000,0
402.176576,97,100,12,3.136000,0
402.179712,98,101,12,4.416000,0
402.184128,99,102,12,4.416000,0
402.188544,100,103,12,0,15605.952000
417.794496,100,104,12,3.136000,0
417.797632,101,105,12,4.416000,0
417.802048,102,106,12,4.416000,0
417.806464,103,107,12,4.416000,0
417.810880,104,108,13,4.416000,0
417.815296,105,109,13,3.136000,0
417.818432,106,110,13,4.416000,0
417.822848,107,111,13,4.416000,0
417.827264,108,112,13,3.136000,0
417.830400,109,113,13,4.416000,0
417.834816,110,114,13,4.416000,0
417.839232,111,115,13,4.416000,0
417.843648,112,116,14,3.136000,0
417.846784,113,117,14,3.136000,0
417.849920,114,118,14,4.416000,0
417.854336,115,119,14,4.416000,0
417.858752,116,120,14,3.136000,0
417.861888,117,121,14,3.136000,0
417.865024,118,122,14,4.416000,0
417.869440,119,123,14,4.416000,0
417.873856,120,124,15,3.136000,0
417.876992,121,125,15,3.136000,0
417.880128,122,126,15,4.416000,0
417.884544,123,127,15,4.416000,0
417.888960,124,128,15,3.136000,0
417.892096,125,129,15,4.416000,0
417.896512,126,130,15,3.136000,0
417.899648,127,131,15,3.136000,0
417.902784,128,132,16,4.416000,0
417.907200,129,133,16,3.136000,0
417.910336,130,134,16,4.416000,0
417.914752,131,135,16,4.416000,0
417.919168,132,136,16,3.136000,0
417.922304,133,137,16,3.136000,0
417.925440,134,138,16,0,15597.696000
433.523136,134,139,16,4.416000,0
433.527552,135,140,16,3.136000,0
433.530688,136,141,17,3.136000,0
433.533824,137,142,17,3.136000,0
433.536960,138,143,17,4.416000,0
433.541376,139,144,17,4.416000,0
433.545792,140,145,17,3.136000,0
433.548928,141,146,17,3.136000,0
433.552064,142,147,17,4.416000,0
433.556480,143,148,17,3.136000,0
433.559616,144,149,18,4.416000,0
433.564032,145,150,18,3.136000,0
433.567168,146,151,18,4.416000,0
433.571584,147,152,18,4.416000,0
433.576000,148,153,18,3.136000,0
433.579136,149,154,18,4.416000,0
433.583552,150,155,18,4.416000,0
433.587968,151,156,18,4.416000,0
433.592384,152,157,19,3.136000,0
433.595520,153,158,19,3.136000,0
433.598656,154,159,19,4.416000,0
433.603072,155,160,19,4.416000,0
433.607488,156,161,19,3.136000,0
433.610624,157,162,19,3.136000,0
433.613760,158,163,19,3.136000,0
433.616896,159,164,19,4.416000,0
433.621312,160,165,20,4.416000,0
433.625728,161,166,20,3.136000,0
433.628864,162,167,20,4.416000,0
433.633280,163,168,20,4.416000,0
433.637696,164,169,20,3.136000,0
433.640832,165,170,20,4.416000,0
433.645248,166,171,20,3.136000,0
433.648384,167,172,20,0,15603.392000
449.251776,167,173,20,3.136000,0
449.254912,168,174,21,4.416000,0
449.259328,169,175,21,3.136000,0
449.262464,170,176,21,4.416000,0
449.266880,171,177,21,4.416000,0
449.271296,172,178,21,3.136000,0
449.274432,173,179,21,3.136000,0
449.277568,174,180,21,3.136000,0
449.280704,175,181,21,3.136000,0
449.283840,176,182,22,4.416000,0
449.288256,177,183,22,3.136000,0
449.291392,178,184,22,4.416000,0
449.295808,179,185,22,4.416000,0
449.300224,180,186,22,3.136000,0
449.303360,181,187,22,4.416000,0
449.307776,182,188,22,4.416000,0
449.312192,183,189,22,3.136000,0
449.315328,184,190,23,3.136000,0
449.318464,185,191,23,3.136000,0
449.321600,186,192,23,3.136000,0
449.324736,187,193,23,4.416000,0
449.329152,188,194,23,3.136000,0
449.332288,189,195,23,3.136000,0
449.335424,190,196,23,3.136000,0
449.338560,191,197,23,3.136000,0
449.341696,192,198,24,3.136000,0
449.344832,193,199,24,3.136000,0
449.347968,194,200,24,3.136000,0
449.351104,195,201,24,4.416000,0
449.355520,196,202,24,3.136000,0
449.358656,197,203,24,3.136000,0
449.361792,198,204,24,3.136000,0
449.364928,199,205,24,0,15615.488000
464.980416,199,206,24,3.136000,0
464.983552,200,207,25,3.136000,0
464.986688,201,208,25,3.136000,0
464.989824,202,209,25,3.136000,0
464.992960,203,210,25,4.416000,0
464.997376,204,211,25,3.136000,0
465.000512,205,212,25,3.136000,0
465.003648,206,213,25,3.136000,0
465.006784,207,214,25,3.136000,0
465.009920,208,215,26,3.136000,0
465.013056,209,216,26,3.136000,0
465.016192,210,217,26,4.416000,0
465.020608,211,218,26,4.416000,0
465.025024,212,219,26,3.136000,0
465.028160,213,220,26,4.416000,0
465.032576,214,221,26,3.136000,0
465.035712,215,222,26,3.136000,0
465.038848,216,223,27,4.416000,0
465.043264,217,224,27,3.136000,0
465.046400,218,225,27,4.416000,0
465.050816,219,226,27,4.416000,0
465.055232,220,227,27,3.136000,0
465.058368,221,228,27,4.416000,0
465.062784,222,229,27,4.416000,0
465.067200,223,230,27,4.416000,0
465.071616,224,231,28,3.136000,0
465.074752,225,232,28,3.136000,0
465.077888,226,233,28,4.416000,0
465.082304,227,234,28,4.416000,0
465.086720,228,235,28,3.136000,0
465.089856,229,236,28,3.136000,0
465.092992,230,237,28,4.416000,0
465.097408,231,238,28,0,15611.648000
