Delay,Aut_Number,Aut_Slot,MensagemAut
7.931264,1,3,33
7.925056,1,3,33
7.910096,1,3,33
7.905824,1,3,33
7.901552,1,3,33
7.894064,1,3,33
7.888224,1,3,33
7.878176,1,3,33
7.872912,1,3,33
7.860624,1,3,33
7.857168,1,3,33
7.842944,1,3,33
7.838592,1,3,33
7.829808,1,3,33
4.002256,1,3,33
3.998480,1,3,33
3.989488,1,3,33
3.976448,1,3,33
3.962080,1,3,33
3.947120,1,3,33
3.942848,1,3,33
3.930416,1,3,33
3.927008,1,3,33
3.913008,1,3,33
3.898880,1,3,33
0.070096,1,3,33
0.064832,1,3,33
0.060704,1,3,33
0.049088,1,3,33
0.043024,1,3,33
0.034592,1,3,33
0.021728,1,3,33
0.013872,1,3,33
0.004880,1,3,33
0.000000,1,3,33
11.777424,2,6,65
11.762464,2,6,65
7.925648,2,6,65
7.913216,2,6,65
7.908944,2,6,65
7.901456,2,6,65
7.887456,2,6,65
7.881488,2,6,65
7.868064,2,6,65
7.863936,2,6,65
7.860480,2,6,65
7.854416,2,6,65
7.841904,2,6,65
7.833120,2,6,65
7.825264,2,6,65
7.820352,2,6,65
3.993488,2,6,65
3.988608,2,6,65
3.978320,2,6,65
3.971520,2,6,65
3.959088,2,6,65
3.946656,2,6,65
3.943248,2,6,65
3.933328,2,6,65
3.919200,2,6,65
3.905776,2,6,65
3.897568,2,6,65
3.894112,2,6,65
0.061328,2,6,65
0.047104,2,6,65
0.038672,2,6,65
0.029888,2,6,65
0.017952,2,6,65
0.008960,2,6,65
0.000000,2,6,65
11.765792,3,9,97
11.758992,3,9,97
11.746560,3,9,97
11.742288,3,9,97
11.730720,3,9,97
7.901168,3,9,97
7.891248,3,9,97
7.881200,3,9,97
7.871856,3,9,97
7.859568,3,9,97
7.852032,3,9,97
7.841888,3,9,97
7.829376,3,9,97
7.816512,3,9,97
7.808656,3,9,97
7.803744,3,9,97
7.794784,3,9,97
3.969008,3,9,97
3.958720,3,9,97
3.951920,3,9,97
3.947648,3,9,97
3.935216,3,9,97
3.923648,3,9,97
3.913728,3,9,97
3.903680,3,9,97
3.898416,3,9,97
3.886128,3,9,97
3.874512,3,9,97
0.036848,3,9,97
0.026704,3,9,97
0.022352,3,9,97
0.013568,3,9,97
0.009792,3,9,97
0.004880,3,9,97
0.000000,3,9,97
11.762384,4,12,129
11.751504,4,12,129
11.747232,4,12,129
11.734800,4,12,129
11.727312,4,12,129
11.717392,4,12,129
11.703264,4,12,129
7.873280,4,12,129
7.868016,4,12,129
7.863888,4,12,129
7.852272,4,12,129
7.838048,4,12,129
7.829616,4,12,129
7.824912,4,12,129
7.812976,4,12,129
7.803984,4,12,129
7.799104,4,12,129
7.784736,4,12,129
7.777936,4,12,129
7.773664,4,12,129
3.941120,4,12,129
3.932768,4,12,129
3.929360,4,12,129
3.919440,4,12,129
3.909392,4,12,129
3.900048,4,12,129
3.887760,4,12,129
3.880224,4,12,129
3.870080,4,12,129
3.857568,4,12,129
3.848784,4,12,129
3.840928,4,12,129
3.836016,4,12,129
0.008960,4,12,129
0.000000,4,12,129
7.905824,5,14,161
7.899024,5,14,161
7.890672,5,14,161
7.878240,5,14,161
7.866672,5,14,161
7.860832,5,14,161
7.846704,5,14,161
7.841440,5,14,161
7.837312,5,14,161
7.833856,5,14,161
7.819632,5,14,161
3.992912,5,14,161
3.988560,5,14,161
3.975696,5,14,161
3.971920,5,14,161
3.967008,5,14,161
3.962128,5,14,161
3.951840,5,14,161
3.945040,5,14,161
3.932608,5,14,161
3.924256,5,14,161
3.920848,5,14,161
3.906848,5,14,161
3.892720,5,14,161
3.887456,5,14,161
0.060752,5,14,161
0.052544,5,14,161
0.049088,5,14,161
0.043024,5,14,161
0.030512,5,14,161
0.021728,5,14,161
0.017952,5,14,161
0.013040,5,14,161
0.000000,5,14,161
11.782688,6,17,193
11.771808,6,17,193
11.759376,6,17,193
11.751024,6,17,193
7.921568,6,17,193
7.914080,6,17,193
7.900080,6,17,193
7.894112,6,17,193
7.888848,6,17,193
7.884720,6,17,193
7.873104,6,17,193
7.858880,6,17,193
7.854528,6,17,193
7.849824,6,17,193
7.846048,6,17,193
7.837056,6,17,193
7.824016,6,17,193
3.989408,6,17,193
3.983200,6,17,193
3.968240,6,17,193
3.955808,6,17,193
3.943376,6,17,193
3.931808,6,17,193
3.925968,6,17,193
3.920000,6,17,193
3.910656,6,17,193
3.898368,6,17,193
3.890832,6,17,193
0.057248,6,17,193
0.051184,6,17,193
0.042752,6,17,193
0.033968,6,17,193
0.026112,6,17,193
0.013040,6,17,193
0.000000,6,17,193
11.790272,7,20,225
11.779392,7,20,225
11.775120,7,20,225
11.762688,7,20,225
11.751120,7,20,225
7.925648,7,20,225
7.915728,7,20,225
7.909760,7,20,225
7.904496,7,20,225
7.892208,7,20,225
7.884672,7,20,225
7.874528,7,20,225
7.862016,7,20,225
7.857312,7,20,225
7.845376,7,20,225
7.840464,7,20,225
7.831504,7,20,225
3.993488,7,20,225
3.979120,7,20,225
3.968240,7,20,225
3.955808,7,20,225
3.951536,7,20,225
3.939968,7,20,225
3.930048,7,20,225
3.924080,7,20,225
3.910656,7,20,225
3.898368,7,20,225
3.890832,7,20,225
0.061328,7,20,225
0.047104,7,20,225
0.034592,7,20,225
0.029888,7,20,225
0.026112,7,20,225
0.013040,7,20,225
0.000000,7,20,225
11.769872,8,23,257
11.763072,8,23,257
11.754720,8,23,257
11.750448,8,23,257
11.742960,8,23,257
7.905248,8,23,257
7.891248,8,23,257
7.885280,8,23,257
7.875936,8,23,257
7.863648,8,23,257
7.860192,8,23,257
7.845968,8,23,257
7.841616,8,23,257
7.828752,8,23,257
7.816816,8,23,257
7.803744,8,23,257
3.973088,8,23,257
3.968208,8,23,257
3.962000,8,23,257
3.951120,8,23,257
3.938688,8,23,257
3.930336,8,23,257
3.922848,8,23,257
3.908848,8,23,257
3.898800,8,23,257
3.885376,8,23,257
3.877168,8,23,257
3.865552,8,23,257
0.040928,8,23,257
0.034864,8,23,257
0.030512,8,23,257
0.017648,8,23,257
0.009792,8,23,257
0.004880,8,23,257
0.000000,8,23,257
11.767616,9,26,289
11.760816,9,26,289
11.756544,9,26,289
11.744112,9,26,289
11.732544,9,26,289
11.722624,9,26,289
7.886672,9,26,289
7.876624,9,26,289
7.871360,9,26,289
7.859072,9,26,289
7.855616,9,26,289
7.849552,9,26,289
7.837040,9,26,289
7.828256,9,26,289
7.816320,9,26,289
7.803248,9,26,289
7.794288,9,26,289
7.788080,9,26,289
7.781280,9,26,289
3.954512,9,26,289
3.950240,9,26,289
3.941888,9,26,289
3.934400,9,26,289
3.920400,9,26,289
3.910352,9,26,289
3.896928,9,26,289
3.884640,9,26,289
3.877104,9,26,289
3.866960,9,26,289
3.854448,9,26,289
0.022352,9,26,289
0.013568,9,26,289
0.009792,9,26,289
0.004880,9,26,289
0.000000,9,26,289
7.933984,10,28,321
7.919024,10,28,321
7.910672,10,28,321
7.906400,10,28,321
7.894832,10,28,321
7.884912,10,28,321
7.878944,10,28,321
7.865520,10,28,321
4.038544,10,28,321
4.026256,10,28,321
4.022800,10,28,321
4.008576,10,28,321
4.004224,10,28,321
3.999520,10,28,321
3.991664,10,28,321
3.986752,10,28,321
3.973712,10,28,321
3.959344,10,28,321
3.948464,10,28,321
3.944192,10,28,321
3.935840,10,28,321
3.932432,10,28,321
0.106384,10,28,321
0.092384,10,28,321
0.086416,10,28,321
0.077072,10,28,321
0.072944,10,28,321
0.065408,10,28,321
0.051184,10,28,321
0.042752,10,28,321
0.033968,10,28,321
0.022032,10,28,321
0.013040,10,28,321
0.000000,10,28,321
7.928144,11,31,353
7.921936,11,31,353
7.911056,11,31,353
7.898624,11,31,353
7.894352,11,31,353
7.882784,11,31,353
7.868784,11,31,353
7.858736,11,31,353
7.853472,11,31,353
7.845264,11,31,353
7.837728,11,31,353
7.831664,11,31,353
7.823232,11,31,353
3.995984,11,31,353
3.987200,11,31,353
3.983424,11,31,353
3.974432,11,31,353
3.969552,11,31,353
3.955184,11,31,353
3.940224,11,31,353
3.931872,11,31,353
3.919440,11,31,353
3.911952,11,31,353
3.897952,11,31,353
0.063824,11,31,353
0.057856,11,31,353
0.052592,11,31,353
0.048464,11,31,353
0.045008,11,31,353
0.034864,11,31,353
0.030512,11,31,353
0.017648,11,31,353
0.009792,11,31,353
0.004880,11,31,353
0.000000,11,31,353
11.752256,12,34,385
11.745456,12,34,385
11.737104,12,34,385
11.728752,12,34,385
11.725344,12,34,385
7.898288,12,34,385
7.888368,12,34,385
7.874240,12,34,385
7.868976,12,34,385
7.860768,12,34,385
7.857312,12,34,385
7.843088,12,34,385
7.834656,12,34,385
7.825872,12,34,385
7.813936,12,34,385
7.804944,12,34,385
7.795984,12,34,385
3.966128,12,34,385
3.955840,12,34,385
3.944960,12,34,385
3.940688,12,34,385
3.936416,12,34,385
3.924848,12,34,385
3.914928,12,34,385
3.904880,12,34,385
3.895536,12,34,385
3.887328,12,34,385
3.883872,12,34,385
3.873728,12,34,385
3.869376,12,34,385
3.860592,12,34,385
0.033968,12,34,385
0.022032,12,34,385
0.013040,12,34,385
0.000000,12,34,385
7.910128,13,36,417
7.903328,13,36,417
7.894976,13,36,417
7.890704,13,36,417
7.887296,13,36,417
7.881456,13,36,417
7.867328,13,36,417
7.857984,13,36,417
4.022224,13,36,417
4.018096,13,36,417
4.010560,13,36,417
4.004496,13,36,417
3.996064,13,36,417
3.987280,13,36,417
3.975344,13,36,417
3.962272,13,36,417
3.957392,13,36,417
3.951184,13,36,417
3.940304,13,36,417
3.931952,13,36,417
3.923600,13,36,417
3.920192,13,36,417
0.090064,13,36,417
0.080144,13,36,417
0.074176,13,36,417
0.060752,13,36,417
0.052544,13,36,417
0.045008,13,36,417
0.034864,13,36,417
0.030512,13,36,417
0.021728,13,36,417
0.013872,13,36,417
0.004880,13,36,417
0.000000,13,36,417
11.786624,14,39,449
7.958896,14,39,449
7.948016,14,39,449
7.939664,14,39,449
7.931312,14,39,449
7.927904,14,39,449
7.913904,14,39,449
7.903856,14,39,449
7.894512,14,39,449
7.890384,14,39,449
7.878768,14,39,449
7.872704,14,39,449
7.860192,14,39,449
4.026736,14,39,449
4.013872,14,39,449
4.001936,14,39,449
3.997024,14,39,449
3.983984,14,39,449
3.969616,14,39,449
3.958736,14,39,449
3.954464,14,39,449
3.950192,14,39,449
3.938624,14,39,449
3.932784,14,39,449
3.926816,14,39,449
0.094576,14,39,449
0.081152,14,39,449
0.072944,14,39,449
0.061328,14,39,449
0.047104,14,39,449
0.038672,14,39,449
0.033968,14,39,449
0.026112,14,39,449
0.013040,14,39,449
0.000000,14,39,449
11.764608,15,42,481
7.937312,15,42,481
7.930512,15,42,481
7.922160,15,42,481
7.917888,15,42,481
7.914480,15,42,481
7.908640,15,42,481
7.898592,15,42,481
7.885168,15,42,481
7.881040,15,42,481
7.873504,15,42,481
7.863360,15,42,481
7.859008,15,42,481
7.846144,15,42,481
7.842368,15,42,481
7.837456,15,42,481
4.005152,15,42,481
3.996192,15,42,481
3.981824,15,42,481
3.975024,15,42,481
3.962592,15,42,481
3.950160,15,42,481
3.938592,15,42,481
3.924592,15,42,481
3.910464,15,42,481
3.901120,15,42,481
0.072992,15,42,481
0.064784,15,42,481
0.053168,15,42,481
0.047104,15,42,481
0.034592,15,42,481
0.025808,15,42,481
0.017952,15,42,481
0.013040,15,42,481
0.000000,15,42,481
11.743712,16,45,513
11.728752,16,45,513
11.720400,16,45,513
11.716128,16,45,513
7.890752,16,45,513
7.883264,16,45,513
7.877424,16,45,513
7.863296,16,45,513
7.853952,16,45,513
7.845744,16,45,513
7.838208,16,45,513
7.828064,16,45,513
7.823712,16,45,513
7.810848,16,45,513
7.802992,16,45,513
7.789920,16,45,513
7.785040,16,45,513
3.958592,16,45,513
3.948304,16,45,513
3.933344,16,45,513
3.929072,16,45,513
3.924800,16,45,513
3.913232,16,45,513
3.907392,16,45,513
3.893264,16,45,513
3.888000,16,45,513
3.883872,16,45,513
3.876336,16,45,513
3.870272,16,45,513
3.857760,16,45,513
0.026432,16,45,513
0.021728,16,45,513
0.009792,16,45,513
0.004880,16,45,513
0.000000,16,45,513
7.900592,17,47,545
7.885632,17,47,545
7.881360,17,47,545
7.877088,17,47,545
7.869600,17,47,545
7.863760,17,47,545
7.853712,17,47,545
7.848448,17,47,545
7.844320,17,47,545
7.836784,17,47,545
7.826640,17,47,545
4.001072,17,47,545
3.992640,17,47,545
3.987936,17,47,545
3.984160,17,47,545
3.971088,17,47,545
3.962128,17,47,545
3.955920,17,47,545
3.945040,17,47,545
3.936688,17,47,545
3.932416,17,47,545
3.924928,17,47,545
3.919088,17,47,545
3.913120,17,47,545
3.899696,17,47,545
0.068912,17,47,545
0.064784,17,47,545
0.061328,17,47,545
0.051184,17,47,545
0.046832,17,47,545
0.033968,17,47,545
0.026112,17,47,545
0.013040,17,47,545
0.000000,17,47,545
11.750048,18,50,577
11.739168,18,50,577
11.734896,18,50,577
11.726544,18,50,577
7.901168,18,50,577
7.889600,18,50,577
7.875600,18,50,577
7.861472,18,50,577
7.852128,18,50,577
7.843920,18,50,577
7.840464,18,50,577
7.830320,18,50,577
7.817808,18,50,577
7.813104,18,50,577
7.805248,18,50,577
3.969008,18,50,577
3.955936,18,50,577
3.951056,18,50,577
3.936688,18,50,577
3.925808,18,50,577
3.917456,18,50,577
3.909104,18,50,577
3.897536,18,50,577
3.891696,18,50,577
3.885728,18,50,577
3.880464,18,50,577
3.872256,18,50,577
3.864720,18,50,577
0.036848,18,50,577
0.026704,18,50,577
0.022352,18,50,577
0.013568,18,50,577
0.009792,18,50,577
0.004880,18,50,577
0.000000,18,50,577
