Time,CovertPackets,AllPackets,BitsSent,PacketInterval,GTSInterval
260.511248,1,2,1,4.000000,0
260.515248,2,3,2,5.600000,0
260.520848,3,4,3,7.136000,0
260.527984,4,5,4,5.920000,0
260.533904,5,6,5,6.880000,0
260.540784,6,7,6,5.280000,0
260.546064,7,8,7,5.536000,0
260.551600,8,9,8,6.176000,0
260.557776,9,10,9,5.536000,0
260.563312,10,11,10,5.920000,0
260.569232,11,12,11,5.216000,0
260.574448,12,13,12,6.176000,0
260.580624,13,14,13,5.920000,0
260.586544,14,15,14,5.600000,0
260.592144,15,16,15,7.136000,0
260.599280,16,17,16,4.000000,0
260.603280,17,18,17,6.496000,0
260.609776,18,19,18,6.816000,0
260.616592,19,20,19,5.600000,0
260.622192,20,21,20,6.176000,0
260.628368,21,22,21,0,31337.008000
291.965376,21,23,21,4.000000,0
291.969376,22,24,22,5.536000,0
291.974912,23,25,23,4.960000,0
291.979872,24,26,24,5.216000,0
291.985088,25,27,25,5.216000,0
291.990304,26,28,26,5.216000,0
291.995520,27,29,27,4.000000,0
291.999520,28,30,28,5.600000,0
292.005120,29,31,29,7.136000,0
292.012256,30,32,30,5.920000,0
292.018176,31,33,31,6.880000,0
292.025056,32,34,32,5.280000,0
292.030336,33,35,33,5.536000,0
292.035872,34,36,34,6.176000,0
292.042048,35,37,35,5.536000,0
292.047584,36,38,36,5.920000,0
292.053504,37,39,37,5.216000,0
292.058720,38,40,38,6.176000,0
292.064896,39,41,39,5.920000,0
292.070816,40,42,40,5.600000,0
292.076416,41,43,41,7.136000,0
292.083552,42,44,42,4.000000,0
292.087552,43,45,43,0,31335.104000
323.422656,43,46,43,6.496000,0
323.429152,44,47,44,6.816000,0
323.435968,45,48,45,5.600000,0
323.441568,46,49,46,6.176000,0
323.447744,47,50,47,4.000000,0
323.451744,48,51,48,5.536000,0
323.457280,49,52,49,4.960000,0
323.462240,50,53,50,5.216000,0
323.467456,51,54,51,5.216000,0
323.472672,52,55,52,5.216000,0
323.477888,53,56,53,4.000000,0
323.481888,54,57,54,5.600000,0
323.487488,55,58,55,7.136000,0
323.494624,56,59,56,5.920000,0
323.500544,57,60,57,6.880000,0
323.507424,58,61,58,5.280000,0
323.512704,59,62,59,5.536000,0
323.518240,60,63,60,6.176000,0
323.524416,61,64,61,5.536000,0
323.529952,62,65,62,5.920000,0
323.535872,63,66,63,5.216000,0
323.541088,64,67,64,6.176000,0
323.547264,65,68,65,0,31332.672000
354.879936,65,69,65,5.920000,0
354.885856,66,70,66,5.600000,0
354.891456,67,71,67,7.136000,0
354.898592,68,72,68,4.000000,0
354.902592,69,73,69,6.496000,0
354.909088,70,74,70,6.816000,0
354.915904,71,75,71,5.600000,0
354.921504,72,76,72,6.176000,0
354.927680,73,77,73,4.000000,0
354.931680,74,78,74,5.536000,0
354.937216,75,79,75,4.960000,0
354.942176,76,80,76,5.216000,0
354.947392,77,81,77,5.216000,0
354.952608,78,82,78,5.216000,0
354.957824,79,83,79,4.000000,0
354.961824,80,84,80,5.600000,0
354.967424,81,85,81,7.136000,0
354.974560,82,86,82,5.920000,0
354.980480,83,87,83,6.880000,0
354.987360,84,88,84,5.280000,0
354.992640,85,89,85,5.536000,0
354.998176,86,90,86,0,31339.040000
386.337216,86,91,86,6.176000,0
386.343392,87,92,87,5.536000,0
386.348928,88,93,88,5.920000,0
386.354848,89,94,89,5.216000,0
386.360064,90,95,90,6.176000,0
386.366240,91,96,91,5.920000,0
386.372160,92,97,92,5.600000,0
386.377760,93,98,93,7.136000,0
386.384896,94,99,94,4.000000,0
386.388896,95,100,95,6.496000,0
386.395392,96,101,96,6.816000,0
386.402208,97,102,97,5.600000,0
386.407808,98,103,98,6.176000,0
386.413984,99,104,99,4.000000,0
386.417984,100,105,100,5.536000,0
386.423520,101,106,101,4.960000,0
386.428480,102,107,102,5.216000,0
386.433696,103,108,103,5.216000,0
386.438912,104,109,104,5.216000,0
386.444128,105,110,105,4.000000,0
386.448128,106,111,106,5.600000,0
386.453728,107,112,107,7.136000,0
386.460864,108,113,108,0,31333.632000
417.794496,108,114,108,5.920000,0
417.800416,109,115,109,6.880000,0
417.807296,110,116,110,5.280000,0
417.812576,111,117,111,5.536000,0
417.818112,112,118,112,6.176000,0
417.824288,113,119,113,5.536000,0
417.829824,114,120,114,5.920000,0
417.835744,115,121,115,5.216000,0
417.840960,116,122,116,6.176000,0
417.847136,117,123,117,5.920000,0
417.853056,118,124,118,5.600000,0
417.858656,119,125,119,7.136000,0
417.865792,120,126,120,4.000000,0
417.869792,121,127,121,6.496000,0
417.876288,122,128,122,6.816000,0
417.883104,123,129,123,5.600000,0
417.888704,124,130,124,6.176000,0
417.894880,125,131,125,4.000000,0
417.898880,126,132,126,5.536000,0
417.904416,127,133,127,4.960000,0
417.909376,128,134,128,5.216000,0
417.914592,129,135,129,0,31337.184000
449.251776,129,136,129,5.216000,0
449.256992,130,137,130,5.216000,0
449.262208,131,138,131,4.000000,0
449.266208,132,139,132,5.600000,0
449.271808,133,140,133,7.136000,0
449.278944,134,141,134,5.920000,0
449.284864,135,142,135,6.880000,0
449.291744,136,143,136,5.280000,0
449.297024,137,144,137,5.536000,0
449.302560,138,145,138,6.176000,0
449.308736,139,146,139,5.536000,0
449.314272,140,147,140,5.920000,0
449.320192,141,148,141,5.216000,0
449.325408,142,149,142,6.176000,0
449.331584,143,150,143,5.920000,0
449.337504,144,151,144,5.600000,0
449.343104,145,152,145,7.136000,0
449.350240,146,153,146,4.000000,0
449.354240,147,154,147,6.496000,0
449.360736,148,155,148,6.816000,0
449.367552,149,156,149,5.600000,0
449.373152,150,157,150,