Time,CovertPackets,AllPackets,BitsSent,PacketInterval,GTSInterval
260.511248,1,2,1,4.000000,0
260.515248,2,3,2,5.600000,0
260.520848,3,4,3,7.136000,0
260.527984,4,5,4,5.920000,0
260.533904,5,6,5,6.880000,0
260.540784,6,7,6,0,31424.592000
291.965376,6,8,6,5.280000,0
291.970656,7,9,7,5.536000,0
291.976192,8,10,8,6.176000,0
291.982368,9,11,9,5.536000,0
291.987904,10,12,10,5.920000,0
291.993824,11,13,11,5.216000,0
291.999040,12,14,12,6.176000,0
292.005216,13,15,13,5.920000,0
292.011136,14,16,14,5.600000,0
292.016736,15,17,15,7.136000,0
292.023872,16,18,16,4.000000,0
292.027872,17,19,17,6.496000,0
292.034368,18,20,18,6.816000,0
292.041184,19,21,19,5.600000,0
292.046784,20,22,20,6.176000,0
292.052960,21,23,21,4.000000,0
292.056960,22,24,22,5.536000,0
292.062496,23,25,23,4.960000,0
292.067456,24,26,24,5.216000,0
292.072672,25,27,25,5.216000,0
292.077888,26,28,26,5.216000,0
292.083104,27,29,27,0,31339.552000
323.422656,27,30,27,4.000000,0
323.426656,28,31,28,5.600000,0
323.432256,29,32,29,7.136000,0
323.439392,30,33,30,5.920000,0
323.445312,31,34,31,6.880000,0
323.452192,32,35,32,5.280000,0
323.457472,33,36,33,5.536000,0
323.463008,34,37,34,6.176000,0
323.469184,35,38,35,5.536000,0
323.474720,36,39,36,5.920000,0
323.480640,37,40,37,5.216000,0
323.485856,38,41,38,6.176000,0
323.492032,39,42,39,5.920000,0
323.497952,40,43,40,5.600000,0
323.503552,41,44,41,7.136000,0
323.510688,42,45,42,4.000000,0
323.514688,43,46,43,6.496000,0
323.521184,44,47,44,6.816000,0
323.528000,45,48,45,5.600000,0
323.533600,46,49,46,6.176000,0
323.539776,47,50,47,4.000000,0
323.543776,48,51,48,0,31336.160000
354.879936,48,52,48,5.536000,0
354.885472,49,53,49,4.960000,0
354.890432,50,54,50,5.216000,0
354.895648,51,55,51,5.216000,0
354.900864,52,56,52,5.216000,0
354.906080,53,57,53,4.000000,0
354.910080,54,58,54,5.600000,0
354.915680,55,59,55,7.136000,0
354.922816,56,60,56,5.920000,0
354.928736,57,61,57,6.880000,0
354.935616,58,62,58,5.280000,0
354.940896,59,63,59,5.536000,0
354.946432,60,64,60,6.176000,0
354.952608,61,65,61,5.536000,0
354.958144,62,66,62,5.920000,0
354.964064,63,67,63,5.216000,0
354.969280,64,68,64,6.176000,0
354.975456,65,69,65,5.920000,0
354.981376,66,70,66,5.600000,0
354.986976,67,71,67,7.136000,0
354.994112,68,72,68,4.000000,0
354.998112,69,73,69,0,31339.104000
386.337216,69,74,69,6.496000,0
386.343712,70,75,70,6.816000,0
386.350528,71,76,71,5.600000,0
386.356128,72,77,72,6.176000,0
386.362304,73,78,73,4.000000,0
386.366304,74,79,74,5.536000,0
386.371840,75,80,75,4.960000,0
386.376800,76,81,76,5.216000,0
386.382016,77,82,77,5.216000,0
386.387232,78,83,78,5.216000,0
386.392448,79,84,79,4.000000,0
386.396448,80,85,80,5.600000,0
386.402048,81,86,81,7.136000,0
386.409184,82,87,82,5.920000,0
386.415104,83,88,83,6.880000,0
386.421984,84,89,84,5.280000,0
386.427264,85,90,85,5.536000,0
386.432800,86,91,86,6.176000,0
386.438976,87,92,87,5.536000,0
386.444512,88,93,88,5.920000,0
386.450432,89,94,89,5.216000,0
386.455648,90,95,90,0,31338.848000
417.794496,90,96,90,6.176000,0
417.800672,91,97,91,5.920000,0
417.806592,92,98,92,5.600000,0
417.812192,93,99,93,7.136000,0
417.819328,94,100,94,4.000000,0
417.823328,95,101,95,6.496000,0
417.829824,96,102,96,6.816000,0
417.836640,97,103,97,5.600000,0
417.842240,98,104,98,6.176000,0
417.848416,99,105,99,4.000000,0
417.852416,100,106,100,5.536000,0
417.857952,101,107,101,4.960000,0
417.862912,102,108,102,5.216000,0
417.868128,103,109,103,5.216000,0
417.873344,104,110,104,5.216000,0
417.878560,105,111,105,4.000000,0
417.882560,106,112,106,5.600000,0
417.888160,107,113,107,7.136000,0
417.895296,108,114,108,5.920000,0
417.901216,109,115,109,6.880000,0
417.908096,110,116,110,5.280000,0
417.913376,111,117,111,0,31338.400000
449.251776,111,118,111,5.536000,0
449.257312,112,119,112,6.176000,0
449.263488,113,120,113,5.536000,0
449.269024,114,121,114,5.920000,0
449.274944,115,122,115,5.216000,0
449.280160,116,123,116,6.176000,0
449.286336,117,124,117,5.920000,0
449.292256,118,125,118,5.600000,0
449.297856,119,126,119,7.136000,0
449.304992,120,127,120,4.000000,0
449.308992,121,128,121,6.496000,0
449.315488,122,129,122,6.816000,0
449.322304,123,130,123,5.600000,0
449.327904,124,131,124,6.176000,0
449.334080,125,132,125,4.000000,0
449.338080,126,133,126,5.536000,0
449.343616,127,134,127,4.960000,0
449.348576,128,135,128,5.216000,0
449.353792,129,136,129,5.216000,0
449.359008,130,137,130,5.216000,0
449.364224,131,138,131,4.000000,0
449.368224,132,139,132,