Time,CovertPackets,AllPackets,BitsSent,PacketInterval,GTSInterval
30.756992,1,2,0,5.696000,0
30.762688,2,3,0,6.336000,0
30.769024,3,4,0,0,967.232000
31.736256,3,5,0,7.616000,0
31.743872,4,6,0,5.696000,0
31.749568,5,7,0,5.056000,0
31.754624,6,8,0,0,964.672000
32.719296,6,9,0,5.696000,0
32.724992,7,10,0,5.696000,0
32.730688,8,11,1,6.336000,0
32.737024,9,12,1,4.416000,0
32.741440,10,13,1,0,960.896000
33.702336,10,14,1,7.616000,0
33.709952,11,15,1,7.616000,0
33.717568,12,16,1,5.696000,0
33.723264,13,17,1,0,962.112000
34.685376,13,18,1,5.056000,0
34.690432,14,19,1,6.336000,0
34.696768,15,20,1,6.336000,0
34.703104,16,21,2,0,965.312000
35.668416,16,22,2,5.056000,0
35.673472,17,23,2,5.696000,0
35.679168,18,24,2,6.976000,0
35.686144,19,25,2,0,965.312000
36.651456,19,26,2,6.336000,0
36.657792,20,27,2,5.056000,0
36.662848,21,28,2,5.696000,0
36.668544,22,29,2,5.056000,0
36.673600,23,30,2,0,960.896000
37.634496,23,31,2,4.416000,0
37.638912,24,32,3,4.416000,0
37.643328,25,33,3,5.056000,0
37.648384,26,34,3,5.696000,0
37.654080,27,35,3,0,963.456000
38.617536,27,36,3,6.336000,0
38.623872,28,37,3,7.616000,0
38.631488,29,38,3,4.416000,0
38.635904,30,39,3,0,964.672000
39.600576,30,40,3,5.056000,0
39.605632,31,41,3,5.056000,0
39.610688,32,42,4,7.616000,0
39.618304,33,43,4,0,965.312000
40.583616,33,44,4,6.336000,0
40.589952,34,45,4,5.696000,0
40.595648,35,46,4,4.416000,0
40.600064,36,47,4,6.336000,0
40.606400,37,48,4,0,960.256000
41.566656,37,49,4,6.336000,0
41.572992,38,50,4,5.696000,0
41.578688,39,51,4,6.336000,0
41.585024,40,52,5,0,964.672000
42.549696,40,53,5,4.416000,0
42.554112,41,54,5,4.416000,0
42.558528,42,55,5,5.056000,0
42.563584,43,56,5,6.976000,0
42.570560,44,57,5,0,962.176000
43.532736,44,58,5,6.336000,0
43.539072,45,59,5,6.336000,0
43.545408,46,60,5,6.976000,0
43.552384,47,61,5,0,963.392000
44.515776,47,62,5,7.616000,0
44.523392,48,63,6,6.336000,0
44.529728,49,64,6,6.336000,0
44.536064,50,65,6,0,962.752000
45.498816,50,66,6,6.336000,0
45.505152,51,67,6,5.696000,0
45.510848,52,68,6,5.696000,0
45.516544,53,69,6,5.056000,0
45.521600,54,70,6,0,960.256000
46.481856,54,71,6,6.336000,0
46.488192,55,72,6,6.976000,0
46.495168,56,73,7,5.056000,0
46.500224,57,74,7,0,964.672000
47.464896,57,75,7,6.976000,0
47.471872,58,76,7,6.976000,0
47.478848,59,77,7,7.616000,0
47.486464,60,78,7,0,961.472000
48.447936,60,79,7,5.696000,0
48.453632,61,80,7,5.056000,0
48.458688,62,81,7,7.616000,0
48.466304,63,82,7,0,964.672000
49.430976,63,83,7,6.976000,0
49.437952,64,84,8,7.616000,0
49.445568,65,85,8,7.616000,0
49.453184,66,86,8,0,960.832000
50.414016,66,87,8,6.336000,0
50.420352,67,88,8,5.696000,0
50.426048,68,89,8,5.696000,0
50.431744,69,90,8,0,965.312000
51.397056,69,91,8,6.336000,0
51.403392,70,92,8,7.616000,0
51.411008,71,93,8,4.416000,0
51.415424,72,94,9,0,964.672000
52.380096,72,95,9,7.616000,0
52.387712,73,96,9,4.416000,0
52.392128,74,97,9,6.976000,0
52.399104,75,98,9,0,964.032000
53.363136,75,99,9,7.616000,0
53.370752,76,100,9,4.416000,0
53.375168,77,101,9,7.616000,0
53.382784,78,102,9,0,963.392000
54.346176,78,103,9,7.616000,0
54.353792,79,104,9,6.976000,0
54.360768,80,105,10,5.056000,0
54.365824,81,106,10,0,963.392000
55.329216,81,107,10,5.056000,0
55.334272,82,108,10,6.336000,0
55.340608,83,109,10,4.416000,0
55.345024,84,110,10,5.696000,0
55.350720,85,111,10,0,961.536000
56.312256,85,112,10,5.056000,0
56.317312,86,113,10,6.336000,0
56.323648,87,114,10,4.416000,0
56.328064,88,115,11,0,967.232000
57.295296,88,116,11,7.616000,0
57.302912,89,117,11,6.976000,0
57.309888,90,118,11,4.416000,0
57.314304,91,119,11,0,964.032000
58.278336,91,120,11,5.056000,0
58.283392,92,121,11,4.416000,0
58.287808,93,122,11,5.056000,0
58.292864,94,123,11,7.616000,0
58.300480,95,124,11,0,960.896000
59.261376,95,125,11,4.416000,0
59.265792,96,126,12,7.616000,0
59.273408,97,127,12,5.056000,0
59.278464,98,128,12,0,965.952000
60.244416,98,129,12,6.336000,0
60.250752,99,130,12,4.416000,0
60.255168,100,131,12,4.416000,0
60.259584,101,132,12,7.616000,0
60.267200,102,133,12,0,960.256000
61.227456,102,134,12,7.616000,0
61.235072,103,135,12,5.696000,0
61.240768,104,136,13,7.616000,0
61.248384,105,137,13,0,962.112000
62.210496,105,138,13,4.416000,0
62.214912,106,139,13,4.416000,0
62.219328,107,140,13,7.616000,0
62.226944,108,141,13,0,966.592000
63.193536,108,142,13,6.976000,0
63.200512,109,143,13,6.336000,0
63.206848,110,144,13,6.336000,0
63.213184,111,145,13,0,963.392000
64.176576,111,146,13,5.696000,0
64.182272,112,147,14,5.056000,0
64.187328,113,148,14,7.616000,0
64.194944,114,149,14,0,964.672000
65.159616,114,150,14,6.336000,0
65.165952,115,151,14,4.416000,0
65.170368,116,152,14,5.696000,0
65.176064,117,153,14,6.336000,0
65.182400,118,154,14,0,960.256000
66.142656,118,155,14,5.056000,0
66.147712,119,156,14,6.976000,0
66.154688,120,157,15,6.336000,0
66.161024,121,158,15,4.416000,0
66.165440,122,159,15,0,960.256000
67.125696,122,160,15,4.416000,0
67.130112,123,161,15,6.336000,0
67.136448,124,162,15,4.416000,0
67.140864,125,163,15,5.056000,0
67.145920,126,164,15,0,962.816000
68.108736,126,165,15,7.616000,0
68.116352,127,166,15,6.976000,0
68.123328,128,167,16,5.056000,0
68.128384,129,168,16,0,963.392000
69.091776,129,169,16,6.336000,0
69.098112,130,170,16,6.336000,0
69.104448,131,171,16,6.976000,0
69.111424,132,172,16,0,963.392000
70.074816,132,173,16,5.696000,0
70.080512,133,174,16,6.336000,0
70.086848,134,175,16,7.616000,0
70.094464,135,176,16,0,963.392000
71.057856,135,177,16,6.976000,0
71.064832,136,178,17,5.056000,0
71.069888,137,179,17,5.696000,0
71.075584,138,180,17,0,965.312000
72.040896,138,181,17,5.696000,0
72.046592,139,182,17,7.616000,0
72.054208,140,183,17,5.696000,0
72.059904,141,184,17,0,964.032000
73.023936,141,185,17,7.616000,0
73.031552,142,186,17,5.056000,0
73.036608,143,187,17,6.976000,0
73.043584,144,188,18,0,963.392000
74.006976,144,189,18,7.616000,0
74.014592,145,190,18,6.336000,0
74.020928,146,191,18,6.336000,0
74.027264,147,192,18,0,962.752000
74.990016,147,193,18,7.616000,0
74.997632,148,194,18,5.696000,0
75.003328,149,195,18,4.416000,0
75.007744,150,196,18,0,965.312000
75.973056,150,197,18,6.336000,0
75.979392,151,198,18,7.616000,0
75.987008,152,199,19,5.696000,0
75.992704,153,200,19,0,963.392000
76.956096,153,201,19,6.336000,0
76.962432,154,202,19,5.696000,0
76.968128,155,203,19,4.416000,0
76.972544,156,204,19,5.056000,0
76.977600,157,205,19,0,961.536000
77.939136,157,206,19,5.696000,0
77.944832,158,207,19,5.056000,0
77.949888,159,208,19,7.616000,0
77.957504,160,209,20,0,964.672000
78.922176,160,210,20,4.416000,0
78.926592,161,211,20,7.616000,0
78.934208,162,212,20,5.056000,0
78.939264,163,213,20,5.056000,0
78.944320,164,214,20,0,960.896000
79.905216,164,215,20,5.056000,0
79.910272,165,216,20,5.696000,0
79.915968,166,217,20,6.976000,0
79.922944,167,218,20,0,965.312000
80.888256,167,219,20,5.056000,0
80.893312,168,220,21,6.336000,0
80.899648,169,221,21,4.416000,0
80.904064,170,222,21,6.336000,0
80.910400,171,223,21,0,960.896000
81.871296,171,224,21,5.696000,0
81.876992,172,225,21,4.416000,0
81.881408,173,226,21,6.336000,0
81.887744,174,227,21,0,966.592000
82.854336,174,228,21,4.416000,0
82.858752,175,229,21,6.336000,0
82.865088,176,230,22,6.336000,0
82.871424,177,231,22,0,965.952000
83.837376,177,232,22,5.696000,0
83.843072,178,233,22,5.056000,0
83.848128,179,234,22,6.336000,0
83.854464,180,235,22,0,965.952000
84.820416,180,236,22,6.336000,0
84.826752,181,237,22,6.976000,0
84.833728,182,238,22,5.696000,0
84.839424,183,239,22,0,964.032000
85.803456,183,240,22,5.056000,0
85.808512,184,241,23,6.336000,0
85.814848,185,242,23,4.416000,0
85.819264,186,243,23,6.336000,0
85.825600,187,244,23,0,960.896000
86.786496,187,245,23,6.976000,0
86.793472,188,246,23,4.416000,0
86.797888,189,247,23,6.336000,0
86.804224,190,248,23,0,965.312000
87.769536,190,249,23,6.976000,0
87.776512,191,250,23,6.336000,0
87.782848,192,251,24,7.616000,0
87.790464,193,252,24,0,962.112000
88.752576,193,253,24,6.976000,0
88.759552,194,254,24,7.616000,0
88.767168,195,255,24,6.336000,0
88.773504,196,256,24,0,962.112000
89.735616,196,257,24,6.336000,0
89.741952,197,258,24,5.696000,0
89.747648,198,259,24,6.976000,0
89.754624,199,260,24,0,964.032000
90.718656,199,261,24,5.056000,0
90.723712,200,262,25,5.056000,0
90.728768,201,263,25,6.976000,0
90.735744,202,264,25,0,965.952000
91.701696,202,265,25,6.336000,0
91.708032,203,266,25,6.976000,0
91.715008,204,267,25,6.976000,0
91.721984,205,268,25,0,962.752000
92.684736,205,269,25,7.616000,0
92.692352,206,270,25,4.416000,0
92.696768,207,271,25,7.616000,0
92.704384,208,272,26,0,963.392000
93.667776,208,273,26,5.056000,0
93.672832,209,274,26,6.976000,0
93.679808,210,275,26,7.616000,0
93.687424,211,276,26,0,963.392000
94.650816,211,277,26,6.336000,0
94.657152,212,278,26,7.616000,0
94.664768,213,279,26,6.976000,0
94.671744,214,280,26,0,962.112000
95.633856,214,281,26,6.976000,0
95.640832,215,282,26,6.336000,0
95.647168,216,283,27,5.056000,0
95.652224,217,284,27,4.416000,0
95.656640,218,285,27,0,960.256000
96.616896,218,286,27,6.336000,0
96.623232,219,287,27,5.696000,0
96.628928,220,288,27,6.976000,0
96.635904,221,289,27,0,964.032000
97.599936,221,290,27,6.336000,0
97.606272,222,291,27,5.696000,0
97.611968,223,292,27,7.616000,0
97.619584,224,293,28,0,963.392000
98.582976,224,294,28,5.056000,0
98.588032,225,295,28,4.416000,0
98.592448,226,296,28,7.616000,0
98.600064,227,297,28,0,965.952000
99.566016,227,298,28,6.336000,0
99.572352,228,299,28,5.056000,0
99.577408,229,300,28,6.976000,0
99.584384,230,301,28,0,964.672000
100.549056,230,302,28,6.976000,0
100.556032,231,303,28,6.336000,0
100.562368,232,304,29,6.336000,0
100.568704,233,305,29,0,963.392000
101.532096,233,306,29,6.976000,0
101.539072,234,307,29,7.616000,0
101.546688,235,308,29,4.416000,0
101.551104,236,309,29,0,964.032000
102.515136,236,310,29,6.976000,0
102.522112,237,311,29,6.336000,0
102.528448,238,312,29,4.416000,0
102.532864,239,313,29,0,965.312000
103.498176,239,314,29,5.056000,0
103.503232,240,315,30,5.056000,0
103.508288,241,316,30,5.696000,0
103.513984,242,317,30,0,967.232000
104.481216,242,318,30,5.056000,0
104.486272,243,319,30,7.616000,0
104.493888,244,320,30,5.056000,0
104.498944,245,321,30,0,965.312000
105.464256,245,322,30,6.336000,0
105.470592,246,323,30,5.696000,0
105.476288,247,324,30,5.696000,0
105.481984,248,325,31,0,965.312000
106.447296,248,326,31,7.616000,0
106.454912,249,327,31,7.616000,0
106.462528,250,328,31,5.696000,0
106.468224,251,329,31,0,962.112000
107.430336,251,330,31,7.616000,0
107.437952,252,331,31,5.696000,0
107.443648,253,332,31,5.696000,0
107.449344,254,333,31,0,964.032000
108.413376,254,334,31,5.056000,0
108.418432,255,335,31,4.416000,0
108.422848,256,336,32,6.336000,0
108.429184,257,337,32,6.336000,0
108.435520,258,338,32,0,960.896000
109.396416,258,339,32,5.696000,0
109.402112,259,340,32,7.616000,0
109.409728,260,341,32,7.616000,0
109.417344,261,342,32,0,962.112000
110.379456,261,343,32,5.056000,0
110.384512,262,344,32,6.976000,0
110.391488,263,345,32,4.416000,0
110.395904,264,346,33,6.336000,0
110.402240,265,347,33,0,960.256000
111.362496,265,348,33,6.336000,0
111.368832,266,349,33,4.416000,0
111.373248,267,350,33,5.056000,0
111.378304,268,351,33,5.696000,0
111.384000,269,352,33,0,961.536000
112.345536,269,353,33,5.696000,0
112.351232,270,354,33,5.056000,0
112.356288,271,355,33,5.696000,0
112.361984,272,356,34,6.336000,0
112.368320,273,357,34,0,960.256000
113.328576,273,358,34,7.616000,0
113.336192,274,359,34,4.416000,0
113.340608,275,360,34,5.056000,0
113.345664,276,361,34,0,965.952000
114.311616,276,362,34,7.616000,0
114.319232,277,363,34,7.616000,0
114.326848,278,364,34,4.416000,0
114.331264,279,365,34,0,963.392000
115.294656,279,366,34,4.416000,0
115.299072,280,367,35,7.616000,0
115.306688,281,368,35,5.056000,0
115.311744,282,369,35,5.696000,0
115.317440,283,370,35,0,960.256000
116.277696,283,371,35,7.616000,0
116.285312,284,372,35,6.976000,0
116.292288,285,373,35,4.416000,0
116.296704,286,374,35,0,964.032000
117.260736,286,375,35,6.336000,0
117.267072,287,376,35,4.416000,0
117.271488,288,377,36,5.056000,0
117.276544,289,378,36,5.056000,0
117.281600,290,379,36,0,962.176000
118.243776,290,380,36,6.976000,0
118.250752,291,381,36,7.616000,0
118.258368,292,382,36,5.056000,0
118.263424,293,383,36,0,963.392000
119.226816,293,384,36,7.616000,0
119.234432,294,385,36,5.696000,0
119.240128,295,386,36,5.696000,0
119.245824,296,387,37,0,964.032000
120.209856,296,388,37,6.336000,0
120.216192,297,389,37,5.056000,0
120.221248,298,390,37,5.696000,0
120.226944,299,391,37,0,965.952000
121.192896,299,392,37,7.616000,0
121.200512,300,393,37,5.696000,0
121.206208,301,394,37,4.416000,0
121.210624,302,395,37,5.056000,0
121.215680,303,396,37,0,960.256000
122.175936,303,397,37,4.416000,0
122.180352,304,398,38,5.056000,0
122.185408,305,399,38,5.056000,0
122.190464,306,400,38,4.416000,0
122.194880,307,401,38,0,964.096000
123.158976,307,402,38,6.336000,0
123.165312,308,403,38,5.056000,0
123.170368,309,404,38,6.336000,0
123.176704,310,405,38,4.416000,0
123.181120,311,406,38,0,960.896000
124.142016,311,407,38,4.416000,0
124.146432,312,408,39,5.056000,0
124.151488,313,409,39,7.616000,0
124.159104,314,410,39,4.416000,0
124.163520,315,411,39,0,961.536000
125.125056,315,412,39,5.056000,0
125.130112,316,413,39,4.416000,0
125.134528,317,414,39,5.696000,0
125.140224,318,415,39,5.056000,0
125.145280,319,416,39,0,962.816000
126.108096,319,417,39,5.696000,0
126.113792,320,418,40,5.056000,0
126.118848,321,419,40,5.056000,0
126.123904,322,420,40,6.976000,0
126.130880,323,421,40,0,960.256000
127.091136,323,422,40,6.336000,0
127.097472,324,423,40,6.336000,0
127.103808,325,424,40,6.336000,0
127.110144,326,425,40,0,964.032000
128.074176,326,426,40,5.056000,0
128.079232,327,427,40,6.976000,0
128.086208,328,428,41,5.696000,0
128.091904,329,429,41,0,965.312000
129.057216,329,430,41,7.616000,0
129.064832,330,431,41,5.056000,0
129.069888,331,432,41,6.976000,0
129.076864,332,433,41,0,963.392000
130.040256,332,434,41,5.056000,0
130.045312,333,435,41,6.976000,0
130.052288,334,436,41,4.416000,0
130.056704,335,437,41,6.336000,0
130.063040,336,438,42,0,960.256000
131.023296,336,439,42,4.416000,0
131.027712,337,440,42,6.336000,0
131.034048,338,441,42,7.616000,0
131.041664,339,442,42,0,964.672000
132.006336,339,443,42,4.416000,0
132.010752,340,444,42,5.056000,0
132.015808,341,445,42,5.056000,0
132.020864,342,446,42,5.056000,0
132.025920,343,447,42,0,963.456000
132.989376,343,448,42,5.056000,0
132.994432,344,449,43,4.416000,0
132.998848,345,450,43,6.976000,0
133.005824,346,451,43,5.056000,0
133.010880,347,452,43,0,961.536000
133.972416,347,453,43,5.056000,0
133.977472,348,454,43,6.976000,0
133.984448,349,455,43,6.336000,0
133.990784,350,456,43,0,964.672000
134.955456,350,457,43,5.696000,0
134.961152,351,458,43,4.416000,0
134.965568,352,459,44,6.336000,0
134.971904,353,460,44,0,966.592000
135.938496,353,461,44,5.696000,0
135.944192,354,462,44,6.336000,0
135.950528,355,463,44,7.616000,0
135.958144,356,464,44,0,963.392000
136.921536,356,465,44,6.976000,0
136.928512,357,466,44,5.056000,0
136.933568,358,467,44,7.616000,0
136.941184,359,468,44,0,963.392000
137.904576,359,469,44,7.616000,0
137.912192,360,470,45,5.696000,0
137.917888,361,471,45,6.976000,0
137.924864,362,472,45,0,962.752000
138.887616,362,473,45,5.056000,0
138.892672,363,474,45,6.336000,0
138.899008,364,475,45,5.696000,0
138.904704,365,476,45,0,965.952000
139.870656,365,477,45,5.056000,0
139.875712,366,478,45,5.696000,0
139.881408,367,479,45,6.976000,0
139.888384,368,480,46,0,965.312000
140.853696,368,481,46,6.336000,0
140.860032,369,482,46,4.416000,0
140.864448,370,483,46,5.056000,0
140.869504,371,484,46,5.056000,0
140.874560,372,485,46,0,962.176000
141.836736,372,486,46,6.976000,0
141.843712,373,487,46,5.056000,0
141.848768,374,488,46,7.616000,0
141.856384,375,489,46,0,963.392000
142.819776,375,490,46,5.056000,0
142.824832,376,491,47,4.416000,0
142.829248,377,492,47,4.416000,0
142.833664,378,493,47,7.616000,0
142.841280,379,494,47,0,961.536000
143.802816,379,495,47,5.056000,0
143.807872,380,496,47,4.416000,0
143.812288,381,497,47,5.056000,0
143.817344,382,498,47,4.416000,0
143.821760,383,499,47,0,964.096000
144.785856,383,500,47,4.416000,0
144.790272,384,501,48,7.616000,0
144.797888,385,502,48,6.976000,0
144.804864,386,503,48,0,964.032000
145.768896,386,504,48,6.336000,0
145.775232,387,505,48,5.056000,0
145.780288,388,506,48,5.696000,0
145.785984,389,507,48,5.056000,0
145.791040,390,508,48,0,960.896000
146.751936,390,509,48,6.336000,0
146.758272,391,510,48,7.616000,0
146.765888,392,511,49,4.416000,0
146.770304,393,512,49,0,964.672000
147.734976,393,513,49,4.416000,0
147.739392,394,514,49,7.616000,0
147.747008,395,515,49,7.616000,0
147.754624,396,516,49,0,963.392000
148.718016,396,517,49,6.976000,0
148.724992,397,518,49,5.056000,0
148.730048,398,519,49,6.976000,0
148.737024,399,520,49,0,964.032000
149.701056,399,521,49,5.696000,0
149.706752,400,522,50,7.616000,0
149.714368,401,523,50,5.696000,0
149.720064,402,524,50,0,964.032000
150.684096,402,525,50,7.616000,0
150.691712,403,526,50,6.336000,0
150.698048,404,527,50,5.696000,0
150.703744,405,528,50,0,963.392000
151.667136,405,529,50,7.616000,0
151.674752,406,530,50,6.336000,0
151.681088,407,531,50,5.056000,0
151.686144,408,532,51,0,964.032000
152.650176,408,533,51,7.616000,0
152.657792,409,534,51,6.976000,0
152.664768,410,535,51,4.416000,0
152.669184,411,536,51,0,964.032000
153.633216,411,537,51,7.616000,0
153.640832,412,538,51,6.336000,0
153.647168,413,539,51,5.696000,0
153.652864,414,540,51,0,963.392000
154.616256,414,541,51,5.056000,0
154.621312,415,542,51,4.416000,0
154.625728,416,543,52,6.976000,0
154.632704,417,544,52,0,966.592000
155.599296,417,545,52,5.056000,0
155.604352,418,546,52,5.696000,0
155.610048,419,547,52,6.336000,0
155.616384,420,548,52,0,965.952000
156.582336,420,549,52,7.616000,0
156.589952,421,550,52,4.416000,0
156.594368,422,551,52,5.056000,0
156.599424,423,552,52,5.056000,0
156.604480,424,553,53,0,960.896000
157.565376,424,554,53,7.616000,0
157.572992,425,555,53,4.416000,0
157.577408,426,556,53,4.416000,0
157.581824,427,557,53,0,966.592000
158.548416,427,558,53,7.616000,0
158.556032,428,559,53,5.056000,0
158.561088,429,560,53,5.696000,0
158.566784,430,561,53,0,964.672000
159.531456,430,562,53,5.056000,0
159.536512,431,563,53,6.976000,0
159.543488,432,564,54,6.976000,0
159.550464,433,565,54,0,964.032000
160.514496,433,566,54,5.056000,0
160.519552,434,567,54,4.416000,0
160.523968,435,568,54,6.336000,0
160.530304,436,569,54,6.336000,0
160.536640,437,570,54,0,960.896000
161.497536,437,571,54,6.976000,0
161.504512,438,572,54,7.616000,0
161.512128,439,573,54,7.616000,0
161.519744,440,574,55,0,960.832000
162.480576,440,575,55,5.056000,0
162.485632,441,576,55,5.696000,0
162.491328,442,577,55,5.696000,0
162.497024,443,578,55,5.056000,0
162.502080,444,579,55,0,961.536000
163.463616,444,580,55,6.336000,0
163.469952,445,581,55,6.976000,0
163.476928,446,582,55,6.336000,0
163.483264,447,583,55,0,963.392000
164.446656,447,584,55,6.976000,0
164.453632,448,585,56,6.976000,0
164.460608,449,586,56,7.616000,0
164.468224,450,587,56,0,961.472000
165.429696,450,588,56,5.696000,0
165.435392,451,589,56,6.336000,0
165.441728,452,590,56,5.056000,0
165.446784,453,591,56,4.416000,0
165.451200,454,592,56,0,961.536000
166.412736,454,593,56,7.616000,0
166.420352,455,594,56,5.056000,0
166.425408,456,595,57,7.616000,0
166.433024,457,596,57,0,962.752000
167.395776,457,597,57,5.056000,0
167.400832,458,598,57,5.696000,0
167.406528,459,599,57,4.416000,0
167.410944,460,600,57,5.056000,0
167.416000,461,601,57,0,962.816000
168.378816,461,602,57,6.336000,0
168.385152,462,603,57,4.416000,0
168.389568,463,604,57,5.056000,0
168.394624,464,605,58,4.416000,0
168.399040,465,606,58,0,962.816000
169.361856,465,607,58,6.976000,0
169.368832,466,608,58,5.056000,0
169.373888,467,609,58,6.976000,0
169.380864,468,610,58,0,964.032000
170.344896,468,611,58,5.056000,0
170.349952,469,612,58,7.616000,0
170.357568,470,613,58,5.696000,0
170.363264,471,614,58,0,964.672000
171.327936,471,615,58,7.616000,0
171.335552,472,616,59,6.336000,0
171.341888,473,617,59,7.616000,0
171.349504,474,618,59,0,961.472000
172.310976,474,619,59,7.616000,0
172.318592,475,620,59,5.696000,0
172.324288,476,621,59,4.416000,0
172.328704,477,622,59,5.056000,0
172.333760,478,623,59,0,960.256000
173.294016,478,624,59,7.616000,0
173.301632,479,625,59,5.696000,0
173.307328,480,626,60,7.616000,0
173.314944,481,627,60,0,962.112000
174.277056,481,628,60,5.696000,0
174.282752,482,629,60,6.976000,0
174.289728,483,630,60,7.616000,0
174.297344,484,631,60,0,962.752000
175.260096,484,632,60,4.416000,0
175.264512,485,633,60,6.336000,0
175.270848,486,634,60,7.616000,0
175.278464,487,635,60,4.416000,0
175.282880,488,636,61,0,960.256000
176.243136,488,637,61,7.616000,0
176.250752,489,638,61,7.616000,0
176.258368,490,639,61,7.616000,0
176.265984,491,640,61,0,960.192000
177.226176,491,641,61,6.336000,0
177.232512,492,642,61,6.976000,0
177.239488,493,643,61,4.416000,0
177.243904,494,644,61,5.056000,0
177.248960,495,645,61,0,960.256000
178.209216,495,646,61,5.056000,0
178.214272,496,647,62,6.976000,0
178.221248,497,648,62,5.056000,0
178.226304,498,649,62,4.416000,0
178.230720,499,650,62,0,961.536000
179.192256,499,651,62,5.696000,0
179.197952,500,652,62,5.056000,0
179.203008,501,653,62,4.416000,0
179.207424,502,654,62,5.056000,0
179.212480,503,655,62,0,962.816000
180.175296,503,656,62,7.616000,0
180.182912,504,657,63,6.976000,0
180.189888,505,658,63,7.616000,0
180.197504,506,659,63,0,960.832000
181.158336,506,660,63,6.336000,0
181.164672,507,661,63,6.336000,0
181.171008,508,662,63,4.416000,0
181.175424,509,663,63,0,965.952000
182.141376,509,664,63,4.416000,0
182.145792,510,665,63,5.056000,0
182.150848,511,666,63,6.336000,0
182.157184,512,667,64,6.976000,0
182.164160,513,668,64,0,960.256000
183.124416,513,669,64,6.336000,0
183.130752,514,670,64,6.976000,0
183.137728,515,671,64,5.696000,0
183.143424,516,672,64,0,964.032000
184.107456,516,673,64,5.056000,0
184.112512,517,674,64,4.416000,0
184.116928,518,675,64,5.056000,0
184.121984,519,676,64,5.056000,0
184.127040,520,677,65,0,963.456000
185.090496,520,678,65,6.976000,0
185.097472,521,679,65,7.616000,0
185.105088,522,680,65,5.056000,0
185.110144,523,681,65,0,963.392000
186.073536,523,682,65,5.056000,0
186.078592,524,683,65,6.976000,0
186.085568,525,684,65,4.416000,0
186.089984,526,685,65,5.056000,0
186.095040,527,686,65,0,961.536000
187.056576,527,687,65,5.056000,0
187.061632,528,688,66,5.696000,0
187.067328,529,689,66,6.336000,0
187.073664,530,690,66,4.416000,0
187.078080,531,691,66,0,961.536000
188.039616,531,692,66,5.696000,0
188.045312,532,693,66,6.336000,0
188.051648,533,694,66,5.696000,0
188.057344,534,695,66,5.056000,0
188.062400,535,696,66,0,960.256000
189.022656,535,697,66,7.616000,0
189.030272,536,698,67,6.976000,0
189.037248,537,699,67,6.336000,0
189.043584,538,700,67,0,962.112000
190.005696,538,701,67,6.336000,0
190.012032,539,702,67,6.336000,0
190.018368,540,703,67,5.696000,0
190.024064,541,704,67,0,964.672000
190.988736,541,705,67,5.696000,0
190.994432,542,706,67,5.056000,0
190.999488,543,707,67,7.616000,0
191.007104,544,708,68,4.416000,0
191.011520,545,709,68,0,960.256000
191.971776,545,710,68,6.336000,0
191.978112,546,711,68,5.696000,0
191.983808,547,712,68,6.976000,0
191.990784,548,713,68,0,964.032000
192.954816,548,714,68,7.616000,0
192.962432,549,715,68,4.416000,0
192.966848,550,716,68,7.616000,0
192.974464,551,717,68,0,963.392000
193.937856,551,718,68,7.616000,0
193.945472,552,719,69,4.416000,0
193.949888,553,720,69,6.336000,0
193.956224,554,721,69,0,964.672000
194.920896,554,722,69,7.616000,0
194.928512,555,723,69,5.056000,0
194.933568,556,724,69,5.696000,0
194.939264,557,725,69,0,964.672000
195.903936,557,726,69,5.696000,0
195.909632,558,727,69,5.056000,0
195.914688,559,728,69,6.336000,0
195.921024,560,729,70,5.696000,0
195.926720,561,730,70,0,960.256000
196.886976,561,731,70,7.616000,0
196.894592,562,732,70,6.976000,0
196.901568,563,733,70,6.976000,0
196.908544,564,734,70,0,961.472000
197.870016,564,735,70,5.056000,0
197.875072,565,736,70,4.416000,0
197.879488,566,737,70,6.336000,0
197.885824,567,738,70,6.336000,0
197.892160,568,739,71,0,960.896000
198.853056,568,740,71,5.696000,0
198.858752,569,741,71,6.336000,0
198.865088,570,742,71,6.336000,0
198.871424,571,743,71,0,964.672000
199.836096,571,744,71,5.056000,0
199.841152,572,745,71,6.976000,0
199.848128,573,746,71,4.416000,0
199.852544,574,747,71,5.056000,0
199.857600,575,748,71,0,961.536000
200.819136,575,749,71,7.616000,0
200.826752,576,750,72,6.976000,0
200.833728,577,751,72,5.056000,0
200.838784,578,752,72,0,963.392000
201.802176,578,753,72,4.416000,0
201.806592,579,754,72,6.976000,0
201.813568,580,755,72,5.056000,0
201.818624,581,756,72,0,966.592000
202.785216,581,757,72,5.696000,0
202.790912,582,758,72,6.336000,0
202.797248,583,759,72,7.616000,0
202.804864,584,760,73,0,963.392000
203.768256,584,761,73,6.976000,0
203.775232,585,762,73,7.616000,0
203.782848,586,763,73,7.616000,0
203.790464,587,764,73,0,960.832000
204.751296,587,765,73,5.056000,0
204.756352,588,766,73,5.696000,0
204.762048,589,767,73,6.976000,0
204.769024,590,768,73,0,965.312000
205.734336,590,769,73,6.336000,0
205.740672,591,770,73,6.336000,0
205.747008,592,771,74,6.976000,0
205.753984,593,772,74,0,963.392000
206.717376,593,773,74,5.056000,0
206.722432,594,774,74,4.416000,0
206.726848,595,775,74,4.416000,0
206.731264,596,776,74,7.616000,0
206.738880,597,777,74,0,961.536000
207.700416,597,778,74,5.696000,0
207.706112,598,779,74,6.336000,0
207.712448,599,780,74,7.616000,0
207.720064,600,781,75,0,963.392000
208.683456,600,782,75,4.416000,0
208.687872,601,783,75,7.616000,0
208.695488,602,784,75,6.336000,0
208.701824,603,785,75,0,964.672000
209.666496,603,786,75,5.056000,0
209.671552,604,787,75,6.976000,0
209.678528,605,788,75,6.976000,0
209.685504,606,789,75,0,964.032000
210.649536,606,790,75,5.056000,0
210.654592,607,791,75,5.056000,0
210.659648,608,792,76,4.416000,0
210.664064,609,793,76,6.336000,0
210.670400,610,794,76,0,962.176000
211.632576,610,795,76,6.976000,0
211.639552,611,796,76,4.416000,0
211.643968,612,797,76,6.336000,0
211.650304,613,798,76,0,965.312000
212.615616,613,799,76,5.696000,0
212.621312,614,800,76,7.616000,0
212.628928,615,801,76,5.056000,0
212.633984,616,802,77,0,964.672000
213.598656,616,803,77,5.696000,0
213.604352,617,804,77,5.056000,0
213.609408,618,805,77,7.616000,0
213.617024,619,806,77,0,964.672000
214.581696,619,807,77,5.056000,0
214.586752,620,808,77,6.976000,0
214.593728,621,809,77,5.696000,0
214.599424,622,810,77,0,965.312000
215.564736,622,811,77,5.056000,0
215.569792,623,812,77,7.616000,0
215.577408,624,813,78,5.696000,0
215.583104,625,814,78,0,964.672000
216.547776,625,815,78,5.056000,0
216.552832,626,816,78,5.696000,0
216.558528,627,817,78,6.976000,0
216.565504,628,818,78,5.056000,0
216.570560,629,819,78,0,960.256000
217.530816,629,820,78,6.976000,0
217.537792,630,821,78,6.336000,0
217.544128,631,822,78,5.056000,0
217.549184,632,823,79,0,964.672000
218.513856,632,824,79,6.976000,0
218.520832,633,825,79,5.056000,0
218.525888,634,826,79,6.336000,0
218.532224,635,827,79,0,964.672000
219.496896,635,828,79,7.616000,0
219.504512,636,829,79,5.696000,0
219.510208,637,830,79,5.696000,0
219.515904,638,831,79,0,964.032000
220.479936,638,832,79,7.616000,0
220.487552,639,833,79,5.056000,0
220.492608,640,834,80,4.416000,0
220.497024,641,835,80,0,965.952000
221.462976,641,836,80,7.616000,0
221.470592,642,837,80,4.416000,0
221.475008,643,838,80,4.416000,0
221.479424,644,839,80,5.056000,0
221.484480,645,840,80,0,961.536000
222.446016,645,841,80,6.976000,0
222.452992,646,842,80,5.056000,0
222.458048,647,843,80,7.616000,0
222.465664,648,844,81,0,963.392000
223.429056,648,845,81,4.416000,0
223.433472,649,846,81,5.056000,0
223.438528,650,847,81,6.336000,0
223.444864,651,848,81,5.056000,0
223.449920,652,849,81,0,962.176000
224.412096,652,850,81,5.056000,0
224.417152,653,851,81,6.976000,0
224.424128,654,852,81,5.696000,0
224.429824,655,853,81,5.056000,0
224.434880,656,854,82,0,960.256000
225.395136,656,855,82,7.616000,0
225.402752,657,856,82,6.976000,0
225.409728,658,857,82,7.616000,0
225.417344,659,858,82,0,960.832000
226.378176,659,859,82,4.416000,0
226.382592,660,860,82,4.416000,0
226.387008,661,861,82,6.336000,0
226.393344,662,862,82,4.416000,0
226.397760,663,863,82,0,963.456000
227.361216,663,864,82,7.616000,0
227.368832,664,865,83,5.056000,0
227.373888,665,866,83,5.696000,0
227.379584,666,867,83,0,964.672000
228.344256,666,868,83,7.616000,0
228.351872,667,869,83,5.056000,0
228.356928,668,870,83,7.616000,0
228.364544,669,871,83,0,962.752000
229.327296,669,872,83,5.056000,0
229.332352,670,873,83,5.696000,0
229.338048,671,874,83,4.416000,0
229.342464,672,875,84,5.056000,0
229.347520,673,876,84,0,962.816000
230.310336,673,877,84,5.056000,0
230.315392,674,878,84,5.696000,0
230.321088,675,879,84,7.616000,0
230.328704,676,880,84,0,964.672000
231.293376,676,881,84,5.696000,0
231.299072,677,882,84,4.416000,0
231.303488,678,883,84,5.056000,0
231.308544,679,884,84,5.696000,0
231.314240,680,885,85,0,962.176000
