Time,CovertPackets,AllPackets,BitsSent,PacketInterval,GTSInterval
72.996992,1,2,0,6.976000,0
73.003968,2,3,0,0,7853.568000
80.857536,2,4,0,7.616000,0
80.865152,3,5,0,0,7856.704000
88.721856,3,6,0,6.336000,0
88.728192,4,7,0,4.416000,0
88.732608,5,8,0,0,7853.568000
96.586176,5,9,0,5.056000,0
96.591232,6,10,0,4.416000,0
96.595648,7,11,0,0,7854.848000
104.450496,7,12,0,4.416000,0
104.454912,8,13,1,0,7859.904000
112.314816,8,14,1,6.336000,0
112.321152,9,15,1,4.416000,0
112.325568,10,16,1,0,7853.568000
120.179136,10,17,1,6.336000,0
120.185472,11,18,1,0,7857.984000
128.043456,11,19,1,6.336000,0
128.049792,12,20,1,5.696000,0
128.055488,13,21,1,0,7852.288000
135.907776,13,22,1,7.616000,0
135.915392,14,23,1,0,7856.704000
143.772096,14,24,1,6.336000,0
143.778432,15,25,1,5.056000,0
143.783488,16,26,2,0,7852.928000
151.636416,16,27,2,5.056000,0
151.641472,17,28,2,0,7859.264000
159.500736,17,29,2,7.616000,0
159.508352,18,30,2,4.416000,0
159.512768,19,31,2,0,7852.288000
167.365056,19,32,2,4.416000,0
167.369472,20,33,2,0,7859.904000
175.229376,20,34,2,5.056000,0
175.234432,21,35,2,7.616000,0
175.242048,22,36,2,0,7851.648000
183.093696,22,37,2,5.696000,0
183.099392,23,38,2,0,7858.624000
190.958016,23,39,2,6.336000,0
190.964352,24,40,3,5.696000,0
190.970048,25,41,3,0,7852.288000
198.822336,25,42,3,4.416000,0
198.826752,26,43,3,0,7859.904000
206.686656,26,44,3,5.056000,0
206.691712,27,45,3,6.976000,0
206.698688,28,46,3,0,7852.288000
214.550976,28,47,3,6.336000,0
214.557312,29,48,3,6.336000,0
214.563648,30,49,3,0,7851.648000
222.415296,30,50,3,4.416000,0
222.419712,31,51,3,0,7859.904000
230.279616,31,52,3,7.616000,0
230.287232,32,53,4,0,7856.704000
238.143936,32,54,4,5.056000,0
238.148992,33,55,4,5.056000,0
238.154048,34,56,4,0,7854.208000
246.008256,34,57,4,7.616000,0
246.015872,35,58,4,4.416000,0
246.020288,36,59,4,0,7852.288000
253.872576,36,60,4,6.976000,0
253.879552,37,61,4,0,7857.344000
261.736896,37,62,4,5.056000,0
261.741952,38,63,4,5.056000,0
261.747008,39,64,4,0,7854.208000
269.601216,39,65,4,5.696000,0
269.606912,40,66,5,0,7858.624000
