Time,CovertPackets,AllPackets,BitsSent,PacketInterval,GTSInterval
30.126608,1,2,4,0,488.368000
30.614976,1,3,4,3.264000,0
30.618240,2,4,8,3.312000,0
30.621552,3,5,12,3.264000,0
30.624816,4,6,16,0,481.680000
31.106496,4,7,16,3.392000,0
31.109888,5,8,20,3.264000,0
31.113152,6,9,24,3.264000,0
31.116416,7,10,28,0,481.600000
31.598016,7,11,28,3.264000,0
31.601280,8,12,32,3.408000,0
31.604688,9,13,36,3.280000,0
31.607968,10,14,40,0,481.568000
32.089536,10,15,40,3.200000,0
32.092736,11,16,44,3.264000,0
32.096000,12,17,48,3.376000,0
32.099376,13,18,52,0,481.680000
32.581056,13,19,52,3.264000,0
32.584320,14,20,56,3.184000,0
32.587504,15,21,60,3.264000,0
32.590768,16,22,64,0,481.808000
33.072576,16,23,64,3.216000,0
33.075792,17,24,68,3.264000,0
33.079056,18,25,72,3.184000,0
33.082240,19,26,76,0,481.856000
33.564096,19,27,76,3.264000,0
33.567360,20,28,80,3.408000,0
33.570768,21,29,84,3.200000,0
33.573968,22,30,88,0,481.648000
34.055616,22,31,88,3.168000,0
34.058784,23,32,92,3.264000,0
34.062048,24,33,96,3.216000,0
34.065264,25,34,100,0,481.872000
34.547136,25,35,100,3.264000,0
34.550400,26,36,104,3.408000,0
34.553808,27,37,108,3.264000,0
34.557072,28,38,112,0,481.584000
35.038656,28,39,112,3.392000,0
35.042048,29,40,116,3.264000,0
35.045312,30,41,120,3.264000,0
35.048576,31,42,124,0,481.600000
35.530176,31,43,124,3.264000,0
35.533440,32,44,128,3.312000,0
35.536752,33,45,132,3.264000,0
35.540016,34,46,136,0,481.680000
36.021696,34,47,136,3.232000,0
36.024928,35,48,140,3.264000,0
36.028192,36,49,144,3.248000,0
36.031440,37,50,148,0,481.776000
36.513216,37,51,148,3.264000,0
36.516480,38,52,152,3.392000,0
36.519872,39,53,156,3.264000,0
36.523136,40,54,160,0,481.600000
37.004736,40,55,160,3.216000,0
37.007952,41,56,164,3.264000,0
37.011216,42,57,168,3.312000,0
37.014528,43,58,172,0,481.728000
37.496256,43,59,172,3.264000,0
37.499520,44,60,176,3.184000,0
37.502704,45,61,180,3.264000,0
37.505968,46,62,184,0,481.808000
37.987776,46,63,184,3.360000,0
37.991136,47,64,188,3.200000,0
37.994336,48,65,192,3.168000,0
37.997504,49,66,196,0,481.792000
38.479296,49,67,196,3.200000,0
38.482496,50,68,200,3.168000,0
38.485664,51,69,204,3.200000,0
38.488864,52,70,208,0,481.952000
38.970816,52,71,208,3.200000,0
38.974016,53,72,212,3.168000,0
38.977184,54,73,216,3.264000,0
38.980448,55,74,220,0,481.888000
39.462336,55,75,220,3.312000,0
39.465648,56,76,224,3.264000,0
39.468912,57,77,228,3.392000,0
39.472304,58,78,232,0,481.552000
39.953856,58,79,232,3.264000,0
39.957120,59,80,236,3.264000,0
39.960384,60,81,240,3.264000,0
39.963648,61,82,244,0,481.728000
40.445376,61,83,244,3.408000,0
40.448784,62,84,248,3.280000,0
40.452064,63,85,252,3.200000,0
40.455264,64,86,256,0,481.632000
40.936896,64,87,256,3.264000,0
40.940160,65,88,260,3.376000,0
40.943536,66,89,264,3.264000,0
40.946800,67,90,268,0,481.616000
41.428416,67,91,268,3.184000,0
41.431600,68,92,272,0,488.336000
41.919936,68,93,272,3.264000,0
41.923200,69,94,276,3.216000,0
41.926416,70,95,280,0,485.040000
42.411456,70,96,280,3.264000,0
42.414720,71,97,284,3.184000,0
42.417904,72,98,288,3.264000,0
42.421168,73,99,292,0,481.808000
42.902976,73,100,292,3.408000,0
42.906384,74,101,296,3.200000,0
42.909584,75,102,300,3.168000,0
42.912752,76,103,304,0,481.744000
43.394496,76,104,304,3.264000,0
43.397760,77,105,308,3.216000,0
43.400976,78,106,312,3.264000,0
43.404240,79,107,316,0,481.776000
43.886016,79,108,316,3.408000,0
43.889424,80,109,320,0,488.112000
44.377536,80,110,320,3.264000,0
44.380800,81,111,324,3.392000,0
44.384192,82,112,328,3.264000,0
44.387456,83,113,332,0,481.600000
44.869056,83,114,332,3.264000,0
44.872320,84,115,336,3.264000,0
44.875584,85,116,340,3.312000,0
44.878896,86,117,344,0,481.680000
45.360576,86,118,344,3.264000,0
45.363840,87,119,348,3.232000,0
45.367072,88,120,352,3.264000,0
45.370336,89,121,356,0,481.760000
45.852096,89,122,356,3.248000,0
45.855344,90,123,360,3.264000,0
45.858608,91,124,364,3.392000,0
45.862000,92,125,368,0,481.616000
46.343616,92,126,368,3.264000,0
46.346880,93,127,372,3.216000,0
46.350096,94,128,376,3.264000,0
46.353360,95,129,380,0,481.776000
46.835136,95,130,380,3.312000,0
46.838448,96,131,384,3.264000,0
46.841712,97,132,388,3.184000,0
46.844896,98,133,392,0,481.760000
47.326656,98,134,392,3.264000,0
47.329920,99,135,396,3.360000,0
47.333280,100,136,400,3.200000,0
47.336480,101,137,404,0,481.696000
47.818176,101,138,404,3.168000,0
47.821344,102,139,408,3.200000,0
47.824544,103,140,412,0,485.152000
48.309696,103,141,412,3.168000,0
48.312864,104,142,416,3.200000,0
48.316064,105,143,420,3.168000,0
48.319232,106,144,424,0,481.984000
48.801216,106,145,424,3.264000,0
48.804480,107,146,428,3.312000,0
48.807792,108,147,432,3.264000,0
48.811056,109,148,436,0,481.680000
49.292736,109,149,436,3.392000,0
49.296128,110,150,440,3.264000,0
49.299392,111,151,444,3.264000,0
49.302656,112,152,448,0,481.600000
49.784256,112,153,448,3.264000,0
49.787520,113,154,452,3.408000,0
49.790928,114,155,456,3.280000,0
49.794208,115,156,460,0,481.568000
50.275776,115,157,460,3.200000,0
50.278976,116,158,464,3.264000,0
50.282240,117,159,468,3.376000,0
50.285616,118,160,472,0,481.680000
50.767296,118,161,472,3.264000,0
50.770560,119,162,476,3.184000,0
50.773744,120,163,480,3.264000,0
50.777008,121,164,484,0,481.808000
51.258816,121,165,484,3.216000,0
51.262032,122,166,488,3.264000,0
51.265296,123,167,492,3.184000,0
51.268480,124,168,496,0,481.856000
51.750336,124,169,496,3.264000,0
51.753600,125,170,500,3.408000,0
51.757008,126,171,504,3.200000,0
51.760208,127,172,508,0,481.648000
52.241856,127,173,508,3.168000,0
52.245024,128,174,512,3.264000,0
52.248288,129,175,516,3.216000,0
52.251504,130,176,520,0,481.872000
52.733376,130,177,520,3.264000,0
52.736640,131,178,524,3.408000,0
52.740048,132,179,528,3.264000,0
52.743312,133,180,532,0,481.584000
53.224896,133,181,532,3.392000,0
53.228288,134,182,536,3.264000,0
53.231552,135,183,540,3.264000,0
53.234816,136,184,544,0,481.600000
53.716416,136,185,544,3.264000,0
53.719680,137,186,548,3.312000,0
53.722992,138,187,552,3.264000,0
53.726256,139,188,556,0,481.680000
54.207936,139,189,556,3.232000,0
54.211168,140,190,560,3.264000,0
54.214432,141,191,564,3.248000,0
54.217680,142,192,568,0,481.776000
54.699456,142,193,568,3.264000,0
54.702720,143,194,572,3.392000,0
54.706112,144,195,576,3.264000,0
54.709376,145,196,580,0,481.600000
55.190976,145,197,580,3.216000,0
55.194192,146,198,584,3.264000,0
55.197456,147,199,588,3.312000,0
55.200768,148,200,592,0,481.728000
55.682496,148,201,592,3.264000,0
55.685760,149,202,596,3.184000,0
55.688944,150,203,600,3.264000,0
55.692208,151,204,604,0,481.808000
56.174016,151,205,604,3.360000,0
56.177376,152,206,608,3.200000,0
56.180576,153,207,612,3.168000,0
56.183744,154,208,616,0,481.792000
56.665536,154,209,616,3.200000,0
56.668736,155,210,620,3.168000,0
56.671904,156,211,624,3.200000,0
56.675104,157,212,628,0,481.952000
57.157056,157,213,628,3.200000,0
57.160256,158,214,632,3.168000,0
57.163424,159,215,636,3.264000,0
57.166688,160,216,640,0,481.888000
57.648576,160,217,640,3.312000,0
57.651888,161,218,644,3.264000,0
57.655152,162,219,648,3.392000,0
57.658544,163,220,652,0,481.552000
58.140096,163,221,652,3.264000,0
58.143360,164,222,656,3.264000,0
58.146624,165,223,660,3.264000,0
58.149888,166,224,664,0,481.728000
58.631616,166,225,664,3.408000,0
58.635024,167,226,668,3.280000,0
58.638304,168,227,672,3.200000,0
58.641504,169,228,676,0,481.632000
59.123136,169,229,676,3.264000,0
59.126400,170,230,680,3.376000,0
59.129776,171,231,684,3.264000,0
59.133040,172,232,688,0,481.616000
59.614656,172,233,688,3.184000,0
59.617840,173,234,692,3.264000,0
59.621104,174,235,696,3.216000,0
59.624320,175,236,700,0,481.856000
60.106176,175,237,700,3.264000,0
60.109440,176,238,704,3.184000,0
60.112624,177,239,708,3.264000,0
60.115888,178,240,712,0,481.808000
60.597696,178,241,712,3.408000,0
60.601104,179,242,716,3.200000,0
60.604304,180,243,720,3.168000,0
60.607472,181,244,724,0,481.744000
61.089216,181,245,724,3.264000,0
61.092480,182,246,728,3.216000,0
61.095696,183,247,732,3.264000,0
61.098960,184,248,736,0,481.776000
61.580736,184,249,736,3.408000,0
61.584144,185,250,740,3.264000,0
61.587408,186,251,744,3.392000,0
61.590800,187,252,748,0,481.456000
62.072256,187,253,748,3.264000,0
62.075520,188,254,752,3.264000,0
62.078784,189,255,756,3.264000,0
62.082048,190,256,760,0,481.728000
62.563776,190,257,760,3.312000,0
62.567088,191,258,764,3.264000,0
62.570352,192,259,768,3.232000,0
62.573584,193,260,772,0,481.712000
63.055296,193,261,772,3.264000,0
63.058560,194,262,776,3.248000,0
63.061808,195,263,780,3.264000,0
63.065072,196,264,784,0,481.744000
63.546816,196,265,784,3.392000,0
63.550208,197,266,788,3.264000,0
63.553472,198,267,792,3.216000,0
63.556688,199,268,796,0,481.648000
64.038336,199,269,796,3.264000,0
64.041600,200,270,800,3.312000,0
64.044912,201,271,804,3.264000,0
64.048176,202,272,808,0,481.680000
64.529856,202,273,808,3.184000,0
64.533040,203,274,812,3.264000,0
64.536304,204,275,816,3.360000,0
64.539664,205,276,820,0,481.712000
65.021376,205,277,820,3.200000,0
65.024576,206,278,824,3.168000,0
65.027744,207,279,828,3.200000,0
65.030944,208,280,832,0,481.952000
65.512896,208,281,832,3.168000,0
65.516064,209,282,836,3.200000,0
65.519264,210,283,840,3.168000,0
65.522432,211,284,844,0,481.984000
66.004416,211,285,844,3.264000,0
66.007680,212,286,848,3.312000,0
66.010992,213,287,852,3.264000,0
66.014256,214,288,856,0,481.680000
66.495936,214,289,856,3.392000,0
66.499328,215,290,860,3.264000,0
66.502592,216,291,864,3.264000,0
66.505856,217,292,868,0,481.600000
66.987456,217,293,868,3.264000,0
66.990720,218,294,872,3.408000,0
66.994128,219,295,876,3.280000,0
66.997408,220,296,880,0,481.568000
67.478976,220,297,880,3.200000,0
67.482176,221,298,884,3.264000,0
67.485440,222,299,888,3.376000,0
67.488816,223,300,892,0,481.680000
67.970496,223,301,892,3.264000,0
67.973760,224,302,896,3.184000,0
67.976944,225,303,900,3.264000,0
67.980208,226,304,904,0,481.808000
68.462016,226,305,904,3.216000,0
68.465232,227,306,908,3.264000,0
68.468496,228,307,912,3.184000,0
68.471680,229,308,916,0,481.856000
68.953536,229,309,916,3.264000,0
68.956800,230,310,920,3.408000,0
68.960208,231,311,924,3.200000,0
68.963408,232,312,928,0,481.648000
69.445056,232,313,928,3.168000,0
69.448224,233,314,932,3.264000,0
69.451488,234,315,936,3.216000,0
69.454704,235,316,940,0,481.872000
69.936576,235,317,940,3.264000,0
69.939840,236,318,944,3.408000,0
69.943248,237,319,948,3.264000,0
69.946512,238,320,952,0,481.584000
70.428096,238,321,952,3.392000,0
70.431488,239,322,956,3.264000,0
70.434752,240,323,960,3.264000,0
70.438016,241,324,964,0,481.600000
70.919616,241,325,964,3.264000,0
70.922880,242,326,968,3.312000,0
70.926192,243,327,972,3.264000,0
70.929456,244,328,976,0,481.680000
71.411136,244,329,976,3.232000,0
71.414368,245,330,980,3.264000,0
71.417632,246,331,984,3.248000,0
71.420880,247,332,988,0,481.776000
71.902656,247,333,988,3.264000,0
71.905920,248,334,992,3.392000,0
71.909312,249,335,996,3.264000,0
71.912576,250,336,1000,0,481.600000
72.394176,250,337,1000,3.216000,0
72.397392,251,338,1004,3.264000,0
72.400656,252,339,1008,3.312000,0
72.403968,253,340,1012,0,481.728000
72.885696,253,341,1012,3.264000,0
72.888960,254,342,1016,3.184000,0
72.892144,255,343,1020,3.264000,0
72.895408,256,344,1024,0,481.808000
73.377216,256,345,1024,3.360000,0
73.380576,257,346,1028,3.200000,0
73.383776,258,347,1032,3.168000,0
73.386944,259,348,1036,0,481.792000
73.868736,259,349,1036,3.200000,0
73.871936,260,350,1040,3.168000,0
73.875104,261,351,1044,3.200000,0
73.878304,262,352,1048,0,481.952000
74.360256,262,353,1048,3.200000,0
74.363456,263,354,1052,3.168000,0
74.366624,264,355,1056,3.264000,0
74.369888,265,356,1060,0,481.888000
74.851776,265,357,1060,3.312000,0
74.855088,266,358,1064,3.264000,0
74.858352,267,359,1068,3.392000,0
74.861744,268,360,1072,0,481.552000
75.343296,268,361,1072,3.264000,0
75.346560,269,362,1076,3.264000,0
75.349824,270,363,1080,3.264000,0
75.353088,271,364,1084,0,481.728000
75.834816,271,365,1084,3.408000,0
75.838224,272,366,1088,3.280000,0
75.841504,273,367,1092,3.200000,0
75.844704,274,368,1096,0,481.632000
76.326336,274,369,1096,3.264000,0
76.329600,275,370,1100,3.376000,0
76.332976,276,371,1104,3.264000,0
76.336240,277,372,1108,0,481.616000
76.817856,277,373,1108,3.184000,0
76.821040,278,374,1112,3.264000,0
76.824304,279,375,1116,3.216000,0
76.827520,280,376,1120,0,481.856000
77.309376,280,377,1120,3.264000,0
77.312640,281,378,1124,3.184000,0
77.315824,282,379,1128,3.264000,0
77.319088,283,380,1132,0,481.808000
77.800896,283,381,1132,3.408000,0
77.804304,284,382,1136,3.200000,0
77.807504,285,383,1140,3.168000,0
77.810672,286,384,1144,0,481.744000
78.292416,286,385,1144,3.264000,0
78.295680,287,386,1148,3.216000,0
78.298896,288,387,1152,3.264000,0
78.302160,289,388,1156,0,481.776000
78.783936,289,389,1156,3.408000,0
78.787344,290,390,1160,3.264000,0
78.790608,291,391,1164,3.392000,0
78.794000,292,392,1168,0,481.456000
79.275456,292,393,1168,3.264000,0
79.278720,293,394,1172,3.264000,0
79.281984,294,395,1176,3.264000,0
79.285248,295,396,1180,0,481.728000
79.766976,295,397,1180,3.312000,0
79.770288,296,398,1184,3.264000,0
79.773552,297,399,1188,3.232000,0
79.776784,298,400,1192,0,481.712000
80.258496,298,401,1192,3.264000,0
80.261760,299,402,1196,3.248000,0
80.265008,300,403,1200,3.264000,0
80.268272,301,404,1204,0,481.744000
80.750016,301,405,1204,3.392000,0
80.753408,302,406,1208,3.264000,0
80.756672,303,407,1212,3.216000,0
80.759888,304,408,1216,0,481.648000
81.241536,304,409,1216,3.264000,0
81.244800,305,410,1220,3.312000,0
81.248112,306,411,1224,3.264000,0
81.251376,307,412,1228,0,481.680000
81.733056,307,413,1228,3.184000,0
81.736240,308,414,1232,3.264000,0
81.739504,309,415,1236,3.360000,0
81.742864,310,416,1240,0,481.712000
82.224576,310,417,1240,3.200000,0
82.227776,311,418,1244,3.168000,0
82.230944,312,419,1248,3.200000,0
82.234144,313,420,1252,0,481.952000
82.716096,313,421,1252,3.168000,0
82.719264,314,422,1256,3.200000,0
82.722464,315,423,1260,3.168000,0
82.725632,316,424,1264,0,481.984000
83.207616,316,425,1264,3.264000,0
83.210880,317,426,1268,3.312000,0
83.214192,318,427,1272,3.264000,0
83.217456,319,428,1276,0,481.680000
83.699136,319,429,1276,3.392000,0
83.702528,320,430,1280,3.264000,0
83.705792,321,431,1284,3.264000,0
83.709056,322,432,1288,0,481.600000
84.190656,322,433,1288,3.264000,0
84.193920,323,434,1292,3.408000,0
84.197328,324,435,1296,3.280000,0
84.200608,325,436,1300,0,481.568000
84.682176,325,437,1300,3.200000,0
84.685376,326,438,1304,3.264000,0
84.688640,327,439,1308,3.376000,0
84.692016,328,440,1312,0,481.680000
85.173696,328,441,1312,3.264000,0
85.176960,329,442,1316,3.184000,0
85.180144,330,443,1320,3.264000,0
85.183408,331,444,1324,0,481.808000
85.665216,331,445,1324,3.216000,0
85.668432,332,446,1328,3.264000,0
85.671696,333,447,1332,3.184000,0
85.674880,334,448,1336,0,481.856000
86.156736,334,449,1336,3.264000,0
86.160000,335,450,1340,3.408000,0
86.163408,336,451,1344,3.200000,0
86.166608,337,452,1348,0,481.648000
86.648256,337,453,1348,3.168000,0
86.651424,338,454,1352,3.264000,0
86.654688,339,455,1356,3.216000,0
86.657904,340,456,1360,0,481.872000
87.139776,340,457,1360,3.264000,0
87.143040,341,458,1364,3.408000,0
87.146448,342,459,1368,3.264000,0
87.149712,343,460,1372,0,481.584000
87.631296,343,461,1372,3.392000,0
87.634688,344,462,1376,3.264000,0
87.637952,345,463,1380,3.264000,0
87.641216,346,464,1384,0,481.600000
88.122816,346,465,1384,3.264000,0
88.126080,347,466,1388,3.312000,0
88.129392,348,467,1392,3.264000,0
88.132656,349,468,1396,0,481.680000
88.614336,349,469,1396,3.232000,0
88.617568,350,470,1400,3.264000,0
88.620832,351,471,1404,3.248000,0
88.624080,352,472,1408,0,481.776000
89.105856,352,473,1408,3.264000,0
89.109120,353,474,1412,3.392000,0
89.112512,354,475,1416,3.264000,0
89.115776,355,476,1420,0,481.600000
89.597376,355,477,1420,3.216000,0
89.600592,356,478,1424,3.264000,0
89.603856,357,479,1428,3.312000,0
89.607168,358,480,1432,0,481.728000
90.088896,358,481,1432,3.264000,0
90.092160,359,482,1436,3.184000,0
90.095344,360,483,1440,3.264000,0
90.098608,361,484,1444,0,481.808000
90.580416,361,485,1444,3.360000,0
90.583776,362,486,1448,3.200000,0
90.586976,363,487,1452,3.168000,0
90.590144,364,488,1456,0,481.792000
91.071936,364,489,1456,3.200000,0
91.075136,365,490,1460,3.168000,0
91.078304,366,491,1464,3.200000,0
91.081504,367,492,1468,0,481.952000
91.563456,367,493,1468,3.200000,0
91.566656,368,494,1472,3.168000,0
91.569824,369,495,1476,3.264000,0
91.573088,370,496,1480,0,481.888000
92.054976,370,497,1480,3.312000,0
92.058288,371,498,1484,3.264000,0
92.061552,372,499,1488,3.392000,0
92.064944,373,500,1492,0,481.552000
92.546496,373,501,1492,3.264000,0
92.549760,374,502,1496,3.264000,0
92.553024,375,503,1500,3.264000,0
92.556288,376,504,1504,0,481.728000
93.038016,376,505,1504,3.408000,0
93.041424,377,506,1508,3.280000,0
93.044704,378,507,1512,3.200000,0
93.047904,379,508,1516,0,481.632000
93.529536,379,509,1516,3.264000,0
93.532800,380,510,1520,3.376000,0
93.536176,381,511,1524,3.264000,0
93.539440,382,512,1528,0,481.616000
94.021056,382,513,1528,3.184000,0
94.024240,383,514,1532,3.264000,0
94.027504,384,515,1536,3.216000,0
94.030720,385,516,1540,0,481.856000
94.512576,385,517,1540,3.264000,0
94.515840,386,518,1544,3.184000,0
94.519024,387,519,1548,3.264000,0
94.522288,388,520,1552,0,481.808000
95.004096,388,521,1552,3.408000,0
95.007504,389,522,1556,3.200000,0
95.010704,390,523,1560,3.168000,0
95.013872,391,524,1564,0,481.744000
95.495616,391,525,1564,3.264000,0
95.498880,392,526,1568,3.216000,0
95.502096,393,527,1572,3.264000,0
95.505360,394,528,1576,0,481.776000
95.987136,394,529,1576,3.408000,0
95.990544,395,530,1580,3.264000,0
95.993808,396,531,1584,3.392000,0
95.997200,397,532,1588,0,481.456000
96.478656,397,533,1588,3.264000,0
96.481920,398,534,1592,3.264000,0
96.485184,399,535,1596,3.264000,0
96.488448,400,536,1600,0,481.728000
96.970176,400,537,1600,3.312000,0
96.973488,401,538,1604,3.264000,0
96.976752,402,539,1608,3.232000,0
96.979984,403,540,1612,0,481.712000
97.461696,403,541,1612,3.264000,0
97.464960,404,542,1616,3.248000,0
97.468208,405,543,1620,3.264000,0
97.471472,406,544,1624,0,481.744000
97.953216,406,545,1624,3.392000,0
97.956608,407,546,1628,3.264000,0
97.959872,408,547,1632,3.216000,0
97.963088,409,548,1636,0,481.648000
98.444736,409,549,1636,3.264000,0
98.448000,410,550,1640,3.312000,0
98.451312,411,551,1644,3.264000,0
98.454576,412,552,1648,0,481.680000
98.936256,412,553,1648,3.184000,0
98.939440,413,554,1652,3.264000,0
98.942704,414,555,1656,3.360000,0
98.946064,415,556,1660,0,481.712000
99.427776,415,557,1660,3.200000,0
99.430976,416,558,1664,3.168000,0
99.434144,417,559,1668,3.200000,0
99.437344,418,560,1672,0,481.952000
99.919296,418,561,1672,3.168000,0
99.922464,419,562,1676,3.200000,0
99.925664,420,563,1680,3.168000,0
99.928832,421,564,1684,0,481.984000
100.410816,421,565,1684,3.264000,0
100.414080,422,566,1688,3.312000,0
100.417392,423,567,1692,3.264000,0
100.420656,424,568,1696,0,481.680000
100.902336,424,569,1696,3.392000,0
100.905728,425,570,1700,3.264000,0
100.908992,426,571,1704,3.264000,0
100.912256,427,572,1708,0,481.600000
101.393856,427,573,1708,3.264000,0
101.397120,428,574,1712,3.408000,0
101.400528,429,575,1716,3.280000,0
101.403808,430,576,1720,0,481.568000
101.885376,430,577,1720,3.200000,0
101.888576,431,578,1724,3.264000,0
101.891840,432,579,1728,3.376000,0
101.895216,433,580,1732,0,481.680000
102.376896,433,581,1732,3.264000,0
102.380160,434,582,1736,3.184000,0
102.383344,435,583,1740,3.264000,0
102.386608,436,584,1744,0,481.808000
102.868416,436,585,1744,3.216000,0
102.871632,437,586,1748,3.264000,0
102.874896,438,587,1752,3.184000,0
102.878080,439,588,1756,0,481.856000
103.359936,439,589,1756,3.264000,0
103.363200,440,590,1760,3.408000,0
103.366608,441,591,1764,3.200000,0
103.369808,442,592,1768,0,481.648000
103.851456,442,593,1768,3.168000,0
103.854624,443,594,1772,3.264000,0
103.857888,444,595,1776,3.216000,0
103.861104,445,596,1780,0,481.872000
104.342976,445,597,1780,3.264000,0
104.346240,446,598,1784,3.408000,0
104.349648,447,599,1788,3.264000,0
104.352912,448,600,1792,0,481.584000
104.834496,448,601,1792,3.392000,0
104.837888,449,602,1796,3.264000,0
104.841152,450,603,1800,3.264000,0
104.844416,451,604,1804,0,481.600000
105.326016,451,605,1804,3.264000,0
105.329280,452,606,1808,3.312000,0
105.332592,453,607,1812,3.264000,0
105.335856,454,608,1816,0,481.680000
105.817536,454,609,1816,3.232000,0
105.820768,455,610,1820,3.264000,0
105.824032,456,611,1824,3.248000,0
105.827280,457,612,1828,0,481.776000
106.309056,457,613,1828,3.264000,0
106.312320,458,614,1832,3.392000,0
106.315712,459,615,1836,3.264000,0
106.318976,460,616,1840,0,481.600000
106.800576,460,617,1840,3.216000,0
106.803792,461,618,1844,3.264000,0
106.807056,462,619,1848,3.312000,0
106.810368,463,620,1852,0,481.728000
107.292096,463,621,1852,3.264000,0
107.295360,464,622,1856,3.184000,0
107.298544,465,623,1860,3.264000,0
107.301808,466,624,1864,0,481.808000
107.783616,466,625,1864,3.360000,0
107.786976,467,626,1868,3.200000,0
107.790176,468,627,1872,3.168000,0
107.793344,469,628,1876,0,481.792000
108.275136,469,629,1876,3.200000,0
108.278336,470,630,1880,3.168000,0
108.281504,471,631,1884,3.200000,0
108.284704,472,632,1888,0,481.952000
108.766656,472,633,1888,3.200000,0
108.769856,473,634,1892,3.168000,0
108.773024,474,635,1896,3.264000,0
108.776288,475,636,1900,0,481.888000
109.258176,475,637,1900,3.312000,0
109.261488,476,638,1904,3.264000,0
109.264752,477,639,1908,3.392000,0
109.268144,478,640,1912,0,481.552000
109.749696,478,641,1912,3.264000,0
109.752960,479,642,1916,3.264000,0
109.756224,480,643,1920,3.264000,0
109.759488,481,644,1924,0,481.728000
110.241216,481,645,1924,3.408000,0
110.244624,482,646,1928,3.280000,0
110.247904,483,647,1932,3.200000,0
110.251104,484,648,1936,0,481.632000
110.732736,484,649,1936,3.264000,0
110.736000,485,650,1940,3.376000,0
110.739376,486,651,1944,3.264000,0
110.742640,487,652,1948,0,481.616000
111.224256,487,653,1948,3.184000,0
111.227440,488,654,1952,3.264000,0
111.230704,489,655,1956,3.216000,0
111.233920,490,656,1960,0,481.856000
111.715776,490,657,1960,3.264000,0
111.719040,491,658,1964,3.184000,0
111.722224,492,659,1968,3.264000,0
111.725488,493,660,1972,0,481.808000
112.207296,493,661,1972,3.408000,0
112.210704,494,662,1976,3.200000,0
112.213904,495,663,1980,3.168000,0
112.217072,496,664,1984,0,481.744000
112.698816,496,665,1984,3.264000,0
112.702080,497,666,1988,3.216000,0
112.705296,498,667,1992,3.264000,0
112.708560,499,668,1996,0,481.776000
113.190336,499,669,1996,3.408000,0
113.193744,500,670,2000,3.264000,0
113.197008,501,671,2004,3.392000,0
113.200400,502,672,2008,0,481.456000
113.681856,502,673,2008,3.264000,0
113.685120,503,674,2012,3.264000,0
113.688384,504,675,2016,3.264000,0
113.691648,505,676,2020,0,481.728000
114.173376,505,677,2020,3.312000,0
114.176688,506,678,2024,3.264000,0
114.179952,507,679,2028,3.232000,0
114.183184,508,680,2032,0,481.712000
114.664896,508,681,2032,3.264000,0
114.668160,509,682,2036,3.248000,0
114.671408,510,683,2040,3.264000,0
114.674672,511,684,2044,0,481.744000
115.156416,511,685,2044,3.392000,0
115.159808,512,686,2048,3.264000,0
115.163072,513,687,2052,3.216000,0
115.166288,514,688,2056,0,481.648000
115.647936,514,689,2056,3.264000,0
115.651200,515,690,2060,3.312000,0
115.654512,516,691,2064,3.264000,0
115.657776,517,692,2068,0,481.680000
116.139456,517,693,2068,3.184000,0
116.142640,518,694,2072,3.264000,0
116.145904,519,695,2076,3.360000,0
116.149264,520,696,2080,0,481.712000
116.630976,520,697,2080,3.200000,0
116.634176,521,698,2084,3.168000,0
116.637344,522,699,2088,3.200000,0
116.640544,523,700,2092,0,481.952000
117.122496,523,701,2092,3.168000,0
117.125664,524,702,2096,3.200000,0
117.128864,525,703,2100,3.168000,0
117.132032,526,704,2104,0,481.984000
117.614016,526,705,2104,3.264000,0
117.617280,527,706,2108,3.312000,0
117.620592,528,707,2112,3.264000,0
117.623856,529,708,2116,0,481.680000
118.105536,529,709,2116,3.392000,0
118.108928,530,710,2120,3.264000,0
118.112192,531,711,2124,3.264000,0
118.115456,532,712,2128,0,481.600000
118.597056,532,713,2128,3.264000,0
118.600320,533,714,2132,3.408000,0
118.603728,534,715,2136,3.280000,0
118.607008,535,716,2140,0,481.568000
119.088576,535,717,2140,3.200000,0
119.091776,536,718,2144,3.264000,0
119.095040,537,719,2148,3.376000,0
119.098416,538,720,2152,0,481.680000
119.580096,538,721,2152,3.264000,0
119.583360,539,722,2156,3.184000,0
119.586544,540,723,2160,3.264000,0
119.589808,541,724,2164,0,481.808000
120.071616,541,725,2164,3.216000,0
120.074832,542,726,2168,3.264000,0
120.078096,543,727,2172,3.184000,0
120.081280,544,728,2176,0,481.856000
120.563136,544,729,2176,3.264000,0
120.566400,545,730,2180,3.408000,0
120.569808,546,731,2184,3.200000,0
120.573008,547,732,2188,0,481.648000
121.054656,547,733,2188,3.168000,0
121.057824,548,734,2192,3.264000,0
121.061088,549,735,2196,3.216000,0
121.064304,550,736,2200,0,481.872000
121.546176,550,737,2200,3.264000,0
121.549440,551,738,2204,3.408000,0
121.552848,552,739,2208,3.264000,0
121.556112,553,740,2212,0,481.584000
122.037696,553,741,2212,3.392000,0
122.041088,554,742,2216,3.264000,0
122.044352,555,743,2220,3.264000,0
122.047616,556,744,2224,0,481.600000
122.529216,556,745,2224,3.264000,0
122.532480,557,746,2228,3.312000,0
122.535792,558,747,2232,3.264000,0
122.539056,559,748,2236,0,481.680000
123.020736,559,749,2236,3.232000,0
123.023968,560,750,2240,3.264000,0
123.027232,561,751,2244,3.248000,0
123.030480,562,752,2248,0,481.776000
123.512256,562,753,2248,3.264000,0
123.515520,563,754,2252,3.392000,0
123.518912,564,755,2256,3.264000,0
123.522176,565,756,2260,0,481.600000
124.003776,565,757,2260,3.216000,0
124.006992,566,758,2264,3.264000,0
124.010256,567,759,2268,3.312000,0
124.013568,568,760,2272,0,481.728000
124.495296,568,761,2272,3.264000,0
124.498560,569,762,2276,3.184000,0
124.501744,570,763,2280,3.264000,0
124.505008,571,764,2284,0,481.808000
124.986816,571,765,2284,3.360000,0
124.990176,572,766,2288,3.200000,0
124.993376,573,767,2292,3.168000,0
124.996544,574,768,2296,0,481.792000
125.478336,574,769,2296,3.200000,0
125.481536,575,770,2300,3.168000,0
125.484704,576,771,2304,3.200000,0
125.487904,577,772,2308,0,481.952000
125.969856,577,773,2308,3.200000,0
125.973056,578,774,2312,3.168000,0
125.976224,579,775,2316,3.264000,0
125.979488,580,776,2320,0,481.888000
126.461376,580,777,2320,3.312000,0
126.464688,581,778,2324,3.264000,0
126.467952,582,779,2328,3.392000,0
126.471344,583,780,2332,0,481.552000
126.952896,583,781,2332,3.264000,0
126.956160,584,782,2336,3.264000,0
126.959424,585,783,2340,3.264000,0
126.962688,586,784,2344,0,481.728000
127.444416,586,785,2344,3.408000,0
127.447824,587,786,2348,3.280000,0
127.451104,588,787,2352,3.200000,0
127.454304,589,788,2356,0,481.632000
127.935936,589,789,2356,3.264000,0
127.939200,590,790,2360,3.376000,0
127.942576,591,791,2364,3.264000,0
127.945840,592,792,2368,0,481.616000
128.427456,592,793,2368,3.184000,0
128.430640,593,794,2372,3.264000,0
128.433904,594,795,2376,3.216000,0
128.437120,595,796,2380,0,481.856000
128.918976,595,797,2380,3.264000,0
128.922240,596,798,2384,3.184000,0
128.925424,597,799,2388,3.264000,0
128.928688,598,800,2392,0,481.808000
129.410496,598,801,2392,3.408000,0
129.413904,599,802,2396,3.200000,0
129.417104,600,803,2400,3.168000,0
129.420272,601,804,2404,0,481.744000
129.902016,601,805,2404,3.264000,0
129.905280,602,806,2408,3.216000,0
129.908496,603,807,2412,3.264000,0
129.911760,604,808,2416,0,481.776000
130.393536,604,809,2416,3.408000,0
130.396944,605,810,2420,3.264000,0
130.400208,606,811,2424,3.392000,0
130.403600,607,812,2428,0,481.456000
130.885056,607,813,2428,3.264000,0
130.888320,608,814,2432,3.264000,0
130.891584,609,815,2436,3.264000,0
130.894848,610,816,2440,0,481.728000
131.376576,610,817,2440,3.312000,0
131.379888,611,818,2444,3.264000,0
131.383152,612,819,2448,3.232000,0
131.386384,613,820,2452,0,481.712000
131.868096,613,821,2452,3.264000,0
131.871360,614,822,2456,3.248000,0
131.874608,615,823,2460,3.264000,0
131.877872,616,824,2464,0,481.744000
132.359616,616,825,2464,3.392000,0
132.363008,617,826,2468,3.264000,0
132.366272,618,827,2472,3.216000,0
132.369488,619,828,2476,0,481.648000
132.851136,619,829,2476,3.264000,0
132.854400,620,830,2480,3.312000,0
132.857712,621,831,2484,3.264000,0
132.860976,622,832,2488,0,481.680000
133.342656,622,833,2488,3.184000,0
133.345840,623,834,2492,3.264000,0
133.349104,624,835,2496,3.360000,0
133.352464,625,836,2500,0,481.712000
133.834176,625,837,2500,3.200000,0
133.837376,626,838,2504,3.168000,0
133.840544,627,839,2508,3.200000,0
133.843744,628,840,2512,0,481.952000
134.325696,628,841,2512,3.168000,0
134.328864,629,842,2516,3.200000,0
134.332064,630,843,2520,3.168000,0
134.335232,631,844,2524,0,481.984000
134.817216,631,845,2524,3.264000,0
134.820480,632,846,2528,3.312000,0
134.823792,633,847,2532,3.264000,0
134.827056,634,848,2536,0,481.680000
135.308736,634,849,2536,3.392000,0
135.312128,635,850,2540,3.264000,0
135.315392,636,851,2544,3.264000,0
135.318656,637,852,2548,0,481.600000
135.800256,637,853,2548,3.264000,0
135.803520,638,854,2552,3.408000,0
135.806928,639,855,2556,3.280000,0
135.810208,640,856,2560,0,481.568000
136.291776,640,857,2560,3.200000,0
136.294976,641,858,2564,3.264000,0
136.298240,642,859,2568,3.376000,0
136.301616,643,860,2572,0,481.680000
136.783296,643,861,2572,3.264000,0
136.786560,644,862,2576,3.184000,0
136.789744,645,863,2580,3.264000,0
136.793008,646,864,2584,0,481.808000
137.274816,646,865,2584,3.216000,0
137.278032,647,866,2588,3.264000,0
137.281296,648,867,2592,3.184000,0
137.284480,649,868,2596,0,481.856000
137.766336,649,869,2596,3.264000,0
137.769600,650,870,2600,3.408000,0
137.773008,651,871,2604,3.200000,0
137.776208,652,872,2608,0,481.648000
138.257856,652,873,2608,3.168000,0
138.261024,653,874,2612,3.264000,0
138.264288,654,875,2616,3.216000,0
138.267504,655,876,2620,0,481.872000
138.749376,655,877,2620,3.264000,0
138.752640,656,878,2624,3.408000,0
138.756048,657,879,2628,3.264000,0
138.759312,658,880,2632,0,481.584000
139.240896,658,881,2632,3.392000,0
139.244288,659,882,2636,3.264000,0
139.247552,660,883,2640,3.264000,0
139.250816,661,884,2644,0,481.600000
139.732416,661,885,2644,3.264000,0
139.735680,662,886,2648,3.312000,0
139.738992,663,887,2652,3.264000,0
139.742256,664,888,2656,0,481.680000
140.223936,664,889,2656,3.232000,0
140.227168,665,890,2660,3.264000,0
140.230432,666,891,2664,3.248000,0
140.233680,667,892,2668,0,481.776000
140.715456,667,893,2668,3.264000,0
140.718720,668,894,2672,3.392000,0
140.722112,669,895,2676,3.264000,0
140.725376,670,896,2680,0,481.600000
141.206976,670,897,2680,3.216000,0
141.210192,671,898,2684,3.264000,0
141.213456,672,899,2688,3.312000,0
141.216768,673,900,2692,0,481.728000
141.698496,673,901,2692,3.264000,0
141.701760,674,902,2696,3.184000,0
141.704944,675,903,2700,3.264000,0
141.708208,676,904,2704,0,481.808000
142.190016,676,905,2704,3.360000,0
142.193376,677,906,2708,3.200000,0
142.196576,678,907,2712,3.168000,0
142.199744,679,908,2716,0,481.792000
142.681536,679,909,2716,3.200000,0
142.684736,680,910,2720,3.168000,0
142.687904,681,911,2724,3.200000,0
142.691104,682,912,2728,0,481.952000
143.173056,682,913,2728,3.200000,0
143.176256,683,914,2732,3.168000,0
143.179424,684,915,2736,3.264000,0
143.182688,685,916,2740,0,481.888000
143.664576,685,917,2740,3.312000,0
143.667888,686,918,2744,3.264000,0
143.671152,687,919,2748,3.392000,0
143.674544,688,920,2752,0,481.552000
144.156096,688,921,2752,3.264000,0
144.159360,689,922,2756,3.264000,0
144.162624,690,923,2760,3.264000,0
144.165888,691,924,2764,0,481.728000
144.647616,691,925,2764,3.408000,0
144.651024,692,926,2768,3.280000,0
144.654304,693,927,2772,3.200000,0
144.657504,694,928,2776,0,481.632000
145.139136,694,929,2776,3.264000,0
145.142400,695,930,2780,3.376000,0
145.145776,696,931,2784,3.264000,0
145.149040,697,932,2788,0,481.616000
145.630656,697,933,2788,3.184000,0
145.633840,698,934,2792,3.264000,0
145.637104,699,935,2796,3.216000,0
145.640320,700,936,2800,0,481.856000
146.122176,700,937,2800,3.264000,0
146.125440,701,938,2804,3.184000,0
146.128624,702,939,2808,3.264000,0
146.131888,703,940,2812,0,481.808000
146.613696,703,941,2812,3.408000,0
146.617104,704,942,2816,3.200000,0
146.620304,705,943,2820,3.168000,0
146.623472,706,944,2824,0,481.744000
147.105216,706,945,2824,3.264000,0
147.108480,707,946,2828,3.216000,0
147.111696,708,947,2832,3.264000,0
147.114960,709,948,2836,0,481.776000
147.596736,709,949,2836,3.408000,0
147.600144,710,950,2840,3.264000,0
147.603408,711,951,2844,3.392000,0
147.606800,712,952,2848,0,481.456000
148.088256,712,953,2848,3.264000,0
148.091520,713,954,2852,3.264000,0
148.094784,714,955,2856,3.264000,0
148.098048,715,956,2860,0,481.728000
148.579776,715,957,2860,3.312000,0
148.583088,716,958,2864,3.264000,0
148.586352,717,959,2868,3.232000,0
148.589584,718,960,2872,0,481.712000
149.071296,718,961,2872,3.264000,0
149.074560,719,962,2876,3.248000,0
149.077808,720,963,2880,3.264000,0
149.081072,721,964,2884,0,481.744000
149.562816,721,965,2884,3.392000,0
149.566208,722,966,2888,3.264000,0
149.569472,723,967,2892,3.216000,0
149.572688,724,968,2896,0,481.648000
150.054336,724,969,2896,3.264000,0
150.057600,725,970,2900,3.312000,0
150.060912,726,971,2904,3.264000,0
150.064176,727,972,2908,0,481.680000
150.545856,727,973,2908,3.184000,0
150.549040,728,974,2912,3.264000,0
150.552304,729,975,2916,3.360000,0
150.555664,730,976,2920,0,481.712000
151.037376,730,977,2920,3.200000,0
151.040576,731,978,2924,3.168000,0
151.043744,732,979,2928,3.200000,0
151.046944,733,980,2932,0,481.952000
151.528896,733,981,2932,3.168000,0
151.532064,734,982,2936,3.200000,0
151.535264,735,983,2940,3.168000,0
151.538432,736,984,2944,0,481.984000
152.020416,736,985,2944,3.264000,0
152.023680,737,986,2948,3.312000,0
152.026992,738,987,2952,3.264000,0
152.030256,739,988,2956,0,481.680000
152.511936,739,989,2956,3.392000,0
152.515328,740,990,2960,3.264000,0
152.518592,741,991,2964,3.264000,0
152.521856,742,992,2968,0,481.600000
153.003456,742,993,2968,3.264000,0
153.006720,743,994,2972,3.408000,0
153.010128,744,995,2976,3.280000,0
153.013408,745,996,2980,0,481.568000
153.494976,745,997,2980,3.200000,0
153.498176,746,998,2984,3.264000,0
153.501440,747,999,2988,3.376000,0
153.504816,748,1000,2992,0,481.680000
153.986496,748,1001,2992,3.264000,0
153.989760,749,1002,2996,3.184000,0
153.992944,750,1003,3000,3.264000,0
153.996208,751,1004,3004,0,481.808000
154.478016,751,1005,3004,3.216000,0
154.481232,752,1006,3008,3.264000,0
154.484496,753,1007,3012,3.184000,0
154.487680,754,1008,3016,0,481.856000
154.969536,754,1009,3016,3.264000,0
154.972800,755,1010,3020,3.408000,0
154.976208,756,1011,3024,3.200000,0
154.979408,757,1012,3028,0,481.648000
155.461056,757,1013,3028,3.168000,0
155.464224,758,1014,3032,3.264000,0
155.467488,759,1015,3036,3.216000,0
155.470704,760,1016,3040,0,481.872000
155.952576,760,1017,3040,3.264000,0
155.955840,761,1018,3044,3.408000,0
155.959248,762,1019,3048,3.264000,0
155.962512,763,1020,3052,0,481.584000
156.444096,763,1021,3052,3.392000,0
156.447488,764,1022,3056,3.264000,0
156.450752,765,1023,3060,3.264000,0
156.454016,766,1024,3064,0,481.600000
156.935616,766,1025,3064,3.264000,0
156.938880,767,1026,3068,3.312000,0
156.942192,768,1027,3072,3.264000,0
156.945456,769,1028,3076,0,481.680000
157.427136,769,1029,3076,3.232000,0
157.430368,770,1030,3080,3.264000,0
157.433632,771,1031,3084,3.248000,0
157.436880,772,1032,3088,0,481.776000
157.918656,772,1033,3088,3.264000,0
157.921920,773,1034,3092,3.392000,0
157.925312,774,1035,3096,3.264000,0
157.928576,775,1036,3100,0,481.600000
158.410176,775,1037,3100,3.216000,0
158.413392,776,1038,3104,3.264000,0
158.416656,777,1039,3108,3.312000,0
158.419968,778,1040,3112,0,481.728000
158.901696,778,1041,3112,3.264000,0
158.904960,779,1042,3116,3.184000,0
158.908144,780,1043,3120,3.264000,0
158.911408,781,1044,3124,0,481.808000
159.393216,781,1045,3124,3.360000,0
159.396576,782,1046,3128,3.200000,0
159.399776,783,1047,3132,3.168000,0
159.402944,784,1048,3136,0,481.792000
159.884736,784,1049,3136,3.200000,0
159.887936,785,1050,3140,3.168000,0
159.891104,786,1051,3144,3.200000,0
159.894304,787,1052,3148,0,481.952000
160.376256,787,1053,3148,3.200000,0
160.379456,788,1054,3152,3.168000,0
160.382624,789,1055,3156,3.264000,0
160.385888,790,1056,3160,0,481.888000
160.867776,790,1057,3160,3.312000,0
160.871088,791,1058,3164,3.264000,0
160.874352,792,1059,3168,3.392000,0
160.877744,793,1060,3172,0,481.552000
161.359296,793,1061,3172,3.264000,0
161.362560,794,1062,3176,3.264000,0
161.365824,795,1063,3180,3.264000,0
161.369088,796,1064,3184,0,481.728000
161.850816,796,1065,3184,3.408000,0
161.854224,797,1066,3188,3.280000,0
161.857504,798,1067,3192,3.200000,0
161.860704,799,1068,3196,0,481.632000
162.342336,799,1069,3196,3.264000,0
162.345600,800,1070,3200,3.376000,0
162.348976,801,1071,3204,3.264000,0
162.352240,802,1072,3208,0,481.616000
162.833856,802,1073,3208,3.184000,0
162.837040,803,1074,3212,3.264000,0
162.840304,804,1075,3216,3.216000,0
162.843520,805,1076,3220,0,481.856000
163.325376,805,1077,3220,3.264000,0
163.328640,806,1078,3224,3.184000,0
163.331824,807,1079,3228,3.264000,0
163.335088,808,1080,3232,0,481.808000
163.816896,808,1081,3232,3.408000,0
163.820304,809,1082,3236,3.200000,0
163.823504,810,1083,3240,3.168000,0
163.826672,811,1084,3244,0,481.744000
164.308416,811,1085,3244,3.264000,0
164.311680,812,1086,3248,3.216000,0
164.314896,813,1087,3252,3.264000,0
164.318160,814,1088,3256,0,481.776000
164.799936,814,1089,3256,3.408000,0
164.803344,815,1090,3260,3.264000,0
164.806608,816,1091,3264,3.392000,0
164.810000,817,1092,3268,0,481.456000
165.291456,817,1093,3268,3.264000,0
165.294720,818,1094,3272,3.264000,0
165.297984,819,1095,3276,3.264000,0
165.301248,820,1096,3280,0,481.728000
165.782976,820,1097,3280,3.312000,0
165.786288,821,1098,3284,3.264000,0
165.789552,822,1099,3288,3.232000,0
165.792784,823,1100,3292,0,481.712000
166.274496,823,1101,3292,3.264000,0
166.277760,824,1102,3296,3.248000,0
166.281008,825,1103,3300,3.264000,0
166.284272,826,1104,3304,0,481.744000
166.766016,826,1105,3304,3.392000,0
166.769408,827,1106,3308,3.264000,0
166.772672,828,1107,3312,3.216000,0
166.775888,829,1108,3316,0,481.648000
167.257536,829,1109,3316,3.264000,0
167.260800,830,1110,3320,3.312000,0
167.264112,831,1111,3324,3.264000,0
167.267376,832,1112,3328,0,481.680000
167.749056,832,1113,3328,3.184000,0
167.752240,833,1114,3332,3.264000,0
167.755504,834,1115,3336,3.360000,0
167.758864,835,1116,3340,0,481.712000
168.240576,835,1117,3340,3.200000,0
168.243776,836,1118,3344,3.168000,0
168.246944,837,1119,3348,3.200000,0
168.250144,838,1120,3352,0,481.952000
168.732096,838,1121,3352,3.168000,0
168.735264,839,1122,3356,3.200000,0
168.738464,840,1123,3360,3.168000,0
168.741632,841,1124,3364,0,481.984000
169.223616,841,1125,3364,3.264000,0
169.226880,842,1126,3368,3.312000,0
169.230192,843,1127,3372,3.264000,0
169.233456,844,1128,3376,0,481.680000
169.715136,844,1129,3376,3.392000,0
169.718528,845,1130,3380,3.264000,0
169.721792,846,1131,3384,3.264000,0
169.725056,847,1132,3388,0,481.600000
170.206656,847,1133,3388,3.264000,0
170.209920,848,1134,3392,3.408000,0
170.213328,849,1135,3396,3.280000,0
170.216608,850,1136,3400,0,481.568000
170.698176,850,1137,3400,3.200000,0
170.701376,851,1138,3404,3.264000,0
170.704640,852,1139,3408,3.376000,0
170.708016,853,1140,3412,0,481.680000
171.189696,853,1141,3412,3.264000,0
171.192960,854,1142,3416,3.184000,0
171.196144,855,1143,3420,3.264000,0
171.199408,856,1144,3424,0,481.808000
171.681216,856,1145,3424,3.216000,0
171.684432,857,1146,3428,3.264000,0
171.687696,858,1147,3432,3.184000,0
171.690880,859,1148,3436,0,481.856000
172.172736,859,1149,3436,3.264000,0
172.176000,860,1150,3440,3.408000,0
172.179408,861,1151,3444,3.200000,0
172.182608,862,1152,3448,0,481.648000
172.664256,862,1153,3448,3.168000,0
172.667424,863,1154,3452,3.264000,0
172.670688,864,1155,3456,3.216000,0
172.673904,865,1156,3460,0,481.872000
173.155776,865,1157,3460,3.264000,0
173.159040,866,1158,3464,3.408000,0
173.162448,867,1159,3468,3.264000,0
173.165712,868,1160,3472,0,481.584000
173.647296,868,1161,3472,3.392000,0
173.650688,869,1162,3476,3.264000,0
173.653952,870,1163,3480,3.264000,0
173.657216,871,1164,3484,0,481.600000
174.138816,871,1165,3484,3.264000,0
174.142080,872,1166,3488,3.312000,0
174.145392,873,1167,3492,3.264000,0
174.148656,874,1168,3496,0,481.680000
174.630336,874,1169,3496,3.232000,0
174.633568,875,1170,3500,3.264000,0
174.636832,876,1171,3504,3.248000,0
174.640080,877,1172,3508,0,481.776000
175.121856,877,1173,3508,3.264000,0
175.125120,878,1174,3512,3.392000,0
175.128512,879,1175,3516,3.264000,0
175.131776,880,1176,3520,0,481.600000
175.613376,880,1177,3520,3.216000,0
175.616592,881,1178,3524,3.264000,0
175.619856,882,1179,3528,3.312000,0
175.623168,883,1180,3532,0,481.728000
176.104896,883,1181,3532,3.264000,0
176.108160,884,1182,3536,3.184000,0
176.111344,885,1183,3540,3.264000,0
176.114608,886,1184,3544,0,481.808000
176.596416,886,1185,3544,3.360000,0
176.599776,887,1186,3548,3.200000,0
176.602976,888,1187,3552,3.168000,0
176.606144,889,1188,3556,0,481.792000
177.087936,889,1189,3556,3.200000,0
177.091136,890,1190,3560,3.168000,0
177.094304,891,1191,3564,3.200000,0
177.097504,892,1192,3568,0,481.952000
177.579456,892,1193,3568,3.200000,0
177.582656,893,1194,3572,3.168000,0
177.585824,894,1195,3576,3.264000,0
177.589088,895,1196,3580,0,481.888000
178.070976,895,1197,3580,3.312000,0
178.074288,896,1198,3584,3.264000,0
178.077552,897,1199,3588,3.392000,0
178.080944,898,1200,3592,0,481.552000
178.562496,898,1201,3592,3.264000,0
178.565760,899,1202,3596,3.264000,0
178.569024,900,1203,3600,3.264000,0
178.572288,901,1204,3604,0,481.728000
179.054016,901,1205,3604,3.408000,0
179.057424,902,1206,3608,3.280000,0
179.060704,903,1207,3612,3.200000,0
179.063904,904,1208,3616,0,481.632000
179.545536,904,1209,3616,3.264000,0
179.548800,905,1210,3620,3.376000,0
179.552176,906,1211,3624,3.264000,0
179.555440,907,1212,3628,0,481.616000
180.037056,907,1213,3628,3.184000,0
180.040240,908,1214,3632,3.264000,0
180.043504,909,1215,3636,3.216000,0
180.046720,910,1216,3640,0,481.856000
180.528576,910,1217,3640,3.264000,0
180.531840,911,1218,3644,3.184000,0
180.535024,912,1219,3648,3.264000,0
180.538288,913,1220,3652,0,481.808000
181.020096,913,1221,3652,3.408000,0
181.023504,914,1222,3656,3.200000,0
181.026704,915,1223,3660,3.168000,0
181.029872,916,1224,3664,0,481.744000
181.511616,916,1225,3664,3.264000,0
181.514880,917,1226,3668,3.216000,0
181.518096,918,1227,3672,3.264000,0
181.521360,919,1228,3676,0,481.776000
182.003136,919,1229,3676,3.408000,0
182.006544,920,1230,3680,3.264000,0
182.009808,921,1231,3684,3.392000,0
182.013200,922,1232,3688,0,481.456000
182.494656,922,1233,3688,3.264000,0
182.497920,923,1234,3692,3.264000,0
182.501184,924,1235,3696,3.264000,0
182.504448,925,1236,3700,0,481.728000
182.986176,925,1237,3700,3.312000,0
182.989488,926,1238,3704,3.264000,0
182.992752,927,1239,3708,3.232000,0
182.995984,928,1240,3712,0,481.712000
183.477696,928,1241,3712,3.264000,0
183.480960,929,1242,3716,3.248000,0
183.484208,930,1243,3720,3.264000,0
183.487472,931,1244,3724,0,481.744000
183.969216,931,1245,3724,3.392000,0
183.972608,932,1246,3728,3.264000,0
183.975872,933,1247,3732,3.216000,0
183.979088,934,1248,3736,0,481.648000
184.460736,934,1249,3736,3.264000,0
184.464000,935,1250,3740,3.312000,0
184.467312,936,1251,3744,3.264000,0
184.470576,937,1252,3748,0,481.680000
184.952256,937,1253,3748,3.184000,0
184.955440,938,1254,3752,3.264000,0
184.958704,939,1255,3756,3.360000,0
184.962064,940,1256,3760,0,481.712000
185.443776,940,1257,3760,3.200000,0
185.446976,941,1258,3764,3.168000,0
185.450144,942,1259,3768,3.200000,0
185.453344,943,1260,3772,0,481.952000
185.935296,943,1261,3772,3.168000,0
185.938464,944,1262,3776,3.200000,0
185.941664,945,1263,3780,3.168000,0
185.944832,946,1264,3784,0,481.984000
186.426816,946,1265,3784,3.264000,0
186.430080,947,1266,3788,3.312000,0
186.433392,948,1267,3792,3.264000,0
186.436656,949,1268,3796,0,481.680000
186.918336,949,1269,3796,3.392000,0
186.921728,950,1270,3800,3.264000,0
186.924992,951,1271,3804,3.264000,0
186.928256,952,1272,3808,0,481.600000
187.409856,952,1273,3808,3.264000,0
187.413120,953,1274,3812,3.408000,0
187.416528,954,1275,3816,3.280000,0
187.419808,955,1276,3820,0,481.568000
187.901376,955,1277,3820,3.200000,0
187.904576,956,1278,3824,3.264000,0
187.907840,957,1279,3828,3.376000,0
187.911216,958,1280,3832,0,481.680000
188.392896,958,1281,3832,3.264000,0
188.396160,959,1282,3836,3.184000,0
188.399344,960,1283,3840,3.264000,0
188.402608,961,1284,3844,0,481.808000
188.884416,961,1285,3844,3.216000,0
188.887632,962,1286,3848,3.264000,0
188.890896,963,1287,3852,3.184000,0
188.894080,964,1288,3856,0,481.856000
189.375936,964,1289,3856,3.264000,0
189.379200,965,1290,3860,3.408000,0
189.382608,966,1291,3864,3.200000,0
189.385808,967,1292,3868,0,481.648000
189.867456,967,1293,3868,3.168000,0
189.870624,968,1294,3872,3.264000,0
189.873888,969,1295,3876,3.216000,0
189.877104,970,1296,3880,0,481.872000
190.358976,970,1297,3880,3.264000,0
190.362240,971,1298,3884,3.408000,0
190.365648,972,1299,3888,3.264000,0
190.368912,973,1300,3892,0,481.584000
190.850496,973,1301,3892,3.392000,0
190.853888,974,1302,3896,3.264000,0
190.857152,975,1303,3900,3.264000,0
190.860416,976,1304,3904,0,481.600000
191.342016,976,1305,3904,3.264000,0
191.345280,977,1306,3908,3.312000,0
191.348592,978,1307,3912,3.264000,0
191.351856,979,1308,3916,0,481.680000
191.833536,979,1309,3916,3.232000,0
191.836768,980,1310,3920,3.264000,0
191.840032,981,1311,3924,3.248000,0
191.843280,982,1312,3928,0,481.776000
192.325056,982,1313,3928,3.264000,0
192.328320,983,1314,3932,3.392000,0
192.331712,984,1315,3936,3.264000,0
192.334976,985,1316,3940,0,481.600000
192.816576,985,1317,3940,3.216000,0
192.819792,986,1318,3944,3.264000,0
192.823056,987,1319,3948,3.312000,0
192.826368,988,1320,3952,0,481.728000
193.308096,988,1321,3952,3.264000,0
193.311360,989,1322,3956,3.184000,0
193.314544,990,1323,3960,3.264000,0
193.317808,991,1324,3964,0,481.808000
193.799616,991,1325,3964,3.360000,0
193.802976,992,1326,3968,3.200000,0
193.806176,993,1327,3972,3.168000,0
193.809344,994,1328,3976,0,481.792000
194.291136,994,1329,3976,3.200000,0
194.294336,995,1330,3980,3.168000,0
194.297504,996,1331,3984,3.200000,0
194.300704,997,1332,3988,0,481.952000
194.782656,997,1333,3988,3.200000,0
194.785856,998,1334,3992,3.168000,0
194.789024,999,1335,3996,3.264000,0
194.792288,1000,1336,4000,0,481.888000
195.274176,1000,1337,4000,3.312000,0
195.277488,1001,1338,4004,3.264000,0
195.280752,1002,1339,4008,3.392000,0
195.284144,1003,1340,4012,0,481.552000
195.765696,1003,1341,4012,3.264000,0
195.768960,1004,1342,4016,3.264000,0
195.772224,1005,1343,4020,3.264000,0
195.775488,1006,1344,4024,0,481.728000
196.257216,1006,1345,4024,3.408000,0
196.260624,1007,1346,4028,3.280000,0
196.263904,1008,1347,4032,3.200000,0
196.267104,1009,1348,4036,0,481.632000
196.748736,1009,1349,4036,3.264000,0
196.752000,1010,1350,4040,3.376000,0
196.755376,1011,1351,4044,3.264000,0
196.758640,1012,1352,4048,0,481.616000
197.240256,1012,1353,4048,3.184000,0
197.243440,1013,1354,4052,3.264000,0
197.246704,1014,1355,4056,3.216000,0
197.249920,1015,1356,4060,0,481.856000
197.731776,1015,1357,4060,3.264000,0
197.735040,1016,1358,4064,3.184000,0
197.738224,1017,1359,4068,3.264000,0
197.741488,1018,1360,4072,0,481.808000
198.223296,1018,1361,4072,3.408000,0
198.226704,1019,1362,4076,3.200000,0
198.229904,1020,1363,4080,3.168000,0
198.233072,1021,1364,4084,0,481.744000
198.714816,1021,1365,4084,3.264000,0
198.718080,1022,1366,4088,3.216000,0
198.721296,1023,1367,4092,3.264000,0
198.724560,1024,1368,4096,0,481.776000
199.206336,1024,1369,4096,3.408000,0
199.209744,1025,1370,4100,3.264000,0
199.213008,1026,1371,4104,3.392000,0
199.216400,1027,1372,4108,0,481.456000
199.697856,1027,1373,4108,3.264000,0
199.701120,1028,1374,4112,3.264000,0
199.704384,1029,1375,4116,3.264000,0
199.707648,1030,1376,4120,0,481.728000
200.189376,1030,1377,4120,3.312000,0
200.192688,1031,1378,4124,3.264000,0
200.195952,1032,1379,4128,3.232000,0
200.199184,1033,1380,4132,0,481.712000
200.680896,1033,1381,4132,3.264000,0
200.684160,1034,1382,4136,3.248000,0
200.687408,1035,1383,4140,3.264000,0
200.690672,1036,1384,4144,0,481.744000
201.172416,1036,1385,4144,3.392000,0
201.175808,1037,1386,4148,3.264000,0
201.179072,1038,1387,4152,3.216000,0
201.182288,1039,1388,4156,0,481.648000
201.663936,1039,1389,4156,3.264000,0
201.667200,1040,1390,4160,3.312000,0
201.670512,1041,1391,4164,3.264000,0
201.673776,1042,1392,4168,0,481.680000
202.155456,1042,1393,4168,3.184000,0
202.158640,1043,1394,4172,3.264000,0
202.161904,1044,1395,4176,3.360000,0
202.165264,1045,1396,4180,0,481.712000
202.646976,1045,1397,4180,3.200000,0
202.650176,1046,1398,4184,3.168000,0
202.653344,1047,1399,4188,3.200000,0
202.656544,1048,1400,4192,0,481.952000
203.138496,1048,1401,4192,3.168000,0
203.141664,1049,1402,4196,3.200000,0
203.144864,1050,1403,4200,3.168000,0
203.148032,1051,1404,4204,0,481.984000
203.630016,1051,1405,4204,3.264000,0
203.633280,1052,1406,4208,3.312000,0
203.636592,1053,1407,4212,3.264000,0
203.639856,1054,1408,4216,0,481.680000
204.121536,1054,1409,4216,3.392000,0
204.124928,1055,1410,4220,3.264000,0
204.128192,1056,1411,4224,3.264000,0
204.131456,1057,1412,4228,0,481.600000
204.613056,1057,1413,4228,3.264000,0
204.616320,1058,1414,4232,3.408000,0
204.619728,1059,1415,4236,3.280000,0
204.623008,1060,1416,4240,0,481.568000
205.104576,1060,1417,4240,3.200000,0
205.107776,1061,1418,4244,3.264000,0
205.111040,1062,1419,4248,3.376000,0
205.114416,1063,1420,4252,0,481.680000
205.596096,1063,1421,4252,3.264000,0
205.599360,1064,1422,4256,3.184000,0
205.602544,1065,1423,4260,3.264000,0
205.605808,1066,1424,4264,0,481.808000
206.087616,1066,1425,4264,3.216000,0
206.090832,1067,1426,4268,3.264000,0
206.094096,1068,1427,4272,3.184000,0
206.097280,1069,1428,4276,0,481.856000
206.579136,1069,1429,4276,3.264000,0
206.582400,1070,1430,4280,3.408000,0
206.585808,1071,1431,4284,3.200000,0
206.589008,1072,1432,4288,0,481.648000
207.070656,1072,1433,4288,3.168000,0
207.073824,1073,1434,4292,3.264000,0
207.077088,1074,1435,4296,3.216000,0
207.080304,1075,1436,4300,0,481.872000
207.562176,1075,1437,4300,3.264000,0
207.565440,1076,1438,4304,3.408000,0
207.568848,1077,1439,4308,3.264000,0
207.572112,1078,1440,4312,0,481.584000
208.053696,1078,1441,4312,3.392000,0
208.057088,1079,1442,4316,3.264000,0
208.060352,1080,1443,4320,3.264000,0
208.063616,1081,1444,4324,0,481.600000
208.545216,1081,1445,4324,3.264000,0
208.548480,1082,1446,4328,3.312000,0
208.551792,1083,1447,4332,3.264000,0
208.555056,1084,1448,4336,0,481.680000
209.036736,1084,1449,4336,3.232000,0
209.039968,1085,1450,4340,3.264000,0
209.043232,1086,1451,4344,3.248000,0
209.046480,1087,1452,4348,0,481.776000
209.528256,1087,1453,4348,3.264000,0
209.531520,1088,1454,4352,3.392000,0
209.534912,1089,1455,4356,3.264000,0
209.538176,1090,1456,4360,0,481.600000
210.019776,1090,1457,4360,3.216000,0
210.022992,1091,1458,4364,3.264000,0
210.026256,1092,1459,4368,3.312000,0
210.029568,1093,1460,4372,0,481.728000
210.511296,1093,1461,4372,3.264000,0
210.514560,1094,1462,4376,3.184000,0
210.517744,1095,1463,4380,3.264000,0
210.521008,1096,1464,4384,0,481.808000
211.002816,1096,1465,4384,3.360000,0
211.006176,1097,1466,4388,3.200000,0
211.009376,1098,1467,4392,3.168000,0
211.012544,1099,1468,4396,0,481.792000
211.494336,1099,1469,4396,3.200000,0
211.497536,1100,1470,4400,3.168000,0
211.500704,1101,1471,4404,3.200000,0
211.503904,1102,1472,4408,0,481.952000
211.985856,1102,1473,4408,3.200000,0
211.989056,1103,1474,4412,3.168000,0
211.992224,1104,1475,4416,3.264000,0
211.995488,1105,1476,4420,0,481.888000
212.477376,1105,1477,4420,3.312000,0
212.480688,1106,1478,4424,3.264000,0
212.483952,1107,1479,4428,3.392000,0
212.487344,1108,1480,4432,0,481.552000
212.968896,1108,1481,4432,3.264000,0
212.972160,1109,1482,4436,3.264000,0
212.975424,1110,1483,4440,3.264000,0
212.978688,1111,1484,4444,0,481.728000
213.460416,1111,1485,4444,3.408000,0
213.463824,1112,1486,4448,3.280000,0
213.467104,1113,1487,4452,3.200000,0
213.470304,1114,1488,4456,0,481.632000
213.951936,1114,1489,4456,3.264000,0
213.955200,1115,1490,4460,3.376000,0
213.958576,1116,1491,4464,3.264000,0
213.961840,1117,1492,4468,0,481.616000
214.443456,1117,1493,4468,3.184000,0
214.446640,1118,1494,4472,3.264000,0
214.449904,1119,1495,4476,3.216000,0
214.453120,1120,1496,4480,0,481.856000
214.934976,1120,1497,4480,3.264000,0
214.938240,1121,1498,4484,3.184000,0
214.941424,1122,1499,4488,3.264000,0
214.944688,1123,1500,4492,0,481.808000
215.426496,1123,1501,4492,3.408000,0
215.429904,1124,1502,4496,3.200000,0
215.433104,1125,1503,4500,3.168000,0
215.436272,1126,1504,4504,0,481.744000
215.918016,1126,1505,4504,3.264000,0
215.921280,1127,1506,4508,3.216000,0
215.924496,1128,1507,4512,3.264000,0
215.927760,1129,1508,4516,0,481.776000
216.409536,1129,1509,4516,3.408000,0
216.412944,1130,1510,4520,3.264000,0
216.416208,1131,1511,4524,3.392000,0
216.419600,1132,1512,4528,0,481.456000
216.901056,1132,1513,4528,3.264000,0
216.904320,1133,1514,4532,3.264000,0
216.907584,1134,1515,4536,3.264000,0
216.910848,1135,1516,4540,0,481.728000
217.392576,1135,1517,4540,3.312000,0
217.395888,1136,1518,4544,3.264000,0
217.399152,1137,1519,4548,3.232000,0
217.402384,1138,1520,4552,0,481.712000
217.884096,1138,1521,4552,3.264000,0
217.887360,1139,1522,4556,3.248000,0
217.890608,1140,1523,4560,3.264000,0
217.893872,1141,1524,4564,0,481.744000
218.375616,1141,1525,4564,3.392000,0
218.379008,1142,1526,4568,3.264000,0
218.382272,1143,1527,4572,3.216000,0
218.385488,1144,1528,4576,0,481.648000
218.867136,1144,1529,4576,3.264000,0
218.870400,1145,1530,4580,3.312000,0
218.873712,1146,1531,4584,3.264000,0
218.876976,1147,1532,4588,0,481.680000
219.358656,1147,1533,4588,3.184000,0
219.361840,1148,1534,4592,3.264000,0
219.365104,1149,1535,4596,3.360000,0
219.368464,1150,1536,4600,0,481.712000
219.850176,1150,1537,4600,3.200000,0
219.853376,1151,1538,4604,3.168000,0
219.856544,1152,1539,4608,3.200000,0
219.859744,1153,1540,4612,0,481.952000
220.341696,1153,1541,4612,3.168000,0
220.344864,1154,1542,4616,3.200000,0
220.348064,1155,1543,4620,3.168000,0
220.351232,1156,1544,4624,0,481.984000
220.833216,1156,1545,4624,3.264000,0
220.836480,1157,1546,4628,3.312000,0
220.839792,1158,1547,4632,3.264000,0
220.843056,1159,1548,4636,0,481.680000
221.324736,1159,1549,4636,3.392000,0
221.328128,1160,1550,4640,3.264000,0
221.331392,1161,1551,4644,3.264000,0
221.334656,1162,1552,4648,0,481.600000
221.816256,1162,1553,4648,3.264000,0
221.819520,1163,1554,4652,3.408000,0
221.822928,1164,1555,4656,3.280000,0
221.826208,1165,1556,4660,0,481.568000
222.307776,1165,1557,4660,3.200000,0
222.310976,1166,1558,4664,3.264000,0
222.314240,1167,1559,4668,3.376000,0
222.317616,1168,1560,4672,0,481.680000
222.799296,1168,1561,4672,3.264000,0
222.802560,1169,1562,4676,3.184000,0
222.805744,1170,1563,4680,3.264000,0
222.809008,1171,1564,4684,0,481.808000
223.290816,1171,1565,4684,3.216000,0
223.294032,1172,1566,4688,3.264000,0
223.297296,1173,1567,4692,3.184000,0
223.300480,1174,1568,4696,0,481.856000
223.782336,1174,1569,4696,3.264000,0
223.785600,1175,1570,4700,3.408000,0
223.789008,1176,1571,4704,3.200000,0
223.792208,1177,1572,4708,0,481.648000
224.273856,1177,1573,4708,3.168000,0
224.277024,1178,1574,4712,3.264000,0
224.280288,1179,1575,4716,3.216000,0
224.283504,1180,1576,4720,0,481.872000
224.765376,1180,1577,4720,3.264000,0
224.768640,1181,1578,4724,3.408000,0
224.772048,1182,1579,4728,3.264000,0
224.775312,1183,1580,4732,0,481.584000
225.256896,1183,1581,4732,3.392000,0
225.260288,1184,1582,4736,3.264000,0
225.263552,1185,1583,4740,3.264000,0
225.266816,1186,1584,4744,0,481.600000
225.748416,1186,1585,4744,3.264000,0
225.751680,1187,1586,4748,3.312000,0
225.754992,1188,1587,4752,3.264000,0
225.758256,1189,1588,4756,0,481.680000
226.239936,1189,1589,4756,3.232000,0
226.243168,1190,1590,4760,3.264000,0
226.246432,1191,1591,4764,3.248000,0
226.249680,1192,1592,4768,0,481.776000
226.731456,1192,1593,4768,3.264000,0
226.734720,1193,1594,4772,3.392000,0
226.738112,1194,1595,4776,3.264000,0
226.741376,1195,1596,4780,0,481.600000
227.222976,1195,1597,4780,3.216000,0
227.226192,1196,1598,4784,3.264000,0
227.229456,1197,1599,4788,3.312000,0
227.232768,1198,1600,4792,0,481.728000
227.714496,1198,1601,4792,3.264000,0
227.717760,1199,1602,4796,3.184000,0
227.720944,1200,1603,4800,3.264000,0
227.724208,1201,1604,4804,0,481.808000
228.206016,1201,1605,4804,3.360000,0
228.209376,1202,1606,4808,3.200000,0
228.212576,1203,1607,4812,3.168000,0
228.215744,1204,1608,4816,0,481.792000
228.697536,1204,1609,4816,3.200000,0
228.700736,1205,1610,4820,3.168000,0
228.703904,1206,1611,4824,3.200000,0
228.707104,1207,1612,4828,0,481.952000
229.189056,1207,1613,4828,3.200000,0
229.192256,1208,1614,4832,3.168000,0
229.195424,1209,1615,4836,3.264000,0
229.198688,1210,1616,4840,0,481.888000
229.680576,1210,1617,4840,3.312000,0
229.683888,1211,1618,4844,3.264000,0
229.687152,1212,1619,4848,3.392000,0
229.690544,1213,1620,4852,0,481.552000
230.172096,1213,1621,4852,3.264000,0
230.175360,1214,1622,4856,3.264000,0
230.178624,1215,1623,4860,3.264000,0
230.181888,1216,1624,4864,0,481.728000
230.663616,1216,1625,4864,3.408000,0
230.667024,1217,1626,4868,3.280000,0
230.670304,1218,1627,4872,3.200000,0
230.673504,1219,1628,4876,0,481.632000
